﻿<?xml version="1.0"?>
<!-- Generator: Adobe Illustrator 10.0, SVG Export Plug-In . SVG Version: 3.0.0 Build 77)  -->
<!DOCTYPE svg PUBLIC "-//W3C//DTD SVG 1.0//EN" "http://www.w3.org/TR/2001/REC-SVG-20010904/DTD/svg10.dtd"[
<!ENTITY ns_flows "http://ns.adobe.com/Flows/1.0/">
<!ENTITY ns_svg "http://www.w3.org/2000/svg">
<!ENTITY ns_xlink "http://www.w3.org/1999/xlink">
<!ENTITY st0 "font-size:6.6349px;">
<!ENTITY st1 "fill:none;stroke:#000000;stroke-width:1.1331;stroke-linecap:round;stroke-linejoin:round;">
<!ENTITY st2 "fill:none;stroke:#000000;stroke-width:0.8499;stroke-linecap:round;stroke-linejoin:round;">
<!ENTITY st3 "font-family:'Arial';">
<!ATTLIST svg
xmlns:ewd CDATA #FIXED "http://shcl.co.jp/ewd"
xmlns:a CDATA #FIXED "http://ns.adobe.com/AdobeSVGViewerExtensions/3.0/"
ewd:ver CDATA #IMPLIED
>
<!ATTLIST g
xmlns:ewd CDATA #FIXED "http://shcl.co.jp/ewd"
ewd:pinNo CDATA #IMPLIED >
]>
<svg xmlns="&ns_svg;" xmlns:xlink="&ns_xlink;" ewd:ver="L2.3" xmlns:a="http://ns.adobe.com/AdobeSVGViewerExtensions/3.0/" width="108.783" height="94.618" viewBox="0 0 108.783 94.618" style="overflow:visible;enable-background:new 0 0 108.783 94.618" xml:space="preserve"  onload="call_execInitLoadProc_svg(&apos;connector&apos;)">
<script type="text/javascript" xlink:href="../../../../../system/js/ewd/fig/svgfig.js" />
<g id="レイヤー_1">
<g>
<path style="&st1;" d="M94.466,0.65c-0.29-0.058-0.54-0.083-0.836-0.083" />
<path style="&st1;" d="M15.154,0.567c-0.296,0-0.546,0.025-0.835,0.083" />
<path style="&st1;" d="M81.304,0.567c-1.564,0-2.833,1.268-2.833,2.833" />
<path style="&st1;" d="M108.216,5.723c0-1.368-0.936-2.51-2.278-2.778" />
<path style="&st1;" d="M2.845,2.944c-1.342,0.268-2.279,1.41-2.279,2.779" />
<path style="&st1;" d="M30.313,3.4c0-1.564-1.269-2.833-2.833-2.833" />
<path style="&st1;" d="M104.942,89.156c1.947-0.459,3.274-2.135,3.274-4.136" />
<path style="&st2;" d="M15.013,0.567c-0.197,0-0.363,0.016-0.555,0.055" />
<path style="&st1;" d="M0.568,85.021c0,2.001,1.327,3.677,3.275,4.136" />
<path style="&st2;" d="M94.052,51.559v28.329" />
<path style="&st2;" d="M4.817,51.559h99.15" />
<path style="&st2;" d="M54.392,65.723V37.394" />
<path style="&st2;" d="M44.477,79.887V37.394" />
<path style="&st2;" d="M34.562,79.887V51.559" />
<path style="&st2;" d="M14.732,79.887V51.559" />
<path style="&st2;" d="M20.398,0.567V23.23" />
<path style="&st2;" d="M0.568,23.23h1.416v-7.082" />
<path style="&st2;" d="M35.979,7.649h36.827" />
<path style="&st1;" d="M35.979,4.817l12.748-2.833h11.332l12.748,2.833" />
<path style="&st1;" d="M35.979,4.817v11.332" />
<path style="&st2;" d="M48.727,16.148v-5.666h11.332v5.666" />
<path style="&st2;" d="M6.233,17.565v5.666h24.08" />
<path style="&st1;" d="M30.313,23.23h8.499" />
<path style="&st1;" d="M78.472,23.23h-8.499" />
<path style="&st2;" d="M64.307,16.148v-3.683h5.666v3.683" />
<path style="&st2;" d="M44.477,14.307h4.25" />
<path style="&st1;" d="M93.63,0.567H81.304" />
<path style="&st1;" d="M78.472,23.23V3.4" />
<path style="&st2;" d="M108.216,17.565l-1.416-1.417h-2.833l-1.417,1.417" />
<path style="&st1;" d="M105.939,2.944L94.466,0.65" />
<path style="&st2;" d="M88.387,0.567V23.23" />
<path style="&st2;" d="M106.8,16.148v7.082h1.416" />
<path style="&st2;" d="M38.812,16.148h31.161" />
<path style="&st1;" d="M72.806,16.148h-2.833v7.082" />
<path style="&st2;" d="M38.812,16.148v-3.683h5.666v3.683" />
<path style="&st1;" d="M35.979,16.148h2.833v7.082" />
<path style="&st1;" d="M72.806,4.817v11.332" />
<path style="&st2;" d="M102.551,17.565v5.666H78.472" />
<path style="&st2;" d="M102.551,23.23h1.417v-7.082" />
<path style="&st1;" d="M2.845,2.944L14.318,0.65" />
<path style="&st2;" d="M0.568,17.565l1.416-1.417h2.833l1.416,1.417" />
<path style="&st1;" d="M24.647,94.052h59.49" />
<path style="&st2;" d="M60.058,14.307h4.249" />
<path style="&st1;" d="M84.137,94.052l20.805-4.895" />
<path style="&st1;" d="M3.843,89.156l20.804,4.895" />
<path style="&st2;" d="M4.817,16.148v7.082h1.416" />
<path style="&st2;" d="M0.568,78.471l4.249,4.25" />
<path style="&st2;" d="M103.967,82.72l4.249-4.25" />
<path style="&st1;" d="M30.313,23.23V3.4" />
<path style="&st1;" d="M0.568,5.723v79.298" />
<path style="&st1;" d="M108.216,5.723v79.298" />
<path style="&st1;" d="M15.154,0.567H27.48" />
<path style="&st2;" d="M74.222,79.887V51.559" />
<path style="&st2;" d="M64.307,79.887V37.394" />
<path style="&st2;" d="M4.817,51.559v28.329" />
<path style="&st2;" d="M24.647,79.887V51.559" />
<path style="&st2;" d="M4.817,65.723h99.15" />
<path style="&st2;" d="M84.137,51.559v28.329" />
<path style="&st2;" d="M64.307,79.887h39.66V51.559" />
<path style="&st2;" d="M44.477,37.394h19.83" />
<path style="&st2;" d="M4.817,82.72h99.15" />
<path style="&st2;" d="M4.817,79.887h39.66" />
<path style="&st2;" d="M7.65,26.063v21.246h33.995V26.063H7.65" />
<path style="&st2;" d="M24.647,47.309V26.063" />
<path style="&st2;" d="M101.134,26.063v21.246H67.14V26.063H101.134" />
<path style="&st2;" d="M84.137,47.309V26.063" />
<path style="&st2;" d="M47.31,68.556V82.72" />
<path style="&st2;" d="M61.474,68.556V82.72" />
<path style="&st2;" d="M47.31,73.513h14.164" />
<path style="&st2;" d="M4.817,82.72v5.666h40.51l1.983-1.983V82.72" />
<path style="&st2;" d="M103.967,82.72v5.666h-40.51l-1.983-1.983V82.72" />
<path style="&st2;" d="M47.31,68.556h14.164" />
<g ewd:pinNo="18">
<text transform="matrix(0.88 0 0 1 16.3584 74.7747)"><tspan x="0" y="0" style="&st3; &st0;">1</tspan></text>
<text transform="matrix(0.88 0 0 1 19.7163 74.7747)"><tspan x="0" y="0" style="&st3; &st0;">8</tspan></text>
</g>
<g ewd:pinNo="24">
<text transform="matrix(0.88 0 0 1 95.6782 74.7747)"><tspan x="0" y="0" style="&st3; &st0;">2</tspan></text>
<text transform="matrix(0.88 0 0 1 99.0361 74.7747)"><tspan x="0" y="0" style="&st3; &st0;">4</tspan></text>
</g>
<g ewd:pinNo="17">
<text transform="matrix(0.88 0 0 1 6.4431 74.7747)"><tspan x="0" y="0" style="&st3; &st0;">1</tspan></text>
<text transform="matrix(0.88 0 0 1 9.8013 74.7747)"><tspan x="0" y="0" style="&st3; &st0;">7</tspan></text>
</g>
<g ewd:pinNo="8">
<text transform="matrix(0.88 0 0 1 18.0239 60.6101)"><tspan x="0" y="0" style="&st3; &st0;">8</tspan></text>
</g>
<g ewd:pinNo="7">
<text transform="matrix(0.88 0 0 1 8.1089 60.6101)"><tspan x="0" y="0" style="&st3; &st0;">7</tspan></text>
</g>
<g ewd:pinNo="9">
<text transform="matrix(0.88 0 0 1 27.939 60.6101)"><tspan x="0" y="0" style="&st3; &st0;">9</tspan></text>
</g>
<g ewd:pinNo="10">
<text transform="matrix(0.88 0 0 1 36.188 60.6101)"><tspan x="0" y="0" style="&st3; &st0;">1</tspan></text>
<text transform="matrix(0.88 0 0 1 39.5464 60.6101)"><tspan x="0" y="0" style="&st3; &st0;">0</tspan></text>
</g>
<g ewd:pinNo="23">
<text transform="matrix(0.88 0 0 1 85.7632 74.7747)"><tspan x="0" y="0" style="&st3; &st0;">2</tspan></text>
<text transform="matrix(0.88 0 0 1 89.1211 74.7747)"><tspan x="0" y="0" style="&st3; &st0;">3</tspan></text>
</g>
<g ewd:pinNo="4">
<text transform="matrix(0.88 0 0 1 57.6841 46.446)"><tspan x="0" y="0" style="&st3; &st0;">4</tspan></text>
</g>
<g ewd:pinNo="11">
<text transform="matrix(0.88 0 0 1 46.103 60.6101)"><tspan x="0" y="0" style="&st3; &st0;">1</tspan></text>
<text transform="matrix(0.88 0 0 1 49.4614 60.6101)"><tspan x="0" y="0" style="&st3; &st0;">1</tspan></text>
</g>
<g ewd:pinNo="12">
<text transform="matrix(0.88 0 0 1 56.0181 60.6101)"><tspan x="0" y="0" style="&st3; &st0;">1</tspan></text>
<text transform="matrix(0.88 0 0 1 59.3765 60.6101)"><tspan x="0" y="0" style="&st3; &st0;">2</tspan></text>
</g>
<g ewd:pinNo="15">
<text transform="matrix(0.88 0 0 1 85.7632 60.6101)"><tspan x="0" y="0" style="&st3; &st0;">1</tspan></text>
<text transform="matrix(0.88 0 0 1 89.1211 60.6101)"><tspan x="0" y="0" style="&st3; &st0;">5</tspan></text>
</g>
<g ewd:pinNo="3">
<text transform="matrix(0.88 0 0 1 47.769 46.446)"><tspan x="0" y="0" style="&st3; &st0;">3</tspan></text>
</g>
<g ewd:pinNo="16">
<text transform="matrix(0.88 0 0 1 95.6782 60.6101)"><tspan x="0" y="0" style="&st3; &st0;">1</tspan></text>
<text transform="matrix(0.88 0 0 1 99.0361 60.6101)"><tspan x="0" y="0" style="&st3; &st0;">6</tspan></text>
</g>
<g ewd:pinNo="13">
<text transform="matrix(0.88 0 0 1 65.9331 60.6101)"><tspan x="0" y="0" style="&st3; &st0;">1</tspan></text>
<text transform="matrix(0.88 0 0 1 69.2915 60.6101)"><tspan x="0" y="0" style="&st3; &st0;">3</tspan></text>
</g>
<g ewd:pinNo="14">
<text transform="matrix(0.88 0 0 1 75.8481 60.6101)"><tspan x="0" y="0" style="&st3; &st0;">1</tspan></text>
<text transform="matrix(0.88 0 0 1 79.2061 60.6101)"><tspan x="0" y="0" style="&st3; &st0;">4</tspan></text>
</g>
<g ewd:pinNo="19">
<text transform="matrix(0.88 0 0 1 26.2734 74.7747)"><tspan x="0" y="0" style="&st3; &st0;">1</tspan></text>
<text transform="matrix(0.88 0 0 1 29.6313 74.7747)"><tspan x="0" y="0" style="&st3; &st0;">9</tspan></text>
</g>
<g ewd:pinNo="20">
<text transform="matrix(0.88 0 0 1 36.188 74.7747)"><tspan x="0" y="0" style="&st3; &st0;">2</tspan></text>
<text transform="matrix(0.88 0 0 1 39.5464 74.7747)"><tspan x="0" y="0" style="&st3; &st0;">0</tspan></text>
</g>
<g ewd:pinNo="22">
<text transform="matrix(0.88 0 0 1 75.8481 74.7747)"><tspan x="0" y="0" style="&st3; &st0;">2</tspan></text>
<text transform="matrix(0.88 0 0 1 79.2061 74.7747)"><tspan x="0" y="0" style="&st3; &st0;">2</tspan></text>
</g>
<g ewd:pinNo="21">
<text transform="matrix(0.88 0 0 1 65.9331 74.7747)"><tspan x="0" y="0" style="&st3; &st0;">2</tspan></text>
<text transform="matrix(0.88 0 0 1 69.2915 74.7747)"><tspan x="0" y="0" style="&st3; &st0;">1</tspan></text>
</g>
<g ewd:pinNo="1">
<text transform="matrix(0.88 0 0 1 14.4829 38.6555)"><tspan x="0" y="0" style="&st3; &st0;">1</tspan></text>
</g>
<g ewd:pinNo="2">
<text transform="matrix(0.88 0 0 1 31.48 38.6555)"><tspan x="0" y="0" style="&st3; &st0;">2</tspan></text>
</g>
<g ewd:pinNo="5">
<text transform="matrix(0.88 0 0 1 73.9727 38.6555)"><tspan x="0" y="0" style="&st3; &st0;">5</tspan></text>
</g>
<g ewd:pinNo="6">
<text transform="matrix(0.88 0 0 1 90.9702 38.6555)"><tspan x="0" y="0" style="&st3; &st0;">6</tspan></text>
</g>
</g>
</g>
</svg>
