﻿<?xml version="1.0"?>
<!-- Generator: Adobe Illustrator 10.0, SVG Export Plug-In . SVG Version: 3.0.0 Build 77)  -->
<!DOCTYPE svg PUBLIC "-//W3C//DTD SVG 1.0//EN" "http://www.w3.org/TR/2001/REC-SVG-20010904/DTD/svg10.dtd"[
<!ENTITY ns_flows "http://ns.adobe.com/Flows/1.0/">
<!ENTITY ns_svg "http://www.w3.org/2000/svg">
<!ENTITY ns_xlink "http://www.w3.org/1999/xlink">
<!ENTITY st0 "font-size:6.6349px;">
<!ENTITY st1 "fill:none;stroke:#000000;stroke-width:1.1331;stroke-linecap:round;stroke-linejoin:round;">
<!ENTITY st2 "fill:none;stroke:#000000;stroke-width:0.8499;stroke-linecap:round;stroke-linejoin:round;">
<!ENTITY st3 "font-family:'Arial';">
<!ATTLIST svg
xmlns:ewd CDATA #FIXED "http://shcl.co.jp/ewd"
xmlns:a CDATA #FIXED "http://ns.adobe.com/AdobeSVGViewerExtensions/3.0/"
ewd:ver CDATA #IMPLIED
>
<!ATTLIST g
xmlns:ewd CDATA #FIXED "http://shcl.co.jp/ewd"
ewd:pinNo CDATA #IMPLIED >
]>
<svg xmlns="&ns_svg;" xmlns:xlink="&ns_xlink;" ewd:ver="L2.3" xmlns:a="http://ns.adobe.com/AdobeSVGViewerExtensions/3.0/" width="105.099" height="57.365" viewBox="0 0 105.099 57.365" style="overflow:visible;enable-background:new 0 0 105.099 57.365" xml:space="preserve"  onload="call_execInitLoadProc_svg(&apos;connector&apos;)">
<script type="text/javascript" xlink:href="../../../../../system/js/ewd/fig/svgfig.js" />
<g id="レイヤー_1">
<g>
<path style="&st2;" d="M22.804,16.855h69.264" />
<path style="&st1;" d="M1.983,6.232h28.178" />
<path style="&st2;" d="M3.399,53.258h98.3" />
<path style="&st2;" d="M37.527,1.983h31.161" />
<path style="&st1;" d="M37.527,0.567h31.161" />
<path style="&st2;" d="M3.399,49.717v2.833" />
<path style="&st2;" d="M22.804,15.439V47.45" />
<path style="&st2;" d="M40.36,16.855V5.524" />
<path style="&st2;" d="M65.856,5.524v11.331" />
<path style="&st1;" d="M71.521,3.399v6.374" />
<path style="&st1;" d="M34.694,3.399v6.374" />
<path style="&st2;" d="M48.105,11.19h9.96" />
<path style="&st2;" d="M92.068,47.45V15.439" />
<path style="&st2;" d="M78.603,15.439V7.932" />
<path style="&st2;" d="M21.388,47.45v4.391" />
<path style="&st2;" d="M24.221,47.45v4.391" />
<path style="&st2;" d="M32.719,49.717v3.541" />
<path style="&st2;" d="M38.385,49.717v3.541" />
<path style="&st2;" d="M73.655,49.717v3.541" />
<path style="&st2;" d="M67.989,49.717v3.541" />
<path style="&st2;" d="M92.068,32.578H22.804" />
<path style="&st2;" d="M2.55,28.187h20.255" />
<path style="&st2;" d="M92.068,28.187h10.481" />
<path style="&st2;" d="M27.612,15.439V7.932" />
<path style="&st1;" d="M76.054,6.232h27.062" />
<path style="&st2;" d="M22.804,31.162H3.116" />
<path style="&st2;" d="M101.983,31.162h-9.915" />
<path style="&st1;" d="M0.567,49.717V7.649" />
<path style="&st2;" d="M21.388,49.717H2.55" />
<path style="&st2;" d="M2.55,30.453V14.589" />
<path style="&st1;" d="M3.399,52.55v2.119" />
<path style="&st2;" d="M102.555,49.717H82.861" />
<path style="&st2;" d="M101.699,49.717v2.833" />
<path style="&st1;" d="M104.532,49.717V7.649" />
<path style="&st2;" d="M102.55,30.453V14.589" />
<path style="&st1;" d="M101.699,52.55v2.119" />
<path style="&st2;" d="M2.55,15.439h29.312" />
<path style="&st2;" d="M22.804,44.051H2.55" />
<path style="&st2;" d="M92.068,44.051h10.481" />
<path style="&st2;" d="M102.55,15.439H74.354" />
<path style="&st2;" d="M3.966,13.173h23.646" />
<path style="&st2;" d="M99.15,49.717V47.45" />
<path style="&st2;" d="M80.028,49.717H24.221" />
<path style="&st2;" d="M78.603,13.173h22.53" />
<path style="&st2;" d="M82.861,51.841V47.45" />
<path style="&st2;" d="M80.028,51.841V47.45" />
<path style="&st2;" d="M12.677,44.051V31.162" />
<path style="&st2;" d="M12.677,28.187V15.439" />
<path style="&st2;" d="M31.462,16.855V47.45" />
<path style="&st2;" d="M40.119,16.855V47.45" />
<path style="&st2;" d="M48.779,16.855V47.45" />
<path style="&st2;" d="M57.436,16.855V47.45" />
<path style="&st2;" d="M74.754,16.855V47.45" />
<path style="&st2;" d="M66.094,16.855V47.45" />
<path style="&st2;" d="M83.411,16.855V47.45" />
<path style="&st1;" d="M3.399,54.668c0,0.417,0.292,0.765,0.703,0.837" />
<path style="&st1;" d="M71.521,3.399c0-1.564-1.269-2.833-2.833-2.833" />
<path style="&st1;" d="M37.527,0.567c-1.565,0-2.833,1.268-2.833,2.833" />
<path style="&st2;" d="M71.521,4.816c0-1.564-1.269-2.833-2.833-2.833" />
<path style="&st2;" d="M37.527,1.983c-1.565,0-2.833,1.269-2.833,2.833" />
<path style="&st1;" d="M34.694,9.773c0,0.782,0.634,1.417,1.417,1.417" />
<path style="&st1;" d="M70.105,11.19c0.782,0,1.417-0.634,1.417-1.417" />
<path style="&st2;" d="M78.603,7.932c0-0.939-0.761-1.7-1.7-1.7" />
<path style="&st1;" d="M31.861,7.932c0-0.939-0.761-1.7-1.7-1.7" />
<path style="&st2;" d="M29.312,6.232c-0.939,0-1.7,0.761-1.7,1.7" />
<path style="&st1;" d="M76.054,6.232c-0.939,0-1.7,0.761-1.7,1.7" />
<path style="&st2;" d="M81.445,53.258c0.782,0,1.417-0.634,1.417-1.417" />
<path style="&st2;" d="M80.028,51.841c0,0.782,0.634,1.417,1.417,1.417" />
<path style="&st2;" d="M21.388,51.841c0,0.782,0.634,1.417,1.417,1.417" />
<path style="&st2;" d="M22.804,53.258c0.782,0,1.417-0.634,1.417-1.417" />
<path style="&st1;" d="M1.983,6.232c-0.782,0-1.416,0.634-1.416,1.416" />
<path style="&st2;" d="M0.567,47.734c0,1.095,0.888,1.983,1.983,1.983" />
<path style="&st1;" d="M0.567,49.717c0,1.564,1.268,2.833,2.833,2.833" />
<path style="&st1;" d="M100.997,55.507c0.412-0.073,0.704-0.42,0.704-0.839" />
<path style="&st1;" d="M104.532,7.649c0-0.782-0.634-1.416-1.417-1.416" />
<path style="&st2;" d="M102.55,49.717c1.095,0,1.983-0.888,1.983-1.983" />
<path style="&st1;" d="M101.699,52.55c1.565,0,2.833-1.269,2.833-2.833" />
<path style="&st2;" d="M3.966,13.173c-0.782,0-1.417,0.634-1.417,1.417" />
<path style="&st2;" d="M102.55,14.589c0-0.782-0.634-1.417-1.417-1.417" />
<path style="&st2;" d="M67.272,11.19V6.94l-1.417-1.416h-2.125" />
<path style="&st2;" d="M42.484,5.524H40.36L38.944,6.94v4.25" />
<path style="&st2;" d="M50.983,4.816h-8.499v4.958h8.499V4.816" />
<path style="&st2;" d="M63.731,4.816h-8.499v4.958h8.499V4.816" />
<path style="&st2;" d="M58.065,9.773v5.666H48.15V9.773" />
<path style="&st2;" d="M0.567,30.453h2.55v2.833h-2.55" />
<path style="&st2;" d="M104.532,30.453h-2.549v2.833h2.549" />
<path style="&st1;" d="M4.102,55.507l7.331,1.292h82.232l7.332-1.292" />
<path style="&st2;" d="M5.949,47.45L2.55,44.051V33.286" />
<path style="&st1;" d="M31.861,7.932v7.507h5.666l1.417-1.417V11.19h-2.833" />
<path style="&st1;" d="M74.354,7.932v7.507h-5.666l-1.416-1.417V11.19h2.833" />
<path style="&st2;" d="M5.383,13.173V8.125h0.895l1.326-1.892" />
<path style="&st2;" d="M11.238,13.173V8.125h-0.896L9.02,6.232" />
<path style="&st2;" d="M5.949,49.717V47.45H99.15l3.399-3.399V33.286" />
<path style="&st2;" d="M16.476,13.173V8.125h0.898l1.323-1.892" />
<path style="&st2;" d="M22.334,13.173V8.125h-0.898l-1.323-1.892" />
<path style="&st2;" d="M84.465,13.173V8.125h0.898l1.323-1.892" />
<path style="&st2;" d="M90.323,13.173V8.125h-0.898l-1.323-1.892" />
<path style="&st2;" d="M95.229,13.173V8.125h0.898l1.323-1.892" />
<path style="&st2;" d="M101.088,13.173V8.125h-0.898l-1.323-1.892" />
<g ewd:pinNo="1">
<text transform="matrix(0.88 0 0 1 5.949 23.7822)"><tspan x="0" y="0" style="&st3; &st0;">1</tspan></text>
</g>
<g ewd:pinNo="2">
<text transform="matrix(0.88 0 0 1 16.0735 23.7822)"><tspan x="0" y="0" style="&st3; &st0;">2</tspan></text>
</g>
<g ewd:pinNo="3">
<text transform="matrix(0.88 0 0 1 25.4675 26.686)"><tspan x="0" y="0" style="&st3; &st0;">3</tspan></text>
</g>
<g ewd:pinNo="4">
<text transform="matrix(0.88 0 0 1 34.1248 26.686)"><tspan x="0" y="0" style="&st3; &st0;">4</tspan></text>
</g>
<g ewd:pinNo="5">
<text transform="matrix(0.88 0 0 1 42.7849 26.686)"><tspan x="0" y="0" style="&st3; &st0;">5</tspan></text>
</g>
<g ewd:pinNo="6">
<text transform="matrix(0.88 0 0 1 51.4417 26.686)"><tspan x="0" y="0" style="&st3; &st0;">6</tspan></text>
</g>
<g ewd:pinNo="7">
<text transform="matrix(0.88 0 0 1 60.0994 26.686)"><tspan x="0" y="0" style="&st3; &st0;">7</tspan></text>
</g>
<g ewd:pinNo="8">
<text transform="matrix(0.88 0 0 1 68.7566 26.686)"><tspan x="0" y="0" style="&st3; &st0;">8</tspan></text>
</g>
<g ewd:pinNo="9">
<text transform="matrix(0.88 0 0 1 77.4163 26.686)"><tspan x="0" y="0" style="&st3; &st0;">9</tspan></text>
</g>
<g ewd:pinNo="10">
<text transform="matrix(0.88 0 0 1 84.408 26.686)"><tspan x="0" y="0" style="&st3; &st0;">1</tspan></text>
<text transform="matrix(0.88 0 0 1 87.7659 26.686)"><tspan x="0" y="0" style="&st3; &st0;">0</tspan></text>
</g>
<g ewd:pinNo="11">
<text transform="matrix(0.88 0 0 1 93.9773 23.7822)"><tspan x="0" y="0" style="&st3; &st0;">1</tspan></text>
<text transform="matrix(0.88 0 0 1 97.3352 23.7822)"><tspan x="0" y="0" style="&st3; &st0;">1</tspan></text>
</g>
<g ewd:pinNo="12">
<text transform="matrix(0.88 0 0 1 4.2832 39.5757)"><tspan x="0" y="0" style="&st3; &st0;">1</tspan></text>
<text transform="matrix(0.88 0 0 1 7.6414 39.5757)"><tspan x="0" y="0" style="&st3; &st0;">2</tspan></text>
</g>
<g ewd:pinNo="13">
<text transform="matrix(0.88 0 0 1 14.408 39.5757)"><tspan x="0" y="0" style="&st3; &st0;">1</tspan></text>
<text transform="matrix(0.88 0 0 1 17.7659 39.5757)"><tspan x="0" y="0" style="&st3; &st0;">3</tspan></text>
</g>
<g ewd:pinNo="14">
<text transform="matrix(0.88 0 0 1 23.8015 41.9834)"><tspan x="0" y="0" style="&st3; &st0;">1</tspan></text>
<text transform="matrix(0.88 0 0 1 27.1599 41.9834)"><tspan x="0" y="0" style="&st3; &st0;">4</tspan></text>
</g>
<g ewd:pinNo="15">
<text transform="matrix(0.88 0 0 1 32.4587 41.9834)"><tspan x="0" y="0" style="&st3; &st0;">1</tspan></text>
<text transform="matrix(0.88 0 0 1 35.8171 41.9834)"><tspan x="0" y="0" style="&st3; &st0;">5</tspan></text>
</g>
<g ewd:pinNo="16">
<text transform="matrix(0.88 0 0 1 41.1189 41.9834)"><tspan x="0" y="0" style="&st3; &st0;">1</tspan></text>
<text transform="matrix(0.88 0 0 1 44.4773 41.9834)"><tspan x="0" y="0" style="&st3; &st0;">6</tspan></text>
</g>
<g ewd:pinNo="17">
<text transform="matrix(0.88 0 0 1 49.7761 41.9834)"><tspan x="0" y="0" style="&st3; &st0;">1</tspan></text>
<text transform="matrix(0.88 0 0 1 53.134 41.9834)"><tspan x="0" y="0" style="&st3; &st0;">7</tspan></text>
</g>
<g ewd:pinNo="18">
<text transform="matrix(0.88 0 0 1 58.4333 41.9834)"><tspan x="0" y="0" style="&st3; &st0;">1</tspan></text>
<text transform="matrix(0.88 0 0 1 61.7913 41.9834)"><tspan x="0" y="0" style="&st3; &st0;">8</tspan></text>
</g>
<g ewd:pinNo="19">
<text transform="matrix(0.88 0 0 1 67.0906 41.9834)"><tspan x="0" y="0" style="&st3; &st0;">1</tspan></text>
<text transform="matrix(0.88 0 0 1 70.4485 41.9834)"><tspan x="0" y="0" style="&st3; &st0;">9</tspan></text>
</g>
<g ewd:pinNo="20">
<text transform="matrix(0.88 0 0 1 75.7507 41.9834)"><tspan x="0" y="0" style="&st3; &st0;">2</tspan></text>
<text transform="matrix(0.88 0 0 1 79.1086 41.9834)"><tspan x="0" y="0" style="&st3; &st0;">0</tspan></text>
</g>
<g ewd:pinNo="21">
<text transform="matrix(0.88 0 0 1 84.408 41.9834)"><tspan x="0" y="0" style="&st3; &st0;">2</tspan></text>
<text transform="matrix(0.88 0 0 1 87.7659 41.9834)"><tspan x="0" y="0" style="&st3; &st0;">1</tspan></text>
</g>
<g ewd:pinNo="22">
<text transform="matrix(0.88 0 0 1 93.9773 39.5757)"><tspan x="0" y="0" style="&st3; &st0;">2</tspan></text>
<text transform="matrix(0.88 0 0 1 97.3352 39.5757)"><tspan x="0" y="0" style="&st3; &st0;">2</tspan></text>
</g>
</g>
</g>
</svg>
