﻿<?xml version="1.0"?>
<!DOCTYPE svg PUBLIC "-//W3C//DTD SVG 1.0//EN" "http://www.w3.org/TR/2001/REC-SVG-20010904/DTD/svg10.dtd"[
	<!ENTITY ns_flows "http://ns.adobe.com/Flows/1.0/">
	<!ENTITY ns_svg "http://www.w3.org/2000/svg">
	<!ENTITY ns_xlink "http://www.w3.org/1999/xlink">
	<!ENTITY st0 "fill:none;stroke:#000000;stroke-width:1.13;stroke-linecap:round;stroke-linejoin:round;">
	<!ENTITY st1 "font-size:6.63px;">
	<!ENTITY st2 "enable-background:new    ;">
	<!ENTITY st3 "font-family:'Arial';">
	<!ENTITY st4 "fill:none;stroke:#000000;stroke-width:0.85;stroke-linecap:round;stroke-linejoin:round;">
	<!ATTLIST svg
		xmlns:ewd CDATA #FIXED "http://shcl.co.jp/ewd"
		xmlns:a CDATA #FIXED "http://ns.adobe.com/AdobeSVGViewerExtensions/3.0/"
		ewd:ver CDATA #IMPLIED>
	<!ATTLIST g
		ewd:pinNo CDATA #IMPLIED>
]>
<svg
height="93.2"
onload="call_execInitLoadProc_svg('connector')"
style="overflow:visible;enable-background:new 0 0 151.27 93.2"
viewBox="0 0 151.27 93.2"
width="151.27"
xml:space="preserve"
ewd:ver="L2.3"
xmlns="&ns_svg;"
xmlns:ewd="http://shcl.co.jp/ewd"
xmlns:a="http://ns.adobe.com/AdobeSVGViewerExtensions/3.0/"
xmlns:xlink="&ns_xlink;">
<script type="text/javascript" xlink:href="../../../../../system/js/ewd/fig/svgfig.js"/>
<g id="レイヤー_1">
<g>
<path style='&st0;' d='M146.46,9.06c0-4.69-3.81-8.5-8.5-8.5'/>
<path style='&st0;' d='M13.31,0.56c-4.69,0-8.5,3.81-8.5,8.5'/>
<path style='&st0;' d='M4.81,85.45c0,0.98,0.45,1.81,1.26,2.36'/>
<path style='&st0;' d='M12.6,92.16c0.49,0.33,0.99,0.48,1.57,0.48'/>
<path style='&st0;' d='M137.1,92.63c0.59,0,1.08-0.15,1.57-0.48'/>
<path style='&st0;' d='M145.2,87.81c0.81-0.54,1.26-1.38,1.26-2.36'/>
<path style='&st4;' d='M16.15,84.14c0,1.56,1.27,2.83,2.83,2.83'/>
<path style='&st4;' d='M27.48,86.97c1.56,0,2.83-1.27,2.83-2.83'/>
<path style='&st4;' d='M120.96,84.14c0,1.56,1.27,2.83,2.83,2.83'/>
<path style='&st4;' d='M132.29,86.97c1.56,0,2.83-1.27,2.83-2.83'/>
<path style='&st4;' d='M137.96,14.73c0-3.13-2.54-5.67-5.67-5.67'/>
<path style='&st4;' d='M18.98,9.06c-3.13,0-5.67,2.54-5.67,5.67'/>
<path style='&st4;' d='M117.42,16.15c0-1.56-1.27-2.83-2.83-2.83'/>
<path style='&st4;' d='M114.59,31.73c1.56,0,2.83-1.27,2.83-2.83'/>
<path style='&st4;' d='M33.85,28.89c0,1.57,1.27,2.83,2.83,2.83'/>
<path style='&st4;' d='M36.68,13.31c-1.56,0-2.83,1.27-2.83,2.83'/>
<path style='&st4;' d='M119.55,11.9c0-1.56-1.27-2.83-2.83-2.83'/>
<path style='&st4;' d='M34.56,9.06c-1.56,0-2.83,1.27-2.83,2.83'/>
<path style='&st4;' d='M135.13,81.3c0-1.56-1.27-2.83-2.83-2.83'/>
<path style='&st4;' d='M123.79,78.47c-1.56,0-2.83,1.27-2.83,2.83'/>
<path style='&st4;' d='M30.31,81.3c0-1.56-1.27-2.83-2.83-2.83'/>
<path style='&st4;' d='M18.98,78.47c-1.56,0-2.83,1.27-2.83,2.83'/>
<path style='&st4;' d='M47.31,74.22h22.66'/>
<path style='&st4;' d='M13.31,51.56v22.66h11.33'/>
<path style='&st4;' d='M24.64,51.56v22.66'/>
<path style='&st4;' d='M47.31,51.56v22.66'/>
<path style='&st4;' d='M58.64,51.56v22.66'/>
<path style='&st4;' d='M69.97,51.56v22.66'/>
<path style='&st4;' d='M81.3,51.56v22.66'/>
<path style='&st4;' d='M92.63,51.56v22.66'/>
<path style='&st4;' d='M103.96,51.56v22.66'/>
<path style='&st4;' d='M126.63,51.56v22.66'/>
<path style='&st4;' d='M13.31,62.89h22.66'/>
<path style='&st4;' d='M81.3,62.89h22.66'/>
<path style='&st4;' d='M47.31,62.89h22.66'/>
<path style='&st4;' d='M81.3,74.22h22.66'/>
<path style='&st4;' d='M115.3,62.89h22.66'/>
<path style='&st4;' d='M103.96,51.56H81.3'/>
<path style='&st0;' d='M13.31,0.56h124.65'/>
<path style='&st0;' d='M146.46,9.06v25.5'/>
<path style='&st4;' d='M4.81,34.56v4.25'/>
<path style='&st4;' d='M4.81,82.72h11.33'/>
<path style='&st4;' d='M16.15,81.3v2.83'/>
<path style='&st4;' d='M18.98,86.97h8.5'/>
<path style='&st4;' d='M135.13,82.72h11.33'/>
<path style='&st4;' d='M135.13,81.3v2.83'/>
<path style='&st4;' d='M123.79,86.97h8.5'/>
<path style='&st4;' d='M120.96,81.3v2.83'/>
<path style='&st4;' d='M30.31,81.3v2.83'/>
<path style='&st4;' d='M30.31,82.72h90.65'/>
<path style='&st4;' d='M64.3,28.89v-5.67h22.66v5.67'/>
<path style='&st4;' d='M126.63,74.22h11.33V51.56h-11.33'/>
<path style='&st4;' d='M69.97,51.56H47.31'/>
<path style='&st4;' d='M24.64,51.56H13.31'/>
<path style='&st4;' d='M146.46,77.05H4.81'/>
<path style='&st4;' d='M31.73,31.73V11.9'/>
<path style='&st4;' d='M18.98,77.05v2.83h8.5v-2.83'/>
<path style='&st4;' d='M123.79,77.05v2.83h8.5v-2.83'/>
<path style='&st0;' d='M4.81,82.72v2.73'/>
<path style='&st0;' d='M146.46,82.72v2.73'/>
<path style='&st0;' d='M6.07,87.81l6.52,4.35'/>
<path style='&st0;' d='M14.17,92.63H137.1'/>
<path style='&st0;' d='M145.2,87.81l-6.52,4.35'/>
<path style='&st4;' d='M46.6,31.73h-9.92'/>
<path style='&st4;' d='M86.97,28.89h17.71v2.83'/>
<path style='&st4;' d='M46.6,31.73v-2.83h17.71'/>
<path style='&st4;' d='M46.6,40.23v-8.5h58.07v8.5'/>
<path style='&st0;' d='M146.46,77.05v5.67'/>
<path style='&st4;' d='M119.55,40.23l-2.83,2.83h-9.21l-2.83-2.83'/>
<path style='&st4;' d='M46.6,40.23l-2.83,2.83h-9.21l-2.83-2.83'/>
<path style='&st0;' d='M4.81,9.06v25.5'/>
<path style='&st4;' d='M146.46,34.56v4.25'/>
<path style='&st0;' d='M4.81,38.81v12.75'/>
<path style='&st0;' d='M4.81,77.05v5.67'/>
<path style='&st0;' d='M146.46,38.81v12.75'/>
<path style='&st4;' d='M71.39,48.72v-4.25h-2.83l2.83-5.67h8.5l2.83,5.67h-2.83v4.25'/>
<path style='&st4;' d='M64.3,23.23V20.4h22.66v2.83'/>
<path style='&st4;' d='M46.6,13.31l2.83,2.83h52.41l2.83-2.83'/>
<path style='&st4;' d='M13.31,51.56V40.23h11.33v11.33'/>
<path style='&st4;' d='M126.63,51.56V40.23h11.33v11.33'/>
<path style='&st4;' d='M24.64,0.56v31.16'/>
<path style='&st4;' d='M126.63,0.56v31.16'/>
<path style='&st4;' d='M24.64,51.56h11.33v22.66H24.64'/>
<path style='&st4;' d='M126.63,51.56H115.3v22.66h11.33'/>
<path style='&st4;' d='M143.62,31.73l2.83,2.83'/>
<path style='&st4;' d='M7.65,31.73l-2.83,2.83'/>
<path style='&st4;' d='M7.65,40.23v7.08h2.83v-7.08H7.65'/>
<path style='&st4;' d='M7.65,51.56v7.08h2.83v-7.08H7.65'/>
<path style='&st4;' d='M7.65,62.89v7.08h2.83v-7.08H7.65'/>
<path style='&st4;' d='M140.79,40.23v7.08h2.83v-7.08H140.79'/>
<path style='&st4;' d='M71.39,48.72H24.64'/>
<path style='&st4;' d='M140.79,51.56v7.08h2.83v-7.08H140.79'/>
<path style='&st4;' d='M79.89,48.72h46.74'/>
<path style='&st4;' d='M140.79,62.89v7.08h2.83v-7.08H140.79'/>
<path style='&st4;' d='M13.31,14.73v17'/>
<path style='&st4;' d='M137.96,14.73v17'/>
<path style='&st4;' d='M126.63,9.06h5.67'/>
<path style='&st4;' d='M18.98,9.06h5.67'/>
<path style='&st4;' d='M126.63,16.15h4.25v5.67h-4.25'/>
<path style='&st4;' d='M24.64,16.15H20.4v5.67h4.25'/>
<path style='&st0;' d='M146.46,34.56h2.83v4.25h-2.83'/>
<path style='&st0;' d='M146.46,51.56h4.25v7.08h-4.25'/>
<path style='&st0;' d='M146.46,75.64h2.83v-4.25h-2.83V58.64'/>
<path style='&st0;' d='M146.46,77.05v-1.42'/>
<path style='&st0;' d='M4.81,34.56H1.98v4.25h2.83'/>
<path style='&st0;' d='M4.81,51.56H0.56v7.08h4.25'/>
<path style='&st0;' d='M4.81,75.64H1.98v-4.25h2.83V58.64'/>
<path style='&st0;' d='M4.81,77.05v-1.42'/>
<path style='&st4;' d='M143.62,31.73h-11.33'/>
<path style='&st4;' d='M132.29,31.73h-12.75v8.5'/>
<path style='&st4;' d='M7.65,31.73h11.33'/>
<path style='&st4;' d='M18.98,31.73h12.75v8.5'/>
<path style='&st4;' d='M33.85,28.89V16.15'/>
<path style='&st4;' d='M36.68,13.31h77.9'/>
<path style='&st4;' d='M104.67,31.73h9.91'/>
<path style='&st4;' d='M117.42,28.89V16.15'/>
<path style='&st4;' d='M34.56,9.06h82.15'/>
<path style='&st4;' d='M119.55,31.73V11.9'/>
<path style='&st4;' d='M99.72,40.23v7.08h2.83v-7.08H99.72'/>
<path style='&st4;' d='M86.97,40.23v7.08h2.83v-7.08H86.97'/>
<path style='&st4;' d='M61.47,40.23v7.08h2.83v-7.08H61.47'/>
<path style='&st4;' d='M48.72,40.23v7.08h2.83v-7.08H48.72'/>
<path style='&st4;' d='M146.46,51.56v7.08'/>
<path style='&st4;' d='M146.46,71.39v4.25'/>
<path style='&st4;' d='M4.81,51.56v7.08'/>
<path style='&st4;' d='M4.81,71.39v4.25'/>
<path style='&st4;' d='M4.81,26.06h8.5'/>
<path style='&st4;' d='M137.96,26.06h8.5'/>
<path style='&st4;' d='M146.46,26.06l-2.83,5.67'/>
<path style='&st4;' d='M4.81,26.06l2.83,5.67'/>
    <g ewd:pinNo="2">
        <text transform='matrix(1 0 0 1 130.2588 47.9546)' style='&st2;'><tspan x='0' y='0' style='&st3; &st1;'>2</tspan></text>
    </g>
    <g ewd:pinNo="17">
        <text transform='matrix(1 0 0 1 117.2549 70.6177)' style='&st2;'><tspan x='0' y='0' style='&st3; &st1;'>17</tspan></text>
    </g>
    <g ewd:pinNo="9">
        <text transform='matrix(1 0 0 1 118.9287 59.2856)' style='&st2;'><tspan x='0' y='0' style='&st3; &st1;'>9</tspan></text>
    </g>
    <g ewd:pinNo="12">
        <text transform='matrix(1 0 0 1 26.604 70.6177)' style='&st2;'><tspan x='0' y='0' style='&st3; &st1;'>12</tspan></text>
    </g>
    <g ewd:pinNo="4">
        <text transform='matrix(1 0 0 1 28.2769 59.2856)' style='&st2;'><tspan x='0' y='0' style='&st3; &st1;'>4</tspan></text>
    </g>
    <g ewd:pinNo="1">
        <text transform='matrix(1 0 0 1 16.9458 47.9546)' style='&st2;'><tspan x='0' y='0' style='&st3; &st1;'>1</tspan></text>
    </g>
    <g ewd:pinNo="18">
        <text transform='matrix(1 0 0 1 128.5869 70.6177)' style='&st2;'><tspan x='0' y='0' style='&st3; &st1;'>18</tspan></text>
    </g>
    <g ewd:pinNo="16">
        <text transform='matrix(1 0 0 1 94.5928 70.6177)' style='&st2;'><tspan x='0' y='0' style='&st3; &st1;'>16</tspan></text>
    </g>
    <g ewd:pinNo="15">
        <text transform='matrix(1 0 0 1 83.2607 70.6177)' style='&st2;'><tspan x='0' y='0' style='&st3; &st1;'>15</tspan></text>
    </g>
    <g ewd:pinNo="14">
        <text transform='matrix(1 0 0 1 60.5981 70.6177)' style='&st2;'><tspan x='0' y='0' style='&st3; &st1;'>14</tspan></text>
    </g>
    <g ewd:pinNo="13">
        <text transform='matrix(1 0 0 1 49.2671 70.6177)' style='&st2;'><tspan x='0' y='0' style='&st3; &st1;'>13</tspan></text>
    </g>
    <g ewd:pinNo="11">
        <text transform='matrix(1 0 0 1 15.4946 70.6177)' style='&st2;'><tspan x='0' y='0' style='&st3; &st1;'>11</tspan></text>
    </g>
    <g ewd:pinNo="10">
        <text transform='matrix(1 0 0 1 128.5869 59.2856)' style='&st2;'><tspan x='0' y='0' style='&st3; &st1;'>10</tspan></text>
    </g>
    <g ewd:pinNo="8">
        <text transform='matrix(1 0 0 1 96.2646 59.2856)' style='&st2;'><tspan x='0' y='0' style='&st3; &st1;'>8</tspan></text>
    </g>
    <g ewd:pinNo="7">
        <text transform='matrix(1 0 0 1 84.9346 59.2856)' style='&st2;'><tspan x='0' y='0' style='&st3; &st1;'>7</tspan></text>
    </g>
    <g ewd:pinNo="6">
        <text transform='matrix(1 0 0 1 62.271 59.2856)' style='&st2;'><tspan x='0' y='0' style='&st3; &st1;'>6</tspan></text>
    </g>
    <g ewd:pinNo="5">
        <text transform='matrix(1 0 0 1 50.9399 59.2856)' style='&st2;'><tspan x='0' y='0' style='&st3; &st1;'>5</tspan></text>
    </g>
    <g ewd:pinNo="3">
        <text transform='matrix(1 0 0 1 16.9458 59.2856)' style='&st2;'><tspan x='0' y='0' style='&st3; &st1;'>3</tspan></text>
    </g>
</g>
</g>
</svg>
