﻿<?xml version="1.0"?>
<!DOCTYPE svg PUBLIC "-//W3C//DTD SVG 1.0//EN" "http://www.w3.org/TR/2001/REC-SVG-20010904/DTD/svg10.dtd"[
	<!ENTITY ns_flows "http://ns.adobe.com/Flows/1.0/">
	<!ENTITY ns_svg "http://www.w3.org/2000/svg">
	<!ENTITY ns_xlink "http://www.w3.org/1999/xlink">
	<!ENTITY st0 "fill:none;stroke:#000000;stroke-width:1.13;stroke-linecap:round;stroke-linejoin:round;">
	<!ENTITY st1 "font-size:6.63px;">
	<!ENTITY st2 "font-family:'Arial';">
	<!ENTITY st3 "fill:none;stroke:#000000;stroke-width:0.85;stroke-linecap:round;stroke-linejoin:round;">
	<!ATTLIST svg
		xmlns:ewd CDATA #FIXED "http://shcl.co.jp/ewd"
		xmlns:a CDATA #FIXED "http://ns.adobe.com/AdobeSVGViewerExtensions/3.0/"
		ewd:ver CDATA #IMPLIED>
	<!ATTLIST g
		ewd:pinNo CDATA #IMPLIED>
]>
<svg
height="60.62"
onload="call_execInitLoadProc_svg('connector')"
style="overflow:visible;enable-background:new 0 0 142.77 60.62"
viewBox="0 0 142.77 60.62"
width="142.77"
xml:space="preserve"
ewd:ver="L2.3"
xmlns="&ns_svg;"
xmlns:ewd="http://shcl.co.jp/ewd"
xmlns:a="http://ns.adobe.com/AdobeSVGViewerExtensions/3.0/"
xmlns:xlink="&ns_xlink;">
<script type="text/javascript" xlink:href="../../../../../system/js/ewd/fig/svgfig.js"/>
<g id="レイヤー_1">
<g>
<path style='&st3;' d='M14.73,18.98v11.33'/>
<path style='&st3;' d='M14.73,18.98h113.31'/>
<path style='&st3;' d='M14.73,30.31h113.31'/>
<path style='&st3;' d='M26.06,18.98v11.33'/>
<path style='&st3;' d='M37.39,18.98v11.33'/>
<path style='&st3;' d='M48.72,18.98v11.33'/>
<path style='&st3;' d='M60.06,18.98v11.33'/>
<path style='&st3;' d='M71.39,18.98v11.33'/>
<path style='&st3;' d='M82.72,18.98v11.33'/>
<path style='&st3;' d='M94.05,18.98v11.33'/>
<path style='&st3;' d='M105.38,18.98v11.33'/>
<path style='&st3;' d='M116.71,18.98v11.33'/>
<path style='&st3;' d='M128.04,18.98v11.33'/>
<path style='&st3;' d='M20.4,30.31v11.33'/>
<path style='&st3;' d='M31.73,30.31v11.33'/>
<path style='&st3;' d='M43.06,30.31v11.33'/>
<path style='&st3;' d='M54.39,30.31v11.33'/>
<path style='&st3;' d='M65.72,30.31v11.33'/>
<path style='&st3;' d='M77.05,30.31v11.33'/>
<path style='&st3;' d='M88.38,30.31v11.33'/>
<path style='&st3;' d='M99.72,30.31v11.33'/>
<path style='&st3;' d='M111.05,30.31v11.33'/>
<path style='&st3;' d='M122.38,30.31v11.33'/>
<path style='&st3;' d='M20.4,41.64h101.98'/>
<path style='&st3;' d='M11.9,16.15h118.98'/>
<path style='&st3;' d='M11.9,44.48h118.98'/>
<path style='&st3;' d='M11.9,16.15v28.33'/>
<path style='&st3;' d='M130.88,16.15v28.33'/>
<path style='&st3;' d='M62.89,44.48v8.5'/>
<path style='&st3;' d='M79.89,44.48v8.5'/>
<path style='&st3;' d='M62.89,52.97h17'/>
<path style='&st3;' d='M28.89,44.48v2.83h17v-2.83'/>
<path style='&st3;' d='M113.88,44.48v2.83h-17v-2.83'/>
<path style='&st0;' d='M0.56,55.81H11.9'/>
<path style='&st3;' d='M11.9,13.31V6.23'/>
<path style='&st3;' d='M3.4,6.23h8.5'/>
<path style='&st3;' d='M3.4,6.23v49.58'/>
<path style='&st0;' d='M128.87,6.23h-8.5'/>
<path style='&st3;' d='M60.06,10.48v2.83'/>
<path style='&st3;' d='M11.9,13.31h130.31'/>
<path style='&st0;' d='M82.72,6.23v4.25'/>
<path style='&st3;' d='M120.38,13.31v-2.83'/>
<path style='&st0;' d='M51.56,6.23h8.5'/>
<path style='&st0;' d='M51.56,0.56v5.67'/>
<path style='&st0;' d='M91.22,0.56v5.67'/>
<path style='&st0;' d='M51.56,0.56h39.66'/>
<path style='&st0;' d='M26.06,10.48h33.99'/>
<path style='&st0;' d='M120.38,10.48V6.23'/>
<path style='&st3;' d='M60.06,6.23h22.66'/>
<path style='&st0;' d='M82.72,10.48h37.66'/>
<path style='&st0;' d='M128.87,6.23v4.25'/>
<path style='&st0;' d='M82.72,6.23h8.5'/>
<path style='&st3;' d='M82.72,10.48v2.83'/>
<path style='&st3;' d='M11.9,44.48v2.83'/>
<path style='&st3;' d='M3.4,47.31h8.5'/>
<path style='&st0;' d='M0.56,0.56v55.24'/>
<path style='&st0;' d='M0.56,0.56h25.5'/>
<path style='&st0;' d='M26.06,0.56v9.92'/>
<path style='&st3;' d='M139.38,13.31v42.49'/>
<path style='&st0;' d='M130.88,55.81h11.33'/>
<path style='&st0;' d='M128.87,10.48h13.33'/>
<path style='&st3;' d='M3.4,17.56h8.5'/>
<path style='&st0;' d='M142.21,10.48v45.33'/>
<path style='&st3;' d='M11.9,55.81h118.98'/>
<path style='&st0;' d='M11.9,55.81v4.25h118.98v-4.25'/>
<path style='&st0;' d='M60.06,6.23v4.25'/>
<path style='&st3;' d='M128.87,13.31v-2.83'/>
    <g ewd:pinNo="19">
        <text transform="matrix(1 0 0 1 118.6284 27.0454)"><tspan x='0' y='0' style='&st2; &st1;'>19</tspan></text>
    </g>
    <g ewd:pinNo="18">
        <text transform="matrix(1 0 0 1 112.9624 38.3774)"><tspan x='0' y='0' style='&st2; &st1;'>18</tspan></text>
    </g>
    <g ewd:pinNo="17">
        <text transform="matrix(1 0 0 1 107.2964 27.0454)"><tspan x='0' y='0' style='&st2; &st1;'>17</tspan></text>
    </g>
    <g ewd:pinNo="16">
        <text transform="matrix(1 0 0 1 101.6313 38.3774)"><tspan x='0' y='0' style='&st2; &st1;'>16</tspan></text>
    </g>
    <g ewd:pinNo="15">
        <text transform="matrix(1 0 0 1 95.9653 27.0454)"><tspan x='0' y='0' style='&st2; &st1;'>15</tspan></text>
    </g>
    <g ewd:pinNo="14">
        <text transform="matrix(1 0 0 1 90.2993 38.3774)"><tspan x='0' y='0' style='&st2; &st1;'>14</tspan></text>
    </g>
    <g ewd:pinNo="13">
        <text transform="matrix(1 0 0 1 84.6343 27.0454)"><tspan x='0' y='0' style='&st2; &st1;'>13</tspan></text>
    </g>
    <g ewd:pinNo="12">
        <text transform="matrix(1 0 0 1 78.9683 38.3774)"><tspan x='0' y='0' style='&st2; &st1;'>12</tspan></text>
    </g>
    <g ewd:pinNo="11">
        <text transform="matrix(1 0 0 1 73.5249 27.0454)"><tspan x='0' y='0' style='&st2; &st1;'>11</tspan></text>
    </g>
    <g ewd:pinNo="10">
        <text transform="matrix(1 0 0 1 67.6372 38.3774)"><tspan x='0' y='0' style='&st2; &st1;'>10</tspan></text>
    </g>
    <g ewd:pinNo="9">
        <text transform="matrix(1 0 0 1 64.0063 27.0454)"><tspan x='0' y='0' style='&st2; &st1;'>9</tspan></text>
    </g>
    <g ewd:pinNo="8">
        <text transform="matrix(1 0 0 1 58.3403 38.3774)"><tspan x='0' y='0' style='&st2; &st1;'>8</tspan></text>
    </g>
    <g ewd:pinNo="7">
        <text transform="matrix(1 0 0 1 52.6743 27.0454)"><tspan x='0' y='0' style='&st2; &st1;'>7</tspan></text>
    </g>
    <g ewd:pinNo="6">
        <text transform="matrix(1 0 0 1 47.0083 38.3774)"><tspan x='0' y='0' style='&st2; &st1;'>6</tspan></text>
    </g>
    <g ewd:pinNo="5">
        <text transform="matrix(1 0 0 1 41.3433 27.0454)"><tspan x='0' y='0' style='&st2; &st1;'>5</tspan></text>
    </g>
    <g ewd:pinNo="4">
        <text transform="matrix(1 0 0 1 35.6772 38.3774)"><tspan x='0' y='0' style='&st2; &st1;'>4</tspan></text>
    </g>
    <g ewd:pinNo="3">
        <text transform="matrix(1 0 0 1 30.0112 27.0454)"><tspan x='0' y='0' style='&st2; &st1;'>3</tspan></text>
    </g>
    <g ewd:pinNo="2">
        <text transform="matrix(1 0 0 1 24.3462 38.3774)"><tspan x='0' y='0' style='&st2; &st1;'>2</tspan></text>
    </g>
    <g ewd:pinNo="1">
        <text transform="matrix(1 0 0 1 18.6802 27.0454)"><tspan x='0' y='0' style='&st2; &st1;'>1</tspan></text>
    </g>
</g>
</g>
</svg>
