﻿<?xml version="1.0"?>
<!DOCTYPE svg PUBLIC "-//W3C//DTD SVG 1.0//EN" "http://www.w3.org/TR/2001/REC-SVG-20010904/DTD/svg10.dtd"[
	<!ENTITY ns_flows "http://ns.adobe.com/Flows/1.0/">
	<!ENTITY ns_svg "http://www.w3.org/2000/svg">
	<!ENTITY ns_xlink "http://www.w3.org/1999/xlink">
	<!ENTITY st0 "fill:none;stroke:#000000;stroke-linecap:round;stroke-linejoin:round;">
	<!ENTITY st1 "fill-rule:evenodd;clip-rule:evenodd;fill:none;stroke:#000000;stroke-linecap:round;stroke-linejoin:round;">
	<!ENTITY st2 "fill:none;stroke:#000000;">
	<!ENTITY st3 "font-size:6px;">
	<!ENTITY st4 "fill:none;stroke:#000000;stroke-width:0.5;stroke-linecap:round;stroke-linejoin:round;">
	<!ENTITY st5 "font-family:'Arial';">
	<!ENTITY st6 "stroke:#000000;stroke-width:0.5;stroke-linecap:round;stroke-linejoin:round;">
			<!ENTITY st7 "fill-rule:evenodd;clip-rule:evenodd;fill:none;stroke:#000000;stroke-width:0.5;stroke-linecap:round;stroke-linejoin:round;">
	<!ATTLIST svg
		xmlns:ewd CDATA #FIXED "http://shcl.co.jp/ewd"
		xmlns:a CDATA #FIXED "http://ns.adobe.com/AdobeSVGViewerExtensions/3.0/"
		ewd:ver CDATA #IMPLIED>
	<!ATTLIST g
		ewd:pinNo CDATA #IMPLIED>
]>
<svg
height="74.12"
onload="call_execInitLoadProc_svg('connector')"
style="overflow:visible;enable-background:new 0 0 216.15 74.12"
viewBox="0 0 216.15 74.12"
width="216.15"
xml:space="preserve"
ewd:ver="L2.3"
xmlns="&ns_svg;"
xmlns:ewd="http://shcl.co.jp/ewd"
xmlns:a="http://ns.adobe.com/AdobeSVGViewerExtensions/3.0/"
xmlns:xlink="&ns_xlink;">
<script type="text/javascript" xlink:href="../../../../../system/js/ewd/fig/svgfig.js"/>
<g id="レイヤー_1">
<g>
<path style='&st2;' d='M47.76,9V0.5h116.08V9'/>
<path style='&st0;' d='M112.02,55.61c0,3.41,2.87,6.18,6.41,6.18'/>
<path style='&st0;' d='M118.43,17.51c-3.54,0-6.41,2.77-6.41,6.18'/>
<path style='&st0;' d='M126.97,70.53c0,1.71,1.44,3.09,3.21,3.09'/>
<path style='&st0;' d='M118.43,17.51h45.4'/>
<path style='&st0;' d='M112.02,23.69v31.92'/>
<path style='&st0;' d='M130.17,73.62h33.66'/>
<path style='&st0;' d='M126.97,61.79v8.75'/>
<path style='&st0;' d='M118.43,61.79h8.54'/>
<path style='&st4;' d='M124.84,61.79h38.99'/>
<path style='&st4;' d='M130.9,35.6v9.15h-7.32V35.6H130.9z'/>
<path style='&st4;' d='M138.22,35.6v9.15h-7.32V35.6H138.22z'/>
<path style='&st4;' d='M145.54,35.6v9.15h-7.32V35.6H145.54z'/>
<path style='&st4;' d='M152.86,35.6v9.15h-7.32V35.6H152.86z'/>
<path style='&st4;' d='M160.18,35.6v9.15h-7.32V35.6H160.18z'/>
<path style='&st4;' d='M167.5,35.6v9.15h-7.32V35.6H167.5z'/>
<path style='&st4;' d='M174.82,35.6v9.15h-7.32V35.6H174.82z'/>
<path style='&st4;' d='M182.14,35.6v9.15h-7.32V35.6H182.14z'/>
<path style='&st4;' d='M189.46,35.6v9.15h-7.32V35.6H189.46z'/>
<path style='&st4;' d='M196.78,35.6v9.15h-7.32V35.6H196.78z'/>
<path style='&st4;' d='M204.1,35.6v9.15h-7.32V35.6H204.1z'/>
<path style='&st4;' d='M130.9,44.75v9.15h-7.32v-9.15H130.9z'/>
<path style='&st4;' d='M138.22,44.75v9.15h-7.32v-9.15H138.22z'/>
<path style='&st4;' d='M145.54,44.75v9.15h-7.32v-9.15H145.54z'/>
<path style='&st4;' d='M152.86,44.75v9.15h-7.32v-9.15H152.86z'/>
<path style='&st4;' d='M160.18,44.75v9.15h-7.32v-9.15H160.18z'/>
<path style='&st4;' d='M167.5,44.75v9.15h-7.32v-9.15H167.5z'/>
<path style='&st4;' d='M174.82,44.75v9.15h-7.32v-9.15H174.82z'/>
<path style='&st4;' d='M182.14,44.75v9.15h-7.32v-9.15H182.14z'/>
<path style='&st4;' d='M189.46,44.75v9.15h-7.32v-9.15H189.46z'/>
<path style='&st4;' d='M196.78,44.75v9.15h-7.32v-9.15H196.78z'/>
<path style='&st4;' d='M204.1,44.75v9.15h-7.32v-9.15H204.1z'/>
<path style='&st4;' d='M163.84,24.75H153c-1.53,0-1.72,1.72-1.72,1.72v4.06c0,1.69-1.63,1.81-1.63,1.81H129.9c0,0-1.09,0.19-1.09-1.78v-6.78c0,0-0.02-1.51-1.22-1.63h-4c0,0-1.44,0.09-1.44,1.44v1.84c0,0,0.09,0.69-1.03,0.69h-2.97c0,0-1.36,0.16-1.36,1.36v28.53c0,0,0,1.85,1.85,1.85h38.1'/>
<path style='&st4;' d='M151.28,30.53v2.94c0,0,0,0.71,0.79,0.71h11.77'/>
<path style='&st4;' d='M163.84,55.34h-7.1v2.83h7.1'/>
<path style='&st4;' d='M116.79,36.67h2.94v15.17h-2.94'/>
<path style='&st4;' d='M118.32,36.67v15.17'/>
<path style='&st4;' d='M147.99,26.92c0,1.1-0.9,2-2,2H133.9c-1.1,0-2-0.9-2-2v-4.33c0-1.1,0.9-2,2-2h12.08c1.1,0,2,0.9,2,2V26.92z'/>
<path style='&st4;' d='M153.36,24.75v4.18c0,0,0,0.96,1.42,0.96h9.06'/>
<path style='&st4;' d='M153.36,28.92v1.88c0,0,0,0.67,0.38,0.67h2.38c0,0,0.38,0.08,0.75-0.75c0,0,0.21-0.83,0.83-0.83'/>
<path style='&st4;' d='M161.9,29.88l0.25,1.17c0,0,0.19,0.46,0.54,0.46h1.14'/>
<path style='&st4;' d='M163.84,32.84h-12.56'/>
<path style='&st4;' d='M139.36,73.62c0,0,1.42-0.32,1.42-1.37v-4.75l1.6-1.6h12.98c0,0,1.39,0.25,1.39-1.39c0,0-0.14-2.73,2.91-2.73'/>
<path style='&st4;' d='M163.84,63.56h-5.31v4.34'/>
<path style='&st4;' d='M140.78,67.9h23.06'/>
<path style='&st4;' d='M160.55,67.9v3.58h3.29'/>
<path style='&st4;' d='M160.55,69.86h3.29'/>
<path style='&st0;' d='M215.65,55.61c0,3.41-2.87,6.18-6.41,6.18'/>
<path style='&st0;' d='M209.24,17.51c3.54,0,6.41,2.77,6.41,6.18'/>
<path style='&st0;' d='M200.71,70.53c0,1.71-1.44,3.09-3.21,3.09'/>
<path style='&st0;' d='M209.24,17.51h-45.4'/>
<path style='&st0;' d='M215.65,23.69v31.92'/>
<path style='&st0;' d='M197.5,73.62h-33.66'/>
<path style='&st0;' d='M200.71,61.79v8.75'/>
<path style='&st0;' d='M209.24,61.79h-8.54'/>
<path style='&st4;' d='M202.83,61.79h-38.99'/>
<path style='&st4;' d='M163.84,24.75h10.84c1.53,0,1.72,1.72,1.72,1.72v4.06c0,1.69,1.63,1.81,1.63,1.81h19.75c0,0,1.09,0.19,1.09-1.78v-6.78c0,0,0.02-1.51,1.22-1.63h4c0,0,1.44,0.09,1.44,1.44v1.84c0,0-0.09,0.69,1.03,0.69h2.97c0,0,1.36,0.16,1.36,1.36v28.53c0,0,0,1.85-1.85,1.85h-38.1'/>
<path style='&st4;' d='M176.39,30.53v2.94c0,0,0,0.71-0.79,0.71h-11.77'/>
<path style='&st4;' d='M163.84,55.34h7.1v2.83h-7.1'/>
<path style='&st4;' d='M210.88,36.67h-2.94v15.17h2.94'/>
<path style='&st4;' d='M209.35,36.67v15.17'/>
<path style='&st4;' d='M179.69,26.92c0,1.1,0.9,2,2,2h12.08c1.1,0,2-0.9,2-2v-4.33c0-1.1-0.9-2-2-2h-12.08c-1.1,0-2,0.9-2,2V26.92z'/>
<path style='&st4;' d='M174.31,24.75v4.18c0,0,0,0.96-1.42,0.96h-9.06'/>
<path style='&st4;' d='M174.31,28.92v1.88c0,0,0,0.67-0.38,0.67h-2.38c0,0-0.38,0.08-0.75-0.75c0,0-0.21-0.83-0.83-0.83'/>
<path style='&st4;' d='M165.77,29.88l-0.25,1.17c0,0-0.19,0.46-0.54,0.46h-1.14'/>
<path style='&st4;' d='M163.84,32.84h12.56'/>
<path style='&st4;' d='M188.31,73.62c0,0-1.42-0.32-1.42-1.37v-4.75l-1.6-1.6h-12.98c0,0-1.39,0.25-1.39-1.39c0,0,0.14-2.73-2.91-2.73'/>
<path style='&st4;' d='M163.84,63.56h5.31v4.34'/>
<path style='&st4;' d='M186.89,67.9h-23.06'/>
<path style='&st4;' d='M167.12,67.9v3.58h-3.29'/>
<path style='&st4;' d='M167.12,69.86h-3.29'/>
<path style='&st6;' d='M128.37,40.17c0,0.63-0.51,1.13-1.13,1.13s-1.13-0.51-1.13-1.13c0-0.63,0.51-1.13,1.13-1.13S128.37,39.55,128.37,40.17z'/>
<path style='&st6;' d='M135.69,40.17c0,0.63-0.51,1.13-1.13,1.13s-1.13-0.51-1.13-1.13c0-0.63,0.51-1.13,1.13-1.13S135.69,39.55,135.69,40.17z'/>
<path style='&st6;' d='M143.01,40.17c0,0.63-0.51,1.13-1.13,1.13s-1.13-0.51-1.13-1.13c0-0.63,0.51-1.13,1.13-1.13S143.01,39.55,143.01,40.17z'/>
<path style='&st6;' d='M150.33,40.17c0,0.63-0.51,1.13-1.13,1.13s-1.13-0.51-1.13-1.13c0-0.63,0.51-1.13,1.13-1.13S150.33,39.55,150.33,40.17z'/>
<path style='&st6;' d='M157.65,40.17c0,0.63-0.51,1.13-1.13,1.13s-1.13-0.51-1.13-1.13c0-0.63,0.51-1.13,1.13-1.13S157.65,39.55,157.65,40.17z'/>
<path style='&st6;' d='M164.97,40.17c0,0.63-0.51,1.13-1.13,1.13s-1.13-0.51-1.13-1.13c0-0.63,0.51-1.13,1.13-1.13S164.97,39.55,164.97,40.17z'/>
<path style='&st6;' d='M172.28,40.17c0,0.63-0.51,1.13-1.13,1.13s-1.13-0.51-1.13-1.13c0-0.63,0.51-1.13,1.13-1.13S172.28,39.55,172.28,40.17z'/>
<path style='&st6;' d='M179.6,40.17c0,0.63-0.51,1.13-1.13,1.13s-1.13-0.51-1.13-1.13c0-0.63,0.51-1.13,1.13-1.13S179.6,39.55,179.6,40.17z'/>
<path style='&st6;' d='M186.92,40.17c0,0.63-0.51,1.13-1.13,1.13s-1.13-0.51-1.13-1.13c0-0.63,0.51-1.13,1.13-1.13S186.92,39.55,186.92,40.17z'/>
<path style='&st6;' d='M194.24,40.17c0,0.63-0.51,1.13-1.13,1.13s-1.13-0.51-1.13-1.13c0-0.63,0.51-1.13,1.13-1.13S194.24,39.55,194.24,40.17z'/>
<path style='&st6;' d='M201.56,40.17c0,0.63-0.51,1.13-1.13,1.13s-1.13-0.51-1.13-1.13c0-0.63,0.51-1.13,1.13-1.13S201.56,39.55,201.56,40.17z'/>
<path style='&st6;' d='M128.36,49.32c0,0.63-0.51,1.13-1.13,1.13s-1.13-0.51-1.13-1.13c0-0.63,0.51-1.13,1.13-1.13S128.36,48.69,128.36,49.32z'/>
<path style='&st6;' d='M135.68,49.32c0,0.63-0.51,1.13-1.13,1.13s-1.13-0.51-1.13-1.13c0-0.63,0.51-1.13,1.13-1.13S135.68,48.69,135.68,49.32z'/>
<path style='&st6;' d='M143,49.32c0,0.63-0.51,1.13-1.13,1.13s-1.13-0.51-1.13-1.13c0-0.63,0.51-1.13,1.13-1.13S143,48.69,143,49.32z'/>
<path style='&st6;' d='M150.32,49.32c0,0.63-0.51,1.13-1.13,1.13s-1.13-0.51-1.13-1.13c0-0.63,0.51-1.13,1.13-1.13S150.32,48.69,150.32,49.32z'/>
<path style='&st6;' d='M157.64,49.32c0,0.63-0.51,1.13-1.13,1.13s-1.13-0.51-1.13-1.13c0-0.63,0.51-1.13,1.13-1.13S157.64,48.69,157.64,49.32z'/>
<path style='&st6;' d='M164.96,49.32c0,0.63-0.51,1.13-1.13,1.13s-1.13-0.51-1.13-1.13c0-0.63,0.51-1.13,1.13-1.13S164.96,48.69,164.96,49.32z'/>
<path style='&st6;' d='M172.27,49.32c0,0.63-0.51,1.13-1.13,1.13s-1.13-0.51-1.13-1.13c0-0.63,0.51-1.13,1.13-1.13S172.27,48.69,172.27,49.32z'/>
<path style='&st6;' d='M179.59,49.32c0,0.63-0.51,1.13-1.13,1.13s-1.13-0.51-1.13-1.13c0-0.63,0.51-1.13,1.13-1.13S179.59,48.69,179.59,49.32z'/>
<path style='&st6;' d='M186.91,49.32c0,0.63-0.51,1.13-1.13,1.13s-1.13-0.51-1.13-1.13c0-0.63,0.51-1.13,1.13-1.13S186.91,48.69,186.91,49.32z'/>
<path style='&st6;' d='M194.23,49.32c0,0.63-0.51,1.13-1.13,1.13s-1.13-0.51-1.13-1.13c0-0.63,0.51-1.13,1.13-1.13S194.23,48.69,194.23,49.32z'/>
<path style='&st6;' d='M201.55,49.32c0,0.63-0.51,1.13-1.13,1.13s-1.13-0.51-1.13-1.13c0-0.63,0.51-1.13,1.13-1.13S201.55,48.69,201.55,49.32z'/>
<path style='&st4;' d='M127.23,49.32h21.96'/>
<path style='&st4;' d='M127.23,40.17h29.28'/>
<path style='&st4;' d='M178.46,49.32h21.96'/>
<path style='&st4;' d='M163.83,40.17h36.67'/>
<path style='&st4;' d='M156.5,49.32h14.64'/>
<path style='&st4;' d='M14.82,37.07v9.15H7.5v-9.15H14.82z'/>
<path style='&st4;' d='M22.14,37.07v9.15h-7.32v-9.15H22.14z'/>
<path style='&st4;' d='M29.46,37.07v9.15h-7.32v-9.15H29.46z'/>
<path style='&st4;' d='M36.78,37.07v9.15h-7.32v-9.15H36.78z'/>
<path style='&st4;' d='M44.1,37.07v9.15h-7.32v-9.15H44.1z'/>
<path style='&st4;' d='M51.42,37.07v9.15H44.1v-9.15H51.42z'/>
<path style='&st4;' d='M58.74,37.07v9.15h-7.32v-9.15H58.74z'/>
<path style='&st4;' d='M66.06,37.07v9.15h-7.32v-9.15H66.06z'/>
<path style='&st4;' d='M73.38,37.07v9.15h-7.32v-9.15H73.38z'/>
<path style='&st4;' d='M80.7,37.07v9.15h-7.32v-9.15H80.7z'/>
<path style='&st4;' d='M88.02,37.07v9.15H80.7v-9.15H88.02z'/>
<path style='&st4;' d='M14.82,46.21v9.15H7.5v-9.15H14.82z'/>
<path style='&st4;' d='M22.14,46.21v9.15h-7.32v-9.15H22.14z'/>
<path style='&st4;' d='M29.46,46.21v9.15h-7.32v-9.15H29.46z'/>
<path style='&st4;' d='M36.78,46.21v9.15h-7.32v-9.15H36.78z'/>
<path style='&st4;' d='M44.1,46.21v9.15h-7.32v-9.15H44.1z'/>
<path style='&st4;' d='M51.42,46.21v9.15H44.1v-9.15H51.42z'/>
<path style='&st4;' d='M58.74,46.21v9.15h-7.32v-9.15H58.74z'/>
<path style='&st4;' d='M66.06,46.21v9.15h-7.32v-9.15H66.06z'/>
<path style='&st4;' d='M73.38,46.21v9.15h-7.32v-9.15H73.38z'/>
<path style='&st4;' d='M80.7,46.21v9.15h-7.32v-9.15H80.7z'/>
<path style='&st4;' d='M88.02,46.21v9.15H80.7v-9.15H88.02z'/>
<path style='&st1;' d='M10.27,17.51c-1.51,0-2.88,0.61-3.87,1.6'/>
<path style='&st1;' d='M10.27,17.51h74.96'/>
<path style='&st1;' d='M2.1,23.36c-1.06,1.07-1.6,2.46-1.6,3.86'/>
<path style='&st1;' d='M2.13,23.33l4.31-4.25'/>
<path style='&st1;' d='M18.07,67.92h59.38'/>
<path style='&st7;' d='M2.2,61.22h91.1'/>
<path style='&st1;' d='M1.32,60.33c0.28,2.16,1.86,3.84,3.88,4.36'/>
<path style='&st1;' d='M5.2,64.69l12.87,3.23'/>
<path style='&st7;' d='M18.56,66.04h58.38'/>
<path style='&st7;' d='M3.66,61.22c0.49,0.85,1.28,1.41,2.15,1.63'/>
<path style='&st7;' d='M5.82,62.85l12.75,3.19'/>
<path style='&st7;' d='M1.79,27.42c-0.71,0-1.29,0.58-1.29,1.29'/>
<path style='&st7;' d='M1.79,27.42h4.24'/>
<path style='&st1;' d='M0.5,27.21v1.5'/>
<path style='&st1;' d='M0.5,28.71v30.81'/>
<path style='&st7;' d='M6.03,25.64v1.78'/>
<path style='&st7;' d='M6.03,25.64l1.88-1.99'/>
<path style='&st7;' d='M7.91,23.65h1.7'/>
<path style='&st7;' d='M11.49,25.64l-1.88-1.99'/>
<path style='&st7;' d='M11.49,33.39c0,0.5,0.41,0.91,0.91,0.91'/>
<path style='&st7;' d='M11.49,25.64v7.75'/>
<path style='&st7;' d='M16.3,30.04c0-0.5-0.41-0.91-0.91-0.91'/>
<path style='&st7;' d='M11.49,29.14h3.91'/>
<path style='&st7;' d='M16.3,30.04v4.26'/>
<path style='&st7;' d='M3.66,61.22v-3.38'/>
<path style='&st7;' d='M0.5,57.84h94.51'/>
<path style='&st1;' d='M89.1,19.11c-1.07-1.07-2.47-1.6-3.86-1.6'/>
<path style='&st1;' d='M95.01,27.21c0-1.51-0.61-2.87-1.6-3.86'/>
<path style='&st1;' d='M93.39,23.33l-4.31-4.25'/>
<path style='&st1;' d='M90.31,64.69c2.11-0.53,3.59-2.28,3.88-4.36'/>
<path style='&st1;' d='M90.31,64.69l-12.86,3.23'/>
<path style='&st7;' d='M89.7,62.85c0.95-0.24,1.7-0.84,2.16-1.63'/>
<path style='&st7;' d='M89.7,62.85l-12.75,3.19'/>
<path style='&st7;' d='M95.01,28.71c0-0.71-0.58-1.29-1.29-1.29'/>
<path style='&st7;' d='M93.72,27.42h-4.24'/>
<path style='&st1;' d='M95.01,27.21v1.5'/>
<path style='&st1;' d='M95.01,28.71v30.81'/>
<path style='&st7;' d='M89.48,25.64v1.78'/>
<path style='&st7;' d='M89.48,25.64l-1.88-1.99'/>
<path style='&st7;' d='M87.61,23.65h-1.7'/>
<path style='&st7;' d='M84.03,25.64l1.88-1.99'/>
<path style='&st7;' d='M83.12,34.3c0.5,0,0.9-0.41,0.9-0.91'/>
<path style='&st7;' d='M84.03,25.64v7.75'/>
<path style='&st7;' d='M80.11,29.14c-0.5,0-0.9,0.41-0.9,0.91'/>
<path style='&st7;' d='M84.03,29.14h-3.91'/>
<path style='&st7;' d='M79.21,30.04v4.26'/>
<path style='&st7;' d='M91.85,61.22v-3.38'/>
<path style='&st7;' d='M34.47,34.3c1,0,1.81-0.81,1.81-1.81'/>
<path style='&st7;' d='M12.39,34.3h22.08'/>
<path style='&st7;' d='M40.64,32.49c0,1,0.81,1.81,1.81,1.81'/>
<path style='&st7;' d='M42.45,34.3h1.34'/>
<path style='&st7;' d='M51.77,34.3h1.34'/>
<path style='&st7;' d='M61.1,34.3h22.02'/>
<path style='&st7;' d='M40.64,28.67c0-1-0.81-1.81-1.81-1.81'/>
<path style='&st7;' d='M38.83,26.86h17.9'/>
<path style='&st7;' d='M40.64,28.67v3.82'/>
<path style='&st7;' d='M38.09,26.86c-1,0-1.81,0.81-1.81,1.81'/>
<path style='&st7;' d='M38.09,26.86h0.74'/>
<path style='&st7;' d='M36.28,28.67v3.82'/>
<path style='&st7;' d='M43.79,34.3c1,0,1.81-0.81,1.81-1.81'/>
<path style='&st7;' d='M49.96,32.49c0,1,0.81,1.81,1.81,1.81'/>
<path style='&st7;' d='M49.96,28.67c0-1-0.81-1.81-1.81-1.81'/>
<path style='&st7;' d='M49.96,28.67v3.82'/>
<path style='&st7;' d='M47.42,26.86c-1,0-1.81,0.81-1.81,1.81'/>
<path style='&st7;' d='M47.42,26.86h0.74'/>
<path style='&st7;' d='M45.6,28.67v3.82'/>
<path style='&st7;' d='M53.12,34.3c1,0,1.81-0.81,1.81-1.81'/>
<path style='&st7;' d='M59.29,32.49c0,1,0.81,1.81,1.81,1.81'/>
<path style='&st7;' d='M59.29,28.67c0-1-0.81-1.81-1.81-1.81'/>
<path style='&st7;' d='M59.29,28.67v3.82'/>
<path style='&st7;' d='M56.74,26.86c-1,0-1.81,0.81-1.81,1.81'/>
<path style='&st7;' d='M56.74,26.86h0.74'/>
<path style='&st7;' d='M54.93,28.67v3.82'/>
<path style='&st7;' d='M34.21,24.9c-1.57,0-2.84,1.27-2.84,2.84'/>
<path style='&st7;' d='M31.37,27.73v6.57'/>
<path style='&st7;' d='M64.19,27.73c0-1.56-1.27-2.84-2.83-2.84'/>
<path style='&st7;' d='M34.21,24.9h27.15'/>
<path style='&st7;' d='M64.19,27.73v6.57'/>
<path style='&st7;' d='M6.99,59.63v-1.79'/>
<path style='&st7;' d='M6.99,59.63h11.02'/>
<path style='&st7;' d='M18.01,59.63v-1.79'/>
<path style='&st7;' d='M23.92,59.63v-1.79'/>
<path style='&st7;' d='M23.92,59.63h11.02'/>
<path style='&st7;' d='M34.94,59.63v-1.79'/>
<path style='&st7;' d='M42.23,59.63v-1.79'/>
<path style='&st7;' d='M42.23,59.63h11.02'/>
<path style='&st7;' d='M53.25,59.63v-1.79'/>
<path style='&st7;' d='M60.63,59.63v-1.79'/>
<path style='&st7;' d='M60.63,59.63h11.02'/>
<path style='&st7;' d='M71.64,59.63v-1.79'/>
<path style='&st7;' d='M77.26,59.63v-1.79'/>
<path style='&st7;' d='M77.26,59.63h11.02'/>
<path style='&st7;' d='M88.28,59.63v-1.79'/>
<path style='&st7;' d='M1.32,60.33l0.88,0.88'/>
<path style='&st1;' d='M0.5,59.52l0.82,0.82'/>
<path style='&st7;' d='M94.19,60.33l-0.89,0.88'/>
<path style='&st1;' d='M95.01,59.52l-0.82,0.82'/>
    <g ewd:pinNo="22">
        <text transform="matrix(0.9 0 0 1 81.3574 52.957)"><tspan x='0' y='0' style='&st5; &st3;'>22</tspan></text>
    </g>
    <g ewd:pinNo="21">
        <text transform="matrix(0.9 0 0 1 74.0371 52.957)"><tspan x='0' y='0' style='&st5; &st3;'>21</tspan></text>
    </g>
    <g ewd:pinNo="20">
        <text transform="matrix(0.9 0 0 1 66.7168 52.957)"><tspan x='0' y='0' style='&st5; &st3;'>20</tspan></text>
    </g>
    <g ewd:pinNo="19">
        <text transform="matrix(0.9 0 0 1 59.3965 52.957)"><tspan x='0' y='0' style='&st5; &st3;'>19</tspan></text>
    </g>
    <g ewd:pinNo="18">
        <text transform="matrix(0.9 0 0 1 52.0762 52.957)"><tspan x='0' y='0' style='&st5; &st3;'>18</tspan></text>
    </g>
    <g ewd:pinNo="17">
        <text transform="matrix(0.9 0 0 1 44.7559 52.957)"><tspan x='0' y='0' style='&st5; &st3;'>17</tspan></text>
    </g>
    <g ewd:pinNo="16">
        <text transform="matrix(0.9 0 0 1 37.4355 52.957)"><tspan x='0' y='0' style='&st5; &st3;'>16</tspan></text>
    </g>
    <g ewd:pinNo="15">
        <text transform="matrix(0.9 0 0 1 30.1152 52.957)"><tspan x='0' y='0' style='&st5; &st3;'>15</tspan></text>
    </g>
    <g ewd:pinNo="14">
        <text transform="matrix(0.9 0 0 1 22.7949 52.957)"><tspan x='0' y='0' style='&st5; &st3;'>14</tspan></text>
    </g>
    <g ewd:pinNo="13">
        <text transform="matrix(0.9 0 0 1 15.4746 52.957)"><tspan x='0' y='0' style='&st5; &st3;'>13</tspan></text>
    </g>
    <g ewd:pinNo="12">
        <text transform="matrix(0.9 0 0 1 8.1543 52.957)"><tspan x='0' y='0' style='&st5; &st3;'>12</tspan></text>
    </g>
    <g ewd:pinNo="11">
        <text transform="matrix(0.9 0 0 1 81.5581 43.8086)"><tspan x='0' y='0' style='&st5; &st3;'>11</tspan></text>
    </g>
    <g ewd:pinNo="10">
        <text transform="matrix(0.9 0 0 1 74.0371 43.8086)"><tspan x='0' y='0' style='&st5; &st3;'>10</tspan></text>
    </g>
    <g ewd:pinNo="9">
        <text transform="matrix(1 0 0 1 68.0518 43.8086)"><tspan x='0' y='0' style='&st5; &st3;'>9</tspan></text>
    </g>
    <g ewd:pinNo="8">
        <text transform="matrix(1 0 0 1 60.7314 43.8086)"><tspan x='0' y='0' style='&st5; &st3;'>8</tspan></text>
    </g>
    <g ewd:pinNo="7">
        <text transform="matrix(1 0 0 1 53.4111 43.8086)"><tspan x='0' y='0' style='&st5; &st3;'>7</tspan></text>
    </g>
    <g ewd:pinNo="6">
        <text transform="matrix(1 0 0 1 46.0908 43.8086)"><tspan x='0' y='0' style='&st5; &st3;'>6</tspan></text>
    </g>
    <g ewd:pinNo="5">
        <text transform="matrix(1 0 0 1 38.7705 43.8086)"><tspan x='0' y='0' style='&st5; &st3;'>5</tspan></text>
    </g>
    <g ewd:pinNo="4">
        <text transform="matrix(1 0 0 1 31.4502 43.8086)"><tspan x='0' y='0' style='&st5; &st3;'>4</tspan></text>
    </g>
    <g ewd:pinNo="3">
        <text transform="matrix(1 0 0 1 24.1299 43.8086)"><tspan x='0' y='0' style='&st5; &st3;'>3</tspan></text>
    </g>
    <g ewd:pinNo="2">
        <text transform="matrix(1 0 0 1 16.8096 43.8086)"><tspan x='0' y='0' style='&st5; &st3;'>2</tspan></text>
    </g>
    <g ewd:pinNo="1">
        <text transform="matrix(1 0 0 1 9.4893 43.8086)"><tspan x='0' y='0' style='&st5; &st3;'>1</tspan></text>
    </g>
</g>
</g>
</svg>
