﻿<?xml version="1.0" encoding="UTF-8"?>
<!DOCTYPE svg PUBLIC "-//W3C//DTD SVG 1.0//EN" "http://www.w3.org/TR/2001/REC-SVG-20010904/DTD/svg10.dtd"[
<!ENTITY ns_flows "http://ns.adobe.com/Flows/1.0/">
<!ENTITY ns_svg "http://www.w3.org/2000/svg">
<!ENTITY ns_xlink "http://www.w3.org/1999/xlink">
	<!ENTITY st0 "fill:none;stroke:#F8E616;stroke-width:5.1;stroke-linejoin:round;">
	<!ENTITY st1 "fill:none;stroke:#FB0F0C;stroke-width:5.1;stroke-linejoin:round;">
	<!ENTITY st2 "fill:none;stroke:#9A9999;stroke-width:5.1;stroke-linejoin:round;">
	<!ENTITY st3 "fill:none;stroke:#99280B;stroke-width:5.1;stroke-linejoin:round;">
		<!ENTITY st4 "fill:none;stroke:#000000;stroke-width:0.85;stroke-linecap:round;stroke-linejoin:round;stroke-dasharray:3 1.5;enable-background:new    ;">
	<!ENTITY st5 "fill:none;stroke:#000000;stroke-width:5.1;stroke-linejoin:round;">
	<!ENTITY st6 "fill:none;stroke:#199DBF;stroke-width:1.13;stroke-linejoin:round;">
	<!ENTITY st7 "fill:none;stroke:#000000;stroke-linecap:round;stroke-linejoin:round;">
	<!ENTITY st8 "fill:none;stroke:#F8E616;stroke-width:1.13;stroke-linejoin:round;">
	<!ENTITY st9 "stroke:#000000;stroke-width:0.28;stroke-linecap:round;stroke-linejoin:round;enable-background:new    ;">
	<!ENTITY st10 "enable-background:new    ;">
		<!ENTITY st11 "fill:none;stroke:#000000;stroke-width:1.42;stroke-linecap:round;stroke-linejoin:round;enable-background:new    ;">
	<!ENTITY st12 "fill:none;stroke:#EE67AA;stroke-width:5.1;stroke-linejoin:round;">
	<!ENTITY st13 "fill:none;stroke:#199DBF;stroke-width:5.1;stroke-linejoin:round;">
	<!ENTITY st14 "opacity:0.5;fill:none;stroke:#34ACCE;stroke-linejoin:round;stroke-dasharray:6;">
	<!ENTITY st15 "fill:none;stroke:#FFFFFF;stroke-width:4.53;stroke-linejoin:round;">
		<!ENTITY st16 "fill:none;stroke:#000000;stroke-width:0.85;stroke-linecap:round;stroke-linejoin:round;enable-background:new    ;">
	<!ENTITY st17 "fill:none;stroke:#56107C;stroke-width:5.1;stroke-linejoin:round;">
	<!ENTITY st18 "font-size:6px;">
	<!ENTITY st19 "fill:none;stroke:#FFFFFF;stroke-width:2.27;stroke-linejoin:round;">
	<!ENTITY st20 "fill:none;stroke:#FB0F0C;stroke-width:1.13;stroke-linejoin:round;">
	<!ENTITY st21 "fill:none;stroke:#FFFFFF;stroke-width:1.13;stroke-linejoin:round;">
	<!ENTITY st22 "fill:none;stroke:#168638;stroke-width:5.1;stroke-linejoin:round;">
	<!ENTITY st23 "fill:none;stroke:#000000;stroke-width:1.13;stroke-linejoin:round;">
		<!ENTITY st24 "fill:none;stroke:#000000;stroke-width:1.13;stroke-linecap:round;stroke-linejoin:round;stroke-dasharray:3 1.5;enable-background:new    ;">
	<!ENTITY st25 "fill:#FFFFFF;stroke:#000000;stroke-width:1.41;stroke-linecap:round;stroke-linejoin:round;">
	<!ENTITY st26 "fill:none;stroke:#3E65AC;stroke-width:3;">
	<!ENTITY st27 "fill:#CCCCCC;stroke:#CCCCCC;stroke-width:0.1;stroke-linecap:round;stroke-linejoin:round;">
	<!ENTITY st28 "font-family:'Arial';">
	<!ENTITY st29 "fill:none;stroke:#168638;stroke-width:1.13;stroke-linejoin:round;">
	<!ENTITY st30 "opacity:0.5;fill:none;stroke:#34ACCE;stroke-linejoin:round;">
	<!ENTITY st31 "fill:#CFE6E7;stroke:#000000;stroke-width:1.133;stroke-linecap:round;stroke-linejoin:round;">
	<!ENTITY st32 "fill:none;stroke:#7EC57E;stroke-width:5.1;stroke-linejoin:round;">
<!ATTLIST svg
xmlns:ewd CDATA #FIXED "http://shcl.co.jp/ewd"
xmlns:a CDATA #FIXED "http://ns.adobe.com/AdobeSVGViewerExtensions/3.0/"
ewd:ver CDATA #IMPLIED
>
<!ATTLIST a
ewd:lineID CDATA #IMPLIED
ewd:groupID CDATA #IMPLIED
ewd:figtype CDATA #IMPLIED
ewd:code CDATA #IMPLIED
ewd:figID CDATA #IMPLIED
ewd:pinNo CDATA #IMPLIED
ewd:comment CDATA #IMPLIED >
<!ATTLIST g
ewd:lineID CDATA #IMPLIED
ewd:groupID CDATA #IMPLIED
ewd:figtype CDATA #IMPLIED
ewd:code CDATA #IMPLIED
ewd:figID CDATA #IMPLIED
ewd:pinNo CDATA #IMPLIED
ewd:comment CDATA #IMPLIED >
<!ATTLIST text
ewd:textID CDATA #IMPLIED >
<!ATTLIST title
ewd:textID CDATA #IMPLIED >
]>
<svg 
viewBox='0 0 4668.69 729.44'
height='729.44'
width='4668.69'
xml:space="preserve"
xmlns="&ns_svg;"
xmlns:ewd="http://shcl.co.jp/ewd"
xmlns:xlink="&ns_xlink;" ewd:ver="L2.3">
<g ewd:code="3JB" ewd:figID="314" ewd:figtype="jb">
<path style="&st11;" d="M4552.95,107.53h-4.24"/>
<path style="&st11;" d="M4552.95,116.03h-4.24"/>
<path style="&st11;" d="M4552.95,150.02h-4.24"/>
<path style="&st11;" d="M4552.95,158.52h-4.24"/>
<path style="&st9;" d="M4550.83,145.13l-2.83-2.84v4.25l2.83,2.84l2.83-2.84v-4.25L4550.83,145.13"/>
<path style="&st16;" d="M4550.83,116.03v33.99"/>
<path style="&st9;" d="M4550.83,120.92l2.83,2.83v-4.24l-2.83-2.84l-2.83,2.84v4.24L4550.83,120.92"/>
<path style="&st11;" d="M4548.71,107.53c-2.35,0-4.25,1.9-4.25,4.25"/>
<path style="&st11;" d="M4544.46,111.78c0,2.34,1.9,4.25,4.25,4.25"/>
<path style="&st11;" d="M4552.95,116.03c2.35,0,4.25-1.91,4.25-4.25"/>
<path style="&st11;" d="M4557.2,111.78c0-2.35-1.9-4.25-4.25-4.25"/>
<path style="&st11;" d="M4548.71,150.02c-2.35,0-4.25,1.9-4.25,4.25"/>
<path style="&st11;" d="M4544.46,154.27c0,2.35,1.9,4.25,4.25,4.25"/>
<path style="&st11;" d="M4552.95,158.52c2.35,0,4.25-1.9,4.25-4.25"/>
<path style="&st11;" d="M4557.2,154.27c0-2.35-1.9-4.25-4.25-4.25"/>
<path style="&st11;" d="M4552.95,158.52h-4.24"/>
<path style="&st11;" d="M4552.95,167.02h-4.24"/>
<path style="&st11;" d="M4548.71,158.52c-2.35,0-4.25,1.9-4.25,4.25"/>
<path style="&st11;" d="M4544.46,162.77c0,2.35,1.9,4.25,4.25,4.25"/>
<path style="&st11;" d="M4552.95,167.02c2.35,0,4.25-1.9,4.25-4.25"/>
<path style="&st11;" d="M4557.2,162.77c0-2.35-1.9-4.25-4.25-4.25"/>
<text transform="matrix(1 0 0 1 4546.5195 156.2441)" style="&st10;"><tspan x="0" y="0" style="&st28; &st18;">3A</tspan></text>
<text transform="matrix(1 0 0 1 4534.1797 156.2441)" style="&st10;"><tspan x="0" y="0" style="&st28; &st18;">49</tspan></text>
<text transform="matrix(1 0 0 1 4546.5195 113.7544)" style="&st10;"><tspan x="0" y="0" style="&st28; &st18;">3B</tspan></text>
<text transform="matrix(1 0 0 1 4534.1797 113.7544)" style="&st10;"><tspan x="0" y="0" style="&st28; &st18;">30</tspan></text>
<text transform="matrix(1 0 0 1 4546.5195 164.7441)" style="&st10;"><tspan x="0" y="0" style="&st28; &st18;">3A</tspan></text>
<text transform="matrix(1 0 0 1 4537.1797 164.7441)" style="&st10;"><tspan x="0" y="0" style="&st28; &st18;">2</tspan></text>
</g>
<g ewd:code="2" ewd:figID="315" ewd:figtype="jb">
<path style="&st7;" d="M4606.07,39.54v42.49h25.5V39.54H4606.07"/>
<path style="&st16;" d="M4618.82,73.53v25.5"/>
<path style="&st11;" d="M4620.94,99.03h-4.25"/>
<path style="&st11;" d="M4620.94,107.53h-4.25"/>
<path style="&st11;" d="M4606.07,39.54v42.49h25.49V39.54H4606.07"/>
<path style="&st9;" d="M4618.82,94.13l-2.84-2.83v4.25l2.84,2.83l2.83-2.83V91.3L4618.82,94.13"/>
<path style="&st11;" d="M4620.94,107.53c2.35,0,4.25-1.9,4.25-4.25"/>
<path style="&st11;" d="M4612.45,103.28c0,2.35,1.9,4.25,4.24,4.25"/>
<path style="&st11;" d="M4616.69,99.03c-2.34,0-4.24,1.9-4.24,4.25"/>
<path style="&st11;" d="M4618.82,50.87c-2.74,1.61-3.65,5.14-2.04,7.88"/>
<path style="&st11;" d="M4616.78,58.75c0.52,0.88,1.16,1.52,2.04,2.04"/>
<path style="&st11;" d="M4618.82,70.7c2.74-1.61,3.65-5.14,2.04-7.88"/>
<path style="&st11;" d="M4620.86,62.82c-0.52-0.88-1.16-1.51-2.04-2.03"/>
<path style="&st16;" d="M4620.24,72.12c0-0.79-0.64-1.42-1.42-1.42"/>
<path style="&st16;" d="M4618.82,70.7c-0.78,0-1.42,0.63-1.42,1.42"/>
<path style="&st16;" d="M4617.4,72.12c0,0.78,0.64,1.41,1.42,1.41"/>
<path style="&st16;" d="M4618.82,73.53c0.78,0,1.42-0.63,1.42-1.41"/>
<path style="&st16;" d="M4620.24,49.45c0-0.78-0.64-1.41-1.42-1.41"/>
<path style="&st16;" d="M4618.82,48.04c-0.78,0-1.42,0.63-1.42,1.41"/>
<path style="&st16;" d="M4617.4,49.45c0,0.79,0.64,1.42,1.42,1.42"/>
<path style="&st16;" d="M4618.82,50.87c0.78,0,1.42-0.63,1.42-1.42"/>
<path style="&st11;" d="M4625.19,103.28c0-2.35-1.9-4.25-4.25-4.25"/>
<text transform="matrix(1 0 0 1 4612.7402 35.8442)" style="&st10;"><tspan x="0" y="0" style="&st28; &st18;">(IG)</tspan></text>
<text transform="matrix(1 0 0 1 4636.1191 59.9341)" style="&st10;"><tspan x="0" y="0" style="&st28; &st18;">7.5A</tspan></text>
<text transform="matrix(1 0 0 1 4636.1191 65.9341)" style="&st10;"><tspan x="0" y="0" style="&st28; &st18;">GAUGE</tspan></text>
<text transform="matrix(1 0 0 1 4602.1699 105.2544)" style="&st10;"><tspan x="0" y="0" style="&st28; &st18;">55</tspan></text>
<text transform="matrix(1 0 0 1 4614.5098 105.2544)" style="&st10;"><tspan x="0" y="0" style="&st28; &st18;">2A</tspan></text>
</g>
<g ewd:code="C6" ewd:figID="212" ewd:figtype="gp">
<path style="&st16;" d="M4515.42,713.76h2.83"/>
<path style="&st16;" d="M4514,710.93h5.67"/>
<path style="&st16;" d="M4512.58,708.09h8.5"/>
<path style="&st16;" d="M4508.34,705.26h16.99"/>
<path style="&st16;" d="M4516.83,701.01v4.25"/>
</g>
<g ewd:code="G5" ewd:figID="213" ewd:figtype="gp">
<path style="&st16;" d="M4625.9,713.76h2.83"/>
<path style="&st16;" d="M4624.48,710.93h5.67"/>
<path style="&st16;" d="M4623.07,708.09h8.49"/>
<path style="&st16;" d="M4618.82,705.26h16.99"/>
<path style="&st16;" d="M4627.32,701.01v4.25"/>
</g>
<g ewd:code="G92,G143" ewd:figID="50" ewd:figtype="conn">
<path style="&st16;" d="M4576.32,438.97v17"/>
<path style="&st11;" d="M4567.83,438.97h16.99v17h-16.99V438.97"/>
<path style="&st11;" d="M4580.86,460.5c0-2.5-2.03-4.53-4.53-4.53"/>
<path style="&st11;" d="M4576.33,455.97c-2.51,0-4.54,2.03-4.54,4.53"/>
<path style="&st11;" d="M4571.79,460.5c0,2.51,2.03,4.53,4.54,4.53"/>
<path style="&st11;" d="M4576.33,465.03c2.5,0,4.53-2.02,4.53-4.53"/>
<path style="&st11;" d="M4580.86,469.57c0-2.51-2.03-4.54-4.53-4.54"/>
<path style="&st11;" d="M4576.33,465.03c-2.51,0-4.54,2.03-4.54,4.54"/>
<path style="&st11;" d="M4571.79,469.57c0,2.5,2.03,4.53,4.54,4.53"/>
<path style="&st11;" d="M4576.33,474.1c2.5,0,4.53-2.03,4.53-4.53"/>
<path style="&st11;" d="M4580.86,425.38c0-2.5-2.03-4.53-4.53-4.53"/>
<path style="&st11;" d="M4576.33,420.84c-2.51,0-4.54,2.03-4.54,4.53"/>
<path style="&st11;" d="M4571.79,425.38c0,2.51,2.03,4.54,4.54,4.54"/>
<path style="&st11;" d="M4576.33,429.91c2.5,0,4.53-2.03,4.53-4.54"/>
<path style="&st11;" d="M4580.86,434.44c0-2.5-2.03-4.53-4.53-4.53"/>
<path style="&st11;" d="M4576.33,429.91c-2.51,0-4.54,2.03-4.54,4.53"/>
<path style="&st11;" d="M4571.79,434.44c0,2.5,2.03,4.53,4.54,4.53"/>
<path style="&st11;" d="M4576.33,438.97c2.5,0,4.53-2.03,4.53-4.53"/>
<text transform="matrix(1 0 0 1 4565.4492 436.4141)" style="&st10;"><tspan x="0" y="0" style="&st28; &st18;">5</tspan></text>
<text transform="matrix(1 0 0 1 4573.9902 436.4141)" style="&st10;"><tspan x="0" y="0" style="&st28; &st18;">B</tspan></text>
<text transform="matrix(1 0 0 1 4565.4492 427.3438)" style="&st10;"><tspan x="0" y="0" style="&st28; &st18;">5</tspan></text>
<text transform="matrix(1 0 0 1 4573.9902 427.3438)" style="&st10;"><tspan x="0" y="0" style="&st28; &st18;">A</tspan></text>
<text transform="matrix(1 0 0 1 4565.4492 471.5449)" style="&st10;"><tspan x="0" y="0" style="&st28; &st18;">6</tspan></text>
<text transform="matrix(1 0 0 1 4573.9902 471.5449)" style="&st10;"><tspan x="0" y="0" style="&st28; &st18;">B</tspan></text>
<text transform="matrix(1 0 0 1 4565.4492 462.4746)" style="&st10;"><tspan x="0" y="0" style="&st28; &st18;">6</tspan></text>
<text transform="matrix(1 0 0 1 4573.9902 462.4746)" style="&st10;"><tspan x="0" y="0" style="&st28; &st18;">A</tspan></text>
<text ewd:textID='24' transform='matrix(1 0 0 1 4587.9688 452.2734)' style='&st10; &st28; &st18;'>Junction Connector</text>
<text transform="matrix(1 0 0 1 4587.9688 445.1738)" style="&st10;"><tspan x="0" y="0" style="&st28; &st18;">G92(A),G143(B)</tspan></text>
</g>
<g ewd:code="G81-A,G82-B,G128-C,G129-D" ewd:figID="49" ewd:figtype="conn">
<path style="&st11;" d="M4567.83,515.46v33.99h67.98v-33.99H4567.83"/>
<path style="&st24;" d="M4567.83,523.96h67.98"/>
<path style="&st24;" d="M4567.83,540.96h67.98"/>
<path style="&st16;" d="M4576.32,515.46v17h25.5v-17"/>
<path style="&st16;" d="M4627.32,515.46v33.99"/>
<path style="&st11;" d="M4580.86,510.93c0-2.51-2.03-4.54-4.53-4.54"/>
<path style="&st11;" d="M4576.33,506.39c-2.51,0-4.54,2.03-4.54,4.54"/>
<path style="&st11;" d="M4571.79,510.93c0,2.5,2.03,4.53,4.54,4.53"/>
<path style="&st11;" d="M4576.33,515.46c2.5,0,4.53-2.03,4.53-4.53"/>
<path style="&st11;" d="M4580.86,501.86c0-2.5-2.03-4.53-4.53-4.53"/>
<path style="&st11;" d="M4576.33,497.33c-2.51,0-4.54,2.03-4.54,4.53"/>
<path style="&st11;" d="M4571.79,501.86c0,2.51,2.03,4.53,4.54,4.53"/>
<path style="&st11;" d="M4576.33,506.39c2.5,0,4.53-2.02,4.53-4.53"/>
<path style="&st11;" d="M4606.35,501.86c0-2.5-2.02-4.53-4.53-4.53"/>
<path style="&st11;" d="M4601.82,497.33c-2.5,0-4.53,2.03-4.53,4.53"/>
<path style="&st11;" d="M4597.29,501.86c0,2.51,2.03,4.53,4.53,4.53"/>
<path style="&st11;" d="M4601.82,506.39c2.51,0,4.53-2.02,4.53-4.53"/>
<path style="&st11;" d="M4631.85,510.93c0-2.51-2.03-4.54-4.53-4.54"/>
<path style="&st11;" d="M4627.32,506.39c-2.51,0-4.54,2.03-4.54,4.54"/>
<path style="&st11;" d="M4622.78,510.93c0,2.5,2.03,4.53,4.54,4.53"/>
<path style="&st11;" d="M4627.32,515.46c2.5,0,4.53-2.03,4.53-4.53"/>
<path style="&st11;" d="M4631.85,501.86c0-2.5-2.03-4.53-4.53-4.53"/>
<path style="&st11;" d="M4627.32,497.33c-2.51,0-4.54,2.03-4.54,4.53"/>
<path style="&st11;" d="M4622.78,501.86c0,2.51,2.03,4.53,4.54,4.53"/>
<path style="&st11;" d="M4627.32,506.39c2.5,0,4.53-2.02,4.53-4.53"/>
<path style="&st11;" d="M4631.85,553.99c0-2.51-2.03-4.54-4.53-4.54"/>
<path style="&st11;" d="M4627.32,549.46c-2.51,0-4.54,2.03-4.54,4.54"/>
<path style="&st11;" d="M4622.78,553.99c0,2.5,2.03,4.53,4.54,4.53"/>
<path style="&st11;" d="M4627.32,558.52c2.5,0,4.53-2.03,4.53-4.53"/>
<path style="&st11;" d="M4631.85,563.05c0-2.5-2.03-4.53-4.53-4.53"/>
<path style="&st11;" d="M4627.32,558.52c-2.51,0-4.54,2.03-4.54,4.53"/>
<path style="&st11;" d="M4622.78,563.05c0,2.51,2.03,4.53,4.54,4.53"/>
<path style="&st11;" d="M4627.32,567.58c2.5,0,4.53-2.02,4.53-4.53"/>
<path style="&st11;" d="M4606.35,510.93c0-2.51-2.02-4.54-4.53-4.54"/>
<path style="&st11;" d="M4601.82,506.39c-2.5,0-4.53,2.03-4.53,4.54"/>
<path style="&st11;" d="M4597.29,510.93c0,2.5,2.03,4.53,4.53,4.53"/>
<path style="&st11;" d="M4601.82,515.46c2.51,0,4.53-2.03,4.53-4.53"/>
<text transform="matrix(1 0 0 1 4573.8496 512.9043)" style="&st10;"><tspan x="0" y="0" style="&st28; &st18;">D</tspan></text>
<text transform="matrix(1 0 0 1 4565.4492 512.9043)" style="&st10;"><tspan x="0" y="0" style="&st28; &st18;">8</tspan></text>
<text transform="matrix(1 0 0 1 4599.3496 512.9043)" style="&st10;"><tspan x="0" y="0" style="&st28; &st18;">D</tspan></text>
<text transform="matrix(1 0 0 1 4590.9492 512.9043)" style="&st10;"><tspan x="0" y="0" style="&st28; &st18;">9</tspan></text>
<text transform="matrix(1 0 0 1 4565.4492 503.834)" style="&st10;"><tspan x="0" y="0" style="&st28; &st18;">8</tspan></text>
<text transform="matrix(1 0 0 1 4573.9902 503.834)" style="&st10;"><tspan x="0" y="0" style="&st28; &st18;">B</tspan></text>
<text transform="matrix(1 0 0 1 4590.9492 503.834)" style="&st10;"><tspan x="0" y="0" style="&st28; &st18;">9</tspan></text>
<text transform="matrix(1 0 0 1 4599.4902 503.834)" style="&st10;"><tspan x="0" y="0" style="&st28; &st18;">B</tspan></text>
<text transform="matrix(1 0 0 1 4613.2598 512.9043)" style="&st10;"><tspan x="0" y="0" style="&st28; &st18;">10</tspan></text>
<text transform="matrix(1 0 0 1 4624.8398 512.9043)" style="&st10;"><tspan x="0" y="0" style="&st28; &st18;">D</tspan></text>
<text transform="matrix(1 0 0 1 4613.2598 503.834)" style="&st10;"><tspan x="0" y="0" style="&st28; &st18;">10</tspan></text>
<text transform="matrix(1 0 0 1 4624.9902 503.834)" style="&st10;"><tspan x="0" y="0" style="&st28; &st18;">B</tspan></text>
<text transform="matrix(1 0 0 1 4616.4395 555.9648)" style="&st10;"><tspan x="0" y="0" style="&st28; &st18;">7</tspan></text>
<text transform="matrix(1 0 0 1 4624.9902 555.9648)" style="&st10;"><tspan x="0" y="0" style="&st28; &st18;">A</tspan></text>
<text transform="matrix(1 0 0 1 4616.4395 565.0234)" style="&st10;"><tspan x="0" y="0" style="&st28; &st18;">7</tspan></text>
<text transform="matrix(1 0 0 1 4624.8398 565.0234)" style="&st10;"><tspan x="0" y="0" style="&st28; &st18;">C</tspan></text>
<text transform="matrix(0 -1 1 0 4551.0801 551.9844)" style="&st10;"><tspan x="0" y="0" style="&st28; &st18;">G81(A),G82(B),</tspan></text>
<text transform="matrix(0 -1 1 0 4557.0801 551.9844)" style="&st10;"><tspan x="0" y="0" style="&st28; &st18;">G128(C),G129(D)</tspan></text>
<text ewd:textID='24' transform='matrix(0 -1 1 0 4564.1289 551.9844)' style='&st10; &st28; &st18;'>Junction Connector</text>
</g>
<g ewd:code="G106" ewd:figID="51" ewd:figtype="conn">
<path style="&st16;" d="M4627.32,659.94v25.49"/>
<path style="&st11;" d="M4618.82,659.94h16.99v16.99h-16.99V659.94"/>
<text transform="matrix(1 0 0 1 4620.5293 656.2539)" style="&st10;"><tspan x="0" y="0" style="&st28; &st18;">4</tspan></text>
<text ewd:textID='24' transform='matrix(0 -1 1 0 4609.1699 679.4648)' style='&st10; &st28; &st18;'>Junction <tspan x='0' y='7' >Connector</tspan></text>
<text transform="matrix(0 -1 1 0 4602.0703 679.4648)" style="&st10;"><tspan x="0" y="0" style="&st28; &st18;">G106</tspan></text>
</g>
<text transform="matrix(0 -1 1 0 4547.1289 192.3691)" style="&st10;"><tspan x="0" y="0" style="&st28; &st18;">L</tspan></text>
<text transform="matrix(0 -1 1 0 4615.1191 165.2544)" style="&st10;"><tspan x="0" y="0" style="&st28; &st18;">R</tspan></text>
<text transform="matrix(0 -1 1 0 4572.6289 489.1738)" style="&st10;"><tspan x="0" y="0" style="&st28; &st18;">W-B</tspan></text>
<text transform="matrix(0 -1 1 0 4623.6191 591.1543)" style="&st10;"><tspan x="0" y="0" style="&st28; &st18;">W-B</tspan></text>
<text transform="matrix(0 -1 1 0 4513.1387 418.2842)" style="&st10;"><tspan x="0" y="0" style="&st28; &st18;">BR</tspan></text>
<text transform="matrix(0 -1 1 0 4513.1387 494.7734)" style="&st10;"><tspan x="0" y="0" style="&st28; &st18;">BR</tspan></text>
<text transform="matrix(0 -1 1 0 4513.1387 567.0137)" style="&st10;"><tspan x="0" y="0" style="&st28; &st18;">BR</tspan></text>
<text transform="matrix(0 -1 1 0 4572.6289 413.1836)" style="&st10;"><tspan x="0" y="0" style="&st28; &st18;">W-B</tspan></text>
<text transform="matrix(0 -1 1 0 4524.4688 627.875)" style="&st10;"><tspan x="0" y="0" style="&st28; &st18;">(*4)</tspan></text>
<text transform="matrix(0 -1 1 0 4513.1387 626.5039)" style="&st10;"><tspan x="0" y="0" style="&st28; &st18;">BR</tspan></text>
<text transform="matrix(1 0 0 1 4582.2988 436.4141)" style="&st10;"><tspan x="0" y="0" style="&st28; &st18;">(*7)</tspan></text>
<text transform="matrix(1 0 0 1 4582.2988 427.3438)" style="&st10;"><tspan x="0" y="0" style="&st28; &st18;">(*6)</tspan></text>
<text transform="matrix(1 0 0 1 4582.2988 471.5449)" style="&st10;"><tspan x="0" y="0" style="&st28; &st18;">(*7)</tspan></text>
<text transform="matrix(1 0 0 1 4582.2988 462.4746)" style="&st10;"><tspan x="0" y="0" style="&st28; &st18;">(*6)</tspan></text>
<text transform="matrix(1 0 0 1 4633.2891 512.9043)" style="&st10;"><tspan x="0" y="0" style="&st28; &st18;">(RHD)</tspan></text>
<text transform="matrix(1 0 0 1 4633.2891 503.834)" style="&st10;"><tspan x="0" y="0" style="&st28; &st18;">(LHD)</tspan></text>
<text transform="matrix(1 0 0 1 4633.2891 555.9648)" style="&st10;"><tspan x="0" y="0" style="&st28; &st18;">(LHD)</tspan></text>
<text transform="matrix(1 0 0 1 4633.2891 565.0234)" style="&st10;"><tspan x="0" y="0" style="&st28; &st18;">(RHD)</tspan></text>
<text transform="matrix(0 -1 1 0 4583.959 414.5547)" style="&st10;"><tspan x="0" y="0" style="&st28; &st18;">(*11)</tspan></text>
<text transform="matrix(0 -1 1 0 4583.959 490.5449)" style="&st10;"><tspan x="0" y="0" style="&st28; &st18;">(*11)</tspan></text>
<text transform="matrix(0 -1 1 0 4634.9492 592.5254)" style="&st10;"><tspan x="0" y="0" style="&st28; &st18;">(*11)</tspan></text>
<text transform="matrix(1 0 0 1 4606.498 489.1035)" style="&st10;"><tspan x="0" y="0" style="&st28; &st18;">(*11)</tspan></text>
<text transform="matrix(1 0 0 1 4607.8691 477.7734)" style="&st10;"><tspan x="0" y="0" style="&st28; &st18;">W-B</tspan></text>
<text transform="matrix(1 0 0 1 4559.6387 156.2437)" style="&st10;"><tspan x="0" y="0" style="&st28; &st18;">(*11)</tspan></text>
<text transform="matrix(1 0 0 1 4559.6387 165.314)" style="&st10;"><tspan x="0" y="0" style="&st28; &st18;">(*12)</tspan></text>
</svg>
