﻿<?xml version="1.0" encoding="UTF-8"?>
<!DOCTYPE svg PUBLIC "-//W3C//DTD SVG 1.0//EN" "http://www.w3.org/TR/2001/REC-SVG-20010904/DTD/svg10.dtd"[
<!ENTITY ns_flows "http://ns.adobe.com/Flows/1.0/">
<!ENTITY ns_svg "http://www.w3.org/2000/svg">
<!ENTITY ns_xlink "http://www.w3.org/1999/xlink">
	<!ENTITY st0 "fill:none;stroke:#F8E616;stroke-width:5.1;stroke-linejoin:round;">
	<!ENTITY st1 "fill:none;stroke:#FB0F0C;stroke-width:5.1;stroke-linejoin:round;">
	<!ENTITY st2 "fill:none;stroke:#9A9999;stroke-width:5.1;stroke-linejoin:round;">
	<!ENTITY st3 "fill:none;stroke:#99280B;stroke-width:5.1;stroke-linejoin:round;">
	<!ENTITY st4 "fill:none;stroke:#000000;stroke-width:1.3;stroke-linejoin:round;">
		<!ENTITY st5 "fill:none;stroke:#000000;stroke-width:0.85;stroke-linecap:round;stroke-linejoin:round;stroke-dasharray:3 1.5;enable-background:new    ;">
	<!ENTITY st6 "fill:none;stroke:#000000;stroke-width:5.1;stroke-linejoin:round;">
	<!ENTITY st7 "fill:none;stroke:#199DBF;stroke-width:1.13;stroke-linejoin:round;">
	<!ENTITY st8 "fill:none;stroke:#000000;stroke-linecap:round;stroke-linejoin:round;">
	<!ENTITY st9 "fill:none;stroke:#F8E616;stroke-width:1.13;stroke-linejoin:round;">
	<!ENTITY st10 "stroke:#000000;stroke-width:0.28;stroke-linecap:round;stroke-linejoin:round;enable-background:new    ;">
	<!ENTITY st11 "enable-background:new    ;">
		<!ENTITY st12 "fill:none;stroke:#000000;stroke-width:1.42;stroke-linecap:round;stroke-linejoin:round;enable-background:new    ;">
	<!ENTITY st13 "fill:none;stroke:#EE67AA;stroke-width:5.1;stroke-linejoin:round;">
	<!ENTITY st14 "fill:none;stroke:#199DBF;stroke-width:5.1;stroke-linejoin:round;">
	<!ENTITY st15 "opacity:0.5;fill:none;stroke:#34ACCE;stroke-linejoin:round;stroke-dasharray:6;">
	<!ENTITY st16 "fill:none;stroke:#FFFFFF;stroke-width:4.53;stroke-linejoin:round;">
		<!ENTITY st17 "fill:none;stroke:#000000;stroke-width:0.85;stroke-linecap:round;stroke-linejoin:round;enable-background:new    ;">
	<!ENTITY st18 "fill:none;stroke:#56107C;stroke-width:5.1;stroke-linejoin:round;">
	<!ENTITY st19 "font-size:6px;">
	<!ENTITY st20 "fill:none;stroke:#FFFFFF;stroke-width:2.27;stroke-linejoin:round;">
	<!ENTITY st21 "fill:none;stroke:#FB0F0C;stroke-width:1.13;stroke-linejoin:round;">
	<!ENTITY st22 "fill:none;stroke:#FFFFFF;stroke-width:1.13;stroke-linejoin:round;">
	<!ENTITY st23 "fill:none;stroke:#168638;stroke-width:5.1;stroke-linejoin:round;">
	<!ENTITY st24 "fill:none;stroke:#000000;stroke-width:1.13;stroke-linejoin:round;">
		<!ENTITY st25 "fill:none;stroke:#000000;stroke-width:1.13;stroke-linecap:round;stroke-linejoin:round;stroke-dasharray:3 1.5;enable-background:new    ;">
	<!ENTITY st26 "fill:#FFFFFF;stroke:#000000;stroke-width:1.41;stroke-linecap:round;stroke-linejoin:round;">
	<!ENTITY st27 "fill:none;stroke:#3E65AC;stroke-width:3;">
	<!ENTITY st28 "fill:#CCCCCC;stroke:#CCCCCC;stroke-width:0.1;stroke-linecap:round;stroke-linejoin:round;">
	<!ENTITY st29 "font-family:'Arial';">
	<!ENTITY st30 "opacity:0.5;fill:none;stroke:#34ACCE;stroke-linejoin:round;">
	<!ENTITY st31 "fill:#CFE6E7;stroke:#000000;stroke-width:1.133;stroke-linecap:round;stroke-linejoin:round;">
	<!ENTITY st32 "fill:none;stroke:#99D5E0;stroke-width:5.1;stroke-linejoin:round;">
	<!ENTITY st33 "fill:none;stroke:#7EC57E;stroke-width:5.1;stroke-linejoin:round;">
<!ATTLIST svg
xmlns:ewd CDATA #FIXED "http://shcl.co.jp/ewd"
xmlns:a CDATA #FIXED "http://ns.adobe.com/AdobeSVGViewerExtensions/3.0/"
ewd:ver CDATA #IMPLIED
>
<!ATTLIST a
ewd:lineID CDATA #IMPLIED
ewd:groupID CDATA #IMPLIED
ewd:figtype CDATA #IMPLIED
ewd:code CDATA #IMPLIED
ewd:figID CDATA #IMPLIED
ewd:pinNo CDATA #IMPLIED
ewd:comment CDATA #IMPLIED >
<!ATTLIST g
ewd:lineID CDATA #IMPLIED
ewd:groupID CDATA #IMPLIED
ewd:figtype CDATA #IMPLIED
ewd:code CDATA #IMPLIED
ewd:figID CDATA #IMPLIED
ewd:pinNo CDATA #IMPLIED
ewd:comment CDATA #IMPLIED >
<!ATTLIST text
ewd:textID CDATA #IMPLIED >
<!ATTLIST title
ewd:textID CDATA #IMPLIED >
]>
<svg 
viewBox='0 0 4668.69 729.44'
height='729.44'
width='4668.69'
xml:space="preserve"
xmlns="&ns_svg;"
xmlns:ewd="http://shcl.co.jp/ewd"
xmlns:xlink="&ns_xlink;" ewd:ver="L2.3">
<g ewd:code="Ar1" ewd:figID="633" ewd:figtype="w2w" ewd:pinNo="3">
<path style="&st12;" d="M2538.02,404.99h-8.5"/>
<path style="&st12;" d="M2533.77,414.05l-4.25-4.25l-4.25,4.25"/>
<path style="&st12;" d="M2533.77,410.65l-4.25-4.25l-4.25,4.25"/>
<text transform="matrix(1 0 0 1 2514.6816 402.7056)" style="&st11;"><tspan x="0" y="0" style="&st29; &st19;">3</tspan></text>
</g>
<g ewd:code="Ar1" ewd:figID="632" ewd:figtype="w2w" ewd:pinNo="2">
<path style="&st12;" d="M2521.02,557.96h8.5"/>
<path style="&st12;" d="M2525.27,548.9l4.25,4.25l4.25-4.25"/>
<path style="&st12;" d="M2533.77,552.3l-4.25,4.25l-4.25-4.25"/>
<text transform="matrix(1 0 0 1 2514.6816 564.1763)" style="&st11;"><tspan x="0" y="0" style="&st29; &st19;">2</tspan></text>
</g>
<g ewd:code="210002" ewd:figID="502" ewd:figtype="sp">
<path style="&st12;" d="M2741.98,146.5l-4.97-4.97"/>
<path style="&st12;" d="M2724.99,153.56l4.96,4.97"/>
<path style="&st12;" d="M2737.01,158.53l4.97-4.97"/>
<path style="&st12;" d="M2729.96,141.53l-4.97,4.97"/>
</g>
<g ewd:code="210003" ewd:figID="503" ewd:figtype="sp">
<path style="&st12;" d="M2843.97,112.51l-4.98-4.97"/>
<path style="&st12;" d="M2826.97,119.57l4.97,4.97"/>
<path style="&st12;" d="M2838.99,124.54l4.98-4.97"/>
<path style="&st12;" d="M2831.94,107.54l-4.97,4.97"/>
</g>
<g ewd:code="210007" ewd:figID="507" ewd:figtype="sp">
<path style="&st12;" d="M3005.44,426.96l-4.97-4.97"/>
<path style="&st12;" d="M2988.44,434.01l4.97,4.97"/>
<path style="&st12;" d="M3000.47,438.98l4.97-4.97"/>
<path style="&st12;" d="M2993.41,421.99l-4.97,4.97"/>
</g>
<g ewd:code="C6" ewd:figID="206" ewd:figtype="gp">
<path style="&st17;" d="M2647.08,713.77h2.83"/>
<path style="&st17;" d="M2645.66,710.94h5.67"/>
<path style="&st17;" d="M2644.25,708.1h8.5"/>
<path style="&st17;" d="M2640,705.27h17"/>
<path style="&st17;" d="M2648.5,701.02v4.25"/>
</g>
<g ewd:code="r1,r2" ewd:figID="34" ewd:figtype="conn">
<path style="&st17;" d="M2529.52,468.73v-4.25"/>
<path style="&st17;" d="M2529.52,498.47v-4.25"/>
<path style="&st12;" d="M2529.52,491.39l5.66-22.66"/>
<path style="&st12;" d="M2538.02,498.47v-33.99h-17v33.99H2538.02"/>
<path style="&st17;" d="M2530.93,470.14c0-0.78-0.63-1.41-1.41-1.41"/>
<path style="&st17;" d="M2529.52,468.73c-0.78,0-1.42,0.63-1.42,1.41"/>
<path style="&st17;" d="M2528.1,470.14c0,0.79,0.64,1.42,1.42,1.42"/>
<path style="&st17;" d="M2529.52,471.56c0.78,0,1.41-0.63,1.41-1.42"/>
<path style="&st17;" d="M2530.93,492.81c0-0.79-0.63-1.42-1.41-1.42"/>
<path style="&st17;" d="M2529.52,491.39c-0.78,0-1.42,0.63-1.42,1.42"/>
<path style="&st17;" d="M2528.1,492.81c0,0.78,0.64,1.41,1.42,1.41"/>
<path style="&st17;" d="M2529.52,494.22c0.78,0,1.41-0.63,1.41-1.41"/>
<path style="&st12;" d="M2534.06,512.06c0-2.51-2.03-4.54-4.54-4.54"/>
<path style="&st12;" d="M2529.52,507.52c-2.5,0-4.53,2.03-4.53,4.54"/>
<path style="&st12;" d="M2524.99,512.06c0,2.5,2.03,4.53,4.53,4.53"/>
<path style="&st12;" d="M2529.52,516.6c2.51,0,4.54-2.03,4.54-4.53"/>
<path style="&st12;" d="M2534.06,502.99c0-2.5-2.03-4.53-4.54-4.53"/>
<path style="&st12;" d="M2529.52,498.47c-2.5,0-4.53,2.03-4.53,4.53"/>
<path style="&st12;" d="M2524.99,502.99c0,2.5,2.03,4.53,4.53,4.53"/>
<path style="&st12;" d="M2529.52,507.52c2.51,0,4.54-2.03,4.54-4.53"/>
<path style="&st12;" d="M2534.06,459.94c0-2.51-2.03-4.54-4.54-4.54"/>
<path style="&st12;" d="M2529.52,455.4c-2.5,0-4.53,2.03-4.53,4.54"/>
<path style="&st12;" d="M2524.99,459.94c0,2.5,2.03,4.53,4.53,4.53"/>
<path style="&st12;" d="M2529.52,464.48c2.51,0,4.54-2.03,4.54-4.53"/>
<path style="&st12;" d="M2534.06,450.87c0-2.5-2.03-4.53-4.54-4.53"/>
<path style="&st12;" d="M2529.52,446.35c-2.5,0-4.53,2.03-4.53,4.53"/>
<path style="&st12;" d="M2524.99,450.87c0,2.5,2.03,4.53,4.53,4.53"/>
<path style="&st12;" d="M2529.52,455.4c2.51,0,4.54-2.03,4.54-4.53"/>
<text ewd:textID="14" transform="matrix(0 -1 1 0 2552.7285 495.9966)" style="&st11; &st29; &st19;">Clutch Start <tspan x="0" y="7">Switch Assembly</tspan></text>
<text transform="matrix(0 -1 1 0 2545.6279 495.9966)" style="&st11;"><tspan x="0" y="0" style="&st29; &st19;">r1(A), r2(B)</tspan></text>
<text transform="matrix(1 0 0 1 2527.1885 514.0249)" style="&st11;"><tspan x="0" y="0" style="&st29; &st19;">B</tspan></text>
<text transform="matrix(1 0 0 1 2519.249 514.0249)" style="&st11;"><tspan x="0" y="0" style="&st29; &st19;">1</tspan></text>
<text transform="matrix(1 0 0 1 2527.1885 504.9653)" style="&st11;"><tspan x="0" y="0" style="&st29; &st19;">A</tspan></text>
<text transform="matrix(1 0 0 1 2519.249 504.9653)" style="&st11;"><tspan x="0" y="0" style="&st29; &st19;">1</tspan></text>
<text transform="matrix(1 0 0 1 2527.1885 461.9048)" style="&st11;"><tspan x="0" y="0" style="&st29; &st19;">B</tspan></text>
<text transform="matrix(1 0 0 1 2519.249 461.9048)" style="&st11;"><tspan x="0" y="0" style="&st29; &st19;">2</tspan></text>
<text transform="matrix(1 0 0 1 2527.1885 452.8452)" style="&st11;"><tspan x="0" y="0" style="&st29; &st19;">A</tspan></text>
<text transform="matrix(1 0 0 1 2519.249 452.8452)" style="&st11;"><tspan x="0" y="0" style="&st29; &st19;">2</tspan></text>
</g>
<g ewd:code="C48" ewd:figID="16" ewd:figtype="conn">
<path style="&st12;" d="M2640,370.99v17h59.49v-17H2640"/>
<path style="&st17;" d="M2648.5,387.99v-17"/>
<path style="&st17;" d="M2647.3,378.49l-0.27,0.47l-0.09,0.53l0.09,0.54l0.27,0.47l0.42,0.34l0.51,0.19h0.54l0.51-0.19l0.41-0.34l0.27-0.47l0.1-0.54l-0.1-0.53l-0.27-0.47l-0.41-0.35l-0.51-0.18h-0.54l-0.51,0.18L2647.3,378.49l0.4,0.71v0.58l0.37,0.45l0.57,0.1l0.51-0.29l0.2-0.55l-0.2-0.54l-0.51-0.29l-0.57,0.1l0.43,0.73"/>
<path style="&st17;" d="M2648.5,379.49h42.49v-8.5"/>
<text transform="matrix(1 0 0 1 2638.5283 396.1763)" style="&st11;"><tspan x="0" y="0" style="&st29; &st19;">16</tspan></text>
<text ewd:textID="27" transform="matrix(1 0 0 1 2702.6279 381.4556)" style="&st11; &st29; &st19;">Junction <tspan x="0" y="7">Connector</tspan></text>
<text transform="matrix(1 0 0 1 2702.6279 374.356)" style="&st11;"><tspan x="0" y="0" style="&st29; &st19;">C48</tspan></text>
<text transform="matrix(1 0 0 1 2681.0088 367.2954)" style="&st11;"><tspan x="0" y="0" style="&st29; &st19;">18</tspan></text>
<text transform="matrix(1 0 0 1 2638.5186 367.2954)" style="&st11;"><tspan x="0" y="0" style="&st29; &st19;">17</tspan></text>
</g>
<g ewd:code="C109" ewd:figID="17" ewd:figtype="conn">
<path style="&st17;" d="M2792.97,303.01v8.49"/>
<path style="&st17;" d="M2792.97,328.5v8.5"/>
<path style="&st12;" d="M2801.47,328.5v-17"/>
<path style="&st12;" d="M2784.47,328.5v-17"/>
<path style="&st17;" d="M2792.97,328.5c1.96,0,3.55-1.58,3.55-3.54"/>
<path style="&st17;" d="M2796.52,324.96c0-1.96-1.59-3.54-3.55-3.54"/>
<path style="&st17;" d="M2792.97,321.42c-0.99,0-1.83,0.35-2.53,1.06"/>
<path style="&st17;" d="M2790.44,317.52c1.37,1.4,3.62,1.42,5.01,0.05"/>
<path style="&st17;" d="M2795.45,317.57c1.4-1.36,1.42-3.61,0.05-5"/>
<path style="&st17;" d="M2795.5,312.57c-0.69-0.71-1.54-1.07-2.53-1.07"/>
<path style="&st17;" d="M2790.44,322.48c1.37,1.4,3.62,1.42,5.01,0.05"/>
<path style="&st17;" d="M2795.45,322.53c1.4-1.37,1.42-3.61,0.05-5.01"/>
<path style="&st17;" d="M2795.5,317.52c-1.36-1.39-3.61-1.42-5-0.05"/>
<path style="&st17;" d="M2790.5,317.47c-0.02,0.02-0.04,0.04-0.06,0.05"/>
<path style="&st12;" d="M2801.47,311.5c0-4.69-3.8-8.49-8.5-8.49"/>
<path style="&st12;" d="M2792.97,303.01c-4.69,0-8.49,3.8-8.49,8.49"/>
<path style="&st12;" d="M2784.48,328.5c0,4.69,3.8,8.5,8.49,8.5"/>
<path style="&st12;" d="M2792.97,337c4.7,0,8.5-3.81,8.5-8.5"/>
<text transform="matrix(0 -1 1 0 2809.0781 339.5156)" style="&st11;"><tspan x="0" y="0" style="&st29; &st19;">C109</tspan></text>
<text ewd:textID="16" transform="matrix(0 -1 1 0 2816.1885 339.5156)" style="&st11; &st29; &st19;">Crank Position Sensor</text>
<text transform="matrix(1 0 0 1 2786.1787 299.3057)" style="&st11;"><tspan x="0" y="0" style="&st29; &st19;">2</tspan></text>
<text transform="matrix(1 0 0 1 2786.958 345.1855)" style="&st11;"><tspan x="0" y="0" style="&st29; &st19;">1</tspan></text>
</g>
<g ewd:code="C103" ewd:figID="18" ewd:figtype="conn">
<path style="&st17;" d="M2894.96,328.5v8.5"/>
<path style="&st17;" d="M2894.96,303.01v8.49"/>
<path style="&st12;" d="M2886.46,328.5v-17"/>
<path style="&st12;" d="M2903.45,328.5v-17"/>
<path style="&st12;" d="M2886.46,328.5c0,4.69,3.8,8.5,8.5,8.5"/>
<path style="&st12;" d="M2894.96,337c4.69,0,8.5-3.81,8.5-8.5"/>
<path style="&st12;" d="M2903.46,311.5c0-4.69-3.81-8.49-8.5-8.49"/>
<path style="&st12;" d="M2894.96,303.01c-4.7,0-8.5,3.8-8.5,8.49"/>
<path style="&st17;" d="M2892.43,322.48c1.37,1.4,3.61,1.42,5.01,0.05"/>
<path style="&st17;" d="M2897.44,322.53c1.39-1.37,1.42-3.61,0.05-5.01"/>
<path style="&st17;" d="M2897.49,317.52c-1.37-1.39-3.61-1.42-5.01-0.05"/>
<path style="&st17;" d="M2892.48,317.47c-0.02,0.02-0.03,0.04-0.05,0.05"/>
<path style="&st17;" d="M2892.43,317.52c1.37,1.4,3.61,1.42,5.01,0.05"/>
<path style="&st17;" d="M2897.44,317.57c1.39-1.36,1.42-3.61,0.05-5"/>
<path style="&st17;" d="M2897.49,312.57c-0.7-0.71-1.54-1.07-2.53-1.07"/>
<path style="&st17;" d="M2894.96,328.5c1.95,0,3.54-1.58,3.54-3.54"/>
<path style="&st17;" d="M2898.5,324.96c0-1.96-1.59-3.54-3.54-3.54"/>
<path style="&st17;" d="M2894.96,321.42c-0.99,0-1.84,0.35-2.53,1.06"/>
<text transform="matrix(0 -1 1 0 2911.0684 339.5156)" style="&st11;"><tspan x="0" y="0" style="&st29; &st19;">C103</tspan></text>
<text ewd:textID="12" transform="matrix(0 -1 1 0 2918.1689 339.5156)" style="&st11; &st29; &st19;">Cam Position Sensor</text>
<text transform="matrix(1 0 0 1 2888.9385 299.3057)" style="&st11;"><tspan x="0" y="0" style="&st29; &st19;">1</tspan></text>
<text transform="matrix(1 0 0 1 2888.1689 345.1855)" style="&st11;"><tspan x="0" y="0" style="&st29; &st19;">2</tspan></text>
</g>
<g ewd:code="C111" ewd:figID="19" ewd:figtype="conn">
<path style="&st17;" d="M3005.44,247.76v17"/>
<path style="&st17;" d="M2988.44,247.76v17"/>
<path style="&st17;" d="M2996.94,247.76v-12.74"/>
<path style="&st17;" d="M2994.11,263.35l2.83,1.41"/>
<path style="&st17;" d="M2996.94,247.76l2.83,1.42"/>
<path style="&st17;" d="M2999.77,249.18l-5.66,2.83"/>
<path style="&st17;" d="M2994.11,252.01l5.66,2.84"/>
<path style="&st17;" d="M2999.77,254.85l-5.66,2.83"/>
<path style="&st17;" d="M2994.11,257.68l5.66,2.83"/>
<path style="&st17;" d="M2999.77,260.51l-5.66,2.84"/>
<path style="&st17;" d="M2996.94,277.51v-12.75"/>
<path style="&st12;" d="M2984.19,277.51v-42.49h25.5v42.49H2984.19"/>
<path style="&st17;" d="M3005.44,247.76c0-4.69-3.81-8.49-8.5-8.49"/>
<path style="&st17;" d="M2996.94,239.27c-4.69,0-8.5,3.8-8.5,8.49"/>
<path style="&st17;" d="M2988.44,264.76c0,4.7,3.81,8.5,8.5,8.5"/>
<path style="&st17;" d="M2996.94,273.26c4.69,0,8.5-3.8,8.5-8.5"/>
<text ewd:textID="17" transform="matrix(0 -1 1 0 3024.4082 280.0254)" style="&st11; &st29; &st19;">Diesel Engine Coolant Temperature Sensor</text>
<text transform="matrix(0 -1 1 0 3017.2988 280.0254)" style="&st11;"><tspan x="0" y="0" style="&st29; &st19;">C111</tspan></text>
<text transform="matrix(1 0 0 1 2990.9287 285.6958)" style="&st11;"><tspan x="0" y="0" style="&st29; &st19;">1</tspan></text>
<text transform="matrix(1 0 0 1 2990.1484 231.3257)" style="&st11;"><tspan x="0" y="0" style="&st29; &st19;">2</tspan></text>
</g>
<text transform="matrix(0 -1 1 0 2789.2783 182.2456)" style="&st11;"><tspan x="0" y="0" style="&st29; &st19;">R</tspan></text>
<text transform="matrix(0 -1 1 0 2755.2783 182.5254)" style="&st11;"><tspan x="0" y="0" style="&st29; &st19;">G</tspan></text>
<text transform="matrix(0 -1 1 0 2644.7988 350.2954)" style="&st11;"><tspan x="0" y="0" style="&st29; &st19;">BR</tspan></text>
<text transform="matrix(0 -1 1 0 2687.2988 350.2954)" style="&st11;"><tspan x="0" y="0" style="&st29; &st19;">BR</tspan></text>
<text transform="matrix(0 -1 1 0 2891.2588 148.1055)" style="&st11;"><tspan x="0" y="0" style="&st29; &st19;">B</tspan></text>
<text transform="matrix(0 -1 1 0 2857.2686 149.1357)" style="&st11;"><tspan x="0" y="0" style="&st29; &st19;">W</tspan></text>
<text transform="matrix(0 -1 1 0 2644.7988 418.2856)" style="&st11;"><tspan x="0" y="0" style="&st29; &st19;">BR</tspan></text>
<text transform="matrix(0 -1 1 0 2525.8184 534.981)" style="&st11;"><tspan x="0" y="0" style="&st29; &st19;">W</tspan></text>
<text transform="matrix(0 -1 1 0 2537.1582 541.3813)" style="&st11;"><tspan x="0" y="0" style="&st29; &st19;">(RHD)</tspan></text>
<text transform="matrix(0 -1 1 0 2525.8184 595.3052)" style="&st11;"><tspan x="0" y="0" style="&st29; &st19;">W</tspan></text>
<text transform="matrix(0 -1 1 0 2537.1582 601.7056)" style="&st11;"><tspan x="0" y="0" style="&st29; &st19;">(RHD)</tspan></text>
<text transform="matrix(0 -1 1 0 2525.8184 433.3052)" style="&st11;"><tspan x="0" y="0" style="&st29; &st19;">B</tspan></text>
<text transform="matrix(0 -1 1 0 2537.1582 440.7251)" style="&st11;"><tspan x="0" y="0" style="&st29; &st19;">(RHD)</tspan></text>
<text transform="matrix(1 0 0 1 2501.6885 375.7954)" style="&st11;"><tspan x="0" y="0" style="&st29; &st19;">B</tspan></text>
<text transform="matrix(0 -1 1 0 2993.2383 122.4956)" style="&st11;"><tspan x="0" y="0" style="&st29; &st19;">R-L</tspan></text>
<text transform="matrix(0 -1 1 0 2993.2383 341.7954)" style="&st11;"><tspan x="0" y="0" style="&st29; &st19;">BR</tspan></text>
<text transform="matrix(0 -1 1 0 2950.749 120.8354)" style="&st11;"><tspan x="0" y="0" style="&st29; &st19;">BR</tspan></text>
<text ewd:textID="1" transform="matrix(0 -1 1 0 2831.7686 166.0254)" style="&st11; &st29; &st19;">(Shielded)</text>
<text ewd:textID="1" transform="matrix(0 -1 1 0 2729.7881 200.0254)" style="&st11; &st29; &st19;">(Shielded)</text>
<text transform="matrix(1 0 0 1 2536.0479 513.5464)" style="&st11;"><tspan x="0" y="0" style="&st29; &st19;">(*5)</tspan></text>
<text transform="matrix(1 0 0 1 2536.0479 504.4868)" style="&st11;"><tspan x="0" y="0" style="&st29; &st19;">(*6)</tspan></text>
<text transform="matrix(1 0 0 1 2536.0479 461.5464)" style="&st11;"><tspan x="0" y="0" style="&st29; &st19;">(*5)</tspan></text>
<text transform="matrix(1 0 0 1 2536.0479 452.4868)" style="&st11;"><tspan x="0" y="0" style="&st29; &st19;">(*6)</tspan></text>
</svg>
