﻿<?xml version="1.0" encoding="UTF-8"?>
<!DOCTYPE svg PUBLIC "-//W3C//DTD SVG 1.0//EN" "http://www.w3.org/TR/2001/REC-SVG-20010904/DTD/svg10.dtd"[
<!ENTITY ns_flows "http://ns.adobe.com/Flows/1.0/">
<!ENTITY ns_svg "http://www.w3.org/2000/svg">
<!ENTITY ns_xlink "http://www.w3.org/1999/xlink">
	<!ENTITY st0 "fill:none;stroke:#FB0F0C;stroke-width:5.1;stroke-linejoin:round;">
	<!ENTITY st1 "fill:none;stroke:#9A9999;stroke-width:5.1;stroke-linejoin:round;">
	<!ENTITY st2 "fill:none;stroke:#99280B;stroke-width:5.1;stroke-linejoin:round;">
		<!ENTITY st3 "fill:none;stroke:#000000;stroke-width:0.85;stroke-linecap:round;stroke-linejoin:round;stroke-dasharray:3 1.5;enable-background:new    ;">
	<!ENTITY st4 "fill:none;stroke:#000000;stroke-width:5.1;stroke-linejoin:round;">
	<!ENTITY st5 "fill:none;stroke:#000000;stroke-linecap:round;stroke-linejoin:round;">
	<!ENTITY st6 "stroke:#000000;stroke-width:0.28;stroke-linecap:round;stroke-linejoin:round;enable-background:new    ;">
	<!ENTITY st7 "enable-background:new    ;">
		<!ENTITY st8 "fill:none;stroke:#000000;stroke-width:1.42;stroke-linecap:round;stroke-linejoin:round;enable-background:new    ;">
	<!ENTITY st9 "fill:none;stroke:#EE67AA;stroke-width:5.1;stroke-linejoin:round;">
	<!ENTITY st10 "fill:none;stroke:#199DBF;stroke-width:5.1;stroke-linejoin:round;">
	<!ENTITY st11 "opacity:0.5;fill:none;stroke:#34ACCE;stroke-linejoin:round;stroke-dasharray:6;">
	<!ENTITY st12 "fill:none;stroke:#FFFFFF;stroke-width:4.53;stroke-linejoin:round;">
		<!ENTITY st13 "fill:none;stroke:#000000;stroke-width:0.85;stroke-linecap:round;stroke-linejoin:round;enable-background:new    ;">
	<!ENTITY st14 "fill:none;stroke:#56107C;stroke-width:5.1;stroke-linejoin:round;">
	<!ENTITY st15 "font-size:6px;">
	<!ENTITY st16 "fill:none;stroke:#168638;stroke-width:5.1;stroke-linejoin:round;">
	<!ENTITY st17 "fill:none;stroke:#000000;stroke-width:1.13;stroke-linejoin:round;">
		<!ENTITY st18 "fill:none;stroke:#000000;stroke-width:1.13;stroke-linecap:round;stroke-linejoin:round;stroke-dasharray:3 1.5;enable-background:new    ;">
	<!ENTITY st19 "fill:#FFFFFF;stroke:#000000;stroke-width:1.41;stroke-linecap:round;stroke-linejoin:round;">
	<!ENTITY st20 "fill:none;stroke:#3E65AC;stroke-width:3;">
	<!ENTITY st21 "fill:#CCCCCC;stroke:#CCCCCC;stroke-width:0.1;stroke-linecap:round;stroke-linejoin:round;">
	<!ENTITY st22 "font-family:'Arial';">
	<!ENTITY st23 "opacity:0.5;fill:none;stroke:#34ACCE;stroke-linejoin:round;">
	<!ENTITY st24 "fill:none;stroke:#000000;stroke-width:1.42;stroke-linecap:round;stroke-linejoin:round;">
	<!ENTITY st25 "fill:#CFE6E7;stroke:#000000;stroke-width:1.133;stroke-linecap:round;stroke-linejoin:round;">
	<!ENTITY st26 "fill:none;stroke:#99D5E0;stroke-width:5.1;stroke-linejoin:round;">
	<!ENTITY st27 "fill:none;stroke:#000000;stroke-width:0.85;stroke-linecap:round;stroke-linejoin:round;">
<!ATTLIST svg
xmlns:ewd CDATA #FIXED "http://shcl.co.jp/ewd"
xmlns:a CDATA #FIXED "http://ns.adobe.com/AdobeSVGViewerExtensions/3.0/"
ewd:ver CDATA #IMPLIED
>
<!ATTLIST a
ewd:lineID CDATA #IMPLIED
ewd:groupID CDATA #IMPLIED
ewd:figtype CDATA #IMPLIED
ewd:code CDATA #IMPLIED
ewd:figID CDATA #IMPLIED
ewd:pinNo CDATA #IMPLIED
ewd:comment CDATA #IMPLIED >
<!ATTLIST g
ewd:lineID CDATA #IMPLIED
ewd:groupID CDATA #IMPLIED
ewd:figtype CDATA #IMPLIED
ewd:code CDATA #IMPLIED
ewd:figID CDATA #IMPLIED
ewd:pinNo CDATA #IMPLIED
ewd:comment CDATA #IMPLIED >
<!ATTLIST text
ewd:textID CDATA #IMPLIED >
<!ATTLIST title
ewd:textID CDATA #IMPLIED >
]>
<svg 
viewBox='0 0 2595.05 729.44'
height='729.44'
width='2595.05'
xml:space="preserve"
xmlns="&ns_svg;"
xmlns:ewd="http://shcl.co.jp/ewd"
xmlns:xlink="&ns_xlink;" ewd:ver="L2.3">
<g ewd:code="CG2" ewd:figID="609" ewd:figtype="w2w" ewd:pinNo="19">
<path style="&st8;" d="M2409.1,557.96h8.5"/>
<path style="&st8;" d="M2413.35,548.9l4.25,4.25l4.24-4.25"/>
<path style="&st8;" d="M2421.84,552.3l-4.24,4.25l-4.25-4.25"/>
<text transform="matrix(1 0 0 1 2399.4263 564.1772)" style="&st7;"><tspan x="0" y="0" style="&st22; &st15;">19</tspan></text>
</g>
<g ewd:code="GA6" ewd:figID="608" ewd:figtype="w2w" ewd:pinNo="16">
<path style="&st8;" d="M2188.14,438.98h-8.5"/>
<path style="&st8;" d="M2183.88,448.05l-4.24-4.25l-4.25,4.25"/>
<path style="&st8;" d="M2183.88,444.65l-4.24-4.25l-4.25,4.25"/>
<text transform="matrix(1 0 0 1 2161.4653 436.6968)" style="&st7;"><tspan x="0" y="0" style="&st22; &st15;">16</tspan></text>
</g>
<g ewd:code="224001" ewd:figID="501" ewd:figtype="sp">
<path style="&st8;" d="M2426.1,622.42l-4.98-4.97"/>
<path style="&st8;" d="M2409.1,629.48l4.97,4.97"/>
<path style="&st8;" d="M2421.12,634.45l4.98-4.97"/>
<path style="&st8;" d="M2414.07,617.45l-4.97,4.97"/>
</g>
<g ewd:code="FUSE10" ewd:figID="402" ewd:figtype="rb">
<path style="&st5;" d="M2183.89,39.55v42.49h25.49V39.55H2183.89"/>
<path style="&st8;" d="M2198.76,107.54h-4.25"/>
<path style="&st8;" d="M2198.76,99.04h-4.25"/>
<path style="&st13;" d="M2196.63,73.54v25.5"/>
<path style="&st8;" d="M2183.88,39.55v42.49h25.5V39.55H2183.88"/>
<path style="&st6;" d="M2196.63,94.14l-2.83-2.83v4.25l2.83,2.83l2.84-2.83v-4.25L2196.63,94.14"/>
<path style="&st8;" d="M2203.01,103.29c0-2.35-1.9-4.25-4.25-4.25"/>
<path style="&st8;" d="M2198.76,107.54c2.35,0,4.25-1.9,4.25-4.25"/>
<path style="&st8;" d="M2190.26,103.29c0,2.35,1.9,4.25,4.25,4.25"/>
<path style="&st8;" d="M2194.51,99.04c-2.35,0-4.25,1.9-4.25,4.25"/>
<path style="&st13;" d="M2198.05,72.13c0-0.79-0.63-1.42-1.42-1.42"/>
<path style="&st13;" d="M2196.63,70.71c-0.78,0-1.41,0.63-1.41,1.42"/>
<path style="&st13;" d="M2195.22,72.13c0,0.78,0.63,1.41,1.41,1.41"/>
<path style="&st13;" d="M2196.63,73.54c0.79,0,1.42-0.63,1.42-1.41"/>
<path style="&st13;" d="M2198.05,49.46c0-0.78-0.63-1.41-1.42-1.41"/>
<path style="&st13;" d="M2196.63,48.05c-0.78,0-1.41,0.63-1.41,1.41"/>
<path style="&st13;" d="M2195.22,49.46c0,0.79,0.63,1.42,1.41,1.42"/>
<path style="&st13;" d="M2196.63,50.88c0.79,0,1.42-0.63,1.42-1.42"/>
<path style="&st8;" d="M2196.63,70.71c2.74-1.61,3.65-5.14,2.04-7.88"/>
<path style="&st8;" d="M2198.67,62.83c-0.52-0.88-1.15-1.51-2.04-2.03"/>
<path style="&st8;" d="M2196.63,50.88c-2.73,1.61-3.65,5.14-2.03,7.88"/>
<path style="&st8;" d="M2194.6,58.76c0.52,0.88,1.15,1.52,2.03,2.04"/>
<text transform="matrix(1 0 0 1 2187.52 35.8467)" style="&st7;"><tspan x="0" y="0" style="&st22; &st15;">(BAT)</tspan></text>
<text transform="matrix(1 0 0 1 2189.8403 90.2363)" style="&st7;"><tspan x="0" y="0" style="&st22; &st15;">2</tspan></text>
<text transform="matrix(1 0 0 1 2195.0396 105.2568)" style="&st7;"><tspan x="0" y="0" style="&st22; &st15;">1</tspan></text>
<text transform="matrix(1 0 0 1 2213.9399 59.9365)" style="&st7;"><tspan x="0" y="0" style="&st22; &st15;">10A</tspan></text>
<text transform="matrix(1 0 0 1 2213.9399 65.9365)" style="&st7;"><tspan x="0" y="0" style="&st22; &st15;">ECU-B</tspan></text>
</g>
<g ewd:code="2" ewd:figID="310" ewd:figtype="jb">
<path style="&st8;" d="M2198.76,192.52h-4.25"/>
<path style="&st8;" d="M2198.76,184.03h-4.25"/>
<path style="&st8;" d="M2198.76,150.03h-4.25"/>
<path style="&st8;" d="M2198.76,141.53h-4.25"/>
<path style="&st6;" d="M2196.63,154.93l2.84,2.83v-4.25l-2.84-2.83l-2.83,2.83v4.25L2196.63,154.93"/>
<path style="&st6;" d="M2196.63,179.13l-2.83-2.83v4.25l2.83,2.83l2.84-2.83v-4.25L2196.63,179.13"/>
<path style="&st13;" d="M2196.63,184.03v-34"/>
<path style="&st8;" d="M2194.51,141.53c-2.35,0-4.25,1.9-4.25,4.25"/>
<path style="&st8;" d="M2190.26,145.78c0,2.35,1.9,4.25,4.25,4.25"/>
<path style="&st8;" d="M2198.76,150.03c2.35,0,4.25-1.9,4.25-4.25"/>
<path style="&st8;" d="M2203.01,145.78c0-2.35-1.9-4.25-4.25-4.25"/>
<path style="&st8;" d="M2194.51,184.03c-2.35,0-4.25,1.9-4.25,4.24"/>
<path style="&st8;" d="M2190.26,188.27c0,2.35,1.9,4.25,4.25,4.25"/>
<path style="&st8;" d="M2198.76,192.52c2.35,0,4.25-1.9,4.25-4.25"/>
<path style="&st8;" d="M2203.01,188.27c0-2.34-1.9-4.24-4.25-4.24"/>
<text transform="matrix(1 0 0 1 2192.5396 147.7466)" style="&st7;"><tspan x="0" y="0" style="&st22; &st15;">2F</tspan></text>
<text transform="matrix(1 0 0 1 2179.9907 147.7466)" style="&st7;"><tspan x="0" y="0" style="&st22; &st15;">39</tspan></text>
<text transform="matrix(1 0 0 1 2192.1802 190.2363)" style="&st7;"><tspan x="0" y="0" style="&st22; &st15;">2D</tspan></text>
<text transform="matrix(1 0 0 1 2180.7603 190.2363)" style="&st7;"><tspan x="0" y="0" style="&st22; &st15;">14</tspan></text>
</g>
<g ewd:code="3JB" ewd:figID="311" ewd:figtype="jb">
<path style="&st8;" d="M2275.25,121.53H2271"/>
<path style="&st8;" d="M2275.25,130.03H2271"/>
<path style="&st8;" d="M2275.25,164.03H2271"/>
<path style="&st8;" d="M2275.25,172.52H2271"/>
<path style="&st6;" d="M2273.12,134.93l2.83,2.83v-4.25l-2.83-2.83l-2.83,2.83v4.25L2273.12,134.93"/>
<path style="&st6;" d="M2273.12,159.13l-2.83-2.83v4.25l2.83,2.83l2.83-2.83v-4.25L2273.12,159.13"/>
<path style="&st13;" d="M2273.12,164.03v-34"/>
<path style="&st8;" d="M2271,121.53c-2.35,0-4.25,1.9-4.25,4.25"/>
<path style="&st8;" d="M2266.75,125.78c0,2.35,1.9,4.25,4.25,4.25"/>
<path style="&st8;" d="M2275.25,130.03c2.34,0,4.24-1.9,4.24-4.25"/>
<path style="&st8;" d="M2279.49,125.78c0-2.35-1.9-4.25-4.24-4.25"/>
<path style="&st8;" d="M2271,164.03c-2.35,0-4.25,1.9-4.25,4.24"/>
<path style="&st8;" d="M2266.75,168.27c0,2.35,1.9,4.25,4.25,4.25"/>
<path style="&st8;" d="M2275.25,172.52c2.34,0,4.24-1.9,4.24-4.25"/>
<path style="&st8;" d="M2279.49,168.27c0-2.34-1.9-4.24-4.24-4.24"/>
<path style="&st8;" d="M2275.25,172.52H2271"/>
<path style="&st8;" d="M2275.25,181.01H2271"/>
<path style="&st8;" d="M2271,172.52c-2.35,0-4.25,1.9-4.25,4.24"/>
<path style="&st8;" d="M2266.75,176.76c0,2.35,1.9,4.25,4.25,4.25"/>
<path style="&st8;" d="M2275.25,181.01c2.34,0,4.24-1.9,4.24-4.25"/>
<path style="&st8;" d="M2279.49,176.76c0-2.34-1.9-4.24-4.24-4.24"/>
<text transform="matrix(1 0 0 1 2268.811 127.7466)" style="&st7;"><tspan x="0" y="0" style="&st22; &st15;">3B</tspan></text>
<text transform="matrix(1 0 0 1 2256.481 127.7466)" style="&st7;"><tspan x="0" y="0" style="&st22; &st15;">30</tspan></text>
<text transform="matrix(1 0 0 1 2268.811 170.2363)" style="&st7;"><tspan x="0" y="0" style="&st22; &st15;">3A</tspan></text>
<text transform="matrix(1 0 0 1 2256.481 170.2363)" style="&st7;"><tspan x="0" y="0" style="&st22; &st15;">49</tspan></text>
<text transform="matrix(1 0 0 1 2268.811 178.7266)" style="&st7;"><tspan x="0" y="0" style="&st22; &st15;">3A</tspan></text>
<text transform="matrix(1 0 0 1 2259.481 178.7266)" style="&st7;"><tspan x="0" y="0" style="&st22; &st15;">2</tspan></text>
<text transform="matrix(1 0 0 1 2281.9302 179.2969)" style="&st7;"><tspan x="0" y="0" style="&st22; &st15;">(*8)</tspan></text>
<text transform="matrix(1 0 0 1 2281.9302 170.2373)" style="&st7;"><tspan x="0" y="0" style="&st22; &st15;">(*7)</tspan></text>
</g>
<g ewd:code="3JB" ewd:figID="315" ewd:figtype="jb">
<path style="&st8;" d="M2419.72,455.98h-4.25"/>
<path style="&st8;" d="M2419.72,447.48h-4.25"/>
<path style="&st8;" d="M2419.72,413.49h-4.25"/>
<path style="&st8;" d="M2419.72,404.99h-4.25"/>
<path style="&st13;" d="M2417.6,447.48v-33.99"/>
<path style="&st6;" d="M2417.6,442.59l-2.84-2.84V444l2.84,2.84l2.83-2.84v-4.25L2417.6,442.59"/>
<path style="&st6;" d="M2417.6,418.38l2.83,2.84v-4.25l-2.83-2.84l-2.84,2.84v4.25L2417.6,418.38"/>
<path style="&st8;" d="M2423.97,451.73c0-2.35-1.9-4.25-4.25-4.25"/>
<path style="&st8;" d="M2419.72,455.98c2.35,0,4.25-1.9,4.25-4.25"/>
<path style="&st8;" d="M2411.22,451.73c0,2.35,1.91,4.25,4.25,4.25"/>
<path style="&st8;" d="M2415.47,447.48c-2.34,0-4.25,1.9-4.25,4.25"/>
<path style="&st8;" d="M2423.97,409.24c0-2.35-1.9-4.25-4.25-4.25"/>
<path style="&st8;" d="M2419.72,413.49c2.35,0,4.25-1.91,4.25-4.25"/>
<path style="&st8;" d="M2411.22,409.24c0,2.34,1.91,4.25,4.25,4.25"/>
<path style="&st8;" d="M2415.47,404.99c-2.34,0-4.25,1.9-4.25,4.25"/>
<text transform="matrix(1 0 0 1 2400.9497 453.6968)" style="&st7;"><tspan x="0" y="0" style="&st22; &st15;">25</tspan></text>
<text transform="matrix(1 0 0 1 2413.2896 453.6968)" style="&st7;"><tspan x="0" y="0" style="&st22; &st15;">3B</tspan></text>
<text transform="matrix(1 0 0 1 2400.9497 411.2065)" style="&st7;"><tspan x="0" y="0" style="&st22; &st15;">55</tspan></text>
<text transform="matrix(1 0 0 1 2413.2896 411.2065)" style="&st7;"><tspan x="0" y="0" style="&st22; &st15;">3A</tspan></text>
</g>
<g ewd:code="4JB" ewd:figID="316" ewd:figtype="jb">
<path style="&st8;" d="M2419.72,523.97h-4.25"/>
<path style="&st8;" d="M2419.72,515.47h-4.25"/>
<path style="&st8;" d="M2419.72,481.48h-4.25"/>
<path style="&st8;" d="M2419.72,472.98h-4.25"/>
<path style="&st13;" d="M2417.6,515.47v-33.99"/>
<path style="&st6;" d="M2417.6,510.57l-2.84-2.83v4.25l2.84,2.83l2.83-2.83v-4.25L2417.6,510.57"/>
<path style="&st6;" d="M2417.6,486.37l2.83,2.83v-4.25l-2.83-2.83l-2.84,2.83v4.25L2417.6,486.37"/>
<path style="&st8;" d="M2423.97,519.72c0-2.35-1.9-4.25-4.25-4.25"/>
<path style="&st8;" d="M2419.72,523.97c2.35,0,4.25-1.9,4.25-4.25"/>
<path style="&st8;" d="M2411.22,519.72c0,2.35,1.91,4.25,4.25,4.25"/>
<path style="&st8;" d="M2415.47,515.47c-2.34,0-4.25,1.9-4.25,4.25"/>
<path style="&st8;" d="M2423.97,477.23c0-2.35-1.9-4.25-4.25-4.25"/>
<path style="&st8;" d="M2419.72,481.48c2.35,0,4.25-1.91,4.25-4.25"/>
<path style="&st8;" d="M2411.22,477.23c0,2.34,1.91,4.25,4.25,4.25"/>
<path style="&st8;" d="M2415.47,472.98c-2.34,0-4.25,1.9-4.25,4.25"/>
<text transform="matrix(1 0 0 1 2401.731 521.687)" style="&st7;"><tspan x="0" y="0" style="&st22; &st15;">10</tspan></text>
<text transform="matrix(1 0 0 1 2413.2896 521.687)" style="&st7;"><tspan x="0" y="0" style="&st22; &st15;">4B</tspan></text>
<text transform="matrix(1 0 0 1 2400.9497 479.1968)" style="&st7;"><tspan x="0" y="0" style="&st22; &st15;">70</tspan></text>
<text transform="matrix(1 0 0 1 2413.2896 479.1968)" style="&st7;"><tspan x="0" y="0" style="&st22; &st15;">4A</tspan></text>
</g>
<g ewd:code="2" ewd:figID="312" ewd:figtype="jb">
<path style="&st5;" d="M2319.86,39.55v42.49h25.5V39.55H2319.86"/>
<path style="&st8;" d="M2334.74,99.04h-4.25"/>
<path style="&st8;" d="M2334.74,107.54h-4.25"/>
<path style="&st13;" d="M2332.61,73.54v25.5"/>
<path style="&st8;" d="M2319.86,39.55v42.49h25.5V39.55H2319.86"/>
<path style="&st6;" d="M2332.61,94.14l-2.83-2.83v4.25l2.83,2.83l2.83-2.83v-4.25L2332.61,94.14"/>
<path style="&st8;" d="M2338.98,103.29c0-2.35-1.9-4.25-4.24-4.25"/>
<path style="&st8;" d="M2334.74,107.54c2.34,0,4.24-1.9,4.24-4.25"/>
<path style="&st8;" d="M2330.49,99.04c-2.35,0-4.25,1.9-4.25,4.25"/>
<path style="&st13;" d="M2334.03,72.13c0-0.79-0.64-1.42-1.42-1.42"/>
<path style="&st13;" d="M2332.61,70.71c-0.78,0-1.42,0.63-1.42,1.42"/>
<path style="&st13;" d="M2331.19,72.13c0,0.78,0.64,1.41,1.42,1.41"/>
<path style="&st13;" d="M2332.61,73.54c0.78,0,1.42-0.63,1.42-1.41"/>
<path style="&st8;" d="M2332.61,50.88c-2.74,1.61-3.65,5.14-2.04,7.88"/>
<path style="&st8;" d="M2330.57,58.76c0.52,0.88,1.16,1.52,2.04,2.04"/>
<path style="&st8;" d="M2326.24,103.29c0,2.35,1.9,4.25,4.25,4.25"/>
<path style="&st8;" d="M2332.61,70.71c2.74-1.61,3.65-5.14,2.04-7.88"/>
<path style="&st8;" d="M2334.65,62.83c-0.52-0.88-1.16-1.51-2.04-2.03"/>
<path style="&st13;" d="M2334.03,49.46c0-0.78-0.64-1.41-1.42-1.41"/>
<path style="&st13;" d="M2332.61,48.05c-0.78,0-1.42,0.63-1.42,1.41"/>
<path style="&st13;" d="M2331.19,49.46c0,0.79,0.64,1.42,1.42,1.42"/>
<path style="&st13;" d="M2332.61,50.88c0.78,0,1.42-0.63,1.42-1.42"/>
<text transform="matrix(1 0 0 1 2349.9204 59.9365)" style="&st7;"><tspan x="0" y="0" style="&st22; &st15;">7.5A</tspan></text>
<text transform="matrix(1 0 0 1 2349.9204 65.9365)" style="&st7;"><tspan x="0" y="0" style="&st22; &st15;">GAUGE</tspan></text>
<text transform="matrix(1 0 0 1 2315.9692 105.2568)" style="&st7;"><tspan x="0" y="0" style="&st22; &st15;">55</tspan></text>
<text transform="matrix(1 0 0 1 2326.5396 35.8467)" style="&st7;"><tspan x="0" y="0" style="&st22; &st15;">(IG)</tspan></text>
<text transform="matrix(1 0 0 1 2328.2993 105.2568)" style="&st7;"><tspan x="0" y="0" style="&st22; &st15;">2A</tspan></text>
</g>
<g ewd:code="C1" ewd:figID="207" ewd:figtype="gp">
<path style="&st13;" d="M2375.1,701.02v4.25"/>
<path style="&st13;" d="M2366.6,705.27h17"/>
<path style="&st13;" d="M2370.85,708.1h8.5"/>
<path style="&st13;" d="M2372.27,710.94h5.67"/>
<path style="&st13;" d="M2373.69,713.77h2.83"/>
</g>
<g ewd:code="C4" ewd:figID="208" ewd:figtype="gp">
<path style="&st13;" d="M2417.6,701.02v4.25"/>
<path style="&st13;" d="M2409.1,705.27h16.99"/>
<path style="&st13;" d="M2413.35,708.1h8.49"/>
<path style="&st13;" d="M2414.76,710.94h5.67"/>
<path style="&st13;" d="M2416.18,713.77h2.83"/>
</g>
<g ewd:code="C4" ewd:figID="210" ewd:figtype="gp">
<path style="&st27;" d="M2458.68,713.77h2.83"/>
<path style="&st27;" d="M2457.26,710.94h5.67"/>
<path style="&st27;" d="M2455.85,708.1h8.5"/>
<path style="&st27;" d="M2451.6,705.27h17"/>
<path style="&st27;" d="M2460.1,701.02v4.25"/>
</g>
<g ewd:code="G6-A" ewd:figID="10" ewd:figtype="conn">
<path style="&st13;" d="M2162.64,320l8.5,5.67"/>
<path style="&st13;" d="M2171.14,328.5h8.5"/>
<path style="&st8;" d="M2171.14,337v-17"/>
<path style="&st13;" d="M2417.6,311.5v59.49"/>
<path style="&st13;" d="M2332.61,226.52v25.49"/>
<path style="&st13;" d="M2273.12,226.52v25.49"/>
<path style="&st8;" d="M2264.62,252.01v25.5h76.49v-25.5H2264.62"/>
<path style="&st13;" d="M2477.09,311.5v59.49"/>
<path style="&st8;" d="M2400.6,294.51h93.48v16.99h-93.48V294.51"/>
<path style="&st8;" d="M2111.65,226.52v144.47h390.93V226.52H2111.65"/>
<path style="&st13;" d="M2159.81,351.16h5.66"/>
<path style="&st13;" d="M2162.64,337v8.5"/>
<path style="&st13;" d="M2154.14,345.5h17"/>
<path style="&st13;" d="M2158.39,348.33h8.5"/>
<path style="&st13;" d="M2161.22,354h2.83"/>
<path style="&st13;" d="M2162.64,320h-34v50.99"/>
<path style="&st13;" d="M2179.64,328.5v42.49"/>
<path style="&st13;" d="M2162.64,337l2.13-3.18l1.63,2.44L2162.64,337l1.23-0.82l0.9-1.34l0.69,1.02l-1.59,0.32l0.62-0.41l0.28-0.42l0.22,0.32l-0.5,0.1"/>
<path style="&st13;" d="M2162.64,337l8.5-5.67"/>
<path style="&st8;" d="M2481.62,375.53c0-2.51-2.03-4.54-4.53-4.54"/>
<path style="&st8;" d="M2477.09,370.99c-2.51,0-4.54,2.03-4.54,4.54"/>
<path style="&st8;" d="M2472.55,375.53c0,2.5,2.03,4.53,4.54,4.53"/>
<path style="&st8;" d="M2477.09,380.06c2.5,0,4.53-2.03,4.53-4.53"/>
<path style="&st8;" d="M2277.65,221.99c0-2.51-2.03-4.54-4.53-4.54"/>
<path style="&st8;" d="M2273.12,217.45c-2.5,0-4.53,2.03-4.53,4.54"/>
<path style="&st8;" d="M2268.59,221.99c0,2.5,2.03,4.53,4.53,4.53"/>
<path style="&st8;" d="M2273.12,226.52c2.5,0,4.53-2.03,4.53-4.53"/>
<path style="&st8;" d="M2337.14,221.99c0-2.51-2.03-4.54-4.53-4.54"/>
<path style="&st8;" d="M2332.61,217.45c-2.5,0-4.53,2.03-4.53,4.54"/>
<path style="&st8;" d="M2328.08,221.99c0,2.5,2.03,4.53,4.53,4.53"/>
<path style="&st8;" d="M2332.61,226.52c2.5,0,4.53-2.03,4.53-4.53"/>
<path style="&st8;" d="M2422.13,375.53c0-2.51-2.03-4.54-4.53-4.54"/>
<path style="&st8;" d="M2417.6,370.99c-2.51,0-4.54,2.03-4.54,4.54"/>
<path style="&st8;" d="M2413.06,375.53c0,2.5,2.03,4.53,4.54,4.53"/>
<path style="&st8;" d="M2417.6,380.06c2.5,0,4.53-2.03,4.53-4.53"/>
<path style="&st8;" d="M2133.18,375.53c0-2.51-2.03-4.54-4.53-4.54"/>
<path style="&st8;" d="M2128.65,370.99c-2.51,0-4.54,2.03-4.54,4.54"/>
<path style="&st8;" d="M2124.11,375.53c0,2.5,2.03,4.53,4.54,4.53"/>
<path style="&st8;" d="M2128.65,380.06c2.5,0,4.53-2.03,4.53-4.53"/>
<path style="&st8;" d="M2184.17,375.53c0-2.51-2.03-4.54-4.53-4.54"/>
<path style="&st8;" d="M2179.64,370.99c-2.51,0-4.54,2.03-4.54,4.54"/>
<path style="&st8;" d="M2175.1,375.53c0,2.5,2.03,4.53,4.54,4.53"/>
<path style="&st8;" d="M2179.64,380.06c2.5,0,4.53-2.03,4.53-4.53"/>
<text transform="matrix(1 0 0 1 2177.311 377.4966)" style="&st7;"><tspan x="0" y="0" style="&st22; &st15;">A</tspan></text>
<text transform="matrix(1 0 0 1 2164.7993 377.4966)" style="&st7;"><tspan x="0" y="0" style="&st22; &st15;">33</tspan></text>
<text transform="matrix(1 0 0 1 2182.4692 367.2964)" style="&st7;"><tspan x="0" y="0" style="&st22; &st15;">SI</tspan></text>
<text transform="matrix(1 0 0 1 2113.811 377.4966)" style="&st7;"><tspan x="0" y="0" style="&st22; &st15;">32</tspan></text>
<text transform="matrix(1 0 0 1 2126.311 377.4966)" style="&st7;"><tspan x="0" y="0" style="&st22; &st15;">A</tspan></text>
<text transform="matrix(1 0 0 1 2131.481 367.2964)" style="&st7;"><tspan x="0" y="0" style="&st22; &st15;">+S</tspan></text>
<text transform="matrix(1 0 0 1 2466.9907 377.4966)" style="&st7;"><tspan x="0" y="0" style="&st22; &st15;">1</tspan></text>
<text transform="matrix(1 0 0 1 2474.7603 377.4966)" style="&st7;"><tspan x="0" y="0" style="&st22; &st15;">A</tspan></text>
<text transform="matrix(1 0 0 1 2270.7896 223.9468)" style="&st7;"><tspan x="0" y="0" style="&st22; &st15;">A</tspan></text>
<text transform="matrix(1 0 0 1 2258.2896 223.9468)" style="&st7;"><tspan x="0" y="0" style="&st22; &st15;">26</tspan></text>
<text transform="matrix(1 0 0 1 2317.7798 223.9468)" style="&st7;"><tspan x="0" y="0" style="&st22; &st15;">28</tspan></text>
<text transform="matrix(1 0 0 1 2330.2798 223.9468)" style="&st7;"><tspan x="0" y="0" style="&st22; &st15;">A</tspan></text>
<text transform="matrix(1 0 0 1 2420.4302 367.2964)" style="&st7;"><tspan x="0" y="0" style="&st22; &st15;">E2</tspan></text>
<text transform="matrix(1 0 0 1 2403.5396 377.4966)" style="&st7;"><tspan x="0" y="0" style="&st22; &st15;">21</tspan></text>
<text transform="matrix(1 0 0 1 2415.27 377.4966)" style="&st7;"><tspan x="0" y="0" style="&st22; &st15;">A</tspan></text>
<text transform="matrix(1 0 0 1 2335.4399 234.7065)" style="&st7;"><tspan x="0" y="0" style="&st22; &st15;">IG+</tspan></text>
<text ewd:textID='13' transform='matrix(0 -1 1 0 2517.2993 373.5171)' style='&st7; &st22; &st15;'>Combination Meter Assembly</text>
<text transform="matrix(0 -1 1 0 2510.1899 373.5171)" style="&st7;"><tspan x="0" y="0" style="&st22; &st15;">G6(A)</tspan></text>
<text ewd:textID='29' transform='matrix(1 0 0 1 2280.9302 263.9067)' style='&st7; &st22; &st15;'>Power Supply <tspan x='0' y='7' >Circuit</tspan></text>
<text transform="matrix(1 0 0 1 2275.9497 234.7065)" style="&st7;"><tspan x="0" y="0" style="&st22; &st15;">B</tspan></text>
<text transform="matrix(1 0 0 1 2479.9204 367.2964)" style="&st7;"><tspan x="0" y="0" style="&st22; &st15;">EP</tspan></text>
<text ewd:textID='25' transform='matrix(1 0 0 1 2422.02 304.9668)' style='&st7; &st22; &st15;'>Micro Computer</text>
</g>
<g ewd:code="G92,G143" ewd:figID="21" ewd:figtype="conn">
<path style="&st8;" d="M2468.59,421.99h16.99v16.99h-16.99V421.99"/>
<path style="&st13;" d="M2477.09,421.99v16.99"/>
<path style="&st8;" d="M2481.62,443.52c0-2.51-2.03-4.54-4.53-4.54"/>
<path style="&st8;" d="M2477.09,438.98c-2.51,0-4.54,2.03-4.54,4.54"/>
<path style="&st8;" d="M2472.55,443.52c0,2.5,2.03,4.53,4.54,4.53"/>
<path style="&st8;" d="M2477.09,448.05c2.5,0,4.53-2.03,4.53-4.53"/>
<path style="&st8;" d="M2481.62,417.45c0-2.5-2.03-4.53-4.53-4.53"/>
<path style="&st8;" d="M2477.09,412.92c-2.51,0-4.54,2.03-4.54,4.53"/>
<path style="&st8;" d="M2472.55,417.45c0,2.51,2.03,4.54,4.54,4.54"/>
<path style="&st8;" d="M2477.09,421.99c2.5,0,4.53-2.03,4.53-4.54"/>
<path style="&st8;" d="M2481.62,408.39c0-2.51-2.03-4.53-4.53-4.53"/>
<path style="&st8;" d="M2477.09,403.86c-2.51,0-4.54,2.02-4.54,4.53"/>
<path style="&st8;" d="M2472.55,408.39c0,2.5,2.03,4.53,4.54,4.53"/>
<path style="&st8;" d="M2477.09,412.92c2.5,0,4.53-2.03,4.53-4.53"/>
<path style="&st8;" d="M2481.62,452.58c0-2.5-2.03-4.53-4.53-4.53"/>
<path style="&st8;" d="M2477.09,448.05c-2.51,0-4.54,2.03-4.54,4.53"/>
<path style="&st8;" d="M2472.55,452.58c0,2.5,2.03,4.53,4.54,4.53"/>
<path style="&st8;" d="M2477.09,457.11c2.5,0,4.53-2.03,4.53-4.53"/>
<text transform="matrix(1 0 0 1 2466.2095 419.4165)" style="&st7;"><tspan x="0" y="0" style="&st22; &st15;">5</tspan></text>
<text transform="matrix(1 0 0 1 2474.7603 419.4165)" style="&st7;"><tspan x="0" y="0" style="&st22; &st15;">B</tspan></text>
<text transform="matrix(1 0 0 1 2466.2095 410.3569)" style="&st7;"><tspan x="0" y="0" style="&st22; &st15;">5</tspan></text>
<text transform="matrix(1 0 0 1 2474.7603 410.3569)" style="&st7;"><tspan x="0" y="0" style="&st22; &st15;">A</tspan></text>
<text transform="matrix(1 0 0 1 2466.2095 454.5464)" style="&st7;"><tspan x="0" y="0" style="&st22; &st15;">6</tspan></text>
<text transform="matrix(1 0 0 1 2474.7603 454.5464)" style="&st7;"><tspan x="0" y="0" style="&st22; &st15;">B</tspan></text>
<text transform="matrix(1 0 0 1 2466.2095 445.4761)" style="&st7;"><tspan x="0" y="0" style="&st22; &st15;">6</tspan></text>
<text transform="matrix(1 0 0 1 2474.7603 445.4761)" style="&st7;"><tspan x="0" y="0" style="&st22; &st15;">A</tspan></text>
<text ewd:textID='20' transform='matrix(1 0 0 1 2488.731 435.2866)' style='&st7; &st22; &st15;'>Junction Connector</text>
<text transform="matrix(1 0 0 1 2488.731 428.1772)" style="&st7;"><tspan x="0" y="0" style="&st22; &st15;">G92(A),G143(B)</tspan></text>
</g>
<g ewd:code="G81-A,G82-B" ewd:figID="20" ewd:figtype="conn">
<path style="&st18;" d="M2468.59,549.46h67.99"/>
<path style="&st18;" d="M2468.59,532.47h67.99"/>
<path style="&st13;" d="M2528.08,523.97v33.99"/>
<path style="&st8;" d="M2468.59,523.97v33.99h67.99v-33.99H2468.59"/>
<path style="&st13;" d="M2477.09,523.97v17h25.49v-17"/>
<path style="&st8;" d="M2481.62,519.44c0-2.51-2.03-4.54-4.53-4.54"/>
<path style="&st8;" d="M2477.09,514.9c-2.51,0-4.54,2.03-4.54,4.54"/>
<path style="&st8;" d="M2472.55,519.44c0,2.5,2.03,4.53,4.54,4.53"/>
<path style="&st8;" d="M2477.09,523.97c2.5,0,4.53-2.03,4.53-4.53"/>
<path style="&st8;" d="M2507.12,519.44c0-2.51-2.03-4.54-4.54-4.54"/>
<path style="&st8;" d="M2502.58,514.9c-2.5,0-4.53,2.03-4.53,4.54"/>
<path style="&st8;" d="M2498.05,519.44c0,2.5,2.03,4.53,4.53,4.53"/>
<path style="&st8;" d="M2502.58,523.97c2.51,0,4.54-2.03,4.54-4.53"/>
<path style="&st8;" d="M2532.61,519.44c0-2.51-2.03-4.54-4.53-4.54"/>
<path style="&st8;" d="M2528.08,514.9c-2.5,0-4.53,2.03-4.53,4.54"/>
<path style="&st8;" d="M2523.55,519.44c0,2.5,2.03,4.53,4.53,4.53"/>
<path style="&st8;" d="M2528.08,523.97c2.5,0,4.53-2.03,4.53-4.53"/>
<path style="&st8;" d="M2532.61,562.5c0-2.51-2.03-4.54-4.53-4.54"/>
<path style="&st8;" d="M2528.08,557.96c-2.5,0-4.53,2.03-4.53,4.54"/>
<path style="&st8;" d="M2523.55,562.5c0,2.5,2.03,4.53,4.53,4.53"/>
<path style="&st8;" d="M2528.08,567.03c2.5,0,4.53-2.03,4.53-4.53"/>
<text transform="matrix(1 0 0 1 2514.02 521.4058)" style="&st7;"><tspan x="0" y="0" style="&st22; &st15;">10</tspan></text>
<text transform="matrix(1 0 0 1 2525.7505 521.4058)" style="&st7;"><tspan x="0" y="0" style="&st22; &st15;">B</tspan></text>
<text ewd:textID='20' transform='matrix(0 -1 1 0 2464.8892 560.4858)' style='&st7; &st22; &st15;'>Junction Connector</text>
<text transform="matrix(0 -1 1 0 2457.7896 560.4858)" style="&st7;"><tspan x="0" y="0" style="&st22; &st15;">G81(A),G82(B)</tspan></text>
<text transform="matrix(1 0 0 1 2517.1997 564.4565)" style="&st7;"><tspan x="0" y="0" style="&st22; &st15;">7</tspan></text>
<text transform="matrix(1 0 0 1 2525.7505 564.4565)" style="&st7;"><tspan x="0" y="0" style="&st22; &st15;">A</tspan></text>
<text transform="matrix(1 0 0 1 2500.2505 521.4058)" style="&st7;"><tspan x="0" y="0" style="&st22; &st15;">B</tspan></text>
<text transform="matrix(1 0 0 1 2491.7095 521.4058)" style="&st7;"><tspan x="0" y="0" style="&st22; &st15;">9</tspan></text>
<text transform="matrix(1 0 0 1 2474.7603 521.4058)" style="&st7;"><tspan x="0" y="0" style="&st22; &st15;">B</tspan></text>
<text transform="matrix(1 0 0 1 2466.2095 521.4058)" style="&st7;"><tspan x="0" y="0" style="&st22; &st15;">8</tspan></text>
</g>
<g ewd:code="A7" ewd:figID="19" ewd:figtype="conn">
<path style="&st8;" d="M2162.64,532.47v-34h212.46v34H2162.64"/>
<text transform="matrix(1 0 0 1 2173.3794 506.1069)" style="&st7;"><tspan x="0" y="0" style="&st22; &st15;">SP1</tspan></text>
<text transform="matrix(1 0 0 1 2169.6704 494.7769)" style="&st7;"><tspan x="0" y="0" style="&st22; &st15;">12</tspan></text>
<text transform="matrix(1 0 0 1 2172.8501 540.6558)" style="&st7;"><tspan x="0" y="0" style="&st22; &st15;">4</tspan></text>
<text transform="matrix(1 0 0 1 2322.6392 540.6558)" style="&st7;"><tspan x="0" y="0" style="&st22; &st15;">19</tspan></text>
<text transform="matrix(1 0 0 1 2249.3306 540.6558)" style="&st7;"><tspan x="0" y="0" style="&st22; &st15;">3</tspan></text>
<text transform="matrix(1 0 0 1 2296.3696 540.6558)" style="&st7;"><tspan x="0" y="0" style="&st22; &st15;">20</tspan></text>
<text transform="matrix(1 0 0 1 2220.6606 540.6558)" style="&st7;"><tspan x="0" y="0" style="&st22; &st15;">17</tspan></text>
<text transform="matrix(1 0 0 1 2195.1606 540.6558)" style="&st7;"><tspan x="0" y="0" style="&st22; &st15;">18</tspan></text>
<text transform="matrix(1 0 0 1 2351.3208 540.6558)" style="&st7;"><tspan x="0" y="0" style="&st22; &st15;">5</tspan></text>
<text transform="matrix(1 0 0 1 2274.8306 540.6558)" style="&st7;"><tspan x="0" y="0" style="&st22; &st15;">6</tspan></text>
<text transform="matrix(1 0 0 1 2199.02 528.7671)" style="&st7;"><tspan x="0" y="0" style="&st22; &st15;">FL+</tspan></text>
<text transform="matrix(1 0 0 1 2173.5298 528.7671)" style="&st7;"><tspan x="0" y="0" style="&st22; &st15;">FL-</tspan></text>
<text transform="matrix(1 0 0 1 2300.6509 528.7671)" style="&st7;"><tspan x="0" y="0" style="&st22; &st15;">RL+</tspan></text>
<text transform="matrix(1 0 0 1 2275.1606 528.7671)" style="&st7;"><tspan x="0" y="0" style="&st22; &st15;">RL-</tspan></text>
<text transform="matrix(1 0 0 1 2351.1509 528.7671)" style="&st7;"><tspan x="0" y="0" style="&st22; &st15;">RR+</tspan></text>
<text transform="matrix(1 0 0 1 2325.6509 528.7671)" style="&st7;"><tspan x="0" y="0" style="&st22; &st15;">RR-</tspan></text>
<text transform="matrix(1 0 0 1 2249.52 528.7671)" style="&st7;"><tspan x="0" y="0" style="&st22; &st15;">FR+</tspan></text>
<text transform="matrix(1 0 0 1 2224.02 528.7671)" style="&st7;"><tspan x="0" y="0" style="&st22; &st15;">FR-</tspan></text>
<text ewd:textID='12' transform='matrix(1 0 0 1 2211.1099 494.7769)' style='&st7; &st22; &st15;'>Brake Actuator Assembly</text>
<text transform="matrix(1 0 0 1 2211.1099 487.6675)" style="&st7;"><tspan x="0" y="0" style="&st22; &st15;">A7</tspan></text>
</g>
<text transform="matrix(0 -1 1 0 2371.4106 630.7476)" style="&st7;"><tspan x="0" y="0" style="&st22; &st15;">BR</tspan></text>
<text transform="matrix(0 -1 1 0 2382.7407 641.5562)" style="&st7;"><tspan x="0" y="0" style="&st22; &st15;">(1GR-FE)</tspan></text>
<text transform="matrix(0 -1 1 0 2235.4302 169.0068)" style="&st7;"><tspan x="0" y="0" style="&st22; &st15;">L</tspan></text>
<text transform="matrix(0 -1 1 0 2413.9009 545.7671)" style="&st7;"><tspan x="0" y="0" style="&st22; &st15;">BR</tspan></text>
<text transform="matrix(0 -1 1 0 2413.9009 469.2769)" style="&st7;"><tspan x="0" y="0" style="&st22; &st15;">BR</tspan></text>
<text transform="matrix(0 -1 1 0 2413.9009 395.6011)" style="&st7;"><tspan x="0" y="0" style="&st22; &st15;">BR</tspan></text>
<text transform="matrix(0 -1 1 0 2413.9009 601.0073)" style="&st7;"><tspan x="0" y="0" style="&st22; &st15;">BR</tspan></text>
<text transform="matrix(0 -1 1 0 2425.2407 613.5073)" style="&st7;"><tspan x="0" y="0" style="&st22; &st15;">(1KD-FTV,</tspan><tspan x="0" y="7" style="&st22; &st15;">1GD-FTV)</tspan></text>
<text transform="matrix(0 -1 1 0 2473.3892 478.4272)" style="&st7;"><tspan x="0" y="0" style="&st22; &st15;">W-B</tspan></text>
<text transform="matrix(0 -1 1 0 2328.9106 160.9966)" style="&st7;"><tspan x="0" y="0" style="&st22; &st15;">R</tspan></text>
<text transform="matrix(0 -1 1 0 2269.4204 211.4966)" style="&st7;"><tspan x="0" y="0" style="&st22; &st15;">L</tspan></text>
<text transform="matrix(0 -1 1 0 2192.9399 126.5068)" style="&st7;"><tspan x="0" y="0" style="&st22; &st15;">L</tspan></text>
<text transform="matrix(0 -1 1 0 2201.4399 551.937)" style="&st7;"><tspan x="0" y="0" style="&st22; &st15;">R</tspan></text>
<text transform="matrix(0 -1 1 0 2175.9399 552.2163)" style="&st7;"><tspan x="0" y="0" style="&st22; &st15;">G</tspan></text>
<text transform="matrix(0 -1 1 0 2303.4204 551.937)" style="&st7;"><tspan x="0" y="0" style="&st22; &st15;">R</tspan></text>
<text transform="matrix(0 -1 1 0 2277.9204 552.2163)" style="&st7;"><tspan x="0" y="0" style="&st22; &st15;">G</tspan></text>
<text transform="matrix(0 -1 1 0 2354.4106 551.7866)" style="&st7;"><tspan x="0" y="0" style="&st22; &st15;">B</tspan></text>
<text transform="matrix(0 -1 1 0 2328.9204 552.8159)" style="&st7;"><tspan x="0" y="0" style="&st22; &st15;">W</tspan></text>
<text transform="matrix(0 -1 1 0 2226.9302 551.437)" style="&st7;"><tspan x="0" y="0" style="&st22; &st15;">L</tspan></text>
<text transform="matrix(0 -1 1 0 2252.4302 551.7866)" style="&st7;"><tspan x="0" y="0" style="&st22; &st15;">P</tspan></text>
<text ewd:textID='31' transform='matrix(1 0 0 1 2244.4595 597.3374)' style='&st7; &st22; &st15;'>Speed Sensors</text>
<text transform="matrix(0 -1 1 0 2175.9399 407.3159)" style="&st7;"><tspan x="0" y="0" style="&st22; &st15;">V</tspan></text>
<text transform="matrix(0 -1 1 0 2175.9399 466.8062)" style="&st7;"><tspan x="0" y="0" style="&st22; &st15;">V</tspan></text>
<text transform="matrix(0 -1 1 0 2124.9497 407.4565)" style="&st7;"><tspan x="0" y="0" style="&st22; &st15;">R</tspan></text>
<text transform="matrix(0 -1 1 0 2413.9009 663.8315)" style="&st7;"><tspan x="0" y="0" style="&st22; &st15;">W-B</tspan></text>
<text transform="matrix(0 -1 1 0 2425.2407 672.5522)" style="&st7;"><tspan x="0" y="0" style="&st22; &st15;">(1KD-FTV)</tspan></text>
<text ewd:textID='4' transform='matrix(1 0 0 1 2372.5806 143.4966)' style='&st7; &st22; &st15;'>* 3 :Before Oct. 2010 Production</text>
<text ewd:textID='5' transform='matrix(1 0 0 1 2372.5806 151.9966)' style='&st7; &st22; &st15;'>* 4 :From Oct. 2010 Production</text>
<text transform="matrix(1 0 0 1 2483.061 419.4165)" style="&st7;"><tspan x="0" y="0" style="&st22; &st15;">(*4)</tspan></text>
<text transform="matrix(1 0 0 1 2483.061 410.3569)" style="&st7;"><tspan x="0" y="0" style="&st22; &st15;">(*3)</tspan></text>
<text transform="matrix(1 0 0 1 2483.061 454.5464)" style="&st7;"><tspan x="0" y="0" style="&st22; &st15;">(*4)</tspan></text>
<text transform="matrix(1 0 0 1 2483.061 445.4761)" style="&st7;"><tspan x="0" y="0" style="&st22; &st15;">(*3)</tspan></text>
<text ewd:textID='9' transform='matrix(1 0 0 1 2372.5806 168.9956)' style='&st7; &st22; &st15;'>* 8 :From Aug. 2013 Production</text>
<text ewd:textID='8' transform='matrix(1 0 0 1 2372.5806 160.4956)' style='&st7; &st22; &st15;'>* 7 :Before Aug. 2013 Production</text>
<text transform="matrix(1 0 0 1 2092.8384 634.2476)" style="&st7;"><tspan x="0" y="0" style="&st22; &st15;">R</tspan></text>
<text transform="matrix(1 0 0 1 2053.1724 634.2476)" style="&st7;"><tspan x="0" y="0" style="&st22; &st15;">R</tspan></text>
<text transform="matrix(0 -1 1 0 2484.729 477.8472)" style="&st7;"><tspan x="0" y="0" style="&st22; &st15;">(*7)</tspan></text>
<text transform="matrix(0 -1 1 0 2473.3892 397.2114)" style="&st7;"><tspan x="0" y="0" style="&st22; &st15;">W-B</tspan></text>
<text transform="matrix(0 -1 1 0 2484.729 396.2681)" style="&st7;"><tspan x="0" y="0" style="&st22; &st15;">(*7)</tspan></text>
<text transform="matrix(0 -1 1 0 2457.2446 660.855)"><tspan x="0" y="0" style="&st22; &st15;">BR</tspan></text>
<text transform="matrix(0 -1 1 0 2467.6997 671.519)" style="&st7;"><tspan x="0" y="0" style="&st22; &st15;">(1GD-FTV)</tspan></text>
</svg>
