﻿<?xml version="1.0" encoding="UTF-8"?>
<!DOCTYPE svg PUBLIC "-//W3C//DTD SVG 1.0//EN" "http://www.w3.org/TR/2001/REC-SVG-20010904/DTD/svg10.dtd"[
<!ENTITY ns_flows "http://ns.adobe.com/Flows/1.0/">
<!ENTITY ns_svg "http://www.w3.org/2000/svg">
<!ENTITY ns_xlink "http://www.w3.org/1999/xlink">
	<!ENTITY st0 "fill:none;stroke:#FB0F0C;stroke-width:5.1;stroke-linejoin:round;">
	<!ENTITY st1 "fill:none;stroke:#9A9999;stroke-width:5.1;stroke-linejoin:round;">
	<!ENTITY st2 "fill:none;stroke:#99280B;stroke-width:5.1;stroke-linejoin:round;">
		<!ENTITY st3 "fill:none;stroke:#000000;stroke-width:0.85;stroke-linecap:round;stroke-linejoin:round;stroke-dasharray:3 1.5;enable-background:new    ;">
	<!ENTITY st4 "fill:none;stroke:#99280B;stroke-width:4.54;stroke-linejoin:round;">
	<!ENTITY st5 "fill:none;stroke:#000000;stroke-width:5.1;stroke-linejoin:round;">
	<!ENTITY st6 "fill:none;stroke:#FB0F0C;stroke-width:4.54;stroke-linejoin:round;">
	<!ENTITY st7 "fill:none;stroke:#000000;stroke-linecap:round;stroke-linejoin:round;">
	<!ENTITY st8 "stroke:#000000;stroke-width:0.28;stroke-linecap:round;stroke-linejoin:round;enable-background:new    ;">
	<!ENTITY st9 "fill:none;stroke:#9A9999;stroke-width:4.54;stroke-linejoin:round;">
	<!ENTITY st10 "enable-background:new    ;">
		<!ENTITY st11 "fill:none;stroke:#000000;stroke-width:1.42;stroke-linecap:round;stroke-linejoin:round;enable-background:new    ;">
	<!ENTITY st12 "fill:none;stroke:#EE67AA;stroke-width:5.1;stroke-linejoin:round;">
	<!ENTITY st13 "fill:none;stroke:#199DBF;stroke-width:5.1;stroke-linejoin:round;">
	<!ENTITY st14 "opacity:0.5;fill:none;stroke:#34ACCE;stroke-linejoin:round;stroke-dasharray:6;">
	<!ENTITY st15 "fill:none;stroke:#FFFFFF;stroke-width:4.53;stroke-linejoin:round;">
		<!ENTITY st16 "fill:none;stroke:#000000;stroke-width:0.85;stroke-linecap:round;stroke-linejoin:round;enable-background:new    ;">
	<!ENTITY st17 "fill:none;stroke:#56107C;stroke-width:5.1;stroke-linejoin:round;">
	<!ENTITY st18 "font-size:6px;">
	<!ENTITY st19 "fill:none;stroke:#168638;stroke-width:4.54;stroke-linejoin:round;">
	<!ENTITY st20 "fill:none;stroke:#168638;stroke-width:5.1;stroke-linejoin:round;">
	<!ENTITY st21 "fill:none;stroke:#000000;stroke-width:1.13;stroke-linejoin:round;">
		<!ENTITY st22 "fill:none;stroke:#000000;stroke-width:1.13;stroke-linecap:round;stroke-linejoin:round;stroke-dasharray:3 1.5;enable-background:new    ;">
	<!ENTITY st23 "fill:none;stroke:#550E7B;stroke-width:4.54;stroke-linejoin:round;">
	<!ENTITY st24 "fill:#FFFFFF;stroke:#000000;stroke-width:1.41;stroke-linecap:round;stroke-linejoin:round;">
	<!ENTITY st25 "fill:none;stroke:#EE67AA;stroke-width:4.54;stroke-linejoin:round;">
	<!ENTITY st26 "fill:none;stroke:#3E65AC;stroke-width:3;">
	<!ENTITY st27 "fill:#CCCCCC;stroke:#CCCCCC;stroke-width:0.1;stroke-linecap:round;stroke-linejoin:round;">
	<!ENTITY st28 "fill:none;stroke:#7EC57E;stroke-width:4.54;stroke-linejoin:round;">
	<!ENTITY st29 "fill:none;stroke:#000000;stroke-width:5.1;stroke-linejoin:round;enable-background:new    ;">
	<!ENTITY st30 "font-family:'Arial';">
	<!ENTITY st31 "opacity:0.5;fill:none;stroke:#34ACCE;stroke-linejoin:round;">
	<!ENTITY st32 "fill:#CFE6E7;stroke:#000000;stroke-width:1.133;stroke-linecap:round;stroke-linejoin:round;">
	<!ENTITY st33 "fill:none;stroke:#99D5E0;stroke-width:5.1;stroke-linejoin:round;">
	<!ENTITY st34 "fill:none;stroke:#000000;stroke-width:0.85;stroke-linecap:round;stroke-linejoin:round;stroke-dasharray:3 1.5;">
	<!ENTITY st35 "fill:none;stroke:#FFFFFF;stroke-width:1.13;stroke-linejoin:round;enable-background:new    ;">
	<!ENTITY st36 "fill:none;stroke:#000000;stroke-width:0.85;stroke-linecap:round;stroke-linejoin:round;">
	<!ENTITY st37 "fill:none;stroke:#199DBF;stroke-width:4.54;stroke-linejoin:round;">
<!ATTLIST svg
xmlns:ewd CDATA #FIXED "http://shcl.co.jp/ewd"
xmlns:a CDATA #FIXED "http://ns.adobe.com/AdobeSVGViewerExtensions/3.0/"
ewd:ver CDATA #IMPLIED
>
<!ATTLIST a
ewd:lineID CDATA #IMPLIED
ewd:groupID CDATA #IMPLIED
ewd:figtype CDATA #IMPLIED
ewd:code CDATA #IMPLIED
ewd:figID CDATA #IMPLIED
ewd:pinNo CDATA #IMPLIED
ewd:comment CDATA #IMPLIED >
<!ATTLIST g
ewd:lineID CDATA #IMPLIED
ewd:groupID CDATA #IMPLIED
ewd:figtype CDATA #IMPLIED
ewd:code CDATA #IMPLIED
ewd:figID CDATA #IMPLIED
ewd:pinNo CDATA #IMPLIED
ewd:comment CDATA #IMPLIED >
<!ATTLIST text
ewd:textID CDATA #IMPLIED >
<!ATTLIST title
ewd:textID CDATA #IMPLIED >
]>
<svg 
viewBox='0 0 3113.46 729.44'
height='729.44'
width='3113.46'
xml:space="preserve"
xmlns="&ns_svg;"
xmlns:ewd="http://shcl.co.jp/ewd"
xmlns:xlink="&ns_xlink;" ewd:ver="L2.3">
<g ewd:code="GR1" ewd:figID="6005" ewd:figtype="w2w" ewd:pinNo="60">
<path style="&st11;" d="M1996.18,295.78h8.5"/>
<path style="&st11;" d="M2000.43,286.71l4.25,4.25l4.25-4.25"/>
<path style="&st11;" d="M2008.93,290.11l-4.25,4.25l-4.25-4.25"/>
<text transform="matrix(1 0 0 1 1986.5107 301.998)" style="&st10;"><tspan x="0" y="0" style="&st30; &st18;">60</tspan></text>
</g>
<g ewd:code="KG1" ewd:figID="6006" ewd:figtype="w2w" ewd:pinNo="10">
<path style="&st11;" d="M1996.18,365.78h8.5"/>
<path style="&st11;" d="M2000.43,356.71l4.25,4.25l4.25-4.25"/>
<path style="&st11;" d="M2008.93,360.11l-4.25,4.25l-4.25-4.25"/>
<text transform="matrix(1 0 0 1 1986.5107 371.9995)" style="&st10;"><tspan x="0" y="0" style="&st30; &st18;">10</tspan></text>
</g>
<g ewd:code="GR1" ewd:figID="6003" ewd:figtype="w2w" ewd:pinNo="27">
<path style="&st11;" d="M1788.71,366.82l-4.25-4.25l-4.25,4.25"/>
<path style="&st11;" d="M1788.71,363.42l-4.25-4.25l-4.25,4.25"/>
<text transform="matrix(1 0 0 1 1764.8037 355.4795)"><tspan x="0" y="0" style="&st30; &st18;">27</tspan></text>
</g>
<g ewd:code="GR1" ewd:figID="6004" ewd:figtype="w2w" ewd:pinNo="28">
<path style="&st11;" d="M1823.85,366.82l-4.25-4.25l-4.25,4.25"/>
<path style="&st11;" d="M1823.85,363.42l-4.25-4.25l-4.25,4.25"/>
<text transform="matrix(1 0 0 1 1799.9482 355.4795)"><tspan x="0" y="0" style="&st30; &st18;">28</tspan></text>
</g>
<g ewd:code="R2" ewd:figID="2004" ewd:figtype="gp">
<path style="&st16;" d="M1941.05,708.1h8.5"/>
<path style="&st16;" d="M1945.3,701.02v4.25"/>
<path style="&st16;" d="M1936.8,705.27h16.99"/>
<path style="&st16;" d="M1942.46,710.94h5.67"/>
<path style="&st16;" d="M1943.88,713.77h2.83"/>
</g>
<g ewd:code="K1" ewd:figID="2005" ewd:figtype="gp">
<path style="&st16;" d="M2003.26,713.77h2.83"/>
<path style="&st16;" d="M2001.84,710.94h5.67"/>
<path style="&st16;" d="M2000.43,708.1h8.5"/>
<path style="&st16;" d="M1996.18,705.27h17"/>
<path style="&st16;" d="M2004.68,701.02v4.25"/>
</g>
<g ewd:code="R42" ewd:figID="13" ewd:figtype="conn">
<path style="&st11;" d="M1928.3,204.57v42.49h294.29v-42.49H1928.3"/>
<text ewd:textID='9' transform='matrix(1 0 0 1 2140.6318 200.8711)' style='&st10; &st30; &st18;'>Blind Spot Monitor Sensor LH</text>
<text transform="matrix(1 0 0 1 2140.6318 193.7715)" style="&st10;"><tspan x="0" y="0" style="&st30; &st18;">R42</tspan></text>
<text ewd:textID='9' transform='matrix(1 0 0 1 1989.7568 200.8711)' style='&st10; &st30; &st18;'>Blind Spot Monitor Sensor LH</text>
<text transform="matrix(1 0 0 1 1989.7568 193.7715)" style="&st10;"><tspan x="0" y="0" style="&st30; &st18;">R42</tspan></text>
<text transform="matrix(1 0 0 1 2198.8037 255.2539)" style="&st10;"><tspan x="0" y="0" style="&st30; &st18;">5</tspan></text>
<text transform="matrix(1 0 0 1 2198.6045 243.3633)" style="&st10;"><tspan x="0" y="0" style="&st30; &st18;">BLB</tspan></text>
<text transform="matrix(1 0 0 1 2158.1787 243.3633)" style="&st10;"><tspan x="0" y="0" style="&st30; &st18;">BSTL</tspan></text>
<text transform="matrix(1 0 0 1 2158.3789 255.2539)" style="&st10;"><tspan x="0" y="0" style="&st30; &st18;">9</tspan></text>
<text transform="matrix(1 0 0 1 1997.6953 243.3633)" style="&st10;"><tspan x="0" y="0" style="&st30; &st18;">OMIL</tspan></text>
<text transform="matrix(1 0 0 1 1997.8955 255.2539)" style="&st10;"><tspan x="0" y="0" style="&st30; &st18;">4</tspan></text>
<text transform="matrix(1 0 0 1 1938.3145 243.3633)" style="&st10;"><tspan x="0" y="0" style="&st30; &st18;">BLGD</tspan></text>
<text transform="matrix(1 0 0 1 1934.5146 255.2539)" style="&st10;"><tspan x="0" y="0" style="&st30; &st18;">10</tspan></text>
<text transform="matrix(1 0 0 1 2123.1748 200.8809)" style="&st10;"><tspan x="0" y="0" style="&st30; &st18;">6</tspan></text>
<text transform="matrix(1 0 0 1 2123.1846 212.2012)" style="&st10;"><tspan x="0" y="0" style="&st30; &st18;">CA2N</tspan></text>
<text transform="matrix(1 0 0 1 2089.3613 200.8809)" style="&st10;"><tspan x="0" y="0" style="&st30; &st18;">1</tspan></text>
<text transform="matrix(1 0 0 1 2089.3711 212.2012)" style="&st10;"><tspan x="0" y="0" style="&st30; &st18;">CA2P</tspan></text>
<text transform="matrix(1 0 0 1 1972.5137 200.8809)" style="&st10;"><tspan x="0" y="0" style="&st30; &st18;">7</tspan></text>
<text transform="matrix(1 0 0 1 1972.5234 212.2012)" style="&st10;"><tspan x="0" y="0" style="&st30; &st18;">CA1N</tspan></text>
<text transform="matrix(1 0 0 1 1938.6709 200.8809)" style="&st10;"><tspan x="0" y="0" style="&st30; &st18;">2</tspan></text>
<text transform="matrix(1 0 0 1 1939.6807 212.2012)" style="&st10;"><tspan x="0" y="0" style="&st30; &st18;">CA1P</tspan></text>
</g>
<g ewd:code="K2" ewd:figID="30" ewd:figtype="conn">
<path style="&st11;" d="M1970.69,445.78v67.98h67.99v-67.98H1970.69"/>
<path style="&st11;" d="M1979.19,462.77h50.99v34h-50.99V462.77"/>
<path style="&st16;" d="M2004.68,496.77v16.99"/>
<path style="&st16;" d="M2004.68,462.77v-16.99"/>
<text ewd:textID='24' transform='matrix(0 -1 1 0 2053.3994 515.3433)' style='&st10; &st30; &st18;'>Outer Rear View Mirror <tspan x='0' y='7' >Assembly LH</tspan></text>
<text transform="matrix(0 -1 1 0 2046.2891 515.3433)" style="&st10;"><tspan x="0" y="0" style="&st30; &st18;">K2</tspan></text>
<text transform="matrix(1 0 0 1 1997.8945 442.0874)" style="&st10;"><tspan x="0" y="0" style="&st30; &st18;">2</tspan></text>
<text transform="matrix(1 0 0 1 1997.8955 521.9526)" style="&st10;"><tspan x="0" y="0" style="&st30; &st18;">7</tspan></text>
<text transform="matrix(1 0 0 1 2007.5244 453.978)" style="&st10;"><tspan x="0" y="0" style="&st30; &st18;">BSL+</tspan></text>
<text transform="matrix(1 0 0 1 2007.5244 511.187)" style="&st10;"><tspan x="0" y="0" style="&st30; &st18;">E</tspan></text>
<text ewd:textID='38' transform='matrix(1 0 0 1 1992.2979 478.355)' style='&st10; &st30; &st18;'>Warning <tspan x='0' y='7' >Indicator</tspan></text>
</g>
<g ewd:code="G95" ewd:figID="12" ewd:figtype="conn">
<path style="&st11;" d="M1775.68,243.19v17h52.42v-17H1775.68"/>
<path style="&st36;" d="M1784.46,243.19v17"/>
<path style="&st36;" d="M1819.61,243.19v17"/>
<text ewd:textID='19' transform='matrix(0 -1 1 0 1843.5098 262.7065)' style='&st10; &st30; &st18;'>Junction Connector</text>
<text transform="matrix(0 -1 1 0 1836.4004 262.7065)"><tspan x="0" y="0" style="&st30; &st18;">G95</tspan></text>
<text transform="matrix(1 0 0 1 1777.4277 239.4976)"><tspan x="0" y="0" style="&st30; &st18;">1</tspan></text>
<text transform="matrix(1 0 0 1 1809.2383 239.4976)"><tspan x="0" y="0" style="&st30; &st18;">12</tspan></text>
<text transform="matrix(1 0 0 1 1777.4209 268.3862)"><tspan x="0" y="0" style="&st30; &st18;">3</tspan></text>
<text transform="matrix(1 0 0 1 1809.2344 268.3862)"><tspan x="0" y="0" style="&st30; &st18;">14</tspan></text>
</g>
<g ewd:code="R47" ewd:figID="28" ewd:figtype="conn">
<path style="&st11;" d="M1775.68,452.6v17h52.42v-17H1775.68"/>
<path style="&st36;" d="M1784.46,452.6v17"/>
<path style="&st36;" d="M1819.61,452.6v17"/>
<text ewd:textID='19' transform='matrix(0 -1 1 0 1843.5156 472.1196)' style='&st10; &st30; &st18;'>Junction Connector</text>
<text transform="matrix(0 -1 1 0 1836.4063 472.1196)"><tspan x="0" y="0" style="&st30; &st18;">R47</tspan></text>
<text transform="matrix(1 0 0 1 1777.4209 448.9106)"><tspan x="0" y="0" style="&st30; &st18;">1</tspan></text>
<text transform="matrix(1 0 0 1 1809.2314 448.9106)"><tspan x="0" y="0" style="&st30; &st18;">12</tspan></text>
<text transform="matrix(1 0 0 1 1777.4307 477.8013)"><tspan x="0" y="0" style="&st30; &st18;">2</tspan></text>
<text transform="matrix(1 0 0 1 1809.2412 477.8013)"><tspan x="0" y="0" style="&st30; &st18;">13</tspan></text>
</g>
<g ewd:code="G98" ewd:figID="11" ewd:figtype="conn">
<path style="&st11;" d="M1615.75,243.19v26.36h130.37v-26.36H1615.75"/>
<path style="&st36;" d="M1624.53,243.19v8.79h77.65v-8.79"/>
<path style="&st36;" d="M1659.68,243.19v17.57h77.65v-17.57"/>
<path style="&st11;" d="M1659.68,243.19c2.51,0,4.53-2.02,4.53-4.53"/>
<path style="&st11;" d="M1629.06,238.66c0-2.5-2.02-4.53-4.53-4.53"/>
<path style="&st11;" d="M1624.53,234.13c-2.5,0-4.53,2.03-4.53,4.53"/>
<path style="&st11;" d="M1620,238.66c0,2.51,2.03,4.53,4.53,4.53"/>
<path style="&st11;" d="M1624.53,243.19c2.51,0,4.53-2.02,4.53-4.53"/>
<path style="&st11;" d="M1664.21,238.66c0-2.5-2.02-4.53-4.53-4.53"/>
<path style="&st11;" d="M1659.68,234.13c-2.5,0-4.53,2.03-4.53,4.53"/>
<path style="&st11;" d="M1655.15,238.66c0,2.51,2.03,4.53,4.53,4.53"/>
<path style="&st11;" d="M1706.71,238.66c0-2.5-2.02-4.53-4.53-4.53"/>
<path style="&st11;" d="M1702.18,234.13c-2.5,0-4.53,2.03-4.53,4.53"/>
<path style="&st11;" d="M1697.65,238.66c0,2.51,2.03,4.53,4.53,4.53"/>
<path style="&st11;" d="M1702.18,243.19c2.51,0,4.53-2.02,4.53-4.53"/>
<path style="&st11;" d="M1741.86,238.66c0-2.5-2.02-4.53-4.53-4.53"/>
<path style="&st11;" d="M1737.33,234.13c-2.5,0-4.53,2.03-4.53,4.53"/>
<path style="&st11;" d="M1732.8,238.66c0,2.51,2.03,4.53,4.53,4.53"/>
<path style="&st11;" d="M1737.33,243.19c2.51,0,4.53-2.02,4.53-4.53"/>
<text transform="matrix(1 0 0 1 1622.2021 240.6265)"><tspan x="0" y="0" style="&st30; &st18;">B</tspan></text>
<text transform="matrix(1 0 0 1 1614.1543 240.6177)"><tspan x="0" y="0" style="&st30; &st18;">2</tspan></text>
<text transform="matrix(1 0 0 1 1657.3535 240.6265)"><tspan x="0" y="0" style="&st30; &st18;">B</tspan></text>
<text transform="matrix(1 0 0 1 1645.9688 240.6177)"><tspan x="0" y="0" style="&st30; &st18;">13</tspan></text>
<text transform="matrix(1 0 0 1 1699.8525 240.6265)"><tspan x="0" y="0" style="&st30; &st18;">B</tspan></text>
<text transform="matrix(1 0 0 1 1691.8047 240.6177)"><tspan x="0" y="0" style="&st30; &st18;">1</tspan></text>
<text transform="matrix(1 0 0 1 1735.0039 240.6265)"><tspan x="0" y="0" style="&st30; &st18;">B</tspan></text>
<text transform="matrix(1 0 0 1 1723.6191 240.6177)"><tspan x="0" y="0" style="&st30; &st18;">12</tspan></text>
<text ewd:textID='19' transform='matrix(0 -1 1 0 1760.2256 269.0581)' style='&st10; &st30; &st18;'>Junction Connector</text>
<text transform="matrix(0 -1 1 0 1753.1162 269.0581)"><tspan x="0" y="0" style="&st30; &st18;">G98(B)</tspan></text>
</g>
<g ewd:code="R31" ewd:figID="29" ewd:figtype="conn">
<path style="&st16;" d="M1945.3,659.94v25.49"/>
<path style="&st11;" d="M1936.8,659.94v16.99h16.99v-16.99H1936.8"/>
<text transform="matrix(1 0 0 1 1938.5039 656.2554)" style="&st10;"><tspan x="0" y="0" style="&st30; &st18;">7</tspan></text>
<text transform="matrix(1 0 0 1 1956.9443 663.3042)" style="&st10;"><tspan x="0" y="0" style="&st30; &st18;">R31</tspan></text>
<text ewd:textID='19' transform='matrix(1 0 0 1 1956.9443 670.4038)' style='&st10; &st30; &st18;'>Junction <tspan x='0' y='7' >Connector</tspan></text>
</g>
<text transform="matrix(0 -1 1 0 1941.6045 297.0645)" style="&st10;"><tspan x="0" y="0" style="&st30; &st18;">W-B</tspan></text>
<text transform="matrix(0 -1 1 0 1733.6309 202.4014)"><tspan x="0" y="0" style="&st30; &st18;">W</tspan></text>
<text transform="matrix(0 -1 1 0 1698.4795 201.5708)"><tspan x="0" y="0" style="&st30; &st18;">P</tspan></text>
<text transform="matrix(1 0 0 1 1529.2295 131.4365)"><tspan x="0" y="0" style="&st30; &st18;">V</tspan></text>
<text transform="matrix(1 0 0 1 1528.3994 161.4365)"><tspan x="0" y="0" style="&st30; &st18;">W</tspan></text>
<text transform="matrix(1 0 0 1 1580.2295 131.4365)"><tspan x="0" y="0" style="&st30; &st18;">V</tspan></text>
<text transform="matrix(1 0 0 1 1579.3994 161.4365)"><tspan x="0" y="0" style="&st30; &st18;">W</tspan></text>
<text transform="matrix(0 -1 1 0 1975.6006 186.3809)"><tspan x="0" y="0" style="&st30; &st18;">W</tspan></text>
<text transform="matrix(0 -1 1 0 1941.6006 186.3809)"><tspan x="0" y="0" style="&st30; &st18;">G</tspan></text>
<text transform="matrix(0 -1 1 0 1780.7578 307.0518)"><tspan x="0" y="0" style="&st30; &st18;">LG</tspan></text>
<text transform="matrix(0 -1 1 0 1780.7578 407.3931)"><tspan x="0" y="0" style="&st30; &st18;">LG</tspan></text>
<text transform="matrix(0 -1 1 0 1815.9023 307.0518)"><tspan x="0" y="0" style="&st30; &st18;">W</tspan></text>
<text transform="matrix(0 -1 1 0 1815.9023 407.3931)"><tspan x="0" y="0" style="&st30; &st18;">W</tspan></text>
<text transform="matrix(0 -1 1 0 1780.7578 201.5708)"><tspan x="0" y="0" style="&st30; &st18;">P</tspan></text>
<text transform="matrix(0 -1 1 0 1815.9092 202.4014)"><tspan x="0" y="0" style="&st30; &st18;">W</tspan></text>
<text transform="matrix(0 -1 1 0 1815.9082 501.0005)"><tspan x="0" y="0" style="&st30; &st18;">W</tspan></text>
<text transform="matrix(0 -1 1 0 1780.7578 501.0005)"><tspan x="0" y="0" style="&st30; &st18;">G</tspan></text>
<text transform="matrix(1 0 0 1 1567.6777 142.9365)"><tspan x="0" y="0" style="&st30; &st18;">(*6,*1 *7 M/T,*2 *7)</tspan></text>
<text transform="matrix(1 0 0 1 1567.6777 172.6865)"><tspan x="0" y="0" style="&st30; &st18;">(*6,*1 *7 M/T,*2 *7)</tspan></text>
<text transform="matrix(1 0 0 1 1580.2295 215.5513)"><tspan x="0" y="0" style="&st30; &st18;">V</tspan></text>
<text transform="matrix(1 0 0 1 1569.3057 227.0513)"><tspan x="0" y="0" style="&st30; &st18;">(*1 *7 A/T,*5)</tspan></text>
<text transform="matrix(0 -1 1 0 1522.2236 265.8774)"><tspan x="0" y="0" style="&st30; &st18;">V</tspan></text>
<text transform="matrix(0 -1 1 0 1533.7236 281.0518)"><tspan x="0" y="0" style="&st30; &st18;">(*1 *7 A/T,*5)</tspan></text>
<text transform="matrix(0 -1 1 0 1500.9736 266.708)"><tspan x="0" y="0" style="&st30; &st18;">W</tspan></text>
<text transform="matrix(0 -1 1 0 1512.4736 281.0518)"><tspan x="0" y="0" style="&st30; &st18;">(*1 *7 A/T,*5)</tspan></text>
<text transform="matrix(1 0 0 1 1579.3994 194.3013)"><tspan x="0" y="0" style="&st30; &st18;">W</tspan></text>
<text transform="matrix(1 0 0 1 1569.3057 205.8013)"><tspan x="0" y="0" style="&st30; &st18;">(*1 *7 A/T,*5)</tspan></text>
</svg>
