﻿<?xml version="1.0" encoding="UTF-8"?>
<!DOCTYPE svg PUBLIC "-//W3C//DTD SVG 1.0//EN" "http://www.w3.org/TR/2001/REC-SVG-20010904/DTD/svg10.dtd"[
<!ENTITY ns_flows "http://ns.adobe.com/Flows/1.0/">
<!ENTITY ns_svg "http://www.w3.org/2000/svg">
<!ENTITY ns_xlink "http://www.w3.org/1999/xlink">
	<!ENTITY st0 "fill:none;stroke:#FB0F0C;stroke-width:5.1;stroke-linejoin:round;">
	<!ENTITY st1 "fill:none;stroke:#9A9999;stroke-width:5.1;stroke-linejoin:round;">
		<!ENTITY st2 "fill:none;stroke:#000000;stroke-width:0.85;stroke-linecap:round;stroke-linejoin:round;stroke-dasharray:3 1.5;enable-background:new    ;">
	<!ENTITY st3 "fill:none;stroke:#000000;stroke-width:5.1;stroke-linejoin:round;">
	<!ENTITY st4 "fill:none;stroke:#000000;stroke-linecap:round;stroke-linejoin:round;">
	<!ENTITY st5 "stroke:#000000;stroke-width:0.28;stroke-linecap:round;stroke-linejoin:round;enable-background:new    ;">
	<!ENTITY st6 "enable-background:new    ;">
		<!ENTITY st7 "fill:none;stroke:#000000;stroke-width:1.42;stroke-linecap:round;stroke-linejoin:round;enable-background:new    ;">
	<!ENTITY st8 "fill:none;stroke:#EE67AA;stroke-width:5.1;stroke-linejoin:round;">
	<!ENTITY st9 "fill:none;stroke:#199DBF;stroke-width:5.1;stroke-linejoin:round;">
	<!ENTITY st10 "opacity:0.5;fill:none;stroke:#34ACCE;stroke-linejoin:round;stroke-dasharray:6;">
	<!ENTITY st11 "fill:none;stroke:#FFFFFF;stroke-width:4.53;stroke-linejoin:round;">
		<!ENTITY st12 "fill:none;stroke:#000000;stroke-width:0.85;stroke-linecap:round;stroke-linejoin:round;enable-background:new    ;">
	<!ENTITY st13 "fill:none;stroke:#56107C;stroke-width:5.1;stroke-linejoin:round;">
	<!ENTITY st14 "font-size:6px;">
	<!ENTITY st15 "fill:none;stroke:#168638;stroke-width:5.1;stroke-linejoin:round;">
	<!ENTITY st16 "fill:none;stroke:#000000;stroke-width:1.13;stroke-linejoin:round;">
		<!ENTITY st17 "fill:none;stroke:#000000;stroke-width:1.13;stroke-linecap:round;stroke-linejoin:round;stroke-dasharray:3 1.5;enable-background:new    ;">
	<!ENTITY st18 "fill:#FFFFFF;stroke:#000000;stroke-width:1.41;stroke-linecap:round;stroke-linejoin:round;">
	<!ENTITY st19 "fill:none;stroke:#3E65AC;stroke-width:3;">
	<!ENTITY st20 "fill:#CCCCCC;stroke:#CCCCCC;stroke-width:0.1;stroke-linecap:round;stroke-linejoin:round;">
	<!ENTITY st21 "font-family:'Arial';">
	<!ENTITY st22 "opacity:0.5;fill:none;stroke:#34ACCE;stroke-linejoin:round;">
	<!ENTITY st23 "fill:#CFE6E7;stroke:#000000;stroke-width:1.133;stroke-linecap:round;stroke-linejoin:round;">
	<!ENTITY st24 "fill:none;stroke:#99D5E0;stroke-width:5.1;stroke-linejoin:round;">
	<!ENTITY st25 "fill:none;stroke:#7EC57E;stroke-width:5.1;stroke-linejoin:round;">
<!ATTLIST svg
xmlns:ewd CDATA #FIXED "http://shcl.co.jp/ewd"
xmlns:a CDATA #FIXED "http://ns.adobe.com/AdobeSVGViewerExtensions/3.0/"
ewd:ver CDATA #IMPLIED
>
<!ATTLIST a
ewd:lineID CDATA #IMPLIED
ewd:groupID CDATA #IMPLIED
ewd:figtype CDATA #IMPLIED
ewd:code CDATA #IMPLIED
ewd:figID CDATA #IMPLIED
ewd:pinNo CDATA #IMPLIED
ewd:comment CDATA #IMPLIED >
<!ATTLIST g
ewd:lineID CDATA #IMPLIED
ewd:groupID CDATA #IMPLIED
ewd:figtype CDATA #IMPLIED
ewd:code CDATA #IMPLIED
ewd:figID CDATA #IMPLIED
ewd:pinNo CDATA #IMPLIED
ewd:comment CDATA #IMPLIED >
<!ATTLIST text
ewd:textID CDATA #IMPLIED >
<!ATTLIST title
ewd:textID CDATA #IMPLIED >
]>
<svg 
viewBox='0 0 3631.87 729.44'
height='729.44'
width='3631.87'
xml:space="preserve"
xmlns="&ns_svg;"
xmlns:ewd="http://shcl.co.jp/ewd"
xmlns:xlink="&ns_xlink;" ewd:ver="L2.3">
<g ewd:code="KG2" ewd:figID="607" ewd:figtype="w2w" ewd:pinNo="17">
<path style="&st7;" d="M3336.43,345.49h-8.5"/>
<path style="&st7;" d="M3332.18,354.55l-4.25-4.25l-4.25,4.25"/>
<path style="&st7;" d="M3332.18,351.15l-4.25-4.25l-4.25,4.25"/>
<text transform="matrix(1 0 0 1 3309.7705 343.2139)" style="&st6;"><tspan x="0" y="0" style="&st21; &st14;">17</tspan></text>
</g>
<g ewd:code="KG2" ewd:figID="608" ewd:figtype="w2w" ewd:pinNo="16">
<path style="&st7;" d="M3370.43,345.49h-8.5"/>
<path style="&st7;" d="M3366.18,354.55l-4.25-4.25l-4.25,4.25"/>
<path style="&st7;" d="M3366.18,351.15l-4.25-4.25l-4.25,4.25"/>
<text transform="matrix(1 0 0 1 3343.7598 343.2139)" style="&st6;"><tspan x="0" y="0" style="&st21; &st14;">16</tspan></text>
</g>
<g ewd:code="3JB" ewd:figID="309" ewd:figtype="jb">
<path style="&st7;" d="M3568.02,269h-4.25"/>
<path style="&st7;" d="M3568.02,260.5h-4.25"/>
<path style="&st7;" d="M3568.02,226.51h-4.25"/>
<path style="&st7;" d="M3568.02,218.01h-4.25"/>
<path style="&st7;" d="M3517.03,269h-4.25"/>
<path style="&st7;" d="M3517.03,260.5h-4.25"/>
<path style="&st7;" d="M3517.03,226.51h-4.25"/>
<path style="&st7;" d="M3517.03,218.01h-4.25"/>
<path style="&st12;" d="M3565.89,260.5v-33.99"/>
<path style="&st5;" d="M3565.89,255.61l-2.83-2.84v4.25l2.83,2.84l2.84-2.84v-4.25L3565.89,255.61"/>
<path style="&st5;" d="M3565.89,231.4l2.84,2.84v-4.25l-2.84-2.84l-2.83,2.84v4.25L3565.89,231.4"/>
<path style="&st12;" d="M3514.9,260.5v-33.99"/>
<path style="&st5;" d="M3514.9,255.61l-2.83-2.84v4.25l2.83,2.84l2.83-2.84v-4.25L3514.9,255.61"/>
<path style="&st5;" d="M3514.9,231.4l2.83,2.84v-4.25l-2.83-2.84l-2.83,2.84v4.25L3514.9,231.4"/>
<path style="&st7;" d="M3572.27,264.75c0-2.35-1.9-4.25-4.25-4.25"/>
<path style="&st7;" d="M3568.02,269c2.35,0,4.25-1.9,4.25-4.25"/>
<path style="&st7;" d="M3559.52,264.75c0,2.35,1.9,4.25,4.25,4.25"/>
<path style="&st7;" d="M3563.77,260.5c-2.35,0-4.25,1.9-4.25,4.25"/>
<path style="&st7;" d="M3572.27,222.26c0-2.35-1.9-4.25-4.25-4.25"/>
<path style="&st7;" d="M3568.02,226.51c2.35,0,4.25-1.9,4.25-4.25"/>
<path style="&st7;" d="M3559.52,222.26c0,2.35,1.9,4.25,4.25,4.25"/>
<path style="&st7;" d="M3563.77,218.01c-2.35,0-4.25,1.9-4.25,4.25"/>
<path style="&st7;" d="M3521.28,264.75c0-2.35-1.91-4.25-4.25-4.25"/>
<path style="&st7;" d="M3517.03,269c2.34,0,4.25-1.9,4.25-4.25"/>
<path style="&st7;" d="M3508.53,264.75c0,2.35,1.9,4.25,4.25,4.25"/>
<path style="&st7;" d="M3512.78,260.5c-2.35,0-4.25,1.9-4.25,4.25"/>
<path style="&st7;" d="M3521.28,222.26c0-2.35-1.91-4.25-4.25-4.25"/>
<path style="&st7;" d="M3517.03,226.51c2.34,0,4.25-1.9,4.25-4.25"/>
<path style="&st7;" d="M3508.53,222.26c0,2.35,1.9,4.25,4.25,4.25"/>
<path style="&st7;" d="M3512.78,218.01c-2.35,0-4.25,1.9-4.25,4.25"/>
<text transform="matrix(1 0 0 1 3549.2539 266.7236)" style="&st6;"><tspan x="0" y="0" style="&st21; &st14;">83</tspan></text>
<text transform="matrix(1 0 0 1 3561.5938 266.7236)" style="&st6;"><tspan x="0" y="0" style="&st21; &st14;">3A</tspan></text>
<text transform="matrix(1 0 0 1 3553.2139 224.2334)" style="&st6;"><tspan x="0" y="0" style="&st21; &st14;">9</tspan></text>
<text transform="matrix(1 0 0 1 3561.5938 224.2334)" style="&st6;"><tspan x="0" y="0" style="&st21; &st14;">3B</tspan></text>
<text transform="matrix(1 0 0 1 3498.2637 266.7236)" style="&st6;"><tspan x="0" y="0" style="&st21; &st14;">73</tspan></text>
<text transform="matrix(1 0 0 1 3510.5938 266.7236)" style="&st6;"><tspan x="0" y="0" style="&st21; &st14;">3A</tspan></text>
<text transform="matrix(1 0 0 1 3499.0342 224.2334)" style="&st6;"><tspan x="0" y="0" style="&st21; &st14;">10</tspan></text>
<text transform="matrix(1 0 0 1 3510.5938 224.2334)" style="&st6;"><tspan x="0" y="0" style="&st21; &st14;">3B</tspan></text>
</g>
<g ewd:code="4JB" ewd:figID="310" ewd:figtype="jb">
<path style="&st7;" d="M3568.02,370.98h-4.25"/>
<path style="&st7;" d="M3568.02,362.49h-4.25"/>
<path style="&st7;" d="M3568.02,328.49h-4.25"/>
<path style="&st7;" d="M3568.02,319.99h-4.25"/>
<path style="&st7;" d="M3517.03,370.98h-4.25"/>
<path style="&st7;" d="M3517.03,362.49h-4.25"/>
<path style="&st7;" d="M3517.03,328.49h-4.25"/>
<path style="&st7;" d="M3517.03,319.99h-4.25"/>
<path style="&st12;" d="M3565.89,362.49v-34"/>
<path style="&st5;" d="M3565.89,357.59l-2.83-2.83v4.25l2.83,2.83l2.84-2.83v-4.25L3565.89,357.59"/>
<path style="&st5;" d="M3565.89,333.39l2.84,2.83v-4.25l-2.84-2.83l-2.83,2.83v4.25L3565.89,333.39"/>
<path style="&st12;" d="M3514.9,362.49v-34"/>
<path style="&st5;" d="M3514.9,357.59l-2.83-2.83v4.25l2.83,2.83l2.83-2.83v-4.25L3514.9,357.59"/>
<path style="&st5;" d="M3514.9,333.39l2.83,2.83v-4.25l-2.83-2.83l-2.83,2.83v4.25L3514.9,333.39"/>
<path style="&st7;" d="M3572.27,366.73c0-2.34-1.9-4.24-4.25-4.24"/>
<path style="&st7;" d="M3568.02,370.98c2.35,0,4.25-1.9,4.25-4.25"/>
<path style="&st7;" d="M3559.52,366.73c0,2.35,1.9,4.25,4.25,4.25"/>
<path style="&st7;" d="M3563.77,362.49c-2.35,0-4.25,1.9-4.25,4.24"/>
<path style="&st7;" d="M3572.27,324.24c0-2.35-1.9-4.25-4.25-4.25"/>
<path style="&st7;" d="M3568.02,328.49c2.35,0,4.25-1.9,4.25-4.25"/>
<path style="&st7;" d="M3559.52,324.24c0,2.35,1.9,4.25,4.25,4.25"/>
<path style="&st7;" d="M3563.77,319.99c-2.35,0-4.25,1.9-4.25,4.25"/>
<path style="&st7;" d="M3521.28,366.73c0-2.34-1.91-4.24-4.25-4.24"/>
<path style="&st7;" d="M3517.03,370.98c2.34,0,4.25-1.9,4.25-4.25"/>
<path style="&st7;" d="M3508.53,366.73c0,2.35,1.9,4.25,4.25,4.25"/>
<path style="&st7;" d="M3512.78,362.49c-2.35,0-4.25,1.9-4.25,4.24"/>
<path style="&st7;" d="M3521.28,324.24c0-2.35-1.91-4.25-4.25-4.25"/>
<path style="&st7;" d="M3517.03,328.49c2.34,0,4.25-1.9,4.25-4.25"/>
<path style="&st7;" d="M3508.53,324.24c0,2.35,1.9,4.25,4.25,4.25"/>
<path style="&st7;" d="M3512.78,319.99c-2.35,0-4.25,1.9-4.25,4.25"/>
<text transform="matrix(1 0 0 1 3549.2539 368.7031)" style="&st6;"><tspan x="0" y="0" style="&st21; &st14;">67</tspan></text>
<text transform="matrix(1 0 0 1 3561.5938 368.7031)" style="&st6;"><tspan x="0" y="0" style="&st21; &st14;">4B</tspan></text>
<text transform="matrix(1 0 0 1 3549.2539 326.2139)" style="&st6;"><tspan x="0" y="0" style="&st21; &st14;">53</tspan></text>
<text transform="matrix(1 0 0 1 3561.5938 326.2139)" style="&st6;"><tspan x="0" y="0" style="&st21; &st14;">4A</tspan></text>
<text transform="matrix(1 0 0 1 3498.2637 368.7031)" style="&st6;"><tspan x="0" y="0" style="&st21; &st14;">72</tspan></text>
<text transform="matrix(1 0 0 1 3510.5938 368.7031)" style="&st6;"><tspan x="0" y="0" style="&st21; &st14;">4B</tspan></text>
<text transform="matrix(1 0 0 1 3498.2637 326.2139)" style="&st6;"><tspan x="0" y="0" style="&st21; &st14;">60</tspan></text>
<text transform="matrix(1 0 0 1 3510.5938 326.2139)" style="&st6;"><tspan x="0" y="0" style="&st21; &st14;">4A</tspan></text>
</g>
<g ewd:code="2" ewd:figID="308" ewd:figtype="jb">
<path style="&st7;" d="M3211.08,107.31h-4.25"/>
<path style="&st7;" d="M3211.08,115.81h-4.25"/>
<path style="&st5;" d="M3208.95,102.42l-2.83-2.84v4.25l2.83,2.84l2.84-2.84v-4.25L3208.95,102.42"/>
<path style="&st12;" d="M3208.95,107.31V82.03"/>
<path style="&st7;" d="M3206.83,107.31c-2.35,0-4.25,1.9-4.25,4.25"/>
<path style="&st7;" d="M3202.58,111.56c0,2.35,1.9,4.25,4.25,4.25"/>
<path style="&st7;" d="M3211.08,115.81c2.35,0,4.25-1.9,4.25-4.25"/>
<path style="&st7;" d="M3215.33,111.56c0-2.35-1.9-4.25-4.25-4.25"/>
<text transform="matrix(1 0 0 1 3205.9941 113.5293)" style="&st6;"><tspan x="0" y="0" style="&st21; &st14;">2I</tspan></text>
<text transform="matrix(1 0 0 1 3192.3145 113.5293)" style="&st6;"><tspan x="0" y="0" style="&st21; &st14;">27</tspan></text>
</g>
<g ewd:code="2" ewd:figID="307" ewd:figtype="jb">
<path style="&st7;" d="M3024.11,115.81h-4.25"/>
<path style="&st7;" d="M3024.11,107.31h-4.25"/>
<path style="&st5;" d="M3021.98,102.42l-2.83-2.84v4.25l2.83,2.84l2.84-2.84v-4.25L3021.98,102.42"/>
<path style="&st12;" d="M3021.98,107.31V82.03"/>
<path style="&st7;" d="M3028.36,111.56c0-2.35-1.9-4.25-4.25-4.25"/>
<path style="&st7;" d="M3024.11,115.81c2.35,0,4.25-1.9,4.25-4.25"/>
<path style="&st7;" d="M3015.61,111.56c0,2.35,1.9,4.25,4.25,4.25"/>
<path style="&st7;" d="M3019.86,107.31c-2.35,0-4.25,1.9-4.25,4.25"/>
<text transform="matrix(1 0 0 1 3017.5439 113.5293)" style="&st6;"><tspan x="0" y="0" style="&st21; &st14;">2D</tspan></text>
<text transform="matrix(1 0 0 1 3009.3047 113.5293)" style="&st6;"><tspan x="0" y="0" style="&st21; &st14;">4</tspan></text>
</g>
<g ewd:code="G3" ewd:figID="206" ewd:figtype="gp">
<path style="&st12;" d="M3021.98,701.01v4.25"/>
<path style="&st12;" d="M3013.49,705.26h16.99"/>
<path style="&st12;" d="M3017.74,708.09h8.49"/>
<path style="&st12;" d="M3019.15,710.93h5.67"/>
<path style="&st12;" d="M3020.57,713.76h2.83"/>
</g>
<g ewd:code="K1" ewd:figID="207" ewd:figtype="gp">
<path style="&st12;" d="M3276.94,701.01v4.25"/>
<path style="&st12;" d="M3274.11,710.93h5.66"/>
<path style="&st12;" d="M3272.69,708.09h8.5"/>
<path style="&st12;" d="M3275.53,713.76h2.83"/>
<path style="&st12;" d="M3268.44,705.26h17"/>
</g>
<g ewd:code="K6" ewd:figID="10" ewd:figtype="conn">
<path style="&st7;" d="M3344.93,240.67v17"/>
<path style="&st7;" d="M3310.94,201.01V269h67.98v-67.99H3310.94"/>
<path style="&st12;" d="M3344.93,237.84v-36.83"/>
<path style="&st12;" d="M3335.02,252h-7.09v17"/>
<path style="&st12;" d="M3354.85,252h7.08v17"/>
<path style="&st12;" d="M3346.35,239.26c0-0.79-0.64-1.42-1.42-1.42"/>
<path style="&st12;" d="M3344.93,237.84c-0.78,0-1.41,0.63-1.41,1.42"/>
<path style="&st12;" d="M3343.52,239.26c0,0.78,0.63,1.41,1.41,1.41"/>
<path style="&st12;" d="M3344.93,240.67c0.78,0,1.42-0.63,1.42-1.41"/>
<path style="&st12;" d="M3337.85,252c0-0.78-0.63-1.41-1.42-1.41"/>
<path style="&st12;" d="M3336.43,250.59c-0.78,0-1.41,0.63-1.41,1.41"/>
<path style="&st12;" d="M3335.02,252c0,0.79,0.63,1.42,1.41,1.42"/>
<path style="&st12;" d="M3336.43,253.42c0.79,0,1.42-0.63,1.42-1.42"/>
<path style="&st12;" d="M3354.85,252c0-0.78-0.64-1.41-1.42-1.41"/>
<path style="&st12;" d="M3353.43,250.59c-0.78,0-1.42,0.63-1.42,1.41"/>
<path style="&st12;" d="M3352.01,252c0,0.79,0.64,1.42,1.42,1.42"/>
<path style="&st12;" d="M3353.43,253.42c0.78,0,1.42-0.63,1.42-1.42"/>
<path style="&st7;" d="M3349.46,196.48c0-2.5-2.02-4.53-4.53-4.53"/>
<path style="&st7;" d="M3344.93,191.95c-2.5,0-4.53,2.03-4.53,4.53"/>
<path style="&st7;" d="M3340.4,196.48c0,2.5,2.03,4.53,4.53,4.53"/>
<path style="&st7;" d="M3344.93,201.01c2.51,0,4.53-2.03,4.53-4.53"/>
<path style="&st7;" d="M3366.46,282.6c0-2.5-2.03-4.53-4.53-4.53"/>
<path style="&st7;" d="M3361.93,278.07c-2.5,0-4.53,2.03-4.53,4.53"/>
<path style="&st7;" d="M3357.4,282.6c0,2.5,2.03,4.53,4.53,4.53"/>
<path style="&st7;" d="M3361.93,287.13c2.5,0,4.53-2.03,4.53-4.53"/>
<path style="&st7;" d="M3366.46,273.53c0-2.5-2.03-4.53-4.53-4.53"/>
<path style="&st7;" d="M3361.93,269c-2.5,0-4.53,2.03-4.53,4.53"/>
<path style="&st7;" d="M3357.4,273.53c0,2.51,2.03,4.54,4.53,4.54"/>
<path style="&st7;" d="M3361.93,278.07c2.5,0,4.53-2.03,4.53-4.54"/>
<path style="&st7;" d="M3332.47,282.6c0-2.5-2.03-4.53-4.54-4.53"/>
<path style="&st7;" d="M3327.93,278.07c-2.5,0-4.53,2.03-4.53,4.53"/>
<path style="&st7;" d="M3323.4,282.6c0,2.5,2.03,4.53,4.53,4.53"/>
<path style="&st7;" d="M3327.93,287.13c2.51,0,4.54-2.03,4.54-4.53"/>
<path style="&st7;" d="M3332.47,273.53c0-2.5-2.03-4.53-4.54-4.53"/>
<path style="&st7;" d="M3327.93,269c-2.5,0-4.53,2.03-4.53,4.53"/>
<path style="&st7;" d="M3323.4,273.53c0,2.51,2.03,4.54,4.53,4.54"/>
<path style="&st7;" d="M3327.93,278.07c2.51,0,4.54-2.03,4.54-4.54"/>
<path style="&st7;" d="M3349.46,187.41c0-2.5-2.02-4.53-4.53-4.53"/>
<path style="&st7;" d="M3344.93,182.88c-2.5,0-4.53,2.03-4.53,4.53"/>
<path style="&st7;" d="M3340.4,187.41c0,2.51,2.03,4.54,4.53,4.54"/>
<path style="&st7;" d="M3344.93,191.95c2.51,0,4.53-2.03,4.53-4.54"/>
<text transform="matrix(1 0 0 1 3325.6045 275.5039)" style="&st6;"><tspan x="0" y="0" style="&st21; &st14;">A</tspan></text>
<text ewd:textID='21' transform='matrix(0 -1 1 0 3333.459 245.0088)' style='&st6; &st21; &st14;'>Key <tspan x='0' y='7' >Lock</tspan></text>
<text transform="matrix(1 0 0 1 3342.6045 198.4531)" style="&st6;"><tspan x="0" y="0" style="&st21; &st14;">B</tspan></text>
<text transform="matrix(1 0 0 1 3334.0645 198.4531)" style="&st6;"><tspan x="0" y="0" style="&st21; &st14;">7</tspan></text>
<text transform="matrix(1 0 0 1 3337.4443 209.2139)" style="&st6;"><tspan x="0" y="0" style="&st21; &st14;">E</tspan></text>
<text transform="matrix(1 0 0 1 3350.2041 265.3135)" style="&st6;"><tspan x="0" y="0" style="&st21; &st14;">UL</tspan></text>
<text transform="matrix(1 0 0 1 3321.1543 265.3135)" style="&st6;"><tspan x="0" y="0" style="&st21; &st14;">L</tspan></text>
<text ewd:textID='14' transform='matrix(0 -1 1 0 3393.6445 271.5332)' style='&st6; &st21; &st14;'>Front Door with Motor Lock Assembly LH</text>
<text transform="matrix(0 -1 1 0 3386.5439 271.5332)" style="&st6;"><tspan x="0" y="0" style="&st21; &st14;">K6(A),(B)</tspan></text>
<text transform="matrix(1 0 0 1 3359.6045 284.5732)" style="&st6;"><tspan x="0" y="0" style="&st21; &st14;">B</tspan></text>
<text transform="matrix(1 0 0 1 3347.874 284.5732)" style="&st6;"><tspan x="0" y="0" style="&st21; &st14;">10</tspan></text>
<text transform="matrix(1 0 0 1 3359.6045 275.5039)" style="&st6;"><tspan x="0" y="0" style="&st21; &st14;">A</tspan></text>
<text transform="matrix(1 0 0 1 3347.874 275.5039)" style="&st6;"><tspan x="0" y="0" style="&st21; &st14;">10</tspan></text>
<text transform="matrix(1 0 0 1 3325.6045 284.5732)" style="&st6;"><tspan x="0" y="0" style="&st21; &st14;">B</tspan></text>
<text transform="matrix(1 0 0 1 3317.0645 284.5732)" style="&st6;"><tspan x="0" y="0" style="&st21; &st14;">9</tspan></text>
<text transform="matrix(1 0 0 1 3317.0645 275.5039)" style="&st6;"><tspan x="0" y="0" style="&st21; &st14;">9</tspan></text>
<text transform="matrix(1 0 0 1 3342.6045 189.3838)" style="&st6;"><tspan x="0" y="0" style="&st21; &st14;">A</tspan></text>
<text transform="matrix(1 0 0 1 3334.0645 189.3838)" style="&st6;"><tspan x="0" y="0" style="&st21; &st14;">7</tspan></text>
<text ewd:textID='22' transform='matrix(0 -1 1 0 3352.584 245.0088)' style='&st6; &st21; &st14;'>Key <tspan x='0' y='7' >Unlock</tspan></text>
</g>
<g ewd:code="R29,R30" ewd:figID="9" ewd:figtype="conn">
<path style="&st12;" d="M3207.76,327.49l-0.27,0.47l-0.09,0.53l0.09,0.53l0.27,0.47l0.41,0.35l0.51,0.19h0.54l0.51-0.19l0.42-0.35l0.27-0.47l0.09-0.53l-0.09-0.53l-0.27-0.47l-0.42-0.35l-0.51-0.18h-0.54l-0.51,0.18L3207.76,327.49l0.39,0.71v0.58l0.38,0.45l0.57,0.1l0.5-0.29l0.2-0.55l-0.2-0.55l-0.5-0.28l-0.57,0.09l0.42,0.74"/>
<path style="&st17;" d="M3174.96,336.99h42.49"/>
<path style="&st17;" d="M3174.96,319.99h42.49"/>
<path style="&st12;" d="M3208.95,328.49h-25.49v-17"/>
<path style="&st12;" d="M3208.95,311.49v34"/>
<path style="&st7;" d="M3174.96,311.49v34h42.49v-34H3174.96"/>
<path style="&st7;" d="M3213.49,350.02c0-2.5-2.03-4.53-4.54-4.53"/>
<path style="&st7;" d="M3208.95,345.49c-2.5,0-4.53,2.03-4.53,4.53"/>
<path style="&st7;" d="M3204.42,350.02c0,2.5,2.03,4.53,4.53,4.53"/>
<path style="&st7;" d="M3208.95,354.55c2.51,0,4.54-2.03,4.54-4.53"/>
<path style="&st7;" d="M3187.99,306.96c0-2.5-2.03-4.53-4.53-4.53"/>
<path style="&st7;" d="M3183.46,302.43c-2.5,0-4.53,2.03-4.53,4.53"/>
<path style="&st7;" d="M3178.93,306.96c0,2.5,2.03,4.53,4.53,4.53"/>
<path style="&st7;" d="M3183.46,311.49c2.5,0,4.53-2.03,4.53-4.53"/>
<path style="&st7;" d="M3213.49,306.96c0-2.5-2.03-4.53-4.54-4.53"/>
<path style="&st7;" d="M3208.95,302.43c-2.5,0-4.53,2.03-4.53,4.53"/>
<path style="&st7;" d="M3204.42,306.96c0,2.5,2.03,4.53,4.53,4.53"/>
<path style="&st7;" d="M3208.95,311.49c2.51,0,4.54-2.03,4.54-4.53"/>
<text transform="matrix(0 -1 1 0 3225.0645 348.0137)" style="&st6;"><tspan x="0" y="0" style="&st21; &st14;">R29(A),R30(B)</tspan></text>
<text ewd:textID='20' transform='matrix(0 -1 1 0 3232.1738 348.0137)' style='&st6; &st21; &st14;'>Junction <tspan x='0' y='7' >Connector</tspan></text>
<text transform="matrix(1 0 0 1 3206.624 351.9932)" style="&st6;"><tspan x="0" y="0" style="&st21; &st14;">B</tspan></text>
<text transform="matrix(1 0 0 1 3198.084 351.9932)" style="&st6;"><tspan x="0" y="0" style="&st21; &st14;">3</tspan></text>
<text transform="matrix(1 0 0 1 3181.1338 308.9336)" style="&st6;"><tspan x="0" y="0" style="&st21; &st14;">A</tspan></text>
<text transform="matrix(1 0 0 1 3172.584 308.9336)" style="&st6;"><tspan x="0" y="0" style="&st21; &st14;">9</tspan></text>
<text transform="matrix(1 0 0 1 3206.624 308.9336)" style="&st6;"><tspan x="0" y="0" style="&st21; &st14;">A</tspan></text>
<text transform="matrix(1 0 0 1 3198.084 308.9336)" style="&st6;"><tspan x="0" y="0" style="&st21; &st14;">8</tspan></text>
</g>
<g ewd:code="R7" ewd:figID="17" ewd:figtype="conn">
<path style="&st12;" d="M3208.95,434.72v-4.25"/>
<path style="&st12;" d="M3208.95,464.47v-4.25"/>
<path style="&st7;" d="M3208.95,457.39l5.67-22.67"/>
<path style="&st12;" d="M3207.54,481.47h2.83"/>
<path style="&st12;" d="M3206.12,478.63h5.67"/>
<path style="&st12;" d="M3204.7,475.8h8.5"/>
<path style="&st12;" d="M3200.45,472.97h17"/>
<path style="&st12;" d="M3208.95,464.47v8.5"/>
<path style="&st7;" d="M3217.45,464.47v-34h-17v34H3217.45"/>
<path style="&st12;" d="M3210.37,436.14c0-0.78-0.63-1.42-1.42-1.42"/>
<path style="&st12;" d="M3208.95,434.72c-0.78,0-1.41,0.64-1.41,1.42"/>
<path style="&st12;" d="M3207.54,436.14c0,0.78,0.63,1.42,1.41,1.42"/>
<path style="&st12;" d="M3208.95,437.56c0.79,0,1.42-0.64,1.42-1.42"/>
<path style="&st12;" d="M3210.37,458.8c0-0.78-0.63-1.41-1.42-1.41"/>
<path style="&st12;" d="M3208.95,457.39c-0.78,0-1.41,0.63-1.41,1.41"/>
<path style="&st12;" d="M3207.54,458.8c0,0.78,0.63,1.42,1.41,1.42"/>
<path style="&st12;" d="M3208.95,460.22c0.79,0,1.42-0.64,1.42-1.42"/>
<text transform="matrix(1 0 0 1 3202.9443 426.7832)" style="&st6;"><tspan x="0" y="0" style="&st21; &st14;">1</tspan></text>
<text ewd:textID='13' transform='matrix(0 -1 1 0 3232.1738 466.9941)' style='&st6; &st21; &st14;'>Front Door Courtesy Light <tspan x='0' y='7' >Switch Assembly LH</tspan></text>
<text transform="matrix(0 -1 1 0 3225.0645 466.9941)" style="&st6;"><tspan x="0" y="0" style="&st21; &st14;">R7</tspan></text>
</g>
<g ewd:code="G79,G80,G140,G141" ewd:figID="8" ewd:figtype="conn">
<path style="&st7;" d="M3013.49,311.49v25.5h16.99v-25.5H3013.49"/>
<path style="&st17;" d="M3013.49,319.99h16.99"/>
<path style="&st17;" d="M3013.49,328.49h16.99"/>
<path style="&st12;" d="M3021.98,311.49v25.5"/>
<path style="&st7;" d="M3026.52,350.59c0-2.51-2.03-4.54-4.53-4.54"/>
<path style="&st7;" d="M3021.99,346.05c-2.51,0-4.54,2.03-4.54,4.54"/>
<path style="&st7;" d="M3017.45,350.59c0,2.5,2.03,4.53,4.54,4.53"/>
<path style="&st7;" d="M3021.99,355.12c2.5,0,4.53-2.03,4.53-4.53"/>
<path style="&st7;" d="M3026.52,297.9c0-2.51-2.03-4.54-4.53-4.54"/>
<path style="&st7;" d="M3021.99,293.36c-2.51,0-4.54,2.03-4.54,4.54"/>
<path style="&st7;" d="M3017.45,297.9c0,2.5,2.03,4.53,4.54,4.53"/>
<path style="&st7;" d="M3021.99,302.43c2.5,0,4.53-2.03,4.53-4.53"/>
<path style="&st7;" d="M3026.52,341.52c0-2.5-2.03-4.53-4.53-4.53"/>
<path style="&st7;" d="M3021.99,336.99c-2.51,0-4.54,2.03-4.54,4.53"/>
<path style="&st7;" d="M3017.45,341.52c0,2.51,2.03,4.53,4.54,4.53"/>
<path style="&st7;" d="M3021.99,346.05c2.5,0,4.53-2.02,4.53-4.53"/>
<path style="&st7;" d="M3026.52,306.96c0-2.5-2.03-4.53-4.53-4.53"/>
<path style="&st7;" d="M3021.99,302.43c-2.51,0-4.54,2.03-4.54,4.53"/>
<path style="&st7;" d="M3017.45,306.96c0,2.5,2.03,4.53,4.54,4.53"/>
<path style="&st7;" d="M3021.99,311.49c2.5,0,4.53-2.03,4.53-4.53"/>
<text transform="matrix(1 0 0 1 3008.7139 308.9336)" style="&st6;"><tspan x="0" y="0" style="&st21; &st14;">11</tspan></text>
<text transform="matrix(1 0 0 1 3019.5137 308.9336)" style="&st6;"><tspan x="0" y="0" style="&st21; &st14;">D</tspan></text>
<text transform="matrix(1 0 0 1 3008.7139 299.873)" style="&st6;"><tspan x="0" y="0" style="&st21; &st14;">11</tspan></text>
<text transform="matrix(1 0 0 1 3019.6543 299.873)" style="&st6;"><tspan x="0" y="0" style="&st21; &st14;">B</tspan></text>
<text transform="matrix(1 0 0 1 3011.1143 352.5635)" style="&st6;"><tspan x="0" y="0" style="&st21; &st14;">7</tspan></text>
<text transform="matrix(1 0 0 1 3019.5137 352.5635)" style="&st6;"><tspan x="0" y="0" style="&st21; &st14;">C</tspan></text>
<text transform="matrix(1 0 0 1 3011.1143 343.4932)" style="&st6;"><tspan x="0" y="0" style="&st21; &st14;">7</tspan></text>
<text transform="matrix(1 0 0 1 3019.6543 343.4932)" style="&st6;"><tspan x="0" y="0" style="&st21; &st14;">A</tspan></text>
<text ewd:textID='20' transform='matrix(1 0 0 1 3033.6338 329.333)' style='&st6; &st21; &st14;'>Junction <tspan x='0' y='7' >Connector</tspan></text>
<text transform="matrix(1 0 0 1 3033.6338 316.2734)" style="&st6;"><tspan x="0" y="0" style="&st21; &st14;">G79(A),G80(B),</tspan></text>
<text transform="matrix(1 0 0 1 3033.6338 322.2734)" style="&st6;"><tspan x="0" y="0" style="&st21; &st14;">G140(C),G141(D)</tspan></text>
</g>
<g ewd:code="G104" ewd:figID="16" ewd:figtype="conn">
<path style="&st7;" d="M3013.49,659.94h16.99v16.99h-16.99V659.94"/>
<path style="&st12;" d="M3021.98,659.94v25.49"/>
<text transform="matrix(1 0 0 1 3015.2041 656.2539)" style="&st6;"><tspan x="0" y="0" style="&st21; &st14;">4</tspan></text>
<text ewd:textID='20' transform='matrix(1 0 0 1 3033.6338 668.9941)' style='&st6; &st21; &st14;'>Junction <tspan x='0' y='7' >Connector</tspan></text>
<text transform="matrix(1 0 0 1 3033.6338 661.8838)" style="&st6;"><tspan x="0" y="0" style="&st21; &st14;">G104</tspan></text>
</g>
<text transform="matrix(0 -1 1 0 3018.2939 217.2139)" style="&st6;"><tspan x="0" y="0" style="&st21; &st14;">W-B</tspan></text>
<text transform="matrix(0 -1 1 0 3018.2939 378.6836)" style="&st6;"><tspan x="0" y="0" style="&st21; &st14;">W-B</tspan></text>
<text transform="matrix(0 -1 1 0 3018.2939 625.1436)" style="&st6;"><tspan x="0" y="0" style="&st21; &st14;">W-B</tspan></text>
<text transform="matrix(0 -1 1 0 3205.2637 377.7139)" style="&st6;"><tspan x="0" y="0" style="&st21; &st14;">R</tspan></text>
<text transform="matrix(0 -1 1 0 3205.2637 194.9932)" style="&st6;"><tspan x="0" y="0" style="&st21; &st14;">R</tspan></text>
<text ewd:textID='1' transform='matrix(1 0 0 1 3367.9043 653.4141)' style='&st6; &st21; &st14;'>* 1 :w/ Double Locking</text>
<text transform="matrix(1 0 0 1 3350.9141 198.4531)" style="&st6;"><tspan x="0" y="0" style="&st21; &st14;">(*1)</tspan></text>
<text transform="matrix(0 -1 1 0 3324.2441 316.7236)" style="&st6;"><tspan x="0" y="0" style="&st21; &st14;">GR</tspan></text>
<text transform="matrix(0 -1 1 0 3324.2441 376.2139)" style="&st6;"><tspan x="0" y="0" style="&st21; &st14;">GR</tspan></text>
<text transform="matrix(0 -1 1 0 3358.2344 375.7236)" style="&st6;"><tspan x="0" y="0" style="&st21; &st14;">LG</tspan></text>
<text transform="matrix(0 -1 1 0 3341.2441 166.2236)" style="&st6;"><tspan x="0" y="0" style="&st21; &st14;">W-B</tspan></text>
<text transform="matrix(0 -1 1 0 3273.2539 276.7031)" style="&st6;"><tspan x="0" y="0" style="&st21; &st14;">W-B</tspan></text>
<text transform="matrix(1 0 0 1 3350.9141 189.3838)" style="&st6;"><tspan x="0" y="0" style="&st21; &st14;">(*2)</tspan></text>
<text transform="matrix(0 -1 1 0 3358.2344 316.2334)" style="&st6;"><tspan x="0" y="0" style="&st21; &st14;">LG</tspan></text>
<text ewd:textID='2' transform='matrix(1 0 0 1 3367.9043 661.9033)' style='&st6; &st21; &st14;'>* 2 :w/o Double Locking</text>
<text transform="matrix(1 0 0 1 3367.9043 275.5039)" style="&st6;"><tspan x="0" y="0" style="&st21; &st14;">(*2)</tspan></text>
<text transform="matrix(1 0 0 1 3367.9043 284.5732)" style="&st6;"><tspan x="0" y="0" style="&st21; &st14;">(*1)</tspan></text>
<text transform="matrix(1 0 0 1 3027.9639 308.9336)" style="&st6;"><tspan x="0" y="0" style="&st21; &st14;">(*4)</tspan></text>
<text transform="matrix(1 0 0 1 3027.9639 299.873)" style="&st6;"><tspan x="0" y="0" style="&st21; &st14;">(*3)</tspan></text>
<text transform="matrix(1 0 0 1 3027.9639 352.5635)" style="&st6;"><tspan x="0" y="0" style="&st21; &st14;">(*4)</tspan></text>
<text transform="matrix(1 0 0 1 3027.9639 343.4932)" style="&st6;"><tspan x="0" y="0" style="&st21; &st14;">(*3)</tspan></text>
<text transform="matrix(0 -1 1 0 3216.5938 381.4131)" style="&st6;"><tspan x="0" y="0" style="&st21; &st14;">(*4)</tspan></text>
<text transform="matrix(0 -1 1 0 3154.2744 377.7139)" style="&st6;"><tspan x="0" y="0" style="&st21; &st14;">R</tspan></text>
<text transform="matrix(0 -1 1 0 3165.6045 381.4131)" style="&st6;"><tspan x="0" y="0" style="&st21; &st14;">(*3)</tspan></text>
<text ewd:textID='4' transform='matrix(1 0 0 1 3367.9043 678.9033)' style='&st6; &st21; &st14;'>* 4 :From Oct. 2010 Production</text>
<text ewd:textID='3' transform='matrix(1 0 0 1 3367.9043 670.4033)' style='&st6; &st21; &st14;'>* 3 :Before Oct. 2010 Production</text>
</svg>
