﻿<?xml version="1.0" encoding="UTF-8"?>
<!DOCTYPE svg PUBLIC "-//W3C//DTD SVG 1.0//EN" "http://www.w3.org/TR/2001/REC-SVG-20010904/DTD/svg10.dtd"[
<!ENTITY ns_flows "http://ns.adobe.com/Flows/1.0/">
<!ENTITY ns_svg "http://www.w3.org/2000/svg">
<!ENTITY ns_xlink "http://www.w3.org/1999/xlink">
	<!ENTITY st0 "fill:none;stroke:#F8E616;stroke-width:5.1;stroke-linejoin:round;">
	<!ENTITY st1 "fill:none;stroke:#FB0F0C;stroke-width:5.1;stroke-linejoin:round;">
	<!ENTITY st2 "fill:none;stroke:#9A9999;stroke-width:5.1;stroke-linejoin:round;">
	<!ENTITY st3 "fill:none;stroke:#99280B;stroke-width:5.1;stroke-linejoin:round;">
		<!ENTITY st4 "fill:none;stroke:#000000;stroke-width:0.85;stroke-linecap:round;stroke-linejoin:round;stroke-dasharray:3 1.5;enable-background:new    ;">
	<!ENTITY st5 "fill:none;stroke:#000000;stroke-width:5.1;stroke-linejoin:round;">
	<!ENTITY st6 "fill:none;stroke:#199DBF;stroke-width:1.13;stroke-linejoin:round;">
	<!ENTITY st7 "fill:none;stroke:#000000;stroke-linecap:round;stroke-linejoin:round;">
	<!ENTITY st8 "fill:#1D63A2;">
	<!ENTITY st9 "stroke:#000000;stroke-width:0.28;stroke-linecap:round;stroke-linejoin:round;enable-background:new    ;">
	<!ENTITY st10 "enable-background:new    ;">
		<!ENTITY st11 "fill:none;stroke:#000000;stroke-width:1.42;stroke-linecap:round;stroke-linejoin:round;enable-background:new    ;">
	<!ENTITY st12 "fill:none;stroke:#EE67AA;stroke-width:5.1;stroke-linejoin:round;">
	<!ENTITY st13 "fill:none;stroke:#199DBF;stroke-width:5.1;stroke-linejoin:round;">
	<!ENTITY st14 "opacity:0.5;fill:none;stroke:#34ACCE;stroke-linejoin:round;stroke-dasharray:6;">
	<!ENTITY st15 "fill:none;stroke:#FFFFFF;stroke-width:4.53;stroke-linejoin:round;">
	<!ENTITY st16 "fill:#F6140D;">
		<!ENTITY st17 "fill:none;stroke:#000000;stroke-width:0.85;stroke-linecap:round;stroke-linejoin:round;enable-background:new    ;">
	<!ENTITY st18 "fill:none;stroke:#56107C;stroke-width:5.1;stroke-linejoin:round;">
	<!ENTITY st19 "font-size:6px;">
	<!ENTITY st20 "fill:none;stroke:#FFFFFF;stroke-width:2.27;stroke-linejoin:round;">
	<!ENTITY st21 "fill:none;stroke:#FB0F0C;stroke-width:1.13;stroke-linejoin:round;">
	<!ENTITY st22 "fill:none;stroke:#FFFFFF;stroke-width:1.13;stroke-linejoin:round;">
	<!ENTITY st23 "fill:none;stroke:#168638;stroke-width:5.1;stroke-linejoin:round;">
	<!ENTITY st24 "fill:none;stroke:#000000;stroke-width:1.13;stroke-linejoin:round;">
		<!ENTITY st25 "fill:none;stroke:#000000;stroke-width:1.13;stroke-linecap:round;stroke-linejoin:round;stroke-dasharray:3 1.5;enable-background:new    ;">
	<!ENTITY st26 "fill:#FFFFFF;stroke:#000000;stroke-width:1.41;stroke-linecap:round;stroke-linejoin:round;">
	<!ENTITY st27 "fill:none;stroke:#3E65AC;stroke-width:3;">
	<!ENTITY st28 "display:inline;">
	<!ENTITY st29 "fill:#CCCCCC;stroke:#CCCCCC;stroke-width:0.1;stroke-linecap:round;stroke-linejoin:round;">
	<!ENTITY st30 "stroke:#FFFFFF;stroke-width:2;">
	<!ENTITY st31 "font-family:'Arial';">
	<!ENTITY st32 "opacity:0.5;fill:none;stroke:#34ACCE;stroke-linejoin:round;">
	<!ENTITY st33 "fill:#CFE6E7;stroke:#000000;stroke-width:1.133;stroke-linecap:round;stroke-linejoin:round;">
	<!ENTITY st34 "font-size:12px;">
	<!ENTITY st35 "fill:none;stroke:#99D5E0;stroke-width:5.1;stroke-linejoin:round;">
	<!ENTITY st36 "display:none;">
	<!ENTITY st37 "fill:none;stroke:#7EC57E;stroke-width:5.1;stroke-linejoin:round;">
<!ATTLIST svg
xmlns:ewd CDATA #FIXED "http://shcl.co.jp/ewd"
xmlns:a CDATA #FIXED "http://ns.adobe.com/AdobeSVGViewerExtensions/3.0/"
ewd:ver CDATA #IMPLIED
>
<!ATTLIST a
ewd:lineID CDATA #IMPLIED
ewd:groupID CDATA #IMPLIED
ewd:figtype CDATA #IMPLIED
ewd:code CDATA #IMPLIED
ewd:figID CDATA #IMPLIED
ewd:pinNo CDATA #IMPLIED
ewd:comment CDATA #IMPLIED >
<!ATTLIST g
ewd:lineID CDATA #IMPLIED
ewd:groupID CDATA #IMPLIED
ewd:figtype CDATA #IMPLIED
ewd:code CDATA #IMPLIED
ewd:figID CDATA #IMPLIED
ewd:pinNo CDATA #IMPLIED
ewd:comment CDATA #IMPLIED >
<!ATTLIST text
ewd:textID CDATA #IMPLIED >
<!ATTLIST title
ewd:textID CDATA #IMPLIED >
]>
<svg 
viewBox='0 0 7792.35 729.44'
height='729.44'
width='7792.35'
xml:space="preserve"
xmlns="&ns_svg;"
xmlns:ewd="http://shcl.co.jp/ewd"
xmlns:xlink="&ns_xlink;" ewd:ver="L2.3">
<g ewd:code="GA6" ewd:figID="656" ewd:figtype="w2w" ewd:pinNo="36">
<path style="&st11;" d="M5530.15,377.99h-8.5"/>
<path style="&st11;" d="M5525.89,387.06l-4.25-4.25l-4.24,4.25"/>
<path style="&st11;" d="M5525.89,383.66l-4.25-4.25l-4.24,4.25"/>
<text transform="matrix(1 0 0 1 5503.4751 375.7065)" style="&st10;"><tspan x="0" y="0" style="&st31; &st19;">36</tspan></text>
</g>
<g ewd:code="252005" ewd:figID="505" ewd:figtype="sp">
<path style="&st11;" d="M6005.03,464.48l-4.97,4.97"/>
<path style="&st11;" d="M6012.09,481.48l4.97-4.97"/>
<path style="&st11;" d="M6000.06,476.51l4.97,4.97"/>
<path style="&st11;" d="M6017.06,469.45l-4.97-4.97"/>
</g>
<g ewd:code="C1" ewd:figID="213" ewd:figtype="gp">
<path style="&st17;" d="M5983.06,701.02v4.25"/>
<path style="&st17;" d="M5974.56,705.27h17"/>
<path style="&st17;" d="M5978.81,708.1h8.5"/>
<path style="&st17;" d="M5980.23,710.94h5.66"/>
<path style="&st17;" d="M5981.64,713.77h2.84"/>
</g>
<g ewd:code="G98" ewd:figID="29" ewd:figtype="conn">
<path style="&st11;" d="M5634.12,311.5v17h50.99v-17H5634.12"/>
<path style="&st17;" d="M5676.61,311.5v17"/>
<path style="&st17;" d="M5642.62,311.5v17"/>
<text transform="matrix(1 0 0 1 5666.6489 307.8066)" style="&st10;"><tspan x="0" y="0" style="&st31; &st19;">21</tspan></text>
<text transform="matrix(1 0 0 1 5632.6489 307.8066)" style="&st10;"><tspan x="0" y="0" style="&st31; &st19;">10</tspan></text>
<text ewd:textID='62' transform='matrix(0 -1 1 0 5699.2104 328.4966)' style='&st10; &st31; &st19;'>Junction <tspan x='0' y='7' >Connector</tspan></text>
<text transform="matrix(0 -1 1 0 5692.1099 328.4966)" style="&st10;"><tspan x="0" y="0" style="&st31; &st19;">G98</tspan></text>
<text transform="matrix(1 0 0 1 5635.8286 336.6865)" style="&st10;"><tspan x="0" y="0" style="&st31; &st19;">9</tspan></text>
<text transform="matrix(1 0 0 1 5665.8696 336.6865)" style="&st10;"><tspan x="0" y="0" style="&st31; &st19;">20</tspan></text>
</g>
<g ewd:code="C24" ewd:figID="58" ewd:figtype="conn">
<path style="&st17;" d="M5813.09,634.45V621.7"/>
<path style="&st17;" d="M5815.92,617.45l-5.66,2.84"/>
<path style="&st17;" d="M5810.26,614.62l5.66,2.83"/>
<path style="&st17;" d="M5815.92,611.79l-5.66,2.83"/>
<path style="&st17;" d="M5810.26,608.95l5.66,2.84"/>
<path style="&st17;" d="M5815.92,606.12l-5.66,2.83"/>
<path style="&st17;" d="M5813.09,604.7l2.83,1.42"/>
<path style="&st17;" d="M5810.26,620.29l2.83,1.41"/>
<path style="&st17;" d="M5813.09,604.7v-12.74"/>
<path style="&st17;" d="M5804.59,604.7v17"/>
<path style="&st17;" d="M5821.59,604.7v17"/>
<path style="&st11;" d="M5800.34,634.45v-42.49h25.5v42.49H5800.34"/>
<path style="&st17;" d="M5804.59,621.7c0,4.7,3.81,8.5,8.5,8.5"/>
<path style="&st17;" d="M5813.09,630.2c4.7,0,8.5-3.8,8.5-8.5"/>
<path style="&st17;" d="M5821.59,604.7c0-4.69-3.8-8.49-8.5-8.49"/>
<path style="&st17;" d="M5813.09,596.21c-4.69,0-8.5,3.8-8.5,8.49"/>
<text transform="matrix(1 0 0 1 5807.0786 588.2671)" style="&st10;"><tspan x="0" y="0" style="&st31; &st19;">1</tspan></text>
<text transform="matrix(1 0 0 1 5806.2993 642.6362)" style="&st10;"><tspan x="0" y="0" style="&st31; &st19;">2</tspan></text>
<text transform="matrix(0 -1 1 0 5833.4497 636.9663)" style="&st10;"><tspan x="0" y="0" style="&st31; &st19;">C24</tspan></text>
<text ewd:textID='55' transform='matrix(0 -1 1 0 5840.5591 636.9663)' style='&st10; &st31; &st19;'>E.F.I. Engine <tspan x='0' y='7' >Coolant </tspan><tspan x='0' y='14' style='&st31; &st19;'>Temperature Sensor</tspan></text>
</g>
<g ewd:code="C111" ewd:figID="59" ewd:figtype="conn">
<path style="&st17;" d="M5923.57,634.45V621.7"/>
<path style="&st17;" d="M5926.41,617.45l-5.67,2.84"/>
<path style="&st17;" d="M5926.41,611.79l-5.67,2.83"/>
<path style="&st17;" d="M5920.74,614.62l5.67,2.83"/>
<path style="&st17;" d="M5926.41,606.12l-5.67,2.83"/>
<path style="&st17;" d="M5920.74,608.95l5.67,2.84"/>
<path style="&st17;" d="M5923.57,604.7l2.84,1.42"/>
<path style="&st17;" d="M5923.57,604.7v-12.74"/>
<path style="&st17;" d="M5920.74,620.29l2.83,1.41"/>
<path style="&st17;" d="M5915.07,604.7v17"/>
<path style="&st17;" d="M5932.07,604.7v17"/>
<path style="&st11;" d="M5910.82,634.45v-42.49h25.5v42.49H5910.82"/>
<path style="&st17;" d="M5915.07,621.7c0,4.7,3.81,8.5,8.5,8.5"/>
<path style="&st17;" d="M5923.57,630.2c4.7,0,8.5-3.8,8.5-8.5"/>
<path style="&st17;" d="M5932.07,604.7c0-4.69-3.8-8.49-8.5-8.49"/>
<path style="&st17;" d="M5923.57,596.21c-4.69,0-8.5,3.8-8.5,8.49"/>
<text transform="matrix(1 0 0 1 5917.5591 588.2671)" style="&st10;"><tspan x="0" y="0" style="&st31; &st19;">1</tspan></text>
<text transform="matrix(1 0 0 1 5916.7798 642.6362)" style="&st10;"><tspan x="0" y="0" style="&st31; &st19;">2</tspan></text>
<text transform="matrix(0 -1 1 0 5943.9302 636.9663)" style="&st10;"><tspan x="0" y="0" style="&st31; &st19;">C111</tspan></text>
<text ewd:textID='52' transform='matrix(0 -1 1 0 5951.0396 636.9663)' style='&st10; &st31; &st19;'>Diesel Engine Coolant <tspan x='0' y='7' >Temperature Sensor</tspan></text>
</g>
<g ewd:code="C48" ewd:figID="60" ewd:figtype="conn">
<path style="&st17;" d="M5983.06,634.45v-17"/>
<path style="&st11;" d="M5974.56,617.45v17h17v-17H5974.56"/>
<text transform="matrix(1 0 0 1 5973.0884 613.7573)" style="&st10;"><tspan x="0" y="0" style="&st31; &st19;">19</tspan></text>
<text transform="matrix(1 0 0 1 5994.6997 620.8062)" style="&st10;"><tspan x="0" y="0" style="&st31; &st19;">C48</tspan></text>
<text ewd:textID='62' transform='matrix(1 0 0 1 5994.6997 627.9175)' style='&st10; &st31; &st19;'>Junction <tspan x='0' y='7' >Connector</tspan></text>
<text transform="matrix(1 0 0 1 5973.1001 642.6362)" style="&st10;"><tspan x="0" y="0" style="&st31; &st19;">16</tspan></text>
</g>
<g ewd:code="C34-A,C35-B,C36-C,C61-G,C62-H,C90-M,C92-O,C101-S,C102-T,G56-F,G57-Q,G58-R,G60-L,G62-V" ewd:figID="57" ewd:figtype="conn">
<path style="&st11;" d="M5552.64,396.49v50.99h1169.8v-50.99H5552.64"/>
<path style="&st11;" d="M5647.15,391.96c0-2.51-2.03-4.54-4.53-4.54"/>
<path style="&st11;" d="M5642.62,387.42c-2.5,0-4.53,2.03-4.53,4.54"/>
<path style="&st11;" d="M5638.09,391.96c0,2.5,2.03,4.53,4.53,4.53"/>
<path style="&st11;" d="M5642.62,396.49c2.5,0,4.53-2.03,4.53-4.53"/>
<path style="&st11;" d="M5608.16,391.96c0-2.51-2.03-4.54-4.53-4.54"/>
<path style="&st11;" d="M5603.63,387.42c-2.5,0-4.53,2.03-4.53,4.54"/>
<path style="&st11;" d="M5599.1,391.96c0,2.5,2.03,4.53,4.53,4.53"/>
<path style="&st11;" d="M5603.63,396.49c2.5,0,4.53-2.03,4.53-4.53"/>
<path style="&st11;" d="M5574.17,391.96c0-2.51-2.03-4.54-4.53-4.54"/>
<path style="&st11;" d="M5569.64,387.42c-2.51,0-4.54,2.03-4.54,4.54"/>
<path style="&st11;" d="M5565.1,391.96c0,2.5,2.03,4.53,4.54,4.53"/>
<path style="&st11;" d="M5569.64,396.49c2.5,0,4.53-2.03,4.53-4.53"/>
<path style="&st11;" d="M5681.15,391.96c0-2.51-2.03-4.54-4.53-4.54"/>
<path style="&st11;" d="M5676.62,387.42c-2.51,0-4.54,2.03-4.54,4.54"/>
<path style="&st11;" d="M5672.08,391.96c0,2.5,2.03,4.53,4.54,4.53"/>
<path style="&st11;" d="M5676.62,396.49c2.5,0,4.53-2.03,4.53-4.53"/>
<path style="&st11;" d="M5681.15,382.89c0-2.5-2.03-4.53-4.53-4.53"/>
<path style="&st11;" d="M5676.62,378.36c-2.51,0-4.54,2.03-4.54,4.53"/>
<path style="&st11;" d="M5672.08,382.89c0,2.51,2.03,4.53,4.54,4.53"/>
<path style="&st11;" d="M5676.62,387.42c2.5,0,4.53-2.02,4.53-4.53"/>
<path style="&st11;" d="M5647.15,382.89c0-2.5-2.03-4.53-4.53-4.53"/>
<path style="&st11;" d="M5642.62,378.36c-2.5,0-4.53,2.03-4.53,4.53"/>
<path style="&st11;" d="M5638.09,382.89c0,2.51,2.03,4.53,4.53,4.53"/>
<path style="&st11;" d="M5642.62,387.42c2.5,0,4.53-2.02,4.53-4.53"/>
<path style="&st11;" d="M5928.11,452.01c0-2.5-2.03-4.53-4.54-4.53"/>
<path style="&st11;" d="M5923.57,447.48c-2.5,0-4.53,2.03-4.53,4.53"/>
<path style="&st11;" d="M5919.04,452.01c0,2.51,2.03,4.54,4.53,4.54"/>
<path style="&st11;" d="M5923.57,456.55c2.51,0,4.54-2.03,4.54-4.54"/>
<path style="&st11;" d="M5885.61,452.01c0-2.5-2.03-4.53-4.53-4.53"/>
<path style="&st11;" d="M5881.08,447.48c-2.5,0-4.53,2.03-4.53,4.53"/>
<path style="&st11;" d="M5876.55,452.01c0,2.51,2.03,4.54,4.53,4.54"/>
<path style="&st11;" d="M5881.08,456.55c2.5,0,4.53-2.03,4.53-4.54"/>
<path style="&st11;" d="M5758.13,470.14c0-2.5-2.03-4.53-4.53-4.53"/>
<path style="&st11;" d="M5753.6,465.61c-2.5,0-4.53,2.03-4.53,4.53"/>
<path style="&st11;" d="M5749.07,470.14c0,2.51,2.03,4.54,4.53,4.54"/>
<path style="&st11;" d="M5753.6,474.68c2.5,0,4.53-2.03,4.53-4.54"/>
<path style="&st11;" d="M5817.62,470.14c0-2.5-2.03-4.53-4.53-4.53"/>
<path style="&st11;" d="M5813.09,465.61c-2.5,0-4.53,2.03-4.53,4.53"/>
<path style="&st11;" d="M5808.56,470.14c0,2.51,2.03,4.54,4.53,4.54"/>
<path style="&st11;" d="M5813.09,474.68c2.5,0,4.53-2.03,4.53-4.54"/>
<path style="&st11;" d="M5817.62,461.08c0-2.5-2.03-4.53-4.53-4.53"/>
<path style="&st11;" d="M5813.09,456.55c-2.5,0-4.53,2.03-4.53,4.53"/>
<path style="&st11;" d="M5808.56,461.08c0,2.5,2.03,4.53,4.53,4.53"/>
<path style="&st11;" d="M5813.09,465.61c2.5,0,4.53-2.03,4.53-4.53"/>
<path style="&st11;" d="M5758.13,461.08c0-2.5-2.03-4.53-4.53-4.53"/>
<path style="&st11;" d="M5753.6,456.55c-2.5,0-4.53,2.03-4.53,4.53"/>
<path style="&st11;" d="M5749.07,461.08c0,2.5,2.03,4.53,4.53,4.53"/>
<path style="&st11;" d="M5753.6,465.61c2.5,0,4.53-2.03,4.53-4.53"/>
<path style="&st11;" d="M6208.56,452.01c0-2.5-2.03-4.53-4.53-4.53"/>
<path style="&st11;" d="M6204.03,447.48c-2.51,0-4.54,2.03-4.54,4.53"/>
<path style="&st11;" d="M6199.49,452.01c0,2.51,2.03,4.54,4.54,4.54"/>
<path style="&st11;" d="M6204.03,456.55c2.5,0,4.53-2.03,4.53-4.54"/>
<path style="&st11;" d="M6174.56,452.01c0-2.5-2.02-4.53-4.53-4.53"/>
<path style="&st11;" d="M6170.03,447.48c-2.5,0-4.53,2.03-4.53,4.53"/>
<path style="&st11;" d="M6165.5,452.01c0,2.51,2.03,4.54,4.53,4.54"/>
<path style="&st11;" d="M6170.03,456.55c2.51,0,4.53-2.03,4.53-4.54"/>
<path style="&st11;" d="M6582.5,452.01c0-2.5-2.03-4.53-4.54-4.53"/>
<path style="&st11;" d="M6577.96,447.48c-2.5,0-4.53,2.03-4.53,4.53"/>
<path style="&st11;" d="M6573.43,452.01c0,2.51,2.03,4.54,4.53,4.54"/>
<path style="&st11;" d="M6577.96,456.55c2.51,0,4.54-2.03,4.54-4.54"/>
<path style="&st11;" d="M6616.49,452.01c0-2.5-2.03-4.53-4.53-4.53"/>
<path style="&st11;" d="M6611.96,447.48c-2.51,0-4.53,2.03-4.53,4.53"/>
<path style="&st11;" d="M6607.43,452.01c0,2.51,2.02,4.54,4.53,4.54"/>
<path style="&st11;" d="M6611.96,456.55c2.5,0,4.53-2.03,4.53-4.54"/>
<path style="&st11;" d="M5817.62,452.01c0-2.5-2.03-4.53-4.53-4.53"/>
<path style="&st11;" d="M5813.09,447.48c-2.5,0-4.53,2.03-4.53,4.53"/>
<path style="&st11;" d="M5808.56,452.01c0,2.51,2.03,4.54,4.53,4.54"/>
<path style="&st11;" d="M5813.09,456.55c2.5,0,4.53-2.03,4.53-4.54"/>
<path style="&st11;" d="M6370.03,452.01c0-2.5-2.03-4.53-4.53-4.53"/>
<path style="&st11;" d="M6365.5,447.48c-2.5,0-4.53,2.03-4.53,4.53"/>
<path style="&st11;" d="M6360.97,452.01c0,2.51,2.03,4.54,4.53,4.54"/>
<path style="&st11;" d="M6365.5,456.55c2.5,0,4.53-2.03,4.53-4.54"/>
<path style="&st11;" d="M6395.53,452.01c0-2.5-2.03-4.53-4.53-4.53"/>
<path style="&st11;" d="M6391,447.48c-2.51,0-4.54,2.03-4.54,4.53"/>
<path style="&st11;" d="M6386.46,452.01c0,2.51,2.03,4.54,4.54,4.54"/>
<path style="&st11;" d="M6391,456.55c2.5,0,4.53-2.03,4.53-4.54"/>
<path style="&st11;" d="M6072.58,452.01c0-2.5-2.03-4.53-4.53-4.53"/>
<path style="&st11;" d="M6068.05,447.48c-2.5,0-4.53,2.03-4.53,4.53"/>
<path style="&st11;" d="M6063.52,452.01c0,2.51,2.03,4.54,4.53,4.54"/>
<path style="&st11;" d="M6068.05,456.55c2.5,0,4.53-2.03,4.53-4.54"/>
<path style="&st11;" d="M6038.59,452.01c0-2.5-2.03-4.53-4.54-4.53"/>
<path style="&st11;" d="M6034.05,447.48c-2.5,0-4.53,2.03-4.53,4.53"/>
<path style="&st11;" d="M6029.52,452.01c0,2.51,2.03,4.54,4.53,4.54"/>
<path style="&st11;" d="M6034.05,456.55c2.51,0,4.54-2.03,4.54-4.54"/>
<path style="&st11;" d="M5758.13,452.01c0-2.5-2.03-4.53-4.53-4.53"/>
<path style="&st11;" d="M5753.6,447.48c-2.5,0-4.53,2.03-4.53,4.53"/>
<path style="&st11;" d="M5749.07,452.01c0,2.51,2.03,4.54,4.53,4.54"/>
<path style="&st11;" d="M5753.6,456.55c2.5,0,4.53-2.03,4.53-4.54"/>
<path style="&st11;" d="M6709.98,452.01c0-2.5-2.03-4.53-4.54-4.53"/>
<path style="&st11;" d="M6705.44,447.48c-2.5,0-4.53,2.03-4.53,4.53"/>
<path style="&st11;" d="M6700.91,452.01c0,2.51,2.03,4.54,4.53,4.54"/>
<path style="&st11;" d="M6705.44,456.55c2.51,0,4.54-2.03,4.54-4.54"/>
<path style="&st11;" d="M5574.17,470.14c0-2.5-2.03-4.53-4.53-4.53"/>
<path style="&st11;" d="M5569.64,465.61c-2.51,0-4.54,2.03-4.54,4.53"/>
<path style="&st11;" d="M5565.1,470.14c0,2.51,2.03,4.54,4.54,4.54"/>
<path style="&st11;" d="M5569.64,474.68c2.5,0,4.53-2.03,4.53-4.54"/>
<path style="&st11;" d="M5608.16,470.14c0-2.5-2.03-4.53-4.53-4.53"/>
<path style="&st11;" d="M5603.63,465.61c-2.5,0-4.53,2.03-4.53,4.53"/>
<path style="&st11;" d="M5599.1,470.14c0,2.51,2.03,4.54,4.53,4.54"/>
<path style="&st11;" d="M5603.63,474.68c2.5,0,4.53-2.03,4.53-4.54"/>
<path style="&st11;" d="M5608.16,461.08c0-2.5-2.03-4.53-4.53-4.53"/>
<path style="&st11;" d="M5603.63,456.55c-2.5,0-4.53,2.03-4.53,4.53"/>
<path style="&st11;" d="M5599.1,461.08c0,2.5,2.03,4.53,4.53,4.53"/>
<path style="&st11;" d="M5603.63,465.61c2.5,0,4.53-2.03,4.53-4.53"/>
<path style="&st11;" d="M5574.17,461.08c0-2.5-2.03-4.53-4.53-4.53"/>
<path style="&st11;" d="M5569.64,456.55c-2.51,0-4.54,2.03-4.54,4.53"/>
<path style="&st11;" d="M5565.1,461.08c0,2.5,2.03,4.53,4.54,4.53"/>
<path style="&st11;" d="M5569.64,465.61c2.5,0,4.53-2.03,4.53-4.53"/>
<path style="&st11;" d="M5608.16,452.01c0-2.5-2.03-4.53-4.53-4.53"/>
<path style="&st11;" d="M5603.63,447.48c-2.5,0-4.53,2.03-4.53,4.53"/>
<path style="&st11;" d="M5599.1,452.01c0,2.51,2.03,4.54,4.53,4.54"/>
<path style="&st11;" d="M5603.63,456.55c2.5,0,4.53-2.03,4.53-4.54"/>
<path style="&st11;" d="M5574.17,452.01c0-2.5-2.03-4.53-4.53-4.53"/>
<path style="&st11;" d="M5569.64,447.48c-2.51,0-4.54,2.03-4.54,4.53"/>
<path style="&st11;" d="M5565.1,452.01c0,2.51,2.03,4.54,4.54,4.54"/>
<path style="&st11;" d="M5569.64,456.55c2.5,0,4.53-2.03,4.53-4.54"/>
<path style="&st11;" d="M5608.16,479.21c0-2.5-2.03-4.53-4.53-4.53"/>
<path style="&st11;" d="M5603.63,474.68c-2.5,0-4.53,2.03-4.53,4.53"/>
<path style="&st11;" d="M5599.1,479.21c0,2.5,2.03,4.53,4.53,4.53"/>
<path style="&st11;" d="M5603.63,483.74c2.5,0,4.53-2.03,4.53-4.53"/>
<path style="&st11;" d="M5574.17,479.21c0-2.5-2.03-4.53-4.53-4.53"/>
<path style="&st11;" d="M5569.64,474.68c-2.51,0-4.54,2.03-4.54,4.53"/>
<path style="&st11;" d="M5565.1,479.21c0,2.5,2.03,4.53,4.54,4.53"/>
<path style="&st11;" d="M5569.64,483.74c2.5,0,4.53-2.03,4.53-4.53"/>
<path style="&st11;" d="M5608.16,382.89c0-2.51-2.03-4.54-4.53-4.54"/>
<path style="&st11;" d="M5603.63,378.35c-2.5,0-4.53,2.03-4.53,4.54"/>
<path style="&st11;" d="M5599.1,382.89c0,2.5,2.03,4.53,4.53,4.53"/>
<path style="&st11;" d="M5603.63,387.42c2.5,0,4.53-2.03,4.53-4.53"/>
<path style="&st11;" d="M5574.17,382.89c0-2.51-2.03-4.54-4.53-4.54"/>
<path style="&st11;" d="M5569.64,378.35c-2.51,0-4.54,2.03-4.54,4.54"/>
<path style="&st11;" d="M5565.1,382.89c0,2.5,2.03,4.53,4.54,4.53"/>
<path style="&st11;" d="M5569.64,387.42c2.5,0,4.53-2.03,4.53-4.53"/>
<path style="&st11;" d="M5608.16,373.82c0-2.51-2.03-4.54-4.53-4.54"/>
<path style="&st11;" d="M5603.63,369.28c-2.5,0-4.53,2.03-4.53,4.54"/>
<path style="&st11;" d="M5599.1,373.82c0,2.5,2.03,4.53,4.53,4.53"/>
<path style="&st11;" d="M5603.63,378.35c2.5,0,4.53-2.03,4.53-4.53"/>
<path style="&st11;" d="M5574.17,373.82c0-2.51-2.03-4.54-4.53-4.54"/>
<path style="&st11;" d="M5569.64,369.28c-2.51,0-4.54,2.03-4.54,4.54"/>
<path style="&st11;" d="M5565.1,373.82c0,2.5,2.03,4.53,4.54,4.53"/>
<path style="&st11;" d="M5569.64,378.35c2.5,0,4.53-2.03,4.53-4.53"/>
<path style="&st11;" d="M5681.15,373.83c0-2.5-2.03-4.53-4.53-4.53"/>
<path style="&st11;" d="M5676.62,369.3c-2.51,0-4.54,2.03-4.54,4.53"/>
<path style="&st11;" d="M5672.08,373.83c0,2.51,2.03,4.53,4.54,4.53"/>
<path style="&st11;" d="M5676.62,378.36c2.5,0,4.53-2.02,4.53-4.53"/>
<path style="&st11;" d="M5647.15,373.83c0-2.5-2.03-4.53-4.53-4.53"/>
<path style="&st11;" d="M5642.62,369.3c-2.5,0-4.53,2.03-4.53,4.53"/>
<path style="&st11;" d="M5638.09,373.83c0,2.51,2.03,4.53,4.53,4.53"/>
<path style="&st11;" d="M5642.62,378.36c2.5,0,4.53-2.02,4.53-4.53"/>
<text transform="matrix(1 0 0 1 5810.1997 472.1069)" style="&st10;"><tspan x="0" y="0" style="&st31; &st19;">M</tspan></text>
<text transform="matrix(1 0 0 1 5799.8091 472.1069)" style="&st10;"><tspan x="0" y="0" style="&st31; &st19;">11</tspan></text>
<text transform="matrix(1 0 0 1 5810.3384 463.0464)" style="&st10;"><tspan x="0" y="0" style="&st31; &st19;">G</tspan></text>
<text transform="matrix(1 0 0 1 5799.0396 463.0464)" style="&st10;"><tspan x="0" y="0" style="&st31; &st19;">17</tspan></text>
<text transform="matrix(1 0 0 1 5750.8501 463.0464)" style="&st10;"><tspan x="0" y="0" style="&st31; &st19;">G</tspan></text>
<text transform="matrix(1 0 0 1 5739.5493 463.0464)" style="&st10;"><tspan x="0" y="0" style="&st31; &st19;">18</tspan></text>
<text transform="matrix(1 0 0 1 6163.2095 443.7769)" style="&st10;"><tspan x="0" y="0" style="&st31; &st19;">TDC-</tspan></text>
<text transform="matrix(1 0 0 1 6167.6997 453.9761)" style="&st10;"><tspan x="0" y="0" style="&st31; &st19;">S</tspan></text>
<text transform="matrix(1 0 0 1 6155.9985 453.9761)" style="&st10;"><tspan x="0" y="0" style="&st31; &st19;">16</tspan></text>
<text transform="matrix(1 0 0 1 6201.6899 453.9761)" style="&st10;"><tspan x="0" y="0" style="&st31; &st19;">S</tspan></text>
<text transform="matrix(1 0 0 1 6189.9985 453.9761)" style="&st10;"><tspan x="0" y="0" style="&st31; &st19;">17</tspan></text>
<text transform="matrix(1 0 0 1 6197.2095 443.7769)" style="&st10;"><tspan x="0" y="0" style="&st31; &st19;">TDC+</tspan></text>
<text transform="matrix(1 0 0 1 6605.1392 443.7769)" style="&st10;"><tspan x="0" y="0" style="&st31; &st19;">NE-</tspan></text>
<text transform="matrix(1 0 0 1 6601.1099 453.9761)" style="&st10;"><tspan x="0" y="0" style="&st31; &st19;">8</tspan></text>
<text transform="matrix(1 0 0 1 6609.1997 453.9761)" style="&st10;"><tspan x="0" y="0" style="&st31; &st19;">O</tspan></text>
<text transform="matrix(1 0 0 1 6567.1196 453.9761)" style="&st10;"><tspan x="0" y="0" style="&st31; &st19;">7</tspan></text>
<text transform="matrix(1 0 0 1 6575.2095 453.9761)" style="&st10;"><tspan x="0" y="0" style="&st31; &st19;">O</tspan></text>
<text transform="matrix(1 0 0 1 6571.1489 443.7769)" style="&st10;"><tspan x="0" y="0" style="&st31; &st19;">NE+</tspan></text>
<text transform="matrix(1 0 0 1 5802.8091 443.7769)" style="&st10;"><tspan x="0" y="0" style="&st31; &st19;">ETHW</tspan></text>
<text transform="matrix(1 0 0 1 5802.2388 453.9761)" style="&st10;"><tspan x="0" y="0" style="&st31; &st19;">8</tspan></text>
<text transform="matrix(1 0 0 1 5810.7603 453.9761)" style="&st10;"><tspan x="0" y="0" style="&st31; &st19;">B</tspan></text>
<text transform="matrix(1 0 0 1 6384.1802 443.7769)" style="&st10;"><tspan x="0" y="0" style="&st31; &st19;">NE-</tspan></text>
<text transform="matrix(1 0 0 1 6380.1489 453.9761)" style="&st10;"><tspan x="0" y="0" style="&st31; &st19;">5</tspan></text>
<text transform="matrix(1 0 0 1 6388.52 453.9761)" style="&st10;"><tspan x="0" y="0" style="&st31; &st19;">H</tspan></text>
<text transform="matrix(1 0 0 1 6351.4692 453.9761)" style="&st10;"><tspan x="0" y="0" style="&st31; &st19;">12</tspan></text>
<text transform="matrix(1 0 0 1 6363.0298 453.9761)" style="&st10;"><tspan x="0" y="0" style="&st31; &st19;">H</tspan></text>
<text transform="matrix(1 0 0 1 6358.6802 443.7769)" style="&st10;"><tspan x="0" y="0" style="&st31; &st19;">NE+</tspan></text>
<text transform="matrix(1 0 0 1 6027.2388 443.7769)" style="&st10;"><tspan x="0" y="0" style="&st31; &st19;">NE+</tspan></text>
<text transform="matrix(1 0 0 1 6031.7192 453.9761)" style="&st10;"><tspan x="0" y="0" style="&st31; &st19;">A</tspan></text>
<text transform="matrix(1 0 0 1 6023.2095 453.9761)" style="&st10;"><tspan x="0" y="0" style="&st31; &st19;">6</tspan></text>
<text transform="matrix(1 0 0 1 6065.7192 453.9761)" style="&st10;"><tspan x="0" y="0" style="&st31; &st19;">A</tspan></text>
<text transform="matrix(1 0 0 1 6057.1997 453.9761)" style="&st10;"><tspan x="0" y="0" style="&st31; &st19;">5</tspan></text>
<text transform="matrix(1 0 0 1 6061.229 443.7769)" style="&st10;"><tspan x="0" y="0" style="&st31; &st19;">NE-</tspan></text>
<text transform="matrix(1 0 0 1 5745.6489 443.7769)" style="&st10;"><tspan x="0" y="0" style="&st31; &st19;">THW</tspan></text>
<text transform="matrix(1 0 0 1 5739.5688 453.9761)" style="&st10;"><tspan x="0" y="0" style="&st31; &st19;">17</tspan></text>
<text transform="matrix(1 0 0 1 5751.1294 453.9761)" style="&st10;"><tspan x="0" y="0" style="&st31; &st19;">C</tspan></text>
<text transform="matrix(1 0 0 1 5554.7993 393.9272)" style="&st10;"><tspan x="0" y="0" style="&st31; &st19;">36</tspan></text>
<text transform="matrix(1 0 0 1 5588.7993 393.9272)" style="&st10;"><tspan x="0" y="0" style="&st31; &st19;">35</tspan></text>
<text transform="matrix(1 0 0 1 5567.6587 393.9272)" style="&st10;"><tspan x="0" y="0" style="&st31; &st19;">R</tspan></text>
<text transform="matrix(1 0 0 1 5601.6489 393.9272)" style="&st10;"><tspan x="0" y="0" style="&st31; &st19;">R</tspan></text>
<text transform="matrix(1 0 0 1 5554.7993 384.8569)" style="&st10;"><tspan x="0" y="0" style="&st31; &st19;">33</tspan></text>
<text transform="matrix(1 0 0 1 5588.7993 384.8569)" style="&st10;"><tspan x="0" y="0" style="&st31; &st19;">34</tspan></text>
<text transform="matrix(1 0 0 1 5567.6587 384.8569)" style="&st10;"><tspan x="0" y="0" style="&st31; &st19;">L</tspan></text>
<text transform="matrix(1 0 0 1 5601.6489 384.8569)" style="&st10;"><tspan x="0" y="0" style="&st31; &st19;">L</tspan></text>
<text transform="matrix(1 0 0 1 5554.7993 375.7866)" style="&st10;"><tspan x="0" y="0" style="&st31; &st19;">31</tspan></text>
<text transform="matrix(1 0 0 1 5588.7993 375.7866)" style="&st10;"><tspan x="0" y="0" style="&st31; &st19;">32</tspan></text>
<text transform="matrix(1 0 0 1 5567.6587 375.7866)" style="&st10;"><tspan x="0" y="0" style="&st31; &st19;">F</tspan></text>
<text transform="matrix(1 0 0 1 5601.6489 375.7866)" style="&st10;"><tspan x="0" y="0" style="&st31; &st19;">F</tspan></text>
<text transform="matrix(1 0 0 1 5560.3794 404.1167)" style="&st10;"><tspan x="0" y="0" style="&st31; &st19;">CANL</tspan></text>
<text transform="matrix(1 0 0 1 5593.8794 404.1167)" style="&st10;"><tspan x="0" y="0" style="&st31; &st19;">CANH</tspan></text>
<text transform="matrix(1 0 0 1 5662.5591 393.9272)" style="&st10;"><tspan x="0" y="0" style="&st31; &st19;">21</tspan></text>
<text transform="matrix(1 0 0 1 5639.8696 393.9272)" style="&st10;"><tspan x="0" y="0" style="&st31; &st19;">Q</tspan></text>
<text transform="matrix(1 0 0 1 5627.7896 393.9272)" style="&st10;"><tspan x="0" y="0" style="&st31; &st19;">20</tspan></text>
<text transform="matrix(1 0 0 1 5633.0103 404.1167)" style="&st10;"><tspan x="0" y="0" style="&st31; &st19;">CANP</tspan></text>
<text transform="matrix(1 0 0 1 5666.8696 404.1167)" style="&st10;"><tspan x="0" y="0" style="&st31; &st19;">CANN</tspan></text>
<text transform="matrix(1 0 0 1 5673.8599 393.9272)" style="&st10;"><tspan x="0" y="0" style="&st31; &st19;">Q</tspan></text>
<text transform="matrix(1 0 0 1 5661.7798 384.8569)" style="&st10;"><tspan x="0" y="0" style="&st31; &st19;">35</tspan></text>
<text transform="matrix(1 0 0 1 5674.4985 384.8569)" style="&st10;"><tspan x="0" y="0" style="&st31; &st19;">L</tspan></text>
<text transform="matrix(1 0 0 1 5627.7896 384.8569)" style="&st10;"><tspan x="0" y="0" style="&st31; &st19;">36</tspan></text>
<text transform="matrix(1 0 0 1 5640.4985 384.8569)" style="&st10;"><tspan x="0" y="0" style="&st31; &st19;">L</tspan></text>
<text transform="matrix(1 0 0 1 5661.7798 375.7974)" style="&st10;"><tspan x="0" y="0" style="&st31; &st19;">33</tspan></text>
<text transform="matrix(1 0 0 1 5674.4985 375.7974)" style="&st10;"><tspan x="0" y="0" style="&st31; &st19;">F</tspan></text>
<text transform="matrix(1 0 0 1 5627.7896 375.7974)" style="&st10;"><tspan x="0" y="0" style="&st31; &st19;">34</tspan></text>
<text transform="matrix(1 0 0 1 5640.4985 375.7974)" style="&st10;"><tspan x="0" y="0" style="&st31; &st19;">F</tspan></text>
<text transform="matrix(1 0 0 1 5919.2603 443.7769)" style="&st10;"><tspan x="0" y="0" style="&st31; &st19;">E2</tspan></text>
<text transform="matrix(1 0 0 1 6269.4888 392.7866)" style="&st10;"><tspan x="0" y="0" style="&st31; &st19;">ECM</tspan></text>
<text transform="matrix(1 0 0 1 5873.1294 443.7769)" style="&st10;"><tspan x="0" y="0" style="&st31; &st19;">THW</tspan></text>
<text transform="matrix(1 0 0 1 5921.4497 453.9761)" style="&st10;"><tspan x="0" y="0" style="&st31; &st19;">T</tspan></text>
<text transform="matrix(1 0 0 1 5912.6997 453.9761)" style="&st10;"><tspan x="0" y="0" style="&st31; &st19;">9</tspan></text>
<text transform="matrix(1 0 0 1 5878.9595 453.9761)" style="&st10;"><tspan x="0" y="0" style="&st31; &st19;">T</tspan></text>
<text transform="matrix(1 0 0 1 5870.1997 453.9761)" style="&st10;"><tspan x="0" y="0" style="&st31; &st19;">4</tspan></text>
<text transform="matrix(1 0 0 1 6269.4888 385.687)" style="&st10;"><tspan x="0" y="0" style="&st31; &st19;">C34(A),C35(B),C36(C),C61(G),C62(H),C90(M),C92(O),C101(S),C102(T),G56(F),G57(Q),G58(R),G60(L),G62(V)</tspan></text>
<text transform="matrix(1 0 0 1 5750.7095 472.1069)" style="&st10;"><tspan x="0" y="0" style="&st31; &st19;">M</tspan></text>
<text transform="matrix(1 0 0 1 5742.7192 472.1069)" style="&st10;"><tspan x="0" y="0" style="&st31; &st19;">5</tspan></text>
<text transform="matrix(1 0 0 1 5601.2993 481.1772)" style="&st10;"><tspan x="0" y="0" style="&st31; &st19;">V</tspan></text>
<text transform="matrix(1 0 0 1 5567.2993 481.1772)" style="&st10;"><tspan x="0" y="0" style="&st31; &st19;">V</tspan></text>
<text transform="matrix(1 0 0 1 5558.7603 481.1772)" style="&st10;"><tspan x="0" y="0" style="&st31; &st19;">2</tspan></text>
<text transform="matrix(1 0 0 1 5592.7798 481.1772)" style="&st10;"><tspan x="0" y="0" style="&st31; &st19;">8</tspan></text>
<text transform="matrix(1 0 0 1 6696.0493 443.7769)" style="&st10;"><tspan x="0" y="0" style="&st31; &st19;">TACH</tspan></text>
<text transform="matrix(1 0 0 1 6703.1099 453.9761)" style="&st10;"><tspan x="0" y="0" style="&st31; &st19;">V</tspan></text>
<text transform="matrix(1 0 0 1 5802.0688 392.7866)" style="&st10;"><tspan x="0" y="0" style="&st31; &st19;">ECM</tspan></text>
<text transform="matrix(1 0 0 1 5802.0688 385.687)" style="&st10;"><tspan x="0" y="0" style="&st31; &st19;">C34(A),C35(B),C36(C),C61(G),C62(H),C90(M),C92(O),C101(S),C102(T),G56(F),G57(Q),G58(R),G60(L),G62(V)</tspan></text>
<text transform="matrix(1 0 0 1 5596.7095 443.7769)" style="&st10;"><tspan x="0" y="0" style="&st31; &st19;">ACT</tspan></text>
<text transform="matrix(1 0 0 1 5563.2388 443.7769)" style="&st10;"><tspan x="0" y="0" style="&st31; &st19;">AC1</tspan></text>
<text transform="matrix(1 0 0 1 5567.1587 472.1069)" style="&st10;"><tspan x="0" y="0" style="&st31; &st19;">R</tspan></text>
<text transform="matrix(1 0 0 1 5555.5786 472.1069)" style="&st10;"><tspan x="0" y="0" style="&st31; &st19;">10</tspan></text>
<text transform="matrix(1 0 0 1 5601.1587 472.1069)" style="&st10;"><tspan x="0" y="0" style="&st31; &st19;">R</tspan></text>
<text transform="matrix(1 0 0 1 5589.5688 472.1069)" style="&st10;"><tspan x="0" y="0" style="&st31; &st19;">13</tspan></text>
<text transform="matrix(1 0 0 1 5601.6489 463.0464)" style="&st10;"><tspan x="0" y="0" style="&st31; &st19;">L</tspan></text>
<text transform="matrix(1 0 0 1 5589.5688 463.0464)" style="&st10;"><tspan x="0" y="0" style="&st31; &st19;">21</tspan></text>
<text transform="matrix(1 0 0 1 5567.6587 463.0464)" style="&st10;"><tspan x="0" y="0" style="&st31; &st19;">L</tspan></text>
<text transform="matrix(1 0 0 1 5555.5786 463.0464)" style="&st10;"><tspan x="0" y="0" style="&st31; &st19;">19</tspan></text>
<text transform="matrix(1 0 0 1 5588.8286 453.9761)" style="&st10;"><tspan x="0" y="0" style="&st31; &st19;">27</tspan></text>
<text transform="matrix(1 0 0 1 5601.5103 453.9761)" style="&st10;"><tspan x="0" y="0" style="&st31; &st19;">F</tspan></text>
<text transform="matrix(1 0 0 1 5554.8286 453.9761)" style="&st10;"><tspan x="0" y="0" style="&st31; &st19;">25</tspan></text>
<text transform="matrix(1 0 0 1 5567.52 453.9761)" style="&st10;"><tspan x="0" y="0" style="&st31; &st19;">F</tspan></text>
<text transform="matrix(1 0 0 1 5635.1001 485.9858)" style="&st10;"><tspan x="0" y="0" style="&st31; &st19;">ECM</tspan></text>
<text transform="matrix(1 0 0 1 5635.1001 455.0874)" style="&st10;"><tspan x="0" y="0" style="&st31; &st19;">C34(A),C35(B),C36(C),</tspan></text>
<text transform="matrix(1 0 0 1 5635.1001 461.0874)" style="&st10;"><tspan x="0" y="0" style="&st31; &st19;">C61(G),C62(H),C90(M),</tspan></text>
<text transform="matrix(1 0 0 1 5635.1001 467.0874)" style="&st10;"><tspan x="0" y="0" style="&st31; &st19;">C92(O),C101(S),C102(T),</tspan></text>
<text transform="matrix(1 0 0 1 5635.1001 473.0874)" style="&st10;"><tspan x="0" y="0" style="&st31; &st19;">G56(F),G57(Q),G58(R),</tspan></text>
<text transform="matrix(1 0 0 1 5635.1001 479.0874)" style="&st10;"><tspan x="0" y="0" style="&st31; &st19;">G60(L),G62(V)</tspan></text>
<text transform="matrix(1 0 0 1 6694.5688 453.9761)" style="&st10;"><tspan x="0" y="0" style="&st31; &st19;">7</tspan></text>
</g>
<text transform="matrix(1 0 0 1 5819.0688 472.1069)" style="&st10;"><tspan x="0" y="0" style="&st31; &st19;">(*3)</tspan></text>
<text transform="matrix(1 0 0 1 5819.0688 463.0464)" style="&st10;"><tspan x="0" y="0" style="&st31; &st19;">(*2)</tspan></text>
<text transform="matrix(1 0 0 1 5819.0688 453.9761)" style="&st10;"><tspan x="0" y="0" style="&st31; &st19;">(*1)</tspan></text>
<text transform="matrix(0 -1 1 0 5979.3696 673.2476)" style="&st10;"><tspan x="0" y="0" style="&st31; &st19;">BR</tspan></text>
<text transform="matrix(0 -1 1 0 5979.3696 596.7573)" style="&st10;"><tspan x="0" y="0" style="&st31; &st19;">BR</tspan></text>
<text transform="matrix(0 -1 1 0 5809.3989 548.8062)" style="&st10;"><tspan x="0" y="0" style="&st31; &st19;">W-R</tspan></text>
<text transform="matrix(0 -1 1 0 5749.9087 547.4272)" style="&st10;"><tspan x="0" y="0" style="&st31; &st19;">R-L</tspan></text>
<text transform="matrix(0 -1 1 0 5672.9185 355.1289)" style="&st10;"><tspan x="0" y="0" style="&st31; &st19;">GR</tspan></text>
<text transform="matrix(0 -1 1 0 5638.9302 354.7964)" style="&st10;"><tspan x="0" y="0" style="&st31; &st19;">BR</tspan></text>
<text transform="matrix(1 0 0 1 5682.5884 393.9272)" style="&st10;"><tspan x="0" y="0" style="&st31; &st19;">(*3)</tspan></text>
<text transform="matrix(1 0 0 1 5682.5884 384.8569)" style="&st10;"><tspan x="0" y="0" style="&st31; &st19;">(*2 *21)</tspan></text>
<text transform="matrix(1 0 0 1 5682.5884 375.7974)" style="&st10;"><tspan x="0" y="0" style="&st31; &st19;">(*1)</tspan></text>
<text transform="matrix(0 -1 1 0 5684.2485 368.0171)" style="&st10;"><tspan x="0" y="0" style="&st31; &st19;">(*20 *1,*20 *3, </tspan><tspan x="0" y="7" style="&st31; &st19;">*21 *22)</tspan></text>
<text transform="matrix(0 -1 1 0 5650.2603 368.0171)" style="&st10;"><tspan x="0" y="0" style="&st31; &st19;">(*20 *1,*20 *3, </tspan><tspan x="0" y="7" style="&st31; &st19;">*21 *22)</tspan></text>
<text transform="matrix(0 -1 1 0 5931.2095 547.146)" style="&st10;"><tspan x="0" y="0" style="&st31; &st19;">(*4)</tspan></text>
<text transform="matrix(0 -1 1 0 5919.8794 545.7671)" style="&st10;"><tspan x="0" y="0" style="&st31; &st19;">BR</tspan></text>
<text transform="matrix(0 -1 1 0 5888.7192 547.146)" style="&st10;"><tspan x="0" y="0" style="&st31; &st19;">(*4)</tspan></text>
<text transform="matrix(0 -1 1 0 5877.3892 547.4272)" style="&st10;"><tspan x="0" y="0" style="&st31; &st19;">R-L</tspan></text>
<text transform="matrix(0 -1 1 0 5854.7192 547.146)" style="&st10;"><tspan x="0" y="0" style="&st31; &st19;">(*3)</tspan></text>
<text transform="matrix(0 -1 1 0 5843.3892 545.7671)" style="&st10;"><tspan x="0" y="0" style="&st31; &st19;">BR</tspan></text>
<text transform="matrix(0 -1 1 0 5820.729 546.7573)" style="&st10;"><tspan x="0" y="0" style="&st31; &st19;">(*1)</tspan></text>
<text transform="matrix(0 -1 1 0 5786.729 547.146)" style="&st10;"><tspan x="0" y="0" style="&st31; &st19;">(*2)</tspan></text>
<text transform="matrix(0 -1 1 0 5775.3989 547.2866)" style="&st10;"><tspan x="0" y="0" style="&st31; &st19;">L-B</tspan></text>
<text transform="matrix(0 -1 1 0 5990.6997 674.2358)" style="&st10;"><tspan x="0" y="0" style="&st31; &st19;">(*1)</tspan></text>
<text transform="matrix(0 -1 1 0 5990.6997 597.7476)" style="&st10;"><tspan x="0" y="0" style="&st31; &st19;">(*1)</tspan></text>
<text transform="matrix(0 -1 1 0 5529.2798 420.8667)" style="&st10;"><tspan x="0" y="0" style="&st31; &st19;">(*11)</tspan></text>
<text transform="matrix(0 -1 1 0 5517.9497 416.8364)" style="&st10;"><tspan x="0" y="0" style="&st31; &st19;">W</tspan></text>
<text transform="matrix(1 0 0 1 5531.7603 334.6265)" style="&st10;"><tspan x="0" y="0" style="&st31; &st19;">(*11)</tspan></text>
<text transform="matrix(1 0 0 1 5535.7896 340.6558)" style="&st10;"><tspan x="0" y="0" style="&st31; &st19;">W</tspan></text>
<text transform="matrix(1 0 0 1 5534.4087 323.2964)" style="&st10;"><tspan x="0" y="0" style="&st31; &st19;">LG</tspan></text>
<text transform="matrix(1 0 0 1 5531.7603 351.9858)" style="&st10;"><tspan x="0" y="0" style="&st31; &st19;">(*11)</tspan></text>
<text transform="matrix(1 0 0 1 5609.6001 481.1772)" style="&st10;"><tspan x="0" y="0" style="&st31; &st19;">(*4)</tspan></text>
<text transform="matrix(1 0 0 1 5504.3188 282.3066)" style="&st10;"><tspan x="0" y="0" style="&st31; &st19;">BR</tspan></text>
<text transform="matrix(1 0 0 1 5506.7896 256.8164)" style="&st10;"><tspan x="0" y="0" style="&st31; &st19;">Y</tspan></text>
<text transform="matrix(1 0 0 1 5681.1099 69.8467)" style="&st10;"><tspan x="0" y="0" style="&st31; &st19;">GR(*13)</tspan></text>
<text transform="matrix(1 0 0 1 5682.979 52.8467)" style="&st10;"><tspan x="0" y="0" style="&st31; &st19;">W(*13)</tspan></text>
<text transform="matrix(1 0 0 1 5732.1001 69.8467)" style="&st10;"><tspan x="0" y="0" style="&st31; &st19;">GR(*13)</tspan></text>
<text transform="matrix(1 0 0 1 5733.979 52.8467)" style="&st10;"><tspan x="0" y="0" style="&st31; &st19;">W(*13)</tspan></text>
<text transform="matrix(1 0 0 1 5681.1099 103.8364)" style="&st10;"><tspan x="0" y="0" style="&st31; &st19;">GR(*14)</tspan></text>
<text transform="matrix(1 0 0 1 5682.979 86.8364)" style="&st10;"><tspan x="0" y="0" style="&st31; &st19;">W(*14)</tspan></text>
<text transform="matrix(1 0 0 1 5732.1001 103.8364)" style="&st10;"><tspan x="0" y="0" style="&st31; &st19;">GR(*14)</tspan></text>
<text transform="matrix(1 0 0 1 5733.979 86.8364)" style="&st10;"><tspan x="0" y="0" style="&st31; &st19;">W(*14)</tspan></text>
<text transform="matrix(0 -1 1 0 5599.9302 517.937)" style="&st10;"><tspan x="0" y="0" style="&st31; &st19;">R</tspan></text>
<text transform="matrix(0 -1 1 0 5565.9399 520.1968)" style="&st10;"><tspan x="0" y="0" style="&st31; &st19;">LG</tspan></text>
<text transform="matrix(1 0 0 1 5609.6001 472.1069)" style="&st10;"><tspan x="0" y="0" style="&st31; &st19;">(*3)</tspan></text>
<text transform="matrix(1 0 0 1 5609.6001 463.0464)" style="&st10;"><tspan x="0" y="0" style="&st31; &st19;">(*2)</tspan></text>
<text transform="matrix(1 0 0 1 5609.6001 453.9761)" style="&st10;"><tspan x="0" y="0" style="&st31; &st19;">(*1)</tspan></text>
<text transform="matrix(1 0 0 1 5609.5981 393.9165)" style="&st10;"><tspan x="0" y="0" style="&st31; &st19;">(*3)</tspan></text>
<text transform="matrix(1 0 0 1 5609.5981 384.8462)" style="&st10;"><tspan x="0" y="0" style="&st31; &st19;">(*2)</tspan></text>
<text transform="matrix(1 0 0 1 5609.5981 375.7866)" style="&st10;"><tspan x="0" y="0" style="&st31; &st19;">(*1)</tspan></text>
</svg>
