﻿<?xml version="1.0" encoding="UTF-8"?>
<!DOCTYPE svg PUBLIC "-//W3C//DTD SVG 1.0//EN" "http://www.w3.org/TR/2001/REC-SVG-20010904/DTD/svg10.dtd"[
<!ENTITY ns_flows "http://ns.adobe.com/Flows/1.0/">
<!ENTITY ns_svg "http://www.w3.org/2000/svg">
<!ENTITY ns_xlink "http://www.w3.org/1999/xlink">
	<!ENTITY st0 "fill:none;stroke:#F8E616;stroke-width:5.1;stroke-linejoin:round;">
	<!ENTITY st1 "fill:none;stroke:#FB0F0C;stroke-width:5.1;stroke-linejoin:round;">
	<!ENTITY st2 "fill:none;stroke:#9A9999;stroke-width:5.1;stroke-linejoin:round;">
	<!ENTITY st3 "fill:none;stroke:#99280B;stroke-width:5.1;stroke-linejoin:round;">
		<!ENTITY st4 "fill:none;stroke:#000000;stroke-width:0.85;stroke-linecap:round;stroke-linejoin:round;stroke-dasharray:3 1.5;enable-background:new    ;">
	<!ENTITY st5 "fill:none;stroke:#000000;stroke-width:5.1;stroke-linejoin:round;">
	<!ENTITY st6 "fill:none;stroke:#199DBF;stroke-width:1.13;stroke-linejoin:round;">
	<!ENTITY st7 "fill:none;stroke:#000000;stroke-linecap:round;stroke-linejoin:round;">
	<!ENTITY st8 "fill:#1D63A2;">
	<!ENTITY st9 "stroke:#000000;stroke-width:0.28;stroke-linecap:round;stroke-linejoin:round;enable-background:new    ;">
	<!ENTITY st10 "enable-background:new    ;">
		<!ENTITY st11 "fill:none;stroke:#000000;stroke-width:1.42;stroke-linecap:round;stroke-linejoin:round;enable-background:new    ;">
	<!ENTITY st12 "fill:none;stroke:#EE67AA;stroke-width:5.1;stroke-linejoin:round;">
	<!ENTITY st13 "fill:none;stroke:#199DBF;stroke-width:5.1;stroke-linejoin:round;">
	<!ENTITY st14 "opacity:0.5;fill:none;stroke:#34ACCE;stroke-linejoin:round;stroke-dasharray:6;">
	<!ENTITY st15 "fill:none;stroke:#FFFFFF;stroke-width:4.53;stroke-linejoin:round;">
	<!ENTITY st16 "fill:#F6140D;">
		<!ENTITY st17 "fill:none;stroke:#000000;stroke-width:0.85;stroke-linecap:round;stroke-linejoin:round;enable-background:new    ;">
	<!ENTITY st18 "fill:none;stroke:#56107C;stroke-width:5.1;stroke-linejoin:round;">
	<!ENTITY st19 "font-size:6px;">
	<!ENTITY st20 "fill:none;stroke:#FFFFFF;stroke-width:2.27;stroke-linejoin:round;">
	<!ENTITY st21 "fill:none;stroke:#FB0F0C;stroke-width:1.13;stroke-linejoin:round;">
	<!ENTITY st22 "fill:none;stroke:#168638;stroke-width:5.1;stroke-linejoin:round;">
	<!ENTITY st23 "fill:none;stroke:#000000;stroke-width:1.13;stroke-linejoin:round;">
		<!ENTITY st24 "fill:none;stroke:#000000;stroke-width:1.13;stroke-linecap:round;stroke-linejoin:round;stroke-dasharray:3 1.5;enable-background:new    ;">
	<!ENTITY st25 "fill:#FFFFFF;stroke:#000000;stroke-width:1.41;stroke-linecap:round;stroke-linejoin:round;">
	<!ENTITY st26 "fill:none;stroke:#3E65AC;stroke-width:3;">
	<!ENTITY st27 "display:inline;">
	<!ENTITY st28 "fill:#CCCCCC;stroke:#CCCCCC;stroke-width:0.1;stroke-linecap:round;stroke-linejoin:round;">
	<!ENTITY st29 "stroke:#FFFFFF;stroke-width:2;">
	<!ENTITY st30 "fill:none;stroke:#000000;stroke-width:5.1;stroke-linejoin:round;enable-background:new    ;">
	<!ENTITY st31 "font-family:'Arial';">
	<!ENTITY st32 "opacity:0.5;fill:none;stroke:#34ACCE;stroke-linejoin:round;">
	<!ENTITY st33 "fill:#CFE6E7;stroke:#000000;stroke-width:1.133;stroke-linecap:round;stroke-linejoin:round;">
	<!ENTITY st34 "font-size:12px;">
	<!ENTITY st35 "fill:none;stroke:#99D5E0;stroke-width:5.1;stroke-linejoin:round;">
	<!ENTITY st36 "display:none;">
	<!ENTITY st37 "fill:none;stroke:#FFFFFF;stroke-width:1.13;stroke-linejoin:round;enable-background:new    ;">
	<!ENTITY st38 "fill:none;stroke:#7EC57E;stroke-width:5.1;stroke-linejoin:round;">
<!ATTLIST svg
xmlns:ewd CDATA #FIXED "http://shcl.co.jp/ewd"
xmlns:a CDATA #FIXED "http://ns.adobe.com/AdobeSVGViewerExtensions/3.0/"
ewd:ver CDATA #IMPLIED
>
<!ATTLIST a
ewd:lineID CDATA #IMPLIED
ewd:groupID CDATA #IMPLIED
ewd:figtype CDATA #IMPLIED
ewd:code CDATA #IMPLIED
ewd:figID CDATA #IMPLIED
ewd:pinNo CDATA #IMPLIED
ewd:comment CDATA #IMPLIED >
<!ATTLIST g
ewd:lineID CDATA #IMPLIED
ewd:groupID CDATA #IMPLIED
ewd:figtype CDATA #IMPLIED
ewd:code CDATA #IMPLIED
ewd:figID CDATA #IMPLIED
ewd:pinNo CDATA #IMPLIED
ewd:comment CDATA #IMPLIED >
<!ATTLIST text
ewd:textID CDATA #IMPLIED >
<!ATTLIST title
ewd:textID CDATA #IMPLIED >
]>
<svg 
viewBox='0 0 6236.63 729.44'
height='729.44'
width='6236.63'
xml:space="preserve"
xmlns="&ns_svg;"
xmlns:ewd="http://shcl.co.jp/ewd"
xmlns:xlink="&ns_xlink;" ewd:ver="L2.3">
<g ewd:code="CG2" ewd:figID="633" ewd:figtype="w2w" ewd:pinNo="20">
<path style="&st11;" d="M2455.36,464.48h8.5"/>
<path style="&st11;" d="M2459.61,455.41l4.25,4.25l4.25-4.25"/>
<path style="&st11;" d="M2468.11,458.81l-4.25,4.25l-4.25-4.25"/>
<text transform="matrix(1 0 0 1 2445.6855 470.6958)" style="&st10;"><tspan x="0" y="0" style="&st31; &st19;">20</tspan></text>
</g>
<g ewd:code="GA1" ewd:figID="632" ewd:figtype="w2w" ewd:pinNo="57">
<path style="&st11;" d="M2276.89,481.48h-8.5"/>
<path style="&st11;" d="M2272.64,490.54l-4.25-4.25l-4.25,4.25"/>
<path style="&st11;" d="M2272.64,487.14l-4.25-4.25l-4.25,4.25"/>
<text transform="matrix(1 0 0 1 2250.2256 479.1958)" style="&st10;"><tspan x="0" y="0" style="&st31; &st19;">57</tspan></text>
</g>
<g ewd:code="GA1" ewd:figID="631" ewd:figtype="w2w" ewd:pinNo="58">
<path style="&st11;" d="M2208.9,481.48h-8.49"/>
<path style="&st11;" d="M2204.65,490.54l-4.25-4.25l-4.25,4.25"/>
<path style="&st11;" d="M2204.65,487.14l-4.25-4.25l-4.25,4.25"/>
<text transform="matrix(1 0 0 1 2182.2354 479.1958)" style="&st10;"><tspan x="0" y="0" style="&st31; &st19;">58</tspan></text>
</g>
<g ewd:code="GQ1" ewd:figID="629" ewd:figtype="w2w" ewd:pinNo="1">
<path style="&st11;" d="M2047.43,583.46h-8.5"/>
<path style="&st11;" d="M2043.18,592.52l-4.25-4.25l-4.25,4.25"/>
<path style="&st11;" d="M2043.18,589.12l-4.25-4.25l-4.25,4.25"/>
<text transform="matrix(1 0 0 1 2024.0928 581.1763)" style="&st10;"><tspan x="0" y="0" style="&st31; &st19;">1</tspan></text>
</g>
<g ewd:code="CG1" ewd:figID="630" ewd:figtype="w2w" ewd:pinNo="6">
<path style="&st11;" d="M2123.92,472.98h8.5"/>
<path style="&st11;" d="M2136.66,467.31l-4.24,4.25l-4.25-4.25"/>
<path style="&st11;" d="M2128.17,463.91l4.25,4.25l4.24-4.25"/>
<text transform="matrix(1 0 0 1 2117.583 479.1958)" style="&st10;"><tspan x="0" y="0" style="&st31; &st19;">6</tspan></text>
</g>
<g ewd:code="257002" ewd:figID="502" ewd:figtype="sp">
<path style="&st11;" d="M2276.89,605.43l-4.97-4.97"/>
<path style="&st11;" d="M2259.9,612.48l4.96,4.97"/>
<path style="&st11;" d="M2271.92,617.45l4.97-4.97"/>
<path style="&st11;" d="M2264.87,600.46l-4.97,4.97"/>
</g>
<g ewd:code="2" ewd:figID="317" ewd:figtype="jb">
<path style="&st7;" d="M2357.63,447.48v42.49h25.49v-42.49H2357.63"/>
<path style="&st17;" d="M2370.38,481.48v25.49"/>
<path style="&st11;" d="M2372.5,506.97h-4.25"/>
<path style="&st11;" d="M2372.5,515.47h-4.25"/>
<path style="&st9;" d="M2370.38,502.08l-2.84-2.84v4.25l2.84,2.84l2.83-2.84v-4.25L2370.38,502.08"/>
<path style="&st11;" d="M2357.63,447.48v42.49h25.49v-42.49H2357.63"/>
<path style="&st11;" d="M2370.38,458.81c-2.74,1.62-3.65,5.14-2.04,7.88"/>
<path style="&st11;" d="M2368.34,466.69c0.52,0.88,1.15,1.52,2.04,2.04"/>
<path style="&st11;" d="M2370.38,478.64c2.73-1.61,3.65-5.14,2.03-7.88"/>
<path style="&st11;" d="M2372.41,470.76c-0.52-0.88-1.15-1.51-2.03-2.03"/>
<path style="&st17;" d="M2371.79,457.4c0-0.79-0.63-1.42-1.41-1.42"/>
<path style="&st17;" d="M2370.38,455.98c-0.79,0-1.42,0.63-1.42,1.42"/>
<path style="&st17;" d="M2368.96,457.4c0,0.78,0.63,1.41,1.42,1.41"/>
<path style="&st17;" d="M2370.38,458.81c0.78,0,1.41-0.63,1.41-1.41"/>
<path style="&st17;" d="M2371.79,480.06c0-0.78-0.63-1.42-1.41-1.42"/>
<path style="&st17;" d="M2370.38,478.64c-0.79,0-1.42,0.64-1.42,1.42"/>
<path style="&st17;" d="M2368.96,480.06c0,0.78,0.63,1.42,1.42,1.42"/>
<path style="&st17;" d="M2370.38,481.48c0.78,0,1.41-0.64,1.41-1.42"/>
<path style="&st11;" d="M2368.25,506.97c-2.34,0-4.25,1.9-4.25,4.25"/>
<path style="&st11;" d="M2364,511.22c0,2.35,1.91,4.25,4.25,4.25"/>
<path style="&st11;" d="M2372.5,515.47c2.35,0,4.25-1.9,4.25-4.25"/>
<path style="&st11;" d="M2376.75,511.22c0-2.35-1.9-4.25-4.25-4.25"/>
<text transform="matrix(1 0 0 1 2387.6797 465.0474)" style="&st10;"><tspan x="0" y="0" style="&st31; &st19;">10A</tspan></text>
<text transform="matrix(1 0 0 1 2387.6797 471.0474)" style="&st10;"><tspan x="0" y="0" style="&st31; &st19;">ECU-IG</tspan></text>
<text transform="matrix(1 0 0 1 2387.6797 477.0474)" style="&st10;"><tspan x="0" y="0" style="&st31; &st19;">NO.1</tspan></text>
<text transform="matrix(1 0 0 1 2366.0693 513.186)" style="&st10;"><tspan x="0" y="0" style="&st31; &st19;">2A</tspan></text>
<text transform="matrix(1 0 0 1 2354.5098 513.186)" style="&st10;"><tspan x="0" y="0" style="&st31; &st19;">31</tspan></text>
<text transform="matrix(1 0 0 1 2364.2998 443.7759)" style="&st10;"><tspan x="0" y="0" style="&st31; &st19;">(IG)</tspan></text>
</g>
<g ewd:code="4JB" ewd:figID="316" ewd:figtype="jb">
<path style="&st11;" d="M2041.06,481.48h-4.25"/>
<path style="&st11;" d="M2041.06,489.97h-4.25"/>
<path style="&st11;" d="M2041.06,523.97h-4.25"/>
<path style="&st11;" d="M2041.06,532.47h-4.25"/>
<path style="&st17;" d="M2038.93,523.97v-34"/>
<path style="&st9;" d="M2038.93,519.07l-2.83-2.83v4.25l2.83,2.83l2.83-2.83v-4.25L2038.93,519.07"/>
<path style="&st9;" d="M2038.93,494.87l2.83,2.83v-4.25l-2.83-2.83l-2.83,2.83v4.25L2038.93,494.87"/>
<path style="&st11;" d="M2036.81,481.48c-2.35,0-4.25,1.9-4.25,4.24"/>
<path style="&st11;" d="M2032.56,485.72c0,2.35,1.9,4.25,4.25,4.25"/>
<path style="&st11;" d="M2041.06,489.97c2.34,0,4.25-1.9,4.25-4.25"/>
<path style="&st11;" d="M2045.31,485.72c0-2.34-1.91-4.24-4.25-4.24"/>
<path style="&st11;" d="M2036.81,523.97c-2.35,0-4.25,1.9-4.25,4.25"/>
<path style="&st11;" d="M2032.56,528.22c0,2.34,1.9,4.25,4.25,4.25"/>
<path style="&st11;" d="M2041.06,532.47c2.34,0,4.25-1.91,4.25-4.25"/>
<text transform="matrix(1 0 0 1 2034.6191 487.686)" style="&st10;"><tspan x="0" y="0" style="&st31; &st19;">4A</tspan></text>
<text transform="matrix(1 0 0 1 2022.2891 487.686)" style="&st10;"><tspan x="0" y="0" style="&st31; &st19;">39</tspan></text>
<text transform="matrix(1 0 0 1 2034.6191 530.186)" style="&st10;"><tspan x="0" y="0" style="&st31; &st19;">4A</tspan></text>
<text transform="matrix(1 0 0 1 2022.2891 530.186)" style="&st10;"><tspan x="0" y="0" style="&st31; &st19;">27</tspan></text>
</g>
<g ewd:code="3JB" ewd:figID="318" ewd:figtype="jb">
<path style="&st11;" d="M2372.5,532.47h-4.25"/>
<path style="&st11;" d="M2372.5,540.97h-4.25"/>
<path style="&st11;" d="M2372.5,566.46h-4.25"/>
<path style="&st11;" d="M2372.5,574.96h-4.25"/>
<path style="&st9;" d="M2370.38,545.86l2.83,2.83v-4.25l-2.83-2.83l-2.84,2.83v4.25L2370.38,545.86"/>
<path style="&st9;" d="M2370.38,561.57l-2.84-2.84v4.25l2.84,2.84l2.83-2.84v-4.25L2370.38,561.57"/>
<path style="&st17;" d="M2370.38,566.46v-25.49"/>
<path style="&st11;" d="M2368.25,532.47c-2.34,0-4.25,1.9-4.25,4.25"/>
<path style="&st11;" d="M2364,536.72c0,2.34,1.91,4.25,4.25,4.25"/>
<path style="&st11;" d="M2372.5,540.97c2.35,0,4.25-1.91,4.25-4.25"/>
<path style="&st11;" d="M2376.75,536.72c0-2.35-1.9-4.25-4.25-4.25"/>
<path style="&st11;" d="M2368.25,566.46c-2.34,0-4.25,1.9-4.25,4.25"/>
<path style="&st11;" d="M2364,570.71c0,2.35,1.91,4.25,4.25,4.25"/>
<path style="&st11;" d="M2372.5,574.96c2.35,0,4.25-1.9,4.25-4.25"/>
<text transform="matrix(1 0 0 1 2366.0693 538.686)" style="&st10;"><tspan x="0" y="0" style="&st31; &st19;">3A</tspan></text>
<text transform="matrix(1 0 0 1 2353.7295 538.686)" style="&st10;"><tspan x="0" y="0" style="&st31; &st19;">76</tspan></text>
<text transform="matrix(1 0 0 1 2366.0693 572.6763)" style="&st10;"><tspan x="0" y="0" style="&st31; &st19;">3A</tspan></text>
<text transform="matrix(1 0 0 1 2353.7295 572.6763)" style="&st10;"><tspan x="0" y="0" style="&st31; &st19;">74</tspan></text>
</g>
<g ewd:code="4JB" ewd:figID="319" ewd:figtype="jb">
<path style="&st11;" d="M2372.5,600.46h-4.25"/>
<path style="&st11;" d="M2372.5,608.95h-4.25"/>
<path style="&st11;" d="M2372.5,634.45h-4.25"/>
<path style="&st11;" d="M2372.5,642.95h-4.25"/>
<path style="&st9;" d="M2370.38,613.85l2.83,2.83v-4.25l-2.83-2.83l-2.84,2.83v4.25L2370.38,613.85"/>
<path style="&st9;" d="M2370.38,629.55l-2.84-2.83v4.25l2.84,2.83l2.83-2.83v-4.25L2370.38,629.55"/>
<path style="&st17;" d="M2370.38,634.45v-25.5"/>
<path style="&st11;" d="M2368.25,600.46c-2.34,0-4.25,1.9-4.25,4.24"/>
<path style="&st11;" d="M2364,604.7c0,2.35,1.91,4.25,4.25,4.25"/>
<path style="&st11;" d="M2372.5,608.95c2.35,0,4.25-1.9,4.25-4.25"/>
<path style="&st11;" d="M2376.75,604.7c0-2.34-1.9-4.24-4.25-4.24"/>
<path style="&st11;" d="M2368.25,634.45c-2.34,0-4.25,1.9-4.25,4.25"/>
<path style="&st11;" d="M2364,638.7c0,2.35,1.91,4.25,4.25,4.25"/>
<path style="&st11;" d="M2372.5,642.95c2.35,0,4.25-1.9,4.25-4.25"/>
<text transform="matrix(1 0 0 1 2366.0693 606.6665)" style="&st10;"><tspan x="0" y="0" style="&st31; &st19;">4A</tspan></text>
<text transform="matrix(1 0 0 1 2353.7295 606.6665)" style="&st10;"><tspan x="0" y="0" style="&st31; &st19;">55</tspan></text>
<text transform="matrix(1 0 0 1 2366.0693 640.6665)" style="&st10;"><tspan x="0" y="0" style="&st31; &st19;">4B</tspan></text>
<text transform="matrix(1 0 0 1 2357.6895 640.6665)" style="&st10;"><tspan x="0" y="0" style="&st31; &st19;">8</tspan></text>
</g>
<g ewd:code="Q1" ewd:figID="207" ewd:figtype="gp">
<path style="&st17;" d="M2037.51,713.77h2.84"/>
<path style="&st17;" d="M2036.1,710.94h5.66"/>
<path style="&st17;" d="M2034.68,708.1h8.5"/>
<path style="&st17;" d="M2030.43,705.27h17"/>
<path style="&st17;" d="M2038.93,701.02v4.25"/>
</g>
<g ewd:code="C1" ewd:figID="208" ewd:figtype="gp">
<path style="&st17;" d="M2131,713.77h2.83"/>
<path style="&st17;" d="M2129.58,710.94h5.67"/>
<path style="&st17;" d="M2128.17,708.1h8.49"/>
<path style="&st17;" d="M2123.92,705.27h16.99"/>
<path style="&st17;" d="M2132.42,701.02v4.25"/>
</g>
<g ewd:code="C5" ewd:figID="209" ewd:figtype="gp">
<path style="&st17;" d="M2164.99,713.77h2.84"/>
<path style="&st17;" d="M2163.58,710.94h5.66"/>
<path style="&st17;" d="M2162.16,708.1h8.5"/>
<path style="&st17;" d="M2157.91,705.27h17"/>
<path style="&st17;" d="M2166.41,701.02v4.25"/>
</g>
<g ewd:code="A2" ewd:figID="210" ewd:figtype="gp">
<path style="&st17;" d="M2266.98,713.77h2.83"/>
<path style="&st17;" d="M2265.56,710.94h5.67"/>
<path style="&st17;" d="M2264.14,708.1h8.5"/>
<path style="&st17;" d="M2259.89,705.27h17"/>
<path style="&st17;" d="M2268.39,701.02v4.25"/>
</g>
<g ewd:code="C46" ewd:figID="49" ewd:figtype="conn">
<path style="&st11;" d="M2115.42,557.29h33.99V523.3h-33.99V557.29"/>
<text transform="matrix(0 -1 1 0 2157.0195 559.8208)" style="&st10;"><tspan x="0" y="0" style="&st31; &st19;">C46</tspan></text>
<text ewd:textID='58' transform='matrix(0 -1 1 0 2164.1299 559.8208)' style='&st10; &st31; &st19;'>Engine Oil Level Sensor</text>
<text transform="matrix(1 0 0 1 2126.3994 519.6099)" style="&st10;"><tspan x="0" y="0" style="&st31; &st19;">1</tspan></text>
<text transform="matrix(1 0 0 1 2126.1299 530.9302)" style="&st10;"><tspan x="0" y="0" style="&st31; &st19;">LVL</tspan></text>
<text transform="matrix(1 0 0 1 2130.0898 553.6001)" style="&st10;"><tspan x="0" y="0" style="&st31; &st19;">E</tspan></text>
<text transform="matrix(1 0 0 1 2125.6299 565.4907)" style="&st10;"><tspan x="0" y="0" style="&st31; &st19;">2</tspan></text>
</g>
<g ewd:code="A76" ewd:figID="50" ewd:figtype="conn">
<path style="&st11;" d="M2183.41,557.29h33.99V523.3h-33.99V557.29"/>
<text transform="matrix(0 -1 1 0 2225.0098 559.8208)" style="&st10;"><tspan x="0" y="0" style="&st31; &st19;">A76</tspan></text>
<text ewd:textID='66' transform='matrix(0 -1 1 0 2232.1191 559.8208)' style='&st10; &st31; &st19;'>Fuel Filter Warning Switch</text>
<text transform="matrix(1 0 0 1 2194.3896 519.6099)" style="&st10;"><tspan x="0" y="0" style="&st31; &st19;">1</tspan></text>
<text transform="matrix(1 0 0 1 2191.0098 530.9302)" style="&st10;"><tspan x="0" y="0" style="&st31; &st19;">FCHK</tspan></text>
<text transform="matrix(1 0 0 1 2198.0693 553.6001)" style="&st10;"><tspan x="0" y="0" style="&st31; &st19;">E</tspan></text>
<text transform="matrix(1 0 0 1 2193.6191 565.4907)" style="&st10;"><tspan x="0" y="0" style="&st31; &st19;">2</tspan></text>
</g>
<g ewd:code="A75" ewd:figID="51" ewd:figtype="conn">
<path style="&st11;" d="M2251.4,557.29h33.99V523.3h-33.99V557.29"/>
<text transform="matrix(0 -1 1 0 2293 559.8208)" style="&st10;"><tspan x="0" y="0" style="&st31; &st19;">A75</tspan></text>
<text ewd:textID='74' transform='matrix(0 -1 1 0 2300.1094 559.8208)' style='&st10; &st31; &st19;'>Level Warning Switch <tspan x='0' y='7' >(Fuel Filter Assembly)</tspan></text>
<text transform="matrix(1 0 0 1 2262.3799 519.6099)" style="&st10;"><tspan x="0" y="0" style="&st31; &st19;">1</tspan></text>
<text transform="matrix(1 0 0 1 2266.3799 530.9302)" style="&st10;"><tspan x="0" y="0" style="&st31; &st19;">+</tspan></text>
<text transform="matrix(1 0 0 1 2266.0596 553.6001)" style="&st10;"><tspan x="0" y="0" style="&st31; &st19;">E</tspan></text>
<text transform="matrix(1 0 0 1 2261.5996 565.4907)" style="&st10;"><tspan x="0" y="0" style="&st31; &st19;">2</tspan></text>
</g>
<g ewd:code="C41" ewd:figID="53" ewd:figtype="conn">
<path style="&st11;" d="M2463.86,533.21l5.67-22.66"/>
<path style="&st17;" d="M2463.86,540.3v-4.25"/>
<path style="&st17;" d="M2463.86,510.55v-4.25"/>
<path style="&st11;" d="M2472.36,540.3v-34h-17v34H2472.36"/>
<path style="&st17;" d="M2465.28,534.63c0-0.78-0.64-1.42-1.42-1.42"/>
<path style="&st17;" d="M2463.86,533.21c-0.78,0-1.42,0.64-1.42,1.42"/>
<path style="&st17;" d="M2462.44,534.63c0,0.78,0.64,1.42,1.42,1.42"/>
<path style="&st17;" d="M2463.86,536.05c0.78,0,1.42-0.64,1.42-1.42"/>
<path style="&st17;" d="M2465.28,511.97c0-0.79-0.64-1.42-1.42-1.42"/>
<path style="&st17;" d="M2463.86,510.55c-0.78,0-1.42,0.63-1.42,1.42"/>
<path style="&st17;" d="M2462.44,511.97c0,0.78,0.64,1.41,1.42,1.41"/>
<path style="&st17;" d="M2463.86,513.38c0.78,0,1.42-0.63,1.42-1.41"/>
<text transform="matrix(1 0 0 1 2457.8496 548.4907)" style="&st10;"><tspan x="0" y="0" style="&st31; &st19;">1</tspan></text>
<text transform="matrix(1 0 0 1 2457.0693 502.6099)" style="&st10;"><tspan x="0" y="0" style="&st31; &st19;">2</tspan></text>
<text ewd:textID='30' transform='matrix(0 -1 1 0 2487.0801 542.8208)' style='&st10; &st31; &st19;'>Back-Up Light <tspan x='0' y='7' >Switch Assembly</tspan></text>
<text transform="matrix(0 -1 1 0 2479.9697 542.8208)" style="&st10;"><tspan x="0" y="0" style="&st31; &st19;">C41</tspan></text>
</g>
<g ewd:code="C49,G107" ewd:figID="52" ewd:figtype="conn">
<path style="&st11;" d="M2455.36,599.79v25.49h17v-25.49H2455.36"/>
<path style="&st24;" d="M2455.36,608.28h17"/>
<path style="&st24;" d="M2455.36,616.78h17"/>
<path style="&st17;" d="M2463.86,599.79v25.49"/>
<path style="&st11;" d="M2468.39,595.25c0-2.5-2.03-4.53-4.53-4.53"/>
<path style="&st11;" d="M2463.86,590.72c-2.5,0-4.53,2.03-4.53,4.53"/>
<path style="&st11;" d="M2459.33,595.25c0,2.51,2.03,4.54,4.53,4.54"/>
<path style="&st11;" d="M2463.86,599.79c2.5,0,4.53-2.03,4.53-4.54"/>
<path style="&st11;" d="M2468.39,629.81c0-2.5-2.03-4.53-4.53-4.53"/>
<path style="&st11;" d="M2463.86,625.28c-2.5,0-4.53,2.03-4.53,4.53"/>
<path style="&st11;" d="M2459.33,629.81c0,2.51,2.03,4.54,4.53,4.54"/>
<path style="&st11;" d="M2463.86,634.35c2.5,0,4.53-2.03,4.53-4.54"/>
<text transform="matrix(1 0 0 1 2461.5293 597.2212)" style="&st10;"><tspan x="0" y="0" style="&st31; &st19;">A</tspan></text>
<text transform="matrix(1 0 0 1 2452.9795 597.2212)" style="&st10;"><tspan x="0" y="0" style="&st31; &st19;">3</tspan></text>
<text transform="matrix(1 0 0 1 2461.5293 631.7798)" style="&st10;"><tspan x="0" y="0" style="&st31; &st19;">B</tspan></text>
<text transform="matrix(1 0 0 1 2452.9795 631.7798)" style="&st10;"><tspan x="0" y="0" style="&st31; &st19;">8</tspan></text>
<text ewd:textID='73' transform='matrix(0 -1 1 0 2487.0801 627.811)' style='&st10; &st31; &st19;'>Junction <tspan x='0' y='7' >Connector</tspan></text>
<text transform="matrix(0 -1 1 0 2479.9697 627.811)" style="&st10;"><tspan x="0" y="0" style="&st31; &st19;">C49(A),G107(B)</tspan></text>
<text transform="matrix(1 0 0 1 2506.709 589.0103)" style="&st10;"><tspan x="0" y="0" style="&st31; &st19;">44</tspan></text>
</g>
<text transform="matrix(1 0 0 1 2061.959 18.8564)" style="&st10;"><tspan x="0" y="0" style="&st31; &st19;">R</tspan></text>
<text transform="matrix(1 0 0 1 2112.9492 18.8564)" style="&st10;"><tspan x="0" y="0" style="&st31; &st19;">R</tspan></text>
<text transform="matrix(0 -1 1 0 2140.0498 517.6372)" style="&st10;"><tspan x="0" y="0" style="&st31; &st19;">(*1,*3)</tspan></text>
<text transform="matrix(0 -1 1 0 2128.7197 509.7271)" style="&st10;"><tspan x="0" y="0" style="&st31; &st19;">G</tspan></text>
<text transform="matrix(0 -1 1 0 2140.0498 458.147)" style="&st10;"><tspan x="0" y="0" style="&st31; &st19;">(*1,*3)</tspan></text>
<text transform="matrix(0 -1 1 0 2128.7197 450.2368)" style="&st10;"><tspan x="0" y="0" style="&st31; &st19;">G</tspan></text>
<text transform="matrix(1 0 0 1 2376.3496 67.0068)" style="&st10;"><tspan x="0" y="0" style="&st31; &st19;">* 1 :1GR-FE</tspan></text>
<text transform="matrix(1 0 0 1 2376.3496 75.5068)" style="&st10;"><tspan x="0" y="0" style="&st31; &st19;">* 2 :2TR-FE</tspan></text>
<text transform="matrix(1 0 0 1 2376.3496 84.0068)" style="&st10;"><tspan x="0" y="0" style="&st31; &st19;">* 3 :1KD-FTV</tspan></text>
<text transform="matrix(1 0 0 1 2376.3496 92.5068)" style="&st10;"><tspan x="0" y="0" style="&st31; &st19;">* 4 :5L-E</tspan></text>
<text ewd:textID='10' transform='matrix(1 0 0 1 2376.3496 101.0068)' style='&st10; &st31; &st19;'>*14 :Diesel</text>
<text ewd:textID='12' transform='matrix(1 0 0 1 2376.3496 109.5068)' style='&st10; &st31; &st19;'>*16 :Except Optitron Meter</text>
<text transform="matrix(0 -1 1 0 2208.0391 513.147)" style="&st10;"><tspan x="0" y="0" style="&st31; &st19;">(*3)</tspan></text>
<text transform="matrix(0 -1 1 0 2196.709 509.2974)" style="&st10;"><tspan x="0" y="0" style="&st31; &st19;">V</tspan></text>
<text transform="matrix(0 -1 1 0 2208.0391 453.6567)" style="&st10;"><tspan x="0" y="0" style="&st31; &st19;">(*3)</tspan></text>
<text transform="matrix(0 -1 1 0 2196.709 449.8071)" style="&st10;"><tspan x="0" y="0" style="&st31; &st19;">V</tspan></text>
<text transform="matrix(0 -1 1 0 2276.0293 514.7368)" style="&st10;"><tspan x="0" y="0" style="&st31; &st19;">(*14)</tspan></text>
<text transform="matrix(0 -1 1 0 2264.6992 509.436)" style="&st10;"><tspan x="0" y="0" style="&st31; &st19;">R</tspan></text>
<text transform="matrix(0 -1 1 0 2276.0293 455.2466)" style="&st10;"><tspan x="0" y="0" style="&st31; &st19;">(*14)</tspan></text>
<text transform="matrix(0 -1 1 0 2264.6992 449.9458)" style="&st10;"><tspan x="0" y="0" style="&st31; &st19;">R</tspan></text>
<text transform="matrix(0 -1 1 0 2324.1895 449.4575)" style="&st10;"><tspan x="0" y="0" style="&st31; &st19;">L</tspan></text>
<text transform="matrix(0 -1 1 0 2335.5195 453.6567)" style="&st10;"><tspan x="0" y="0" style="&st31; &st19;">(*4)</tspan></text>
<text transform="matrix(0 -1 1 0 2035.2393 671.8872)" style="&st10;"><tspan x="0" y="0" style="&st31; &st19;">W-B</tspan></text>
<text transform="matrix(0 -1 1 0 2035.2393 561.4067)" style="&st10;"><tspan x="0" y="0" style="&st31; &st19;">W-B</tspan></text>
<text transform="matrix(0 -1 1 0 2035.2393 455.1763)" style="&st10;"><tspan x="0" y="0" style="&st31; &st19;">W-B</tspan></text>
<text transform="matrix(0 -1 1 0 2128.7197 671.8872)" style="&st10;"><tspan x="0" y="0" style="&st31; &st19;">W-B</tspan></text>
<text transform="matrix(0 -1 1 0 2140.0498 669.9868)" style="&st10;"><tspan x="0" y="0" style="&st31; &st19;">(*1)</tspan></text>
<text transform="matrix(0 -1 1 0 2162.7197 671.8872)" style="&st10;"><tspan x="0" y="0" style="&st31; &st19;">W-B</tspan></text>
<text transform="matrix(0 -1 1 0 2174.0498 670.3774)" style="&st10;"><tspan x="0" y="0" style="&st31; &st19;">(*3)</tspan></text>
<text transform="matrix(0 -1 1 0 2264.6992 671.8872)" style="&st10;"><tspan x="0" y="0" style="&st31; &st19;">W-B</tspan></text>
<text transform="matrix(0 -1 1 0 2276.0293 676.8364)" style="&st10;"><tspan x="0" y="0" style="&st31; &st19;">(*3,*14)</tspan></text>
<text transform="matrix(0 -1 1 0 2264.6992 586.9067)" style="&st10;"><tspan x="0" y="0" style="&st31; &st19;">W-B</tspan></text>
<text transform="matrix(0 -1 1 0 2276.0293 586.9771)" style="&st10;"><tspan x="0" y="0" style="&st31; &st19;">(*14)</tspan></text>
<text transform="matrix(0 -1 1 0 2196.709 586.9067)" style="&st10;"><tspan x="0" y="0" style="&st31; &st19;">W-B</tspan></text>
<text transform="matrix(0 -1 1 0 2208.0391 585.3872)" style="&st10;"><tspan x="0" y="0" style="&st31; &st19;">(*3)</tspan></text>
<text transform="matrix(0 -1 1 0 2329.8594 517.9575)" style="&st10;"><tspan x="0" y="0" style="&st31; &st19;">ECM</tspan></text>
<text transform="matrix(0 -1 1 0 2460.1699 568.9263)" style="&st10;"><tspan x="0" y="0" style="&st31; &st19;">R</tspan></text>
<text transform="matrix(0 -1 1 0 2471.5 574.8267)" style="&st10;"><tspan x="0" y="0" style="&st31; &st19;">(M/T)</tspan></text>
<text transform="matrix(0 -1 1 0 2460.1699 495.1958)" style="&st10;"><tspan x="0" y="0" style="&st31; &st19;">GR</tspan></text>
<text transform="matrix(0 -1 1 0 2471.5 498.3462)" style="&st10;"><tspan x="0" y="0" style="&st31; &st19;">(M/T)</tspan></text>
<text transform="matrix(0 -1 1 0 2046.5693 455.2466)" style="&st10;"><tspan x="0" y="0" style="&st31; &st19;">(*12)</tspan></text>
<text transform="matrix(0 -1 1 0 2046.5693 561.4771)" style="&st10;"><tspan x="0" y="0" style="&st31; &st19;">(*12)</tspan></text>
<text transform="matrix(0 -1 1 0 2046.5693 671.9673)" style="&st10;"><tspan x="0" y="0" style="&st31; &st19;">(*12)</tspan></text>
<text ewd:textID='17' transform='matrix(1 0 0 1 2376.3496 126.4966)' style='&st10; &st31; &st19;'>*22 :From Oct. 2010 Production</text>
<text ewd:textID='16' transform='matrix(1 0 0 1 2376.3496 118.0068)' style='&st10; &st31; &st19;'>*21 :Before Oct. 2010 Production</text>
<text ewd:textID='20' transform='matrix(1 0 0 1 2376.3496 134.9966)' style='&st10; &st31; &st19;'>*25 :For production through approximately Jan. 2011</text>
<text ewd:textID='21' transform='matrix(1 0 0 1 2376.3496 143.4966)' style='&st10; &st31; &st19;'>*26 :For production from approximately Jan. 2011</text>
<text transform="matrix(0 -1 1 0 2366.6797 526.7173)" style="&st10;"><tspan x="0" y="0" style="&st31; &st19;">G</tspan></text>
<text transform="matrix(0 -1 1 0 2366.6797 594.7075)" style="&st10;"><tspan x="0" y="0" style="&st31; &st19;">G</tspan></text>
<text transform="matrix(0 -1 1 0 2366.6797 665.1665)" style="&st10;"><tspan x="0" y="0" style="&st31; &st19;">GR</tspan></text>
<text transform="matrix(0 -1 1 0 2378.0098 668.3169)" style="&st10;"><tspan x="0" y="0" style="&st31; &st19;">(M/T)</tspan></text>
</svg>
