﻿<?xml version="1.0" encoding="UTF-8"?>
<!DOCTYPE svg PUBLIC "-//W3C//DTD SVG 1.0//EN" "http://www.w3.org/TR/2001/REC-SVG-20010904/DTD/svg10.dtd"[
<!ENTITY ns_flows "http://ns.adobe.com/Flows/1.0/">
<!ENTITY ns_svg "http://www.w3.org/2000/svg">
<!ENTITY ns_xlink "http://www.w3.org/1999/xlink">
	<!ENTITY st0 "fill:none;stroke:#FB0F0C;stroke-width:5.1;stroke-linejoin:round;">
	<!ENTITY st1 "fill:none;stroke:#9A9999;stroke-width:5.1;stroke-linejoin:round;">
		<!ENTITY st2 "fill:none;stroke:#000000;stroke-width:0.85;stroke-linecap:round;stroke-linejoin:round;stroke-dasharray:3 1.5;enable-background:new    ;">
	<!ENTITY st3 "fill:none;stroke:#000000;stroke-width:5.1;stroke-linejoin:round;">
	<!ENTITY st4 "fill:none;stroke:#000000;stroke-linecap:round;stroke-linejoin:round;">
	<!ENTITY st5 "stroke:#000000;stroke-width:0.28;stroke-linecap:round;stroke-linejoin:round;enable-background:new    ;">
	<!ENTITY st6 "enable-background:new    ;">
	<!ENTITY st7 "fill:none;stroke:#000000;stroke-width:1.3;">
		<!ENTITY st8 "fill:none;stroke:#000000;stroke-width:1.42;stroke-linecap:round;stroke-linejoin:round;enable-background:new    ;">
	<!ENTITY st9 "fill:none;stroke:#EE67AA;stroke-width:5.1;stroke-linejoin:round;">
	<!ENTITY st10 "fill:none;stroke:#FFFFFF;stroke-width:4;">
	<!ENTITY st11 "fill:none;stroke:#199DBF;stroke-width:5.1;stroke-linejoin:round;">
	<!ENTITY st12 "opacity:0.5;fill:none;stroke:#34ACCE;stroke-linejoin:round;stroke-dasharray:6;">
	<!ENTITY st13 "fill:none;stroke:#FFFFFF;stroke-width:4.53;stroke-linejoin:round;">
		<!ENTITY st14 "fill:none;stroke:#000000;stroke-width:0.85;stroke-linecap:round;stroke-linejoin:round;enable-background:new    ;">
	<!ENTITY st15 "fill:none;stroke:#56107C;stroke-width:5.1;stroke-linejoin:round;">
	<!ENTITY st16 "font-size:6px;">
	<!ENTITY st17 "fill:none;stroke:#FFFFFF;stroke-width:2.27;stroke-linejoin:round;">
	<!ENTITY st18 "fill:none;stroke:#168638;stroke-width:5.1;stroke-linejoin:round;">
	<!ENTITY st19 "fill:none;stroke:#000000;stroke-width:1.13;stroke-linejoin:round;">
		<!ENTITY st20 "fill:none;stroke:#000000;stroke-width:1.13;stroke-linecap:round;stroke-linejoin:round;stroke-dasharray:3 1.5;enable-background:new    ;">
	<!ENTITY st21 "fill:#FFFFFF;stroke:#000000;stroke-width:1.41;stroke-linecap:round;stroke-linejoin:round;">
	<!ENTITY st22 "fill:none;stroke:#000000;stroke-width:5;stroke-linejoin:round;">
	<!ENTITY st23 "fill:none;stroke:#3E65AC;stroke-width:3;">
	<!ENTITY st24 "fill:#CCCCCC;stroke:#CCCCCC;stroke-width:0.1;stroke-linecap:round;stroke-linejoin:round;">
	<!ENTITY st25 "font-family:'Arial';">
	<!ENTITY st26 "opacity:0.5;fill:none;stroke:#34ACCE;stroke-linejoin:round;">
	<!ENTITY st27 "fill:#CFE6E7;stroke:#000000;stroke-width:1.133;stroke-linecap:round;stroke-linejoin:round;">
	<!ENTITY st28 "fill:none;stroke:#99D5E0;stroke-width:5.1;stroke-linejoin:round;">
	<!ENTITY st29 "fill:none;stroke:#7EC57E;stroke-width:5.1;stroke-linejoin:round;">
<!ATTLIST svg
xmlns:ewd CDATA #FIXED "http://shcl.co.jp/ewd"
xmlns:a CDATA #FIXED "http://ns.adobe.com/AdobeSVGViewerExtensions/3.0/"
ewd:ver CDATA #IMPLIED
>
<!ATTLIST a
ewd:lineID CDATA #IMPLIED
ewd:groupID CDATA #IMPLIED
ewd:figtype CDATA #IMPLIED
ewd:code CDATA #IMPLIED
ewd:figID CDATA #IMPLIED
ewd:pinNo CDATA #IMPLIED
ewd:comment CDATA #IMPLIED >
<!ATTLIST g
ewd:lineID CDATA #IMPLIED
ewd:groupID CDATA #IMPLIED
ewd:figtype CDATA #IMPLIED
ewd:code CDATA #IMPLIED
ewd:figID CDATA #IMPLIED
ewd:pinNo CDATA #IMPLIED
ewd:comment CDATA #IMPLIED >
<!ATTLIST text
ewd:textID CDATA #IMPLIED >
<!ATTLIST title
ewd:textID CDATA #IMPLIED >
]>
<svg 
viewBox='0 0 8815.97 729.44'
height='729.44'
width='8815.97'
xml:space="preserve"
xmlns="&ns_svg;"
xmlns:ewd="http://shcl.co.jp/ewd"
xmlns:xlink="&ns_xlink;" ewd:ver="L2.3">
<g ewd:code="GR1" ewd:figID="666" ewd:figtype="w2w" ewd:pinNo="44">
<path style="&st8;" d="M7398.19,481.48h-8.5"/>
<path style="&st8;" d="M7393.94,487.14l-4.25-4.25l-4.25,4.25"/>
<path style="&st8;" d="M7393.94,490.54l-4.25-4.25l-4.25,4.25"/>
<text transform="matrix(1 0 0 1 7371.5293 479.1958)" style="&st6;"><tspan x="0" y="0" style="&st25; &st16;">44</tspan></text>
</g>
<g ewd:code="GR1" ewd:figID="665" ewd:figtype="w2w" ewd:pinNo="45">
<path style="&st8;" d="M7355.7,481.48h-8.5"/>
<path style="&st8;" d="M7351.45,487.14l-4.25-4.25l-4.25,4.25"/>
<path style="&st8;" d="M7351.45,490.54l-4.25-4.25l-4.25,4.25"/>
<text transform="matrix(1 0 0 1 7329.0293 479.1958)" style="&st6;"><tspan x="0" y="0" style="&st25; &st16;">45</tspan></text>
</g>
<g ewd:code="GR1" ewd:figID="664" ewd:figtype="w2w" ewd:pinNo="46">
<path style="&st8;" d="M7313.21,481.48h-8.5"/>
<path style="&st8;" d="M7308.96,487.14l-4.25-4.25l-4.25,4.25"/>
<path style="&st8;" d="M7308.96,490.54l-4.25-4.25l-4.25,4.25"/>
<text transform="matrix(1 0 0 1 7286.5391 479.1958)" style="&st6;"><tspan x="0" y="0" style="&st25; &st16;">46</tspan></text>
</g>
<g ewd:code="4JB" ewd:figID="325" ewd:figtype="jb">
<path style="&st8;" d="M7145.36,549.46h-4.25"/>
<path style="&st8;" d="M7145.36,557.96h-4.25"/>
<path style="&st8;" d="M7145.36,591.96h-4.25"/>
<path style="&st8;" d="M7145.36,600.46h-4.25"/>
<path style="&st14;" d="M7143.23,591.96v-34"/>
<path style="&st5;" d="M7143.23,587.06l-2.83-2.83v4.25l2.83,2.83l2.84-2.83v-4.25L7143.23,587.06"/>
<path style="&st5;" d="M7143.23,562.86l2.84,2.83v-4.25l-2.84-2.83l-2.83,2.83v4.25L7143.23,562.86"/>
<path style="&st8;" d="M7141.11,549.46c-2.35,0-4.25,1.91-4.25,4.25"/>
<path style="&st8;" d="M7136.86,553.71c0,2.35,1.9,4.25,4.25,4.25"/>
<path style="&st8;" d="M7145.36,557.96c2.35,0,4.25-1.9,4.25-4.25"/>
<path style="&st8;" d="M7149.61,553.71c0-2.34-1.9-4.25-4.25-4.25"/>
<path style="&st8;" d="M7141.11,591.96c-2.35,0-4.25,1.9-4.25,4.25"/>
<path style="&st8;" d="M7136.86,596.21c0,2.34,1.9,4.25,4.25,4.25"/>
<path style="&st8;" d="M7145.36,600.46c2.35,0,4.25-1.91,4.25-4.25"/>
<path style="&st8;" d="M7149.61,596.21c0-2.35-1.9-4.25-4.25-4.25"/>
<text transform="matrix(1 0 0 1 7138.9336 555.6763)" style="&st6;"><tspan x="0" y="0" style="&st25; &st16;">4A</tspan></text>
<text transform="matrix(1 0 0 1 7128.1426 555.6763)" style="&st6;"><tspan x="0" y="0" style="&st25; &st16;">11</tspan></text>
<text transform="matrix(1 0 0 1 7138.9336 598.1763)" style="&st6;"><tspan x="0" y="0" style="&st25; &st16;">4A</tspan></text>
<text transform="matrix(1 0 0 1 7126.5938 598.1763)" style="&st6;"><tspan x="0" y="0" style="&st25; &st16;">68</tspan></text>
</g>
<g ewd:code="3JB" ewd:figID="317" ewd:figtype="jb">
<path style="&st8;" d="M7119.86,192.52h-4.24"/>
<path style="&st8;" d="M7119.86,201.02h-4.24"/>
<path style="&st8;" d="M7119.86,235.02h-4.24"/>
<path style="&st8;" d="M7119.86,243.52h-4.24"/>
<path style="&st8;" d="M7170.86,192.52h-4.25"/>
<path style="&st8;" d="M7170.86,201.02h-4.25"/>
<path style="&st8;" d="M7170.86,235.02h-4.25"/>
<path style="&st8;" d="M7170.86,243.52h-4.25"/>
<path style="&st14;" d="M7168.73,235.02v-34"/>
<path style="&st5;" d="M7168.73,230.12l-2.83-2.83v4.25l2.83,2.83l2.83-2.83v-4.25L7168.73,230.12"/>
<path style="&st5;" d="M7168.73,205.92l2.83,2.83v-4.25l-2.83-2.83l-2.83,2.83v4.25L7168.73,205.92"/>
<path style="&st14;" d="M7117.74,235.02v-34"/>
<path style="&st5;" d="M7117.74,230.12l-2.84-2.83v4.25l2.84,2.83l2.83-2.83v-4.25L7117.74,230.12"/>
<path style="&st5;" d="M7117.74,205.92l2.83,2.83v-4.25l-2.83-2.83l-2.84,2.83v4.25L7117.74,205.92"/>
<path style="&st8;" d="M7115.62,192.52c-2.35,0-4.25,1.91-4.25,4.25"/>
<path style="&st8;" d="M7111.37,196.77c0,2.35,1.9,4.25,4.25,4.25"/>
<path style="&st8;" d="M7119.86,201.02c2.35,0,4.25-1.9,4.25-4.25"/>
<path style="&st8;" d="M7124.11,196.77c0-2.34-1.9-4.25-4.25-4.25"/>
<path style="&st8;" d="M7115.62,235.02c-2.35,0-4.25,1.9-4.25,4.25"/>
<path style="&st8;" d="M7111.37,239.27c0,2.34,1.9,4.25,4.25,4.25"/>
<path style="&st8;" d="M7119.86,243.52c2.35,0,4.25-1.91,4.25-4.25"/>
<path style="&st8;" d="M7124.11,239.27c0-2.35-1.9-4.25-4.25-4.25"/>
<path style="&st8;" d="M7166.61,192.52c-2.35,0-4.25,1.91-4.25,4.25"/>
<path style="&st8;" d="M7162.36,196.77c0,2.35,1.9,4.25,4.25,4.25"/>
<path style="&st8;" d="M7170.86,201.02c2.34,0,4.25-1.9,4.25-4.25"/>
<path style="&st8;" d="M7175.11,196.77c0-2.34-1.91-4.25-4.25-4.25"/>
<path style="&st8;" d="M7166.61,235.02c-2.35,0-4.25,1.9-4.25,4.25"/>
<path style="&st8;" d="M7162.36,239.27c0,2.34,1.9,4.25,4.25,4.25"/>
<path style="&st8;" d="M7170.86,243.52c2.34,0,4.25-1.91,4.25-4.25"/>
<path style="&st8;" d="M7175.11,239.27c0-2.35-1.91-4.25-4.25-4.25"/>
<text transform="matrix(1 0 0 1 7113.4336 198.7354)" style="&st6;"><tspan x="0" y="0" style="&st25; &st16;">3B</tspan></text>
<text transform="matrix(1 0 0 1 7101.0938 198.7354)" style="&st6;"><tspan x="0" y="0" style="&st25; &st16;">54</tspan></text>
<text transform="matrix(1 0 0 1 7113.4336 241.2354)" style="&st6;"><tspan x="0" y="0" style="&st25; &st16;">3A</tspan></text>
<text transform="matrix(1 0 0 1 7101.873 241.2354)" style="&st6;"><tspan x="0" y="0" style="&st25; &st16;">16</tspan></text>
<text transform="matrix(1 0 0 1 7164.4238 198.7354)" style="&st6;"><tspan x="0" y="0" style="&st25; &st16;">3B</tspan></text>
<text transform="matrix(1 0 0 1 7152.0938 198.7354)" style="&st6;"><tspan x="0" y="0" style="&st25; &st16;">56</tspan></text>
<text transform="matrix(1 0 0 1 7164.4238 241.2354)" style="&st6;"><tspan x="0" y="0" style="&st25; &st16;">3A</tspan></text>
<text transform="matrix(1 0 0 1 7152.8633 241.2354)" style="&st6;"><tspan x="0" y="0" style="&st25; &st16;">15</tspan></text>
</g>
<g ewd:code="4JB" ewd:figID="318" ewd:figtype="jb">
<path style="&st8;" d="M7119.86,294.51h-4.24"/>
<path style="&st8;" d="M7119.86,303.01h-4.24"/>
<path style="&st8;" d="M7119.86,337h-4.24"/>
<path style="&st8;" d="M7119.86,345.5h-4.24"/>
<path style="&st8;" d="M7170.86,294.51h-4.25"/>
<path style="&st8;" d="M7170.86,303.01h-4.25"/>
<path style="&st8;" d="M7170.86,337h-4.25"/>
<path style="&st8;" d="M7170.86,345.5h-4.25"/>
<path style="&st14;" d="M7168.73,337v-33.99"/>
<path style="&st5;" d="M7168.73,332.1l-2.83-2.83v4.25l2.83,2.83l2.83-2.83v-4.25L7168.73,332.1"/>
<path style="&st5;" d="M7168.73,307.9l2.83,2.83v-4.25l-2.83-2.83l-2.83,2.83v4.25L7168.73,307.9"/>
<path style="&st14;" d="M7117.74,337v-33.99"/>
<path style="&st5;" d="M7117.74,332.1l-2.84-2.83v4.25l2.84,2.83l2.83-2.83v-4.25L7117.74,332.1"/>
<path style="&st5;" d="M7117.74,307.9l2.83,2.83v-4.25l-2.83-2.83l-2.84,2.83v4.25L7117.74,307.9"/>
<path style="&st8;" d="M7115.62,294.51c-2.35,0-4.25,1.9-4.25,4.25"/>
<path style="&st8;" d="M7111.37,298.76c0,2.34,1.9,4.25,4.25,4.25"/>
<path style="&st8;" d="M7119.86,303.01c2.35,0,4.25-1.91,4.25-4.25"/>
<path style="&st8;" d="M7124.11,298.76c0-2.35-1.9-4.25-4.25-4.25"/>
<path style="&st8;" d="M7115.62,337c-2.35,0-4.25,1.9-4.25,4.25"/>
<path style="&st8;" d="M7111.37,341.25c0,2.35,1.9,4.25,4.25,4.25"/>
<path style="&st8;" d="M7119.86,345.5c2.35,0,4.25-1.9,4.25-4.25"/>
<path style="&st8;" d="M7124.11,341.25c0-2.35-1.9-4.25-4.25-4.25"/>
<path style="&st8;" d="M7166.61,294.51c-2.35,0-4.25,1.9-4.25,4.25"/>
<path style="&st8;" d="M7162.36,298.76c0,2.34,1.9,4.25,4.25,4.25"/>
<path style="&st8;" d="M7170.86,303.01c2.34,0,4.25-1.91,4.25-4.25"/>
<path style="&st8;" d="M7175.11,298.76c0-2.35-1.91-4.25-4.25-4.25"/>
<path style="&st8;" d="M7166.61,337c-2.35,0-4.25,1.9-4.25,4.25"/>
<path style="&st8;" d="M7162.36,341.25c0,2.35,1.9,4.25,4.25,4.25"/>
<path style="&st8;" d="M7170.86,345.5c2.34,0,4.25-1.9,4.25-4.25"/>
<path style="&st8;" d="M7175.11,341.25c0-2.35-1.91-4.25-4.25-4.25"/>
<text transform="matrix(1 0 0 1 7113.4336 300.7256)" style="&st6;"><tspan x="0" y="0" style="&st25; &st16;">4A</tspan></text>
<text transform="matrix(1 0 0 1 7101.873 300.7256)" style="&st6;"><tspan x="0" y="0" style="&st25; &st16;">19</tspan></text>
<text transform="matrix(1 0 0 1 7113.4336 343.2158)" style="&st6;"><tspan x="0" y="0" style="&st25; &st16;">4A</tspan></text>
<text transform="matrix(1 0 0 1 7105.0527 343.2158)" style="&st6;"><tspan x="0" y="0" style="&st25; &st16;">7</tspan></text>
<text transform="matrix(1 0 0 1 7164.4238 300.7256)" style="&st6;"><tspan x="0" y="0" style="&st25; &st16;">4A</tspan></text>
<text transform="matrix(1 0 0 1 7152.8633 300.7256)" style="&st6;"><tspan x="0" y="0" style="&st25; &st16;">21</tspan></text>
<text transform="matrix(1 0 0 1 7164.4238 343.2158)" style="&st6;"><tspan x="0" y="0" style="&st25; &st16;">4A</tspan></text>
<text transform="matrix(1 0 0 1 7156.043 343.2158)" style="&st6;"><tspan x="0" y="0" style="&st25; &st16;">9</tspan></text>
</g>
<g ewd:code="4JB" ewd:figID="326" ewd:figtype="jb">
<path style="&st8;" d="M7459.81,549.46h-4.25"/>
<path style="&st8;" d="M7459.81,557.96h-4.25"/>
<path style="&st8;" d="M7459.81,591.96h-4.25"/>
<path style="&st8;" d="M7459.81,600.46h-4.25"/>
<path style="&st5;" d="M7457.68,562.86l2.83,2.83v-4.25l-2.83-2.83l-2.83,2.83v4.25L7457.68,562.86"/>
<path style="&st5;" d="M7457.68,587.06l-2.83-2.83v4.25l2.83,2.83l2.83-2.83v-4.25L7457.68,587.06"/>
<path style="&st14;" d="M7457.68,591.96v-34"/>
<path style="&st8;" d="M7455.56,549.46c-2.35,0-4.25,1.91-4.25,4.25"/>
<path style="&st8;" d="M7451.31,553.71c0,2.35,1.9,4.25,4.25,4.25"/>
<path style="&st8;" d="M7459.81,557.96c2.34,0,4.25-1.9,4.25-4.25"/>
<path style="&st8;" d="M7464.06,553.71c0-2.34-1.91-4.25-4.25-4.25"/>
<path style="&st8;" d="M7455.56,591.96c-2.35,0-4.25,1.9-4.25,4.25"/>
<path style="&st8;" d="M7451.31,596.21c0,2.34,1.9,4.25,4.25,4.25"/>
<path style="&st8;" d="M7459.81,600.46c2.34,0,4.25-1.91,4.25-4.25"/>
<path style="&st8;" d="M7464.06,596.21c0-2.35-1.91-4.25-4.25-4.25"/>
<text transform="matrix(1 0 0 1 7453.2324 555.6763)" style="&st6;"><tspan x="0" y="0" style="&st25; &st16;">4C</tspan></text>
<text transform="matrix(1 0 0 1 7441.043 555.6763)" style="&st6;"><tspan x="0" y="0" style="&st25; &st16;">22</tspan></text>
<text transform="matrix(1 0 0 1 7453.373 598.1763)" style="&st6;"><tspan x="0" y="0" style="&st25; &st16;">4A</tspan></text>
<text transform="matrix(1 0 0 1 7441.043 598.1763)" style="&st6;"><tspan x="0" y="0" style="&st25; &st16;">68</tspan></text>
</g>
<g ewd:code="2" ewd:figID="327" ewd:figtype="jb">
<path style="&st8;" d="M7232.51,124.54h-4.24"/>
<path style="&st8;" d="M7232.51,116.04h-4.24"/>
<path style="&st14;" d="M7230.39,116.04v-34"/>
<path style="&st5;" d="M7230.39,111.14l-2.84-2.83v4.25l2.84,2.83l2.83-2.83v-4.25L7230.39,111.14"/>
<path style="&st8;" d="M7236.76,120.29c0-2.35-1.9-4.25-4.25-4.25"/>
<path style="&st8;" d="M7232.51,124.54c2.35,0,4.25-1.91,4.25-4.25"/>
<path style="&st8;" d="M7224.02,120.29c0,2.34,1.9,4.25,4.25,4.25"/>
<path style="&st8;" d="M7228.27,116.04c-2.35,0-4.25,1.9-4.25,4.25"/>
<text transform="matrix(1 0 0 1 7220.6035 90.2354)" style="&st6;"><tspan x="0" y="0" style="&st25; &st16;">18</tspan></text>
<text transform="matrix(1 0 0 1 7213.7422 122.2559)" style="&st6;"><tspan x="0" y="0" style="&st25; &st16;">13</tspan></text>
<text transform="matrix(1 0 0 1 7225.9434 122.2559)" style="&st6;"><tspan x="0" y="0" style="&st25; &st16;">2D</tspan></text>
</g>
<g ewd:code="G5" ewd:figID="214" ewd:figtype="gp">
<path style="&st14;" d="M7140.4,710.94h5.67"/>
<path style="&st14;" d="M7141.82,713.77h2.83"/>
<path style="&st14;" d="M7134.73,705.27h17"/>
<path style="&st14;" d="M7143.23,701.02v4.25"/>
<path style="&st14;" d="M7138.98,708.1h8.5"/>
</g>
<g ewd:code="R2" ewd:figID="215" ewd:figtype="gp">
<path style="&st14;" d="M7304.71,701.02v4.25"/>
<path style="&st14;" d="M7296.21,705.27h16.99"/>
<path style="&st14;" d="M7300.46,708.1h8.5"/>
<path style="&st14;" d="M7301.87,710.94h5.67"/>
<path style="&st14;" d="M7303.29,713.77h2.83"/>
</g>
<g ewd:code="G5" ewd:figID="216" ewd:figtype="gp">
<path style="&st14;" d="M7457.68,701.02v4.25"/>
<path style="&st14;" d="M7449.18,705.27h17"/>
<path style="&st14;" d="M7453.43,708.1h8.5"/>
<path style="&st14;" d="M7454.85,710.94h5.66"/>
<path style="&st14;" d="M7456.26,713.77h2.84"/>
</g>
<g ewd:code="G106" ewd:figID="81" ewd:figtype="conn">
<path style="&st14;" d="M7457.68,659.95v25.49"/>
<path style="&st8;" d="M7449.18,659.95h17v16.99h-17V659.95"/>
<text transform="matrix(1 0 0 1 7450.8926 656.2563)" style="&st6;"><tspan x="0" y="0" style="&st25; &st16;">3</tspan></text>
<text transform="matrix(1 0 0 1 7469.3242 661.8853)" style="&st6;"><tspan x="0" y="0" style="&st25; &st16;">G106</tspan></text>
<text ewd:textID='49' transform='matrix(1 0 0 1 7469.3242 668.9966)' style='&st6; &st25; &st16;'>Junction Connector</text>
</g>
<g ewd:code="R31" ewd:figID="80" ewd:figtype="conn">
<path style="&st8;" d="M7296.21,659.95h16.99v16.99h-16.99V659.95"/>
<path style="&st14;" d="M7304.71,659.95v25.49"/>
<text transform="matrix(1 0 0 1 7298.7031 656.2563)" style="&st6;"><tspan x="0" y="0" style="&st25; &st16;">1</tspan></text>
<text ewd:textID='49' transform='matrix(1 0 0 1 7316.3535 668.9966)' style='&st6; &st25; &st16;'>Junction Connector</text>
<text transform="matrix(1 0 0 1 7316.3535 661.8853)" style="&st6;"><tspan x="0" y="0" style="&st25; &st16;">R31</tspan></text>
</g>
<g ewd:code="R17" ewd:figID="79" ewd:figtype="conn">
<path style="&st8;" d="M7287.71,549.46v34h118.98v-34H7287.71"/>
<text transform="matrix(1 0 0 1 7297.0137 579.7563)" style="&st6;"><tspan x="0" y="0" style="&st25; &st16;">GND</tspan></text>
<text ewd:textID='29' transform='matrix(1 0 0 1 7319.1836 598.1763)' style='&st6; &st25; &st16;'>Door Control Receiver</text>
<text transform="matrix(1 0 0 1 7319.1836 591.0649)" style="&st6;"><tspan x="0" y="0" style="&st25; &st16;">R17</tspan></text>
<text transform="matrix(1 0 0 1 7382.9141 545.7661)" style="&st6;"><tspan x="0" y="0" style="&st25; &st16;">2</tspan></text>
<text transform="matrix(1 0 0 1 7381.5742 557.0962)" style="&st6;"><tspan x="0" y="0" style="&st25; &st16;">RSSI</tspan></text>
<text transform="matrix(1 0 0 1 7340.4141 545.7661)" style="&st6;"><tspan x="0" y="0" style="&st25; &st16;">5</tspan></text>
<text transform="matrix(1 0 0 1 7337.9531 557.0962)" style="&st6;"><tspan x="0" y="0" style="&st25; &st16;">DATA</tspan></text>
<text transform="matrix(1 0 0 1 7297.9238 545.7661)" style="&st6;"><tspan x="0" y="0" style="&st25; &st16;">4</tspan></text>
<text transform="matrix(1 0 0 1 7300.7227 557.0962)" style="&st6;"><tspan x="0" y="0" style="&st25; &st16;">+5</tspan></text>
<text transform="matrix(1 0 0 1 7298.7031 591.645)" style="&st6;"><tspan x="0" y="0" style="&st25; &st16;">1</tspan></text>
</g>
<g ewd:code="G106" ewd:figID="78" ewd:figtype="conn">
<path style="&st14;" d="M7143.23,659.95v25.49"/>
<path style="&st8;" d="M7134.73,659.95v16.99h17v-16.99H7134.73"/>
<text ewd:textID='49' transform='matrix(1 0 0 1 7154.8828 670.4048)' style='&st6; &st25; &st16;'>Junction Connector</text>
<text transform="matrix(1 0 0 1 7154.8828 663.3052)" style="&st6;"><tspan x="0" y="0" style="&st25; &st16;">G106</tspan></text>
<text transform="matrix(1 0 0 1 7136.4434 656.2563)" style="&st6;"><tspan x="0" y="0" style="&st25; &st16;">3</tspan></text>
</g>
<g ewd:code="G97,G134" ewd:figID="35" ewd:figtype="conn">
<path style="&st14;" d="M7338.7,269.01v25.5"/>
<path style="&st14;" d="M7304.71,269.01v25.5"/>
<path style="&st8;" d="M7296.21,269.01v25.5h271.95v-25.5H7296.21"/>
<path style="&st14;" d="M7304.71,286.01h220.96v8.5"/>
<path style="&st14;" d="M7338.7,277.51h220.96v17"/>
<path style="&st14;" d="M7337.51,276.51l-0.27,0.47l-0.1,0.53l0.1,0.53l0.27,0.47l0.41,0.35l0.51,0.19h0.54l0.51-0.19l0.41-0.35l0.27-0.47l0.1-0.53l-0.1-0.53l-0.27-0.47l-0.41-0.35l-0.51-0.19h-0.54l-0.51,0.19L7337.51,276.51l0.39,0.71v0.58l0.38,0.45l0.57,0.1l0.5-0.29l0.2-0.55l-0.2-0.55l-0.5-0.29l-0.57,0.1l0.42,0.74"/>
<path style="&st14;" d="M7303.51,285.01l-0.27,0.47l-0.09,0.53l0.09,0.53l0.27,0.47l0.42,0.35l0.51,0.18h0.53l0.51-0.18l0.42-0.35l0.27-0.47l0.09-0.53l-0.09-0.53l-0.27-0.47l-0.42-0.35l-0.51-0.19h-0.53l-0.51,0.19L7303.51,285.01l0.4,0.71v0.58l0.37,0.44l0.57,0.1l0.51-0.28l0.2-0.55l-0.2-0.55l-0.51-0.29l-0.57,0.1l0.43,0.74"/>
<path style="&st8;" d="M7309.24,255.41c0-2.5-2.03-4.53-4.53-4.53"/>
<path style="&st8;" d="M7304.71,250.88c-2.5,0-4.53,2.03-4.53,4.53"/>
<path style="&st8;" d="M7300.18,255.41c0,2.51,2.03,4.54,4.53,4.54"/>
<path style="&st8;" d="M7304.71,259.95c2.5,0,4.53-2.03,4.53-4.54"/>
<path style="&st8;" d="M7309.24,264.48c0-2.5-2.03-4.53-4.53-4.53"/>
<path style="&st8;" d="M7304.71,259.95c-2.5,0-4.53,2.03-4.53,4.53"/>
<path style="&st8;" d="M7300.18,264.48c0,2.5,2.03,4.53,4.53,4.53"/>
<path style="&st8;" d="M7304.71,269.01c2.5,0,4.53-2.03,4.53-4.53"/>
<path style="&st8;" d="M7343.24,255.41c0-2.5-2.03-4.53-4.54-4.53"/>
<path style="&st8;" d="M7338.7,250.88c-2.5,0-4.53,2.03-4.53,4.53"/>
<path style="&st8;" d="M7334.17,255.41c0,2.51,2.03,4.54,4.53,4.54"/>
<path style="&st8;" d="M7338.7,259.95c2.51,0,4.54-2.03,4.54-4.54"/>
<path style="&st8;" d="M7343.24,264.48c0-2.5-2.03-4.53-4.54-4.53"/>
<path style="&st8;" d="M7338.7,259.95c-2.5,0-4.53,2.03-4.53,4.53"/>
<path style="&st8;" d="M7334.17,264.48c0,2.5,2.03,4.53,4.53,4.53"/>
<path style="&st8;" d="M7338.7,269.01c2.51,0,4.54-2.03,4.54-4.53"/>
<path style="&st8;" d="M7309.24,308.1c0-2.5-2.03-4.53-4.53-4.53"/>
<path style="&st8;" d="M7304.71,303.57c-2.5,0-4.53,2.03-4.53,4.53"/>
<path style="&st8;" d="M7300.18,308.1c0,2.51,2.03,4.54,4.53,4.54"/>
<path style="&st8;" d="M7304.71,312.64c2.5,0,4.53-2.03,4.53-4.54"/>
<path style="&st8;" d="M7309.24,299.04c0-2.5-2.03-4.53-4.53-4.53"/>
<path style="&st8;" d="M7304.71,294.51c-2.5,0-4.53,2.03-4.53,4.53"/>
<path style="&st8;" d="M7300.18,299.04c0,2.5,2.03,4.53,4.53,4.53"/>
<path style="&st8;" d="M7304.71,303.57c2.5,0,4.53-2.03,4.53-4.53"/>
<path style="&st8;" d="M7343.24,308.1c0-2.5-2.03-4.53-4.54-4.53"/>
<path style="&st8;" d="M7338.7,303.57c-2.5,0-4.53,2.03-4.53,4.53"/>
<path style="&st8;" d="M7334.17,308.1c0,2.51,2.03,4.54,4.53,4.54"/>
<path style="&st8;" d="M7338.7,312.64c2.51,0,4.54-2.03,4.54-4.54"/>
<path style="&st8;" d="M7343.24,299.04c0-2.5-2.03-4.53-4.54-4.53"/>
<path style="&st8;" d="M7338.7,294.51c-2.5,0-4.53,2.03-4.53,4.53"/>
<path style="&st8;" d="M7334.17,299.04c0,2.5,2.03,4.53,4.53,4.53"/>
<path style="&st8;" d="M7338.7,303.57c2.51,0,4.54-2.03,4.54-4.53"/>
<path style="&st8;" d="M7530.2,308.1c0-2.5-2.02-4.53-4.53-4.53"/>
<path style="&st8;" d="M7525.67,303.57c-2.5,0-4.53,2.03-4.53,4.53"/>
<path style="&st8;" d="M7521.14,308.1c0,2.51,2.03,4.54,4.53,4.54"/>
<path style="&st8;" d="M7525.67,312.64c2.51,0,4.53-2.03,4.53-4.54"/>
<path style="&st8;" d="M7530.2,299.04c0-2.5-2.02-4.53-4.53-4.53"/>
<path style="&st8;" d="M7525.67,294.51c-2.5,0-4.53,2.03-4.53,4.53"/>
<path style="&st8;" d="M7521.14,299.04c0,2.5,2.03,4.53,4.53,4.53"/>
<path style="&st8;" d="M7525.67,303.57c2.51,0,4.53-2.03,4.53-4.53"/>
<path style="&st8;" d="M7564.2,308.1c0-2.5-2.03-4.53-4.53-4.53"/>
<path style="&st8;" d="M7559.67,303.57c-2.51,0-4.54,2.03-4.54,4.53"/>
<path style="&st8;" d="M7555.13,308.1c0,2.51,2.03,4.54,4.54,4.54"/>
<path style="&st8;" d="M7559.67,312.64c2.5,0,4.53-2.03,4.53-4.54"/>
<path style="&st8;" d="M7564.2,299.04c0-2.5-2.03-4.53-4.53-4.53"/>
<path style="&st8;" d="M7559.67,294.51c-2.51,0-4.54,2.03-4.54,4.53"/>
<path style="&st8;" d="M7555.13,299.04c0,2.5,2.03,4.53,4.54,4.53"/>
<path style="&st8;" d="M7559.67,303.57c2.5,0,4.53-2.03,4.53-4.53"/>
<text transform="matrix(1 0 0 1 7523.3438 310.0654)" style="&st6;"><tspan x="0" y="0" style="&st25; &st16;">B</tspan></text>
<text transform="matrix(1 0 0 1 7511.623 310.0654)" style="&st6;"><tspan x="0" y="0" style="&st25; &st16;">13</tspan></text>
<text transform="matrix(1 0 0 1 7523.3438 301.0059)" style="&st6;"><tspan x="0" y="0" style="&st25; &st16;">A</tspan></text>
<text transform="matrix(1 0 0 1 7511.623 301.0059)" style="&st6;"><tspan x="0" y="0" style="&st25; &st16;">17</tspan></text>
<text transform="matrix(1 0 0 1 7557.334 310.0654)" style="&st6;"><tspan x="0" y="0" style="&st25; &st16;">B</tspan></text>
<text transform="matrix(1 0 0 1 7548.793 310.0654)" style="&st6;"><tspan x="0" y="0" style="&st25; &st16;">2</tspan></text>
<text transform="matrix(1 0 0 1 7565.6426 310.0654)" style="&st6;"><tspan x="0" y="0" style="&st25; &st16;">(RHD)</tspan></text>
<text transform="matrix(1 0 0 1 7557.334 301.0059)" style="&st6;"><tspan x="0" y="0" style="&st25; &st16;">A</tspan></text>
<text transform="matrix(1 0 0 1 7548.793 301.0059)" style="&st6;"><tspan x="0" y="0" style="&st25; &st16;">6</tspan></text>
<text transform="matrix(1 0 0 1 7565.6426 301.0059)" style="&st6;"><tspan x="0" y="0" style="&st25; &st16;">(LHD)</tspan></text>
<text transform="matrix(1 0 0 1 7302.3828 257.3755)" style="&st6;"><tspan x="0" y="0" style="&st25; &st16;">A</tspan></text>
<text transform="matrix(1 0 0 1 7290.6543 257.3755)" style="&st6;"><tspan x="0" y="0" style="&st25; &st16;">12</tspan></text>
<text transform="matrix(1 0 0 1 7302.3828 266.4458)" style="&st6;"><tspan x="0" y="0" style="&st25; &st16;">B</tspan></text>
<text transform="matrix(1 0 0 1 7290.6543 266.4458)" style="&st6;"><tspan x="0" y="0" style="&st25; &st16;">12</tspan></text>
<text transform="matrix(1 0 0 1 7336.373 257.3755)" style="&st6;"><tspan x="0" y="0" style="&st25; &st16;">A</tspan></text>
<text transform="matrix(1 0 0 1 7328.6035 257.3755)" style="&st6;"><tspan x="0" y="0" style="&st25; &st16;">1</tspan></text>
<text transform="matrix(1 0 0 1 7344.6836 257.3755)" style="&st6;"><tspan x="0" y="0" style="&st25; &st16;">(LHD)</tspan></text>
<text transform="matrix(1 0 0 1 7336.373 266.4458)" style="&st6;"><tspan x="0" y="0" style="&st25; &st16;">B</tspan></text>
<text transform="matrix(1 0 0 1 7328.6035 266.4458)" style="&st6;"><tspan x="0" y="0" style="&st25; &st16;">1</tspan></text>
<text transform="matrix(1 0 0 1 7344.6836 266.4458)" style="&st6;"><tspan x="0" y="0" style="&st25; &st16;">(RHD)</tspan></text>
<text transform="matrix(1 0 0 1 7302.3828 310.0654)" style="&st6;"><tspan x="0" y="0" style="&st25; &st16;">B</tspan></text>
<text transform="matrix(1 0 0 1 7290.6543 310.0654)" style="&st6;"><tspan x="0" y="0" style="&st25; &st16;">17</tspan></text>
<text transform="matrix(1 0 0 1 7302.3828 301.0059)" style="&st6;"><tspan x="0" y="0" style="&st25; &st16;">A</tspan></text>
<text transform="matrix(1 0 0 1 7290.6543 301.0059)" style="&st6;"><tspan x="0" y="0" style="&st25; &st16;">14</tspan></text>
<text transform="matrix(1 0 0 1 7336.373 310.0654)" style="&st6;"><tspan x="0" y="0" style="&st25; &st16;">B</tspan></text>
<text transform="matrix(1 0 0 1 7327.834 310.0654)" style="&st6;"><tspan x="0" y="0" style="&st25; &st16;">6</tspan></text>
<text transform="matrix(1 0 0 1 7336.373 301.0059)" style="&st6;"><tspan x="0" y="0" style="&st25; &st16;">A</tspan></text>
<text transform="matrix(1 0 0 1 7327.834 301.0059)" style="&st6;"><tspan x="0" y="0" style="&st25; &st16;">3</tspan></text>
<text transform="matrix(1 0 0 1 7344.6836 310.0654)" style="&st6;"><tspan x="0" y="0" style="&st25; &st16;">(RHD)</tspan></text>
<text transform="matrix(1 0 0 1 7344.6836 301.0059)" style="&st6;"><tspan x="0" y="0" style="&st25; &st16;">(LHD)</tspan></text>
<text ewd:textID='49' transform='matrix(1 0 0 1 7387.1738 265.3057)' style='&st6; &st25; &st16;'>Junction Connector</text>
<text transform="matrix(1 0 0 1 7387.1738 258.2056)" style="&st6;"><tspan x="0" y="0" style="&st25; &st16;">G97(A),G134(B)</tspan></text>
</g>
<g ewd:code="G38-A,G39-B" ewd:figID="34" ewd:figtype="conn">
<path style="&st8;" d="M7287.71,421.99v-51h118.98v51H7287.71"/>
<path style="&st8;" d="M7309.24,366.46c0-2.5-2.03-4.53-4.53-4.53"/>
<path style="&st8;" d="M7304.71,361.93c-2.5,0-4.53,2.03-4.53,4.53"/>
<path style="&st8;" d="M7300.18,366.46c0,2.5,2.03,4.53,4.53,4.53"/>
<path style="&st8;" d="M7304.71,370.99c2.5,0,4.53-2.03,4.53-4.53"/>
<path style="&st8;" d="M7343.24,366.46c0-2.5-2.03-4.53-4.54-4.53"/>
<path style="&st8;" d="M7338.7,361.93c-2.5,0-4.53,2.03-4.53,4.53"/>
<path style="&st8;" d="M7334.17,366.46c0,2.5,2.03,4.53,4.53,4.53"/>
<path style="&st8;" d="M7338.7,370.99c2.51,0,4.54-2.03,4.54-4.53"/>
<path style="&st8;" d="M7394.23,426.52c0-2.51-2.03-4.53-4.54-4.53"/>
<path style="&st8;" d="M7389.69,421.99c-2.5,0-4.53,2.02-4.53,4.53"/>
<path style="&st8;" d="M7385.16,426.52c0,2.5,2.03,4.53,4.53,4.53"/>
<path style="&st8;" d="M7389.69,431.05c2.51,0,4.54-2.03,4.54-4.53"/>
<path style="&st8;" d="M7351.73,426.52c0-2.51-2.03-4.53-4.53-4.53"/>
<path style="&st8;" d="M7347.2,421.99c-2.5,0-4.53,2.02-4.53,4.53"/>
<path style="&st8;" d="M7342.67,426.52c0,2.5,2.03,4.53,4.53,4.53"/>
<path style="&st8;" d="M7347.2,431.05c2.5,0,4.53-2.03,4.53-4.53"/>
<path style="&st8;" d="M7309.24,426.52c0-2.51-2.03-4.53-4.53-4.53"/>
<path style="&st8;" d="M7304.71,421.99c-2.5,0-4.53,2.02-4.53,4.53"/>
<path style="&st8;" d="M7300.18,426.52c0,2.5,2.03,4.53,4.53,4.53"/>
<path style="&st8;" d="M7304.71,431.05c2.5,0,4.53-2.03,4.53-4.53"/>
<path style="&st8;" d="M7394.23,366.46c0-2.5-2.03-4.53-4.54-4.53"/>
<path style="&st8;" d="M7389.69,361.93c-2.5,0-4.53,2.03-4.53,4.53"/>
<path style="&st8;" d="M7385.16,366.46c0,2.5,2.03,4.53,4.53,4.53"/>
<path style="&st8;" d="M7389.69,370.99c2.51,0,4.54-2.03,4.54-4.53"/>
<text transform="matrix(1 0 0 1 7381.5742 418.2856)" style="&st6;"><tspan x="0" y="0" style="&st25; &st16;">RSSI</tspan></text>
<text transform="matrix(1 0 0 1 7375.6738 428.4849)" style="&st6;"><tspan x="0" y="0" style="&st25; &st16;">16</tspan></text>
<text transform="matrix(1 0 0 1 7387.3633 428.4849)" style="&st6;"><tspan x="0" y="0" style="&st25; &st16;">B</tspan></text>
<text transform="matrix(1 0 0 1 7339.9336 418.2856)" style="&st6;"><tspan x="0" y="0" style="&st25; &st16;">RDA</tspan></text>
<text transform="matrix(1 0 0 1 7333.1738 428.4849)" style="&st6;"><tspan x="0" y="0" style="&st25; &st16;">15</tspan></text>
<text transform="matrix(1 0 0 1 7344.873 428.4849)" style="&st6;"><tspan x="0" y="0" style="&st25; &st16;">B</tspan></text>
<text transform="matrix(1 0 0 1 7297.0137 418.2856)" style="&st6;"><tspan x="0" y="0" style="&st25; &st16;">RCO</tspan></text>
<text transform="matrix(1 0 0 1 7293.8633 428.4849)" style="&st6;"><tspan x="0" y="0" style="&st25; &st16;">5</tspan></text>
<text transform="matrix(1 0 0 1 7302.3828 428.4849)" style="&st6;"><tspan x="0" y="0" style="&st25; &st16;">B</tspan></text>
<text transform="matrix(1 0 0 1 7328.9531 378.6255)" style="&st6;"><tspan x="0" y="0" style="&st25; &st16;">CANH</tspan></text>
<text transform="matrix(1 0 0 1 7295.4531 378.6255)" style="&st6;"><tspan x="0" y="0" style="&st25; &st16;">CANL</tspan></text>
<text transform="matrix(1 0 0 1 7336.373 368.4258)" style="&st6;"><tspan x="0" y="0" style="&st25; &st16;">A</tspan></text>
<text transform="matrix(1 0 0 1 7327.834 368.4258)" style="&st6;"><tspan x="0" y="0" style="&st25; &st16;">9</tspan></text>
<text transform="matrix(1 0 0 1 7302.3828 368.4258)" style="&st6;"><tspan x="0" y="0" style="&st25; &st16;">A</tspan></text>
<text transform="matrix(1 0 0 1 7290.6543 368.4258)" style="&st6;"><tspan x="0" y="0" style="&st25; &st16;">10</tspan></text>
<text transform="matrix(1 0 0 1 7381.043 378.6255)" style="&st6;"><tspan x="0" y="0" style="&st25; &st16;">SWIL</tspan></text>
<text transform="matrix(1 0 0 1 7387.3633 368.4258)" style="&st6;"><tspan x="0" y="0" style="&st25; &st16;">A</tspan></text>
<text transform="matrix(1 0 0 1 7376.4434 368.4258)" style="&st6;"><tspan x="0" y="0" style="&st25; &st16;">11</tspan></text>
<text ewd:textID='24' transform='matrix(1 0 0 1 7302.1836 398.4556)' style='&st6; &st25; &st16;'>Certification ECU Assembly</text>
<text transform="matrix(1 0 0 1 7302.1836 391.3462)" style="&st6;"><tspan x="0" y="0" style="&st25; &st16;">G38(A),G39(B)</tspan></text>
</g>
<g ewd:code="P2" ewd:figID="76" ewd:figtype="conn">
<path style="&st14;" d="M7024.26,485.72v4.25"/>
<path style="&st14;" d="M7024.26,472.98v4.25"/>
<path style="&st8;" d="M7032.75,481.48c0-4.7-3.8-8.5-8.49-8.5"/>
<path style="&st8;" d="M7024.26,472.98c-4.7,0-8.5,3.8-8.5,8.5"/>
<path style="&st8;" d="M7015.76,481.48c0,4.69,3.8,8.49,8.5,8.49"/>
<path style="&st8;" d="M7024.26,489.97c4.69,0,8.49-3.8,8.49-8.49"/>
<path style="&st14;" d="M7021.85,481.48c0.79,1.33,2.52,1.78,3.86,0.99"/>
<path style="&st14;" d="M7025.71,482.47c1.34-0.79,1.78-2.52,0.99-3.86"/>
<path style="&st14;" d="M7026.7,478.61c-0.53-0.89-1.41-1.39-2.44-1.38"/>
<path style="&st14;" d="M7024.26,485.72c1.55,0.01,2.82-1.24,2.83-2.79"/>
<path style="&st14;" d="M7027.09,482.93c0.01-1.56-1.25-2.83-2.8-2.84"/>
<path style="&st14;" d="M7024.29,480.09c-1.03,0-1.92,0.5-2.44,1.39"/>
<text transform="matrix(0 -1 1 0 7040.373 500.9966)" style="&st6;"><tspan x="0" y="0" style="&st25; &st16;">P2</tspan></text>
<text ewd:textID='45' transform='matrix(0 -1 1 0 7047.4727 500.9966)' style='&st6; &st25; &st16;'>Front Side <tspan x='0' y='7' >Step Light RH</tspan></text>
<text transform="matrix(1 0 0 1 7017.4727 498.1665)" style="&st6;"><tspan x="0" y="0" style="&st25; &st16;">2</tspan></text>
<text transform="matrix(1 0 0 1 7018.2441 469.2856)" style="&st6;"><tspan x="0" y="0" style="&st25; &st16;">1</tspan></text>
</g>
<g ewd:code="G124" ewd:figID="77" ewd:figtype="conn">
<path style="&st14;" d="M7143.24,464.48v-17"/>
<path style="&st8;" d="M7143.24,427.65v17"/>
<path style="&st14;" d="M7117.74,404.99v26.91h15.58"/>
<path style="&st14;" d="M7168.73,404.99v26.91h-15.58"/>
<path style="&st8;" d="M7194.22,464.48v-59.49h-93.48v59.49H7194.22"/>
<path style="&st14;" d="M7136.15,431.9c0-0.78-0.63-1.42-1.41-1.42"/>
<path style="&st14;" d="M7134.74,430.48c-0.79,0-1.42,0.64-1.42,1.42"/>
<path style="&st14;" d="M7133.32,431.9c0,0.78,0.63,1.42,1.42,1.42"/>
<path style="&st14;" d="M7134.74,433.31c0.78,0,1.41-0.64,1.41-1.42"/>
<path style="&st14;" d="M7144.65,446.06c0-0.78-0.63-1.41-1.41-1.41"/>
<path style="&st14;" d="M7143.24,444.65c-0.79,0-1.42,0.63-1.42,1.41"/>
<path style="&st14;" d="M7141.82,446.06c0,0.79,0.63,1.42,1.42,1.42"/>
<path style="&st14;" d="M7143.24,447.48c0.78,0,1.41-0.63,1.41-1.42"/>
<path style="&st14;" d="M7153.15,431.9c0-0.78-0.63-1.42-1.42-1.42"/>
<path style="&st14;" d="M7151.73,430.48c-0.78,0-1.41,0.64-1.41,1.42"/>
<path style="&st14;" d="M7150.32,431.9c0,0.78,0.63,1.42,1.41,1.42"/>
<path style="&st14;" d="M7151.73,433.31c0.79,0,1.42-0.64,1.42-1.42"/>
<text transform="matrix(1 0 0 1 7136.4531 472.6665)" style="&st6;"><tspan x="0" y="0" style="&st25; &st16;">4</tspan></text>
<text transform="matrix(1 0 0 1 7110.9531 401.2954)" style="&st6;"><tspan x="0" y="0" style="&st25; &st16;">3</tspan></text>
<text transform="matrix(1 0 0 1 7161.9434 401.2954)" style="&st6;"><tspan x="0" y="0" style="&st25; &st16;">2</tspan></text>
<text ewd:textID='77' transform='matrix(0 -1 1 0 7208.9434 466.9966)' style='&st6; &st25; &st16;'>Room Light Switch Assembly</text>
<text transform="matrix(0 -1 1 0 7201.8438 466.9966)" style="&st6;"><tspan x="0" y="0" style="&st25; &st16;">G124</tspan></text>
<text transform="matrix(1 0 0 1 7146.0742 460.7856)" style="&st6;"><tspan x="0" y="0" style="&st25; &st16;">E</tspan></text>
<text transform="matrix(1 0 0 1 7120.5742 413.1763)" style="&st6;"><tspan x="0" y="0" style="&st25; &st16;">UP</tspan></text>
<text transform="matrix(1 0 0 1 7171.5625 413.1763)" style="&st6;"><tspan x="0" y="0" style="&st25; &st16;">DOWN</tspan></text>
<text ewd:textID='30' transform='matrix(0 -1 1 0 7176.373 439.4556)' style='&st6; &st25; &st16;'>Down</text>
<text transform="matrix(0 -1 1 0 7114.043 434.9263)" style="&st6;"><tspan x="0" y="0" style="&st25; &st16;">Up</tspan></text>
</g>
<g ewd:code="G36" ewd:figID="36" ewd:figtype="conn">
<path style="&st14;" d="M7461.93,464.48h-8.5"/>
<path style="&st14;" d="M7470.41,454.81l-7.36,4.24"/>
<path style="&st14;" d="M7465.06,462.53l7.36-4.25"/>
<path style="&st8;" d="M7432.18,396.49v50.99h42.5v-50.99H7432.18"/>
<path style="&st8;" d="M7423.69,370.99v110.49h59.49V370.99H7423.69"/>
<path style="&st14;" d="M7457.68,481.48v-42.5"/>
<path style="&st14;" d="M7457.68,438.98v-8.5l-2.83-1.41l5.66-2.84l-5.66-2.83l5.66-2.83l-5.66-2.83l5.66-2.84l-2.83-1.41v-8.5"/>
<path style="&st14;" d="M7440.68,438.98v-8.5l-2.83-1.41l5.67-2.84l-5.67-2.83l5.67-2.83l-5.67-2.83l5.67-2.84l-2.84-1.41v-8.5"/>
<path style="&st5;" d="M7457.68,464.48l-5.67-8.5h11.34L7457.68,464.48"/>
<path style="&st14;" d="M7470.41,454.81l-2.33,3.04l-1.47-2.55L7470.41,454.81l-1.28,0.73l-0.99,1.29l-0.61-1.08l1.6-0.21l-0.64,0.38l-0.31,0.4l-0.2-0.34l0.51-0.06"/>
<path style="&st14;" d="M7472.42,458.28l-2.34,3.05l-1.47-2.55L7472.42,458.28l-1.29,0.75l-0.98,1.28l-0.62-1.08l1.6-0.2l-0.64,0.36l-0.31,0.41l-0.19-0.34l0.5-0.07"/>
<path style="&st14;" d="M7440.68,438.98h17"/>
<path style="&st14;" d="M7440.68,404.99h17"/>
<path style="&st14;" d="M7457.68,370.99v34"/>
<path style="&st14;" d="M7456.49,437.98l-0.27,0.47l-0.1,0.53l0.1,0.54l0.27,0.47l0.41,0.34l0.51,0.19h0.54l0.51-0.19l0.41-0.34l0.27-0.47l0.1-0.54l-0.1-0.53l-0.27-0.47l-0.41-0.35l-0.51-0.18h-0.54l-0.51,0.18L7456.49,437.98l0.39,0.71v0.58l0.38,0.45l0.57,0.1l0.5-0.29l0.2-0.55l-0.2-0.54l-0.5-0.29l-0.57,0.1l0.42,0.73"/>
<path style="&st14;" d="M7456.49,403.99l-0.27,0.47l-0.1,0.53l0.1,0.53l0.27,0.47l0.41,0.35l0.51,0.18h0.54l0.51-0.18l0.41-0.35l0.27-0.47l0.1-0.53l-0.1-0.53l-0.27-0.47l-0.41-0.35l-0.51-0.19h-0.54l-0.51,0.19L7456.49,403.99l0.39,0.71v0.58l0.38,0.44l0.57,0.1l0.5-0.28l0.2-0.55l-0.2-0.55l-0.5-0.29l-0.57,0.1l0.42,0.74"/>
<text transform="matrix(1 0 0 1 7439.4336 477.7856)" style="&st6;"><tspan x="0" y="0" style="&st25; &st16;">GND</tspan></text>
<text transform="matrix(1 0 0 1 7450.8926 489.6665)" style="&st6;"><tspan x="0" y="0" style="&st25; &st16;">5</tspan></text>
<text transform="matrix(1 0 0 1 7448.4824 367.2954)" style="&st6;"><tspan x="0" y="0" style="&st25; &st16;">11</tspan></text>
<text transform="matrix(1 0 0 1 7437.543 379.186)" style="&st6;"><tspan x="0" y="0" style="&st25; &st16;">SWIL</tspan></text>
<text ewd:textID='31' transform='matrix(0 -1 1 0 7497.9043 483.9966)' style='&st6; &st25; &st16;'>Engine Switch</text>
<text transform="matrix(0 -1 1 0 7490.793 483.9966)" style="&st6;"><tspan x="0" y="0" style="&st25; &st16;">G36</tspan></text>
</g>
<text transform="matrix(0 -1 1 0 7302.0137 633.645)" style="&st6;"><tspan x="0" y="0" style="&st25; &st16;">W-B</tspan></text>
<text transform="matrix(0 -1 1 0 7387.0039 517.7954)" style="&st6;"><tspan x="0" y="0" style="&st25; &st16;">P</tspan></text>
<text transform="matrix(0 -1 1 0 7387.0039 458.3052)" style="&st6;"><tspan x="0" y="0" style="&st25; &st16;">P</tspan></text>
<text transform="matrix(0 -1 1 0 7344.5137 518.2153)" style="&st6;"><tspan x="0" y="0" style="&st25; &st16;">G</tspan></text>
<text transform="matrix(0 -1 1 0 7344.5137 458.7251)" style="&st6;"><tspan x="0" y="0" style="&st25; &st16;">G</tspan></text>
<text transform="matrix(0 -1 1 0 7302.0137 517.4458)" style="&st6;"><tspan x="0" y="0" style="&st25; &st16;">L</tspan></text>
<text transform="matrix(0 -1 1 0 7302.0137 457.9556)" style="&st6;"><tspan x="0" y="0" style="&st25; &st16;">L</tspan></text>
<text transform="matrix(0 -1 1 0 7313.3535 219.2656)" style="&st6;"><tspan x="0" y="0" style="&st25; &st16;">(RHD)</tspan></text>
<text transform="matrix(0 -1 1 0 7302.0137 212.8755)" style="&st6;"><tspan x="0" y="0" style="&st25; &st16;">W</tspan></text>
<text transform="matrix(1 0 0 1 7372.4531 234.1455)" style="&st6;"><tspan x="0" y="0" style="&st25; &st16;">(RHD)</tspan></text>
<text transform="matrix(1 0 0 1 7376.9727 222.8154)" style="&st6;"><tspan x="0" y="0" style="&st25; &st16;">GR</tspan></text>
<text transform="matrix(0 -1 1 0 7347.3438 218.7656)" style="&st6;"><tspan x="0" y="0" style="&st25; &st16;">(LHD)</tspan></text>
<text transform="matrix(0 -1 1 0 7330.3438 201.7754)" style="&st6;"><tspan x="0" y="0" style="&st25; &st16;">(LHD)</tspan></text>
<text transform="matrix(0 -1 1 0 7313.3535 345.1558)" style="&st6;"><tspan x="0" y="0" style="&st25; &st16;">(*24)</tspan></text>
<text transform="matrix(0 -1 1 0 7347.3438 345.1558)" style="&st6;"><tspan x="0" y="0" style="&st25; &st16;">(*24)</tspan></text>
<text transform="matrix(0 -1 1 0 7336.0137 339.3257)" style="&st6;"><tspan x="0" y="0" style="&st25; &st16;">P</tspan></text>
<text transform="matrix(0 -1 1 0 7302.0137 340.3457)" style="&st6;"><tspan x="0" y="0" style="&st25; &st16;">W</tspan></text>
<text transform="matrix(0 -1 1 0 7336.0137 214.7456)" style="&st6;"><tspan x="0" y="0" style="&st25; &st16;">GR</tspan></text>
<text transform="matrix(0 -1 1 0 7319.0137 195.8755)" style="&st6;"><tspan x="0" y="0" style="&st25; &st16;">W</tspan></text>
<text transform="matrix(0 -1 1 0 7454.9941 523.1665)" style="&st6;"><tspan x="0" y="0" style="&st25; &st16;">W-B</tspan></text>
<text transform="matrix(0 -1 1 0 7454.9941 633.645)" style="&st6;"><tspan x="0" y="0" style="&st25; &st16;">W-B</tspan></text>
<text transform="matrix(0 -1 1 0 7454.9941 339.3257)" style="&st6;"><tspan x="0" y="0" style="&st25; &st16;">B</tspan></text>
<text transform="matrix(0 -1 1 0 7466.3242 345.1558)" style="&st6;"><tspan x="0" y="0" style="&st25; &st16;">(*24)</tspan></text>
<text transform="matrix(0 -1 1 0 7466.3242 523.6255)" style="&st6;"><tspan x="0" y="0" style="&st25; &st16;">(*24)</tspan></text>
<text transform="matrix(0 -1 1 0 7021.5625 437.2056)" style="&st6;"><tspan x="0" y="0" style="&st25; &st16;">R</tspan></text>
<text transform="matrix(0 -1 1 0 7032.8926 442.4966)" style="&st6;"><tspan x="0" y="0" style="&st25; &st16;">(*16)</tspan></text>
<text transform="matrix(0 -1 1 0 7021.5625 518.9165)" style="&st6;"><tspan x="0" y="0" style="&st25; &st16;">W-B</tspan></text>
<text transform="matrix(0 -1 1 0 7032.8926 518.9849)" style="&st6;"><tspan x="0" y="0" style="&st25; &st16;">(*16)</tspan></text>
<text transform="matrix(0 -1 1 0 7115.043 126.5059)" style="&st6;"><tspan x="0" y="0" style="&st25; &st16;">L</tspan></text>
<text transform="matrix(0 -1 1 0 7166.043 126.8657)" style="&st6;"><tspan x="0" y="0" style="&st25; &st16;">B</tspan></text>
<text transform="matrix(0 -1 1 0 7115.043 270.9854)" style="&st6;"><tspan x="0" y="0" style="&st25; &st16;">L</tspan></text>
<text transform="matrix(0 -1 1 0 7166.043 271.3354)" style="&st6;"><tspan x="0" y="0" style="&st25; &st16;">B</tspan></text>
<text transform="matrix(0 -1 1 0 7115.043 372.9653)" style="&st6;"><tspan x="0" y="0" style="&st25; &st16;">L</tspan></text>
<text transform="matrix(0 -1 1 0 7166.043 373.3149)" style="&st6;"><tspan x="0" y="0" style="&st25; &st16;">B</tspan></text>
<text transform="matrix(0 -1 1 0 7140.543 506.1665)" style="&st6;"><tspan x="0" y="0" style="&st25; &st16;">W-B</tspan></text>
<text transform="matrix(0 -1 1 0 7140.543 642.145)" style="&st6;"><tspan x="0" y="0" style="&st25; &st16;">W-B</tspan></text>
<text transform="matrix(0 -1 1 0 7151.873 642.2153)" style="&st6;"><tspan x="0" y="0" style="&st25; &st16;">(*17)</tspan></text>
<text transform="matrix(0 -1 1 0 7151.873 506.2349)" style="&st6;"><tspan x="0" y="0" style="&st25; &st16;">(*17)</tspan></text>
<text transform="matrix(0 -1 1 0 7177.373 378.7563)" style="&st6;"><tspan x="0" y="0" style="&st25; &st16;">(*17)</tspan></text>
<text transform="matrix(0 -1 1 0 7126.3828 378.7563)" style="&st6;"><tspan x="0" y="0" style="&st25; &st16;">(*17)</tspan></text>
<text transform="matrix(0 -1 1 0 7177.373 276.7754)" style="&st6;"><tspan x="0" y="0" style="&st25; &st16;">(*17)</tspan></text>
<text transform="matrix(0 -1 1 0 7126.3828 276.7754)" style="&st6;"><tspan x="0" y="0" style="&st25; &st16;">(*17)</tspan></text>
<text transform="matrix(0 -1 1 0 7177.373 137.3057)" style="&st6;"><tspan x="0" y="0" style="&st25; &st16;">(*17 *29)</tspan></text>
<text transform="matrix(0 -1 1 0 7126.3828 132.3057)" style="&st6;"><tspan x="0" y="0" style="&st25; &st16;">(*17)</tspan></text>
<text transform="matrix(0 -1 1 0 7355.8438 464.1353)" style="&st6;"><tspan x="0" y="0" style="&st25; &st16;">(*24)</tspan></text>
<text transform="matrix(0 -1 1 0 7398.334 464.1353)" style="&st6;"><tspan x="0" y="0" style="&st25; &st16;">(*24)</tspan></text>
<text transform="matrix(0 -1 1 0 7398.334 523.6255)" style="&st6;"><tspan x="0" y="0" style="&st25; &st16;">(*24)</tspan></text>
<text transform="matrix(0 -1 1 0 7355.8438 523.6255)" style="&st6;"><tspan x="0" y="0" style="&st25; &st16;">(*24)</tspan></text>
<text transform="matrix(0 -1 1 0 7313.3535 523.6255)" style="&st6;"><tspan x="0" y="0" style="&st25; &st16;">(*24)</tspan></text>
<text transform="matrix(0 -1 1 0 7313.3535 464.1353)" style="&st6;"><tspan x="0" y="0" style="&st25; &st16;">(*24)</tspan></text>
<text transform="matrix(0 -1 1 0 7313.3535 634.106)" style="&st6;"><tspan x="0" y="0" style="&st25; &st16;">(*24)</tspan></text>
<text transform="matrix(0 -1 1 0 7466.3242 634.106)" style="&st6;"><tspan x="0" y="0" style="&st25; &st16;">(*24)</tspan></text>
<text transform="matrix(0 -1 1 0 7227.7031 147.1997)" style="&st6;"><tspan x="0" y="0" style="&st25; &st16;">B</tspan></text>
<text transform="matrix(0 -1 1 0 7239.0332 157.6396)" style="&st6;"><tspan x="0" y="0" style="&st25; &st16;">(*17 *30)</tspan></text>
</svg>
