﻿<?xml version="1.0" encoding="UTF-8"?>
<!DOCTYPE svg PUBLIC "-//W3C//DTD SVG 1.0//EN" "http://www.w3.org/TR/2001/REC-SVG-20010904/DTD/svg10.dtd"[
<!ENTITY ns_flows "http://ns.adobe.com/Flows/1.0/">
<!ENTITY ns_svg "http://www.w3.org/2000/svg">
<!ENTITY ns_xlink "http://www.w3.org/1999/xlink">
	<!ENTITY st0 "fill:none;stroke:#FB0F0C;stroke-width:5.1;stroke-linejoin:round;">
		<!ENTITY st1 "fill:none;stroke:#000000;stroke-width:0.85;stroke-linecap:round;stroke-linejoin:round;stroke-dasharray:3 1.5;enable-background:new    ;">
	<!ENTITY st2 "fill:none;stroke:#000000;stroke-width:5.1;stroke-linejoin:round;">
	<!ENTITY st3 "fill:none;stroke:#000000;stroke-linecap:round;stroke-linejoin:round;">
	<!ENTITY st4 "fill:#1D63A2;">
	<!ENTITY st5 "stroke:#000000;stroke-width:0.28;stroke-linecap:round;stroke-linejoin:round;enable-background:new    ;">
	<!ENTITY st6 "enable-background:new    ;">
		<!ENTITY st7 "fill:none;stroke:#000000;stroke-width:1.42;stroke-linecap:round;stroke-linejoin:round;enable-background:new    ;">
	<!ENTITY st8 "fill:none;stroke:#EE67AA;stroke-width:5.1;stroke-linejoin:round;">
	<!ENTITY st9 "fill:none;stroke:#199DBF;stroke-width:5.1;stroke-linejoin:round;">
	<!ENTITY st10 "opacity:0.5;fill:none;stroke:#34ACCE;stroke-linejoin:round;stroke-dasharray:6;">
	<!ENTITY st11 "fill:none;stroke:#FFFFFF;stroke-width:4.53;stroke-linejoin:round;">
	<!ENTITY st12 "fill:#F6140D;">
		<!ENTITY st13 "fill:none;stroke:#000000;stroke-width:0.85;stroke-linecap:round;stroke-linejoin:round;enable-background:new    ;">
	<!ENTITY st14 "font-size:6px;">
	<!ENTITY st15 "fill:none;stroke:#000000;stroke-width:1.13;stroke-linejoin:round;">
		<!ENTITY st16 "fill:none;stroke:#000000;stroke-width:1.13;stroke-linecap:round;stroke-linejoin:round;stroke-dasharray:3 1.5;enable-background:new    ;">
	<!ENTITY st17 "fill:#FFFFFF;stroke:#000000;stroke-width:1.41;stroke-linecap:round;stroke-linejoin:round;">
	<!ENTITY st18 "fill:none;stroke:#3E65AC;stroke-width:3;">
	<!ENTITY st19 "display:inline;">
	<!ENTITY st20 "fill:#CCCCCC;stroke:#CCCCCC;stroke-width:0.1;stroke-linecap:round;stroke-linejoin:round;">
	<!ENTITY st21 "stroke:#FFFFFF;stroke-width:2;">
	<!ENTITY st22 "font-family:'Arial';">
	<!ENTITY st23 "opacity:0.5;fill:none;stroke:#34ACCE;stroke-linejoin:round;">
	<!ENTITY st24 "fill:#CFE6E7;stroke:#000000;stroke-width:1.133;stroke-linecap:round;stroke-linejoin:round;">
	<!ENTITY st25 "font-size:12px;">
	<!ENTITY st26 "display:none;">
	<!ENTITY st27 "fill:none;stroke:#7EC57E;stroke-width:5.1;stroke-linejoin:round;">
<!ATTLIST svg
xmlns:ewd CDATA #FIXED "http://shcl.co.jp/ewd"
xmlns:a CDATA #FIXED "http://ns.adobe.com/AdobeSVGViewerExtensions/3.0/"
ewd:ver CDATA #IMPLIED
>
<!ATTLIST a
ewd:lineID CDATA #IMPLIED
ewd:groupID CDATA #IMPLIED
ewd:figtype CDATA #IMPLIED
ewd:code CDATA #IMPLIED
ewd:figID CDATA #IMPLIED
ewd:pinNo CDATA #IMPLIED
ewd:comment CDATA #IMPLIED >
<!ATTLIST g
ewd:lineID CDATA #IMPLIED
ewd:groupID CDATA #IMPLIED
ewd:figtype CDATA #IMPLIED
ewd:code CDATA #IMPLIED
ewd:figID CDATA #IMPLIED
ewd:pinNo CDATA #IMPLIED
ewd:comment CDATA #IMPLIED >
<!ATTLIST text
ewd:textID CDATA #IMPLIED >
<!ATTLIST title
ewd:textID CDATA #IMPLIED >
]>
<svg 
viewBox='0 0 652 729.44'
height='729.44'
width='652'
xml:space="preserve"
xmlns="&ns_svg;"
xmlns:ewd="http://shcl.co.jp/ewd"
xmlns:xlink="&ns_xlink;" ewd:ver="L2.3">
<g ewd:code="GQ1" ewd:figID="603" ewd:figtype="w2w" ewd:pinNo="16">
<path style="&st7;" d="M196.67,396.49h-8.5"/>
<path style="&st7;" d="M192.42,405.55l-4.25-4.24l-4.25,4.24"/>
<path style="&st7;" d="M192.42,402.16l-4.25-4.25l-4.25,4.25"/>
<text transform="matrix(1 0 0 1 169.9995 394.2056)" style="&st6;"><tspan x="0" y="0" style="&st22; &st14;">16</tspan></text>
</g>
<g ewd:code="GA6" ewd:figID="602" ewd:figtype="w2w" ewd:pinNo="17">
<text transform="matrix(1 0 0 1 169.9995 351.7158)" style="&st6;"><tspan x="0" y="0" style="&st22; &st14;">17</tspan></text>
</g>
<g ewd:code="GA6" ewd:figID="601" ewd:figtype="w2w" ewd:pinNo="13">
<path style="&st7;" d="M179.67,337h8.5"/>
<path style="&st7;" d="M183.92,327.93l4.25,4.25l4.25-4.25"/>
<path style="&st7;" d="M192.42,331.33l-4.25,4.25l-4.25-4.25"/>
<text transform="matrix(1 0 0 1 169.9995 343.2158)" style="&st6;"><tspan x="0" y="0" style="&st22; &st14;">13</tspan></text>
</g>
<g ewd:code="1,5" ewd:figID="402" ewd:figtype="rb">
<path style="&st7;" d="M215.79,207.39h-4.25"/>
<path style="&st7;" d="M215.79,198.89h-4.25"/>
<path style="&st7;" d="M190.29,207.39h-4.25"/>
<path style="&st7;" d="M190.29,198.89h-4.25"/>
<path style="&st13;" d="M213.66,249.88v8.5"/>
<path style="&st13;" d="M213.66,224.39v8.5"/>
<path style="&st13;" d="M188.17,228.64v-4.25"/>
<path style="&st13;" d="M188.17,258.38v-4.25"/>
<path style="&st7;" d="M188.17,251.3l-5.67-22.66"/>
<path style="&st13;" d="M213.66,258.38v17"/>
<path style="&st13;" d="M188.17,258.38v17"/>
<path style="&st13;" d="M213.66,207.39v17"/>
<path style="&st13;" d="M188.17,207.39v17"/>
<path style="&st5;" d="M213.66,270.48l-2.83-2.83v4.25l2.83,2.83l2.84-2.83v-4.25L213.66,270.48"/>
<path style="&st5;" d="M188.17,270.48l-2.83-2.83v4.25l2.83,2.83l2.83-2.83v-4.25L188.17,270.48"/>
<path style="&st5;" d="M213.66,212.28l2.84,2.84v-4.25l-2.84-2.83l-2.83,2.83v4.25L213.66,212.28"/>
<path style="&st5;" d="M188.17,212.28l2.83,2.84v-4.25l-2.83-2.83l-2.83,2.83v4.25L188.17,212.28"/>
<path style="&st7;" d="M222.16,224.39h-42.49v33.99h42.49V224.39"/>
<path style="&st7;" d="M220.04,203.14c0-2.35-1.9-4.25-4.25-4.25"/>
<path style="&st7;" d="M215.79,207.39c2.35,0,4.25-1.9,4.25-4.25"/>
<path style="&st7;" d="M207.29,203.14c0,2.35,1.9,4.25,4.25,4.25"/>
<path style="&st7;" d="M211.54,198.89c-2.35,0-4.25,1.9-4.25,4.25"/>
<path style="&st7;" d="M194.54,203.14c0-2.35-1.9-4.25-4.25-4.25"/>
<path style="&st7;" d="M181.79,203.14c0,2.35,1.91,4.25,4.25,4.25"/>
<path style="&st7;" d="M186.04,198.89c-2.34,0-4.25,1.9-4.25,4.25"/>
<path style="&st13;" d="M213.66,249.88c1.96,0,3.55-1.58,3.55-3.54"/>
<path style="&st13;" d="M217.21,246.34c0-1.95-1.59-3.54-3.55-3.54"/>
<path style="&st13;" d="M213.66,242.8c-0.99,0-1.83,0.36-2.52,1.06"/>
<path style="&st13;" d="M211.13,243.86c1.37,1.4,3.62,1.42,5.01,0.05"/>
<path style="&st13;" d="M216.14,243.91c1.4-1.37,1.42-3.61,0.05-5"/>
<path style="&st13;" d="M216.19,238.91c-1.36-1.4-3.61-1.42-5-0.06"/>
<path style="&st13;" d="M211.19,238.85c-0.02,0.02-0.04,0.04-0.06,0.06"/>
<path style="&st13;" d="M211.13,238.91c1.37,1.39,3.62,1.42,5.01,0.05"/>
<path style="&st13;" d="M216.14,238.96c1.4-1.37,1.42-3.62,0.05-5.01"/>
<path style="&st13;" d="M216.19,233.95c-0.69-0.71-1.53-1.07-2.53-1.07"/>
<path style="&st13;" d="M189.59,230.05c0-0.78-0.64-1.41-1.42-1.41"/>
<path style="&st13;" d="M188.17,228.64c-0.78,0-1.42,0.63-1.42,1.41"/>
<path style="&st13;" d="M186.75,230.05c0,0.78,0.64,1.42,1.42,1.42"/>
<path style="&st13;" d="M188.17,231.47c0.78,0,1.42-0.64,1.42-1.42"/>
<path style="&st13;" d="M189.59,252.72c0-0.79-0.64-1.42-1.42-1.42"/>
<path style="&st13;" d="M188.17,251.3c-0.78,0-1.42,0.63-1.42,1.42"/>
<path style="&st13;" d="M186.75,252.72c0,0.78,0.64,1.41,1.42,1.41"/>
<path style="&st13;" d="M188.17,254.13c0.78,0,1.42-0.63,1.42-1.41"/>
<path style="&st7;" d="M190.29,207.39c2.35,0,4.25-1.9,4.25-4.25"/>
<path style="&st7;" d="M215.79,198.89h-4.25"/>
<path style="&st7;" d="M215.79,190.39h-4.25"/>
<path style="&st7;" d="M190.29,198.89h-4.25"/>
<path style="&st7;" d="M190.29,190.39h-4.25"/>
<path style="&st7;" d="M220.04,194.64c0-2.35-1.9-4.25-4.25-4.25"/>
<path style="&st7;" d="M215.79,198.89c2.35,0,4.25-1.9,4.25-4.25"/>
<path style="&st7;" d="M207.29,194.64c0,2.35,1.9,4.25,4.25,4.25"/>
<path style="&st7;" d="M211.54,190.39c-2.35,0-4.25,1.9-4.25,4.25"/>
<path style="&st7;" d="M194.54,194.64c0-2.35-1.9-4.25-4.25-4.25"/>
<path style="&st7;" d="M181.79,194.64c0,2.35,1.91,4.25,4.25,4.25"/>
<path style="&st7;" d="M186.04,190.39c-2.34,0-4.25,1.9-4.25,4.25"/>
<path style="&st7;" d="M190.29,198.89c2.35,0,4.25-1.9,4.25-4.25"/>
<path style="&st7;" d="M215.79,292.34h-4.25"/>
<path style="&st7;" d="M215.79,283.84h-4.25"/>
<path style="&st7;" d="M190.29,292.34h-4.25"/>
<path style="&st7;" d="M190.29,283.84h-4.25"/>
<path style="&st7;" d="M220.04,288.09c0-2.35-1.9-4.25-4.25-4.25"/>
<path style="&st7;" d="M215.79,292.34c2.35,0,4.25-1.9,4.25-4.25"/>
<path style="&st7;" d="M207.29,288.09c0,2.35,1.9,4.25,4.25,4.25"/>
<path style="&st7;" d="M211.54,283.84c-2.35,0-4.25,1.9-4.25,4.25"/>
<path style="&st7;" d="M194.54,288.09c0-2.35-1.9-4.25-4.25-4.25"/>
<path style="&st7;" d="M181.79,288.09c0,2.35,1.91,4.25,4.25,4.25"/>
<path style="&st7;" d="M186.04,283.84c-2.34,0-4.25,1.9-4.25,4.25"/>
<path style="&st7;" d="M190.29,292.34c2.35,0,4.25-1.9,4.25-4.25"/>
<path style="&st7;" d="M215.79,283.84h-4.25"/>
<path style="&st7;" d="M215.79,275.34h-4.25"/>
<path style="&st7;" d="M190.29,283.84h-4.25"/>
<path style="&st7;" d="M190.29,275.34h-4.25"/>
<path style="&st7;" d="M220.04,279.59c0-2.35-1.9-4.25-4.25-4.25"/>
<path style="&st7;" d="M215.79,283.84c2.35,0,4.25-1.9,4.25-4.25"/>
<path style="&st7;" d="M207.29,279.59c0,2.35,1.9,4.25,4.25,4.25"/>
<path style="&st7;" d="M211.54,275.34c-2.35,0-4.25,1.9-4.25,4.25"/>
<path style="&st7;" d="M194.54,279.59c0-2.35-1.9-4.25-4.25-4.25"/>
<path style="&st7;" d="M181.79,279.59c0,2.35,1.91,4.25,4.25,4.25"/>
<path style="&st7;" d="M186.04,275.34c-2.34,0-4.25,1.9-4.25,4.25"/>
<path style="&st7;" d="M190.29,283.84c2.35,0,4.25-1.9,4.25-4.25"/>
<text transform="matrix(1 0 0 1 212.0835 205.1104)" style="&st6;"><tspan x="0" y="0" style="&st22; &st14;">5</tspan></text>
<text transform="matrix(1 0 0 1 186.5835 205.1104)" style="&st6;"><tspan x="0" y="0" style="&st22; &st14;">5</tspan></text>
<text transform="matrix(1 0 0 1 212.0835 196.6104)" style="&st6;"><tspan x="0" y="0" style="&st22; &st14;">1</tspan></text>
<text transform="matrix(1 0 0 1 186.5835 196.6104)" style="&st6;"><tspan x="0" y="0" style="&st22; &st14;">1</tspan></text>
<text transform="matrix(1 0 0 1 206.8735 220.7007)" style="&st6;"><tspan x="0" y="0" style="&st22; &st14;">2</tspan></text>
<text transform="matrix(1 0 0 1 181.3735 220.7007)" style="&st6;"><tspan x="0" y="0" style="&st22; &st14;">5</tspan></text>
<text transform="matrix(1 0 0 1 212.0835 290.064)" style="&st6;"><tspan x="0" y="0" style="&st22; &st14;">5</tspan></text>
<text transform="matrix(1 0 0 1 186.5835 290.064)" style="&st6;"><tspan x="0" y="0" style="&st22; &st14;">5</tspan></text>
<text transform="matrix(1 0 0 1 212.0835 281.564)" style="&st6;"><tspan x="0" y="0" style="&st22; &st14;">1</tspan></text>
<text transform="matrix(1 0 0 1 186.5835 281.564)" style="&st6;"><tspan x="0" y="0" style="&st22; &st14;">1</tspan></text>
<text transform="matrix(1 0 0 1 207.6538 266.5708)" style="&st6;"><tspan x="0" y="0" style="&st22; &st14;">1</tspan></text>
<text transform="matrix(1 0 0 1 181.3833 266.5708)" style="&st6;"><tspan x="0" y="0" style="&st22; &st14;">3</tspan></text>
<text ewd:textID='5' transform='matrix(1 0 0 1 225.3032 240.5308)' style='&st6; &st22; &st14;'>INV <tspan x='0' y='7' >Relay</tspan></text>
</g>
<g ewd:code="FUSE25" ewd:figID="401" ewd:figtype="rb">
<path style="&st3;" d="M175.42,39.55v42.49h25.5V39.55H175.42"/>
<path style="&st7;" d="M190.29,107.54h-4.25"/>
<path style="&st7;" d="M190.29,99.04h-4.25"/>
<path style="&st13;" d="M188.17,73.54v25.5"/>
<path style="&st7;" d="M175.42,39.55v42.49h25.5V39.55H175.42"/>
<path style="&st5;" d="M188.17,94.14l-2.83-2.83v4.25l2.83,2.83l2.83-2.83v-4.25L188.17,94.14"/>
<path style="&st7;" d="M190.29,107.54c2.35,0,4.25-1.9,4.25-4.25"/>
<path style="&st7;" d="M194.54,103.29c0-2.35-1.9-4.25-4.25-4.25"/>
<path style="&st7;" d="M181.79,103.29c0,2.35,1.91,4.25,4.25,4.25"/>
<path style="&st7;" d="M186.04,99.04c-2.34,0-4.25,1.9-4.25,4.25"/>
<path style="&st13;" d="M189.59,72.13c0-0.79-0.64-1.42-1.42-1.42"/>
<path style="&st13;" d="M188.17,70.71c-0.78,0-1.42,0.63-1.42,1.42"/>
<path style="&st13;" d="M186.75,72.13c0,0.78,0.64,1.41,1.42,1.41"/>
<path style="&st13;" d="M188.17,73.54c0.78,0,1.42-0.63,1.42-1.41"/>
<path style="&st13;" d="M189.59,49.46c0-0.78-0.64-1.41-1.42-1.41"/>
<path style="&st13;" d="M188.17,48.05c-0.78,0-1.42,0.63-1.42,1.41"/>
<path style="&st13;" d="M186.75,49.46c0,0.79,0.64,1.42,1.42,1.42"/>
<path style="&st13;" d="M188.17,50.88c0.78,0,1.42-0.63,1.42-1.42"/>
<path style="&st7;" d="M188.17,70.71c2.74-1.61,3.65-5.14,2.04-7.88"/>
<path style="&st7;" d="M190.21,62.83c-0.52-0.88-1.16-1.51-2.04-2.03"/>
<path style="&st7;" d="M188.17,50.88c-2.74,1.61-3.65,5.14-2.04,7.88"/>
<path style="&st7;" d="M186.13,58.76c0.52,0.88,1.16,1.52,2.04,2.04"/>
<text transform="matrix(1 0 0 1 179.064 35.8457)" style="&st6;"><tspan x="0" y="0" style="&st22; &st14;">(BAT)</tspan></text>
<text transform="matrix(1 0 0 1 181.3833 90.2354)" style="&st6;"><tspan x="0" y="0" style="&st22; &st14;">2</tspan></text>
<text transform="matrix(1 0 0 1 186.5835 105.2559)" style="&st6;"><tspan x="0" y="0" style="&st22; &st14;">1</tspan></text>
<text transform="matrix(1 0 0 1 205.4731 59.9355)" style="&st6;"><tspan x="0" y="0" style="&st22; &st14;">15A</tspan></text>
<text transform="matrix(1 0 0 1 205.4731 65.9355)" style="&st6;"><tspan x="0" y="0" style="&st22; &st14;">INV</tspan></text>
</g>
<g ewd:code="2" ewd:figID="301" ewd:figtype="jb">
<path style="&st3;" d="M302.9,39.55v42.49h25.5V39.55H302.9"/>
<path style="&st7;" d="M317.77,107.54h-4.25"/>
<path style="&st7;" d="M317.77,99.04h-4.25"/>
<path style="&st13;" d="M315.65,73.54v25.5"/>
<path style="&st7;" d="M302.9,39.55v42.49h25.5V39.55H302.9"/>
<path style="&st5;" d="M315.65,94.14l-2.84-2.83v4.25l2.84,2.83l2.83-2.83v-4.25L315.65,94.14"/>
<path style="&st7;" d="M322.02,103.29c0-2.35-1.9-4.25-4.25-4.25"/>
<path style="&st7;" d="M317.77,107.54c2.35,0,4.25-1.9,4.25-4.25"/>
<path style="&st7;" d="M309.27,103.29c0,2.35,1.91,4.25,4.25,4.25"/>
<path style="&st7;" d="M313.52,99.04c-2.34,0-4.25,1.9-4.25,4.25"/>
<path style="&st13;" d="M317.06,72.13c0-0.79-0.63-1.42-1.41-1.42"/>
<path style="&st13;" d="M315.65,70.71c-0.78,0-1.42,0.63-1.42,1.42"/>
<path style="&st13;" d="M314.23,72.13c0,0.78,0.64,1.41,1.42,1.41"/>
<path style="&st13;" d="M315.65,73.54c0.78,0,1.41-0.63,1.41-1.41"/>
<path style="&st13;" d="M317.06,49.46c0-0.78-0.63-1.41-1.41-1.41"/>
<path style="&st13;" d="M315.65,48.05c-0.78,0-1.42,0.63-1.42,1.41"/>
<path style="&st13;" d="M314.23,49.46c0,0.79,0.64,1.42,1.42,1.42"/>
<path style="&st13;" d="M315.65,50.88c0.78,0,1.41-0.63,1.41-1.42"/>
<path style="&st7;" d="M315.65,70.71c2.74-1.61,3.65-5.14,2.03-7.88"/>
<path style="&st7;" d="M317.68,62.83c-0.52-0.88-1.15-1.51-2.03-2.03"/>
<path style="&st7;" d="M315.65,50.88c-2.74,1.61-3.65,5.14-2.04,7.88"/>
<path style="&st7;" d="M313.61,58.76c0.52,0.88,1.16,1.52,2.04,2.04"/>
<text transform="matrix(1 0 0 1 309.5737 35.8457)" style="&st6;"><tspan x="0" y="0" style="&st22; &st14;">(IG)</tspan></text>
<text transform="matrix(1 0 0 1 299.0034 105.2559)" style="&st6;"><tspan x="0" y="0" style="&st22; &st14;">27</tspan></text>
<text transform="matrix(1 0 0 1 311.5532 105.2559)" style="&st6;"><tspan x="0" y="0" style="&st22; &st14;">2F</tspan></text>
<text transform="matrix(1 0 0 1 332.9536 57.1055)" style="&st6;"><tspan x="0" y="0" style="&st22; &st14;">10A</tspan></text>
<text transform="matrix(1 0 0 1 332.9536 63.1055)" style="&st6;"><tspan x="0" y="0" style="&st22; &st14;">ECU-IG</tspan></text>
<text transform="matrix(1 0 0 1 332.9536 69.1055)" style="&st6;"><tspan x="0" y="0" style="&st22; &st14;">NO.2</tspan></text>
</g>
<g ewd:code="Q2" ewd:figID="201" ewd:figtype="gp">
<path style="&st13;" d="M111.68,701.02v4.25"/>
<path style="&st13;" d="M103.18,705.27h17"/>
<path style="&st13;" d="M107.43,708.1h8.5"/>
<path style="&st13;" d="M108.85,710.94h5.66"/>
<path style="&st13;" d="M110.27,713.77h2.83"/>
</g>
<g ewd:code="Q1" ewd:figID="202" ewd:figtype="gp">
<path style="&st13;" d="M188.17,701.02v4.25"/>
<path style="&st13;" d="M179.67,705.27h17"/>
<path style="&st13;" d="M183.92,708.1h8.5"/>
<path style="&st13;" d="M185.34,710.94H191"/>
<path style="&st13;" d="M186.75,713.77h2.84"/>
</g>
<g ewd:code="A1" ewd:figID="203" ewd:figtype="gp">
<path style="&st13;" d="M315.65,701.02v4.25"/>
<path style="&st13;" d="M307.15,705.27h17"/>
<path style="&st13;" d="M311.4,708.1h8.5"/>
<path style="&st13;" d="M312.81,710.94h5.67"/>
<path style="&st13;" d="M314.23,713.77h2.83"/>
</g>
<g ewd:code="Q23,Q24" ewd:figID="4" ewd:figtype="conn">
<path style="&st16;" d="M179.67,455.98h17"/>
<path style="&st7;" d="M179.67,447.48h17v25.5h-17V447.48"/>
<path style="&st13;" d="M188.17,447.48v25.5"/>
<path style="&st16;" d="M179.67,464.48h17"/>
<path style="&st7;" d="M192.7,442.95c0-2.5-2.03-4.53-4.53-4.53"/>
<path style="&st7;" d="M188.17,438.42c-2.5,0-4.53,2.03-4.53,4.53"/>
<path style="&st7;" d="M183.64,442.95c0,2.5,2.03,4.53,4.53,4.53"/>
<path style="&st7;" d="M188.17,447.48c2.5,0,4.53-2.03,4.53-4.53"/>
<path style="&st7;" d="M192.7,477.51c0-2.5-2.03-4.53-4.53-4.53"/>
<path style="&st7;" d="M188.17,472.98c-2.5,0-4.53,2.03-4.53,4.53"/>
<path style="&st7;" d="M183.64,477.51c0,2.5,2.03,4.53,4.53,4.53"/>
<path style="&st7;" d="M188.17,482.04c2.5,0,4.53-2.03,4.53-4.53"/>
<text ewd:textID='6' transform='matrix(1 0 0 1 199.814 456.5259)' style='&st6; &st22; &st14;'>Junction <tspan x='0' y='7' >Connector</tspan></text>
<text transform="matrix(1 0 0 1 199.814 449.4263)" style="&st6;"><tspan x="0" y="0" style="&st22; &st14;">Q23(A),Q24(B)</tspan></text>
<text transform="matrix(1 0 0 1 177.2935 444.9165)" style="&st6;"><tspan x="0" y="0" style="&st22; &st14;">6</tspan></text>
<text transform="matrix(1 0 0 1 185.8433 444.9165)" style="&st6;"><tspan x="0" y="0" style="&st22; &st14;">A</tspan></text>
<text transform="matrix(1 0 0 1 177.2935 479.4751)" style="&st6;"><tspan x="0" y="0" style="&st22; &st14;">2</tspan></text>
<text transform="matrix(1 0 0 1 185.8433 479.4751)" style="&st6;"><tspan x="0" y="0" style="&st22; &st14;">B</tspan></text>
</g>
<g ewd:code="A69" ewd:figID="1" ewd:figtype="conn">
<path style="&st13;" d="M256.16,156.4h16.99"/>
<path style="&st7;" d="M256.16,147.9h16.99v17h-16.99V147.9"/>
<text transform="matrix(1 0 0 1 253.6333 172.5107)" style="&st6;"><tspan x="0" y="0" style="&st22; &st14;">A69</tspan></text>
<text ewd:textID='6' transform='matrix(1 0 0 1 253.6333 179.6104)' style='&st6; &st22; &st14;'>Junction <tspan x='0' y='7' >Connector</tspan></text>
<text transform="matrix(1 0 0 1 275.9937 152.7104)" style="&st6;"><tspan x="0" y="0" style="&st22; &st14;">19</tspan></text>
<text transform="matrix(1 0 0 1 246.1938 152.7104)" style="&st6;"><tspan x="0" y="0" style="&st22; &st14;">17</tspan></text>
</g>
<g ewd:code="A70" ewd:figID="5" ewd:figtype="conn">
<path style="&st13;" d="M315.65,438.98v17"/>
<path style="&st7;" d="M307.15,438.98h17v17h-17V438.98"/>
<text transform="matrix(1 0 0 1 305.6831 435.2856)" style="&st6;"><tspan x="0" y="0" style="&st22; &st14;">12</tspan></text>
<text transform="matrix(1 0 0 1 308.8638 464.1665)" style="&st6;"><tspan x="0" y="0" style="&st22; &st14;">6</tspan></text>
<text ewd:textID='6' transform='matrix(0 -1 1 0 338.8638 458.4966)' style='&st6; &st22; &st14;'>Junction <tspan x='0' y='7' >Connector</tspan></text>
<text transform="matrix(0 -1 1 0 331.7632 458.4966)" style="&st6;"><tspan x="0" y="0" style="&st22; &st14;">A70</tspan></text>
</g>
<g ewd:code="Q17,Q27" ewd:figID="3" ewd:figtype="conn">
<path style="&st7;" d="M26.7,523.97v33.99h178.47v-33.99H26.7"/>
<path style="&st7;" d="M192.7,519.44c0-2.51-2.03-4.54-4.53-4.54"/>
<path style="&st7;" d="M188.17,514.9c-2.5,0-4.53,2.03-4.53,4.54"/>
<path style="&st7;" d="M183.64,519.44c0,2.5,2.03,4.53,4.53,4.53"/>
<path style="&st7;" d="M188.17,523.97c2.5,0,4.53-2.03,4.53-4.53"/>
<path style="&st7;" d="M192.7,510.37c0-2.5-2.03-4.53-4.53-4.53"/>
<path style="&st7;" d="M188.17,505.84c-2.5,0-4.53,2.03-4.53,4.53"/>
<path style="&st7;" d="M183.64,510.37c0,2.5,2.03,4.53,4.53,4.53"/>
<path style="&st7;" d="M188.17,514.9c2.5,0,4.53-2.03,4.53-4.53"/>
<path style="&st7;" d="M192.7,562.5c0-2.51-2.03-4.54-4.53-4.54"/>
<path style="&st7;" d="M188.17,557.96c-2.5,0-4.53,2.03-4.53,4.54"/>
<path style="&st7;" d="M183.64,562.5c0,2.5,2.03,4.53,4.53,4.53"/>
<path style="&st7;" d="M188.17,567.03c2.5,0,4.53-2.03,4.53-4.53"/>
<path style="&st7;" d="M192.7,571.56c0-2.5-2.03-4.53-4.53-4.53"/>
<path style="&st7;" d="M188.17,567.03c-2.5,0-4.53,2.03-4.53,4.53"/>
<path style="&st7;" d="M183.64,571.56c0,2.5,2.03,4.53,4.53,4.53"/>
<path style="&st7;" d="M188.17,576.09c2.5,0,4.53-2.03,4.53-4.53"/>
<path style="&st7;" d="M116.21,562.5c0-2.51-2.03-4.54-4.53-4.54"/>
<path style="&st7;" d="M111.68,557.96c-2.5,0-4.53,2.03-4.53,4.54"/>
<path style="&st7;" d="M107.15,562.5c0,2.5,2.03,4.53,4.53,4.53"/>
<path style="&st7;" d="M111.68,567.03c2.5,0,4.53-2.03,4.53-4.53"/>
<path style="&st7;" d="M116.21,571.56c0-2.5-2.03-4.53-4.53-4.53"/>
<path style="&st7;" d="M111.68,567.03c-2.5,0-4.53,2.03-4.53,4.53"/>
<path style="&st7;" d="M107.15,571.56c0,2.5,2.03,4.53,4.53,4.53"/>
<path style="&st7;" d="M111.68,576.09c2.5,0,4.53-2.03,4.53-4.53"/>
<path style="&st7;" d="M48.23,562.5c0-2.51-2.03-4.54-4.54-4.54"/>
<path style="&st7;" d="M43.69,557.96c-2.5,0-4.53,2.03-4.53,4.54"/>
<path style="&st7;" d="M39.16,562.5c0,2.5,2.03,4.53,4.53,4.53"/>
<path style="&st7;" d="M43.69,567.03c2.51,0,4.54-2.03,4.54-4.53"/>
<path style="&st7;" d="M48.23,571.56c0-2.5-2.03-4.53-4.54-4.53"/>
<path style="&st7;" d="M43.69,567.03c-2.5,0-4.53,2.03-4.53,4.53"/>
<path style="&st7;" d="M39.16,571.56c0,2.5,2.03,4.53,4.53,4.53"/>
<path style="&st7;" d="M43.69,576.09c2.51,0,4.54-2.03,4.54-4.53"/>
<text transform="matrix(1 0 0 1 184.4233 531.5962)" style="&st6;"><tspan x="0" y="0" style="&st22; &st14;">IG</tspan></text>
<text transform="matrix(1 0 0 1 180.4731 554.2661)" style="&st6;"><tspan x="0" y="0" style="&st22; &st14;">GND</tspan></text>
<text transform="matrix(1 0 0 1 104.9038 554.2661)" style="&st6;"><tspan x="0" y="0" style="&st22; &st14;">AC2</tspan></text>
<text transform="matrix(1 0 0 1 37.3032 554.2661)" style="&st6;"><tspan x="0" y="0" style="&st22; &st14;">AC1</tspan></text>
<text transform="matrix(1 0 0 1 41.1733 513.1665)" style="&st6;"><tspan x="0" y="0" style="&st22; &st14;">Q17(A),Q27(B)</tspan></text>
<text ewd:textID='8' transform='matrix(1 0 0 1 41.1733 520.2661)' style='&st6; &st22; &st14;'>Voltage Inverter Assembly</text>
<text transform="matrix(1 0 0 1 177.2935 521.4048)" style="&st6;"><tspan x="0" y="0" style="&st22; &st14;">5</tspan></text>
<text transform="matrix(1 0 0 1 185.8433 521.4048)" style="&st6;"><tspan x="0" y="0" style="&st22; &st14;">B</tspan></text>
<text transform="matrix(1 0 0 1 177.2935 512.3364)" style="&st6;"><tspan x="0" y="0" style="&st22; &st14;">5</tspan></text>
<text transform="matrix(1 0 0 1 185.8433 512.3364)" style="&st6;"><tspan x="0" y="0" style="&st22; &st14;">A</tspan></text>
<text transform="matrix(1 0 0 1 178.0737 564.4556)" style="&st6;"><tspan x="0" y="0" style="&st22; &st14;">1</tspan></text>
<text transform="matrix(1 0 0 1 185.8433 564.4556)" style="&st6;"><tspan x="0" y="0" style="&st22; &st14;">A</tspan></text>
<text transform="matrix(1 0 0 1 178.0737 573.5259)" style="&st6;"><tspan x="0" y="0" style="&st22; &st14;">1</tspan></text>
<text transform="matrix(1 0 0 1 185.8433 573.5259)" style="&st6;"><tspan x="0" y="0" style="&st22; &st14;">B</tspan></text>
<text transform="matrix(1 0 0 1 100.8032 564.4556)" style="&st6;"><tspan x="0" y="0" style="&st22; &st14;">8</tspan></text>
<text transform="matrix(1 0 0 1 109.354 564.4556)" style="&st6;"><tspan x="0" y="0" style="&st22; &st14;">A</tspan></text>
<text transform="matrix(1 0 0 1 100.8032 573.5259)" style="&st6;"><tspan x="0" y="0" style="&st22; &st14;">8</tspan></text>
<text transform="matrix(1 0 0 1 109.354 573.5259)" style="&st6;"><tspan x="0" y="0" style="&st22; &st14;">B</tspan></text>
<text transform="matrix(1 0 0 1 32.8237 564.4556)" style="&st6;"><tspan x="0" y="0" style="&st22; &st14;">4</tspan></text>
<text transform="matrix(1 0 0 1 41.3638 564.4556)" style="&st6;"><tspan x="0" y="0" style="&st22; &st14;">A</tspan></text>
<text transform="matrix(1 0 0 1 32.8237 573.5259)" style="&st6;"><tspan x="0" y="0" style="&st22; &st14;">4</tspan></text>
<text transform="matrix(1 0 0 1 41.3638 573.5259)" style="&st6;"><tspan x="0" y="0" style="&st22; &st14;">B</tspan></text>
</g>
<g ewd:code="Q22" ewd:figID="2" ewd:figtype="conn">
<path style="&st7;" d="M26.7,617.45v34h101.98v-34H26.7"/>
<text transform="matrix(1 0 0 1 41.3638 625.0864)" style="&st6;"><tspan x="0" y="0" style="&st22; &st14;">B</tspan></text>
<text transform="matrix(1 0 0 1 109.354 625.0864)" style="&st6;"><tspan x="0" y="0" style="&st22; &st14;">E</tspan></text>
<text transform="matrix(1 0 0 1 36.9038 613.7563)" style="&st6;"><tspan x="0" y="0" style="&st22; &st14;">5</tspan></text>
<text transform="matrix(1 0 0 1 104.894 613.7563)" style="&st6;"><tspan x="0" y="0" style="&st22; &st14;">8</tspan></text>
<text ewd:textID='7' transform='matrix(0 -1 1 0 23.0034 653.9653)' style='&st6; &st22; &st14;'>Power Outlet Socket</text>
<text transform="matrix(0 -1 1 0 15.894 653.9653)" style="&st6;"><tspan x="0" y="0" style="&st22; &st14;">Q22</tspan></text>
<text transform="matrix(1 0 0 1 103.9839 647.7466)" style="&st6;"><tspan x="0" y="0" style="&st22; &st14;">GND</tspan></text>
<text transform="matrix(1 0 0 1 105.6733 659.6353)" style="&st6;"><tspan x="0" y="0" style="&st22; &st14;">1</tspan></text>
</g>
<path style="&st1;" d="M52.19,562.5h46.74"/>
<path style="&st1;" d="M52.19,571.56h46.74"/>
<path style="&st1;" d="M120.18,562.5h55.24"/>
<path style="&st1;" d="M120.18,571.56h55.24"/>
<path style="&st1;" d="M196.95,194.64h8.49"/>
<path style="&st1;" d="M196.95,203.7h8.49"/>
<path style="&st1;" d="M196.95,279.59h8.49"/>
<path style="&st1;" d="M196.95,288.65h8.49"/>
<text transform="matrix(1 0 0 1 228.6841 152.7007)" style="&st6;"><tspan x="0" y="0" style="&st22; &st14;">L</tspan></text>
<text transform="matrix(1 0 0 1 296.6733 152.7007)" style="&st6;"><tspan x="0" y="0" style="&st22; &st14;">L</tspan></text>
<text transform="matrix(0 -1 1 0 184.4731 158.7305)" style="&st6;"><tspan x="0" y="0" style="&st22; &st14;">P</tspan></text>
<text transform="matrix(0 -1 1 0 209.9731 317.0708)" style="&st6;"><tspan x="0" y="0" style="&st22; &st14;">W-B</tspan></text>
<text transform="matrix(0 -1 1 0 184.4731 314.1104)" style="&st6;"><tspan x="0" y="0" style="&st22; &st14;">LG</tspan></text>
<text transform="matrix(0 -1 1 0 184.4731 426.7153)" style="&st6;"><tspan x="0" y="0" style="&st22; &st14;">LG</tspan></text>
<text transform="matrix(0 -1 1 0 311.9536 489.1763)" style="&st6;"><tspan x="0" y="0" style="&st22; &st14;">W-B</tspan></text>
<text transform="matrix(0 -1 1 0 40.0034 594.4263)" style="&st6;"><tspan x="0" y="0" style="&st22; &st14;">R</tspan></text>
<text transform="matrix(0 -1 1 0 107.9937 593.9263)" style="&st6;"><tspan x="0" y="0" style="&st22; &st14;">L</tspan></text>
<text transform="matrix(0 -1 1 0 184.4731 599.6548)" style="&st6;"><tspan x="0" y="0" style="&st22; &st14;">W-B</tspan></text>
<text transform="matrix(0 -1 1 0 184.4731 375.7251)" style="&st6;"><tspan x="0" y="0" style="&st22; &st14;">LG</tspan></text>
<text transform="matrix(0 -1 1 0 184.4731 498.9556)" style="&st6;"><tspan x="0" y="0" style="&st22; &st14;">LG</tspan></text>
<text transform="matrix(1 0 0 1 198.0835 351.7158)" style="&st6;"><tspan x="0" y="0" style="&st22; &st14;">(LHD)</tspan></text>
<text transform="matrix(1 0 0 1 198.0835 343.2158)" style="&st6;"><tspan x="0" y="0" style="&st22; &st14;">(RHD)</tspan></text>
<text ewd:textID='2' transform='matrix(1 0 0 1 15.6733 84.0059)' style='&st6; &st22; &st14;'>* 2 :3-Door</text>
<text ewd:textID='3' transform='matrix(1 0 0 1 15.6733 92.5059)' style='&st6; &st22; &st14;'>* 3 :Except *4</text>
<text ewd:textID='4' transform='matrix(1 0 0 1 15.6733 101.0059)' style='&st6; &st22; &st14;'>* 4 :1GD-FTV w/ Urea SCR</text>
<text ewd:textID='1' transform='matrix(1 0 0 1 15.6733 75.5059)' style='&st6; &st22; &st14;'>* 1 :5-Door</text>
<text transform="matrix(1 0 0 1 194.144 521.4048)" style="&st6;"><tspan x="0" y="0" style="&st22; &st14;">(*2)</tspan></text>
<text transform="matrix(1 0 0 1 194.144 512.3364)" style="&st6;"><tspan x="0" y="0" style="&st22; &st14;">(*1)</tspan></text>
<text transform="matrix(1 0 0 1 222.001 196.6104)" style="&st6;"><tspan x="0" y="0" style="&st22; &st14;">(*3)</tspan></text>
<text transform="matrix(1 0 0 1 222.001 205.1104)" style="&st6;"><tspan x="0" y="0" style="&st22; &st14;">(*4)</tspan></text>
<text transform="matrix(1 0 0 1 222.001 281.564)" style="&st6;"><tspan x="0" y="0" style="&st22; &st14;">(*3)</tspan></text>
<text transform="matrix(1 0 0 1 222.001 290.064)" style="&st6;"><tspan x="0" y="0" style="&st22; &st14;">(*4)</tspan></text>
<text transform="matrix(1 0 0 1 194.144 564.4556)" style="&st6;"><tspan x="0" y="0" style="&st22; &st14;">(*1)</tspan></text>
<text transform="matrix(1 0 0 1 194.144 573.5259)" style="&st6;"><tspan x="0" y="0" style="&st22; &st14;">(*2)</tspan></text>
<text transform="matrix(0 -1 1 0 107.9937 680.3853)" style="&st6;"><tspan x="0" y="0" style="&st22; &st14;">W-B</tspan></text>
</svg>
