﻿<?xml version="1.0" encoding="UTF-8"?>
<!DOCTYPE svg PUBLIC "-//W3C//DTD SVG 1.0//EN" "http://www.w3.org/TR/2001/REC-SVG-20010904/DTD/svg10.dtd"[
<!ENTITY ns_flows "http://ns.adobe.com/Flows/1.0/">
<!ENTITY ns_svg "http://www.w3.org/2000/svg">
<!ENTITY ns_xlink "http://www.w3.org/1999/xlink">
	<!ENTITY st0 "fill:none;stroke:#F8E616;stroke-width:5.1;stroke-linejoin:round;">
	<!ENTITY st1 "fill:none;stroke:#FB0F0C;stroke-width:5.1;stroke-linejoin:round;">
	<!ENTITY st2 "fill:none;stroke:#9A9999;stroke-width:5.1;stroke-linejoin:round;">
		<!ENTITY st3 "fill:none;stroke:#000000;stroke-width:0.85;stroke-linecap:round;stroke-linejoin:round;stroke-dasharray:3 1.5;enable-background:new    ;">
	<!ENTITY st4 "fill:none;stroke:#000000;stroke-width:5.1;stroke-linejoin:round;">
	<!ENTITY st5 "fill:none;stroke:#199DBF;stroke-width:1.13;stroke-linejoin:round;">
	<!ENTITY st6 "fill:none;stroke:#000000;stroke-linecap:round;stroke-linejoin:round;">
	<!ENTITY st7 "stroke:#000000;stroke-width:0.28;stroke-linecap:round;stroke-linejoin:round;enable-background:new    ;">
	<!ENTITY st8 "enable-background:new    ;">
		<!ENTITY st9 "fill:none;stroke:#000000;stroke-width:1.42;stroke-linecap:round;stroke-linejoin:round;enable-background:new    ;">
	<!ENTITY st10 "fill:none;stroke:#EE67AA;stroke-width:5.1;stroke-linejoin:round;">
	<!ENTITY st11 "fill:none;stroke:#199DBF;stroke-width:5.1;stroke-linejoin:round;">
	<!ENTITY st12 "opacity:0.5;fill:none;stroke:#34ACCE;stroke-linejoin:round;stroke-dasharray:6;">
	<!ENTITY st13 "fill:none;stroke:#FFFFFF;stroke-width:4.53;stroke-linejoin:round;">
		<!ENTITY st14 "fill:none;stroke:#000000;stroke-width:0.85;stroke-linecap:round;stroke-linejoin:round;enable-background:new    ;">
	<!ENTITY st15 "fill:none;stroke:#56107C;stroke-width:5.1;stroke-linejoin:round;">
	<!ENTITY st16 "font-size:6px;">
	<!ENTITY st17 "fill:none;stroke:#FFFFFF;stroke-width:1.13;stroke-linejoin:round;">
	<!ENTITY st18 "fill:none;stroke:#168638;stroke-width:5.1;stroke-linejoin:round;">
	<!ENTITY st19 "fill:none;stroke:#000000;stroke-width:1.13;stroke-linejoin:round;">
		<!ENTITY st20 "fill:none;stroke:#000000;stroke-width:1.13;stroke-linecap:round;stroke-linejoin:round;stroke-dasharray:3 1.5;enable-background:new    ;">
	<!ENTITY st21 "fill:#FFFFFF;stroke:#000000;stroke-width:1.41;stroke-linecap:round;stroke-linejoin:round;">
	<!ENTITY st22 "fill:none;stroke:#3E65AC;stroke-width:3;">
	<!ENTITY st23 "fill:#CCCCCC;stroke:#CCCCCC;stroke-width:0.1;stroke-linecap:round;stroke-linejoin:round;">
	<!ENTITY st24 "font-family:'Arial';">
	<!ENTITY st25 "opacity:0.5;fill:none;stroke:#34ACCE;stroke-linejoin:round;">
	<!ENTITY st26 "fill:#CFE6E7;stroke:#000000;stroke-width:1.133;stroke-linecap:round;stroke-linejoin:round;">
	<!ENTITY st27 "fill:none;stroke:#99D5E0;stroke-width:5.1;stroke-linejoin:round;">
	<!ENTITY st28 "fill:none;stroke:#7EC57E;stroke-width:5.1;stroke-linejoin:round;">
<!ATTLIST svg
xmlns:ewd CDATA #FIXED "http://shcl.co.jp/ewd"
xmlns:a CDATA #FIXED "http://ns.adobe.com/AdobeSVGViewerExtensions/3.0/"
ewd:ver CDATA #IMPLIED
>
<!ATTLIST a
ewd:lineID CDATA #IMPLIED
ewd:groupID CDATA #IMPLIED
ewd:figtype CDATA #IMPLIED
ewd:code CDATA #IMPLIED
ewd:figID CDATA #IMPLIED
ewd:pinNo CDATA #IMPLIED
ewd:comment CDATA #IMPLIED >
<!ATTLIST g
ewd:lineID CDATA #IMPLIED
ewd:groupID CDATA #IMPLIED
ewd:figtype CDATA #IMPLIED
ewd:code CDATA #IMPLIED
ewd:figID CDATA #IMPLIED
ewd:pinNo CDATA #IMPLIED
ewd:comment CDATA #IMPLIED >
<!ATTLIST text
ewd:textID CDATA #IMPLIED >
<!ATTLIST title
ewd:textID CDATA #IMPLIED >
]>
<svg 
viewBox='0 0 3113.46 729.44'
height='729.44'
width='3113.46'
xml:space="preserve"
xmlns="&ns_svg;"
xmlns:ewd="http://shcl.co.jp/ewd"
xmlns:xlink="&ns_xlink;" ewd:ver="L2.3">
<g ewd:code="GR1" ewd:figID="605" ewd:figtype="w2w" ewd:pinNo="2">
<path style="&st9;" d="M760.16,235.01h-8.49"/>
<path style="&st9;" d="M755.91,244.07l-4.25-4.25l-4.24,4.25"/>
<path style="&st9;" d="M755.91,240.67l-4.25-4.25l-4.24,4.25"/>
<text transform="matrix(1 0 0 1 736.8359 232.7339)" style="&st8;"><tspan x="0" y="0" style="&st24; &st16;">2</tspan></text>
</g>
<g ewd:code="Rd1" ewd:figID="604" ewd:figtype="w2w" ewd:pinNo="3">
<path style="&st9;" d="M760.16,311.49h-8.49"/>
<path style="&st9;" d="M755.91,320.56l-4.25-4.25l-4.24,4.25"/>
<path style="&st9;" d="M755.91,317.16l-4.25-4.25l-4.24,4.25"/>
<text transform="matrix(1 0 0 1 736.8359 309.2144)" style="&st8;"><tspan x="0" y="0" style="&st24; &st16;">3</tspan></text>
</g>
<g ewd:code="3JB" ewd:figID="307" ewd:figtype="jb">
<path style="&st9;" d="M711.3,65.04h-4.25"/>
<path style="&st9;" d="M711.3,73.53h-4.25"/>
<path style="&st9;" d="M711.3,99.03h-4.25"/>
<path style="&st9;" d="M711.3,107.53h-4.25"/>
<path style="&st7;" d="M709.17,78.43l2.83,2.83v-4.25l-2.83-2.83l-2.83,2.83v4.25L709.17,78.43"/>
<path style="&st7;" d="M709.17,94.13l-2.83-2.83v4.25l2.83,2.83l2.83-2.83V91.3L709.17,94.13"/>
<path style="&st14;" d="M709.17,99.03v-25.5"/>
<path style="&st9;" d="M707.05,65.04c-2.35,0-4.25,1.9-4.25,4.24"/>
<path style="&st9;" d="M702.8,69.28c0,2.35,1.9,4.25,4.25,4.25"/>
<path style="&st9;" d="M711.3,73.53c2.34,0,4.25-1.9,4.25-4.25"/>
<path style="&st9;" d="M715.55,69.28c0-2.34-1.91-4.24-4.25-4.24"/>
<path style="&st9;" d="M707.05,99.03c-2.35,0-4.25,1.9-4.25,4.25"/>
<path style="&st9;" d="M702.8,103.28c0,2.35,1.9,4.25,4.25,4.25"/>
<path style="&st9;" d="M711.3,107.53c2.34,0,4.25-1.9,4.25-4.25"/>
<path style="&st9;" d="M715.55,103.28c0-2.35-1.91-4.25-4.25-4.25"/>
<text transform="matrix(1 0 0 1 704.8633 71.2544)" style="&st8;"><tspan x="0" y="0" style="&st24; &st16;">3A</tspan></text>
<text transform="matrix(1 0 0 1 692.5332 71.2544)" style="&st8;"><tspan x="0" y="0" style="&st24; &st16;">80</tspan></text>
<text transform="matrix(1 0 0 1 704.8633 105.2544)" style="&st8;"><tspan x="0" y="0" style="&st24; &st16;">3A</tspan></text>
<text transform="matrix(1 0 0 1 692.5332 105.2544)" style="&st8;"><tspan x="0" y="0" style="&st24; &st16;">92</tspan></text>
</g>
<g ewd:code="d3" ewd:figID="13" ewd:figtype="conn">
<path style="&st9;" d="M781.41,577.78h8.5"/>
<path style="&st9;" d="M781.41,573.82v3.96"/>
<path style="&st9;" d="M789.91,577.78v-3.96"/>
<path style="&st9;" d="M781.41,555.13h8.5"/>
<path style="&st9;" d="M781.41,559.09v-3.97"/>
<path style="&st9;" d="M789.91,555.13v3.97"/>
<path style="&st9;" d="M675.18,583.46h84.98v-25.5h-84.98V583.46"/>
<path style="&st9;" d="M666.68,617.44h161.47v-93.48H666.68V617.44"/>
<path style="&st14;" d="M683.68,523.96v33.99"/>
<path style="&st14;" d="M717.67,523.96v33.99"/>
<path style="&st14;" d="M751.66,523.96v33.99"/>
<path style="&st14;" d="M785.66,523.96v31.16"/>
<path style="&st14;" d="M785.66,577.78v31.16h33.99v-84.98"/>
<path style="&st9;" d="M777.16,566.46c0,4.69,3.81,8.5,8.5,8.5"/>
<path style="&st9;" d="M785.66,574.96c4.69,0,8.5-3.81,8.5-8.5"/>
<path style="&st9;" d="M794.16,566.46c0-4.69-3.81-8.5-8.5-8.5"/>
<path style="&st9;" d="M785.66,557.96c-4.69,0-8.5,3.81-8.5,8.5"/>
<text transform="matrix(1 0 0 1 812.8633 520.2734)" style="&st8;"><tspan x="0" y="0" style="&st24; &st16;">4</tspan></text>
<text transform="matrix(1 0 0 1 778.873 520.2734)" style="&st8;"><tspan x="0" y="0" style="&st24; &st16;">3</tspan></text>
<text transform="matrix(1 0 0 1 710.8828 520.2734)" style="&st8;"><tspan x="0" y="0" style="&st24; &st16;">5</tspan></text>
<text transform="matrix(1 0 0 1 744.8828 520.2734)" style="&st8;"><tspan x="0" y="0" style="&st24; &st16;">2</tspan></text>
<text transform="matrix(1 0 0 1 782.7627 568.4238)" style="&st8;"><tspan x="0" y="0" style="&st24; &st16;">M</tspan></text>
<text ewd:textID='15' transform='matrix(1 0 0 1 694.7832 591.084)' style='&st8; &st24; &st16;'>Hall IC Sensor</text>
<text ewd:textID='27' transform='matrix(0 -1 1 0 801.8027 580.834)' style='&st8; &st24; &st16;'>Reclining <tspan x='0' y='7' >Motor</tspan></text>
<text ewd:textID='21' transform='matrix(1 0 0 1 672.6533 632.1641)' style='&st8; &st24; &st16;'>No. 3 Seat Back Frame Sub-Assembly LH</text>
<text transform="matrix(1 0 0 1 672.6533 625.0547)" style="&st8;"><tspan x="0" y="0" style="&st24; &st16;">d3</tspan></text>
<text transform="matrix(1 0 0 1 676.8926 520.2734)" style="&st8;"><tspan x="0" y="0" style="&st24; &st16;">6</tspan></text>
</g>
<text transform="matrix(0 -1 1 0 759.3027 198.6943)" style="&st8;"><tspan x="0" y="0" style="&st24; &st16;">(*2)</tspan></text>
<text transform="matrix(0 -1 1 0 747.9727 387.0938)" style="&st8;"><tspan x="0" y="0" style="&st24; &st16;">W</tspan></text>
<text transform="matrix(0 -1 1 0 747.9727 266.7339)" style="&st8;"><tspan x="0" y="0" style="&st24; &st16;">L</tspan></text>
<text transform="matrix(0 -1 1 0 747.9727 194.4941)" style="&st8;"><tspan x="0" y="0" style="&st24; &st16;">L</tspan></text>
<text transform="matrix(0 -1 1 0 682.8232 67.7339)" style="&st8;"><tspan x="0" y="0" style="&st24; &st16;">(*3 *2)</tspan></text>
<text transform="matrix(0 -1 1 0 815.9629 491.9434)" style="&st8;"><tspan x="0" y="0" style="&st24; &st16;">L</tspan></text>
<text transform="matrix(0 -1 1 0 781.9629 492.2949)" style="&st8;"><tspan x="0" y="0" style="&st24; &st16;">B</tspan></text>
<text transform="matrix(0 -1 1 0 747.9727 494.7051)" style="&st8;"><tspan x="0" y="0" style="&st24; &st16;">LG</tspan></text>
<text transform="matrix(0 -1 1 0 713.9834 495.1934)" style="&st8;"><tspan x="0" y="0" style="&st24; &st16;">GR</tspan></text>
<text transform="matrix(0 -1 1 0 679.9834 493.3242)" style="&st8;"><tspan x="0" y="0" style="&st24; &st16;">W</tspan></text>
<text transform="matrix(1 0 0 1 535.9727 137.834)" style="&st8;"><tspan x="0" y="0" style="&st24; &st16;">L(RHD)</tspan></text>
<text transform="matrix(1 0 0 1 535.9727 154.8242)" style="&st8;"><tspan x="0" y="0" style="&st24; &st16;">L(RHD)</tspan></text>
<text transform="matrix(1 0 0 1 1000.3232 35.8442)" style="&st8;"><tspan x="0" y="0" style="&st24; &st16;">L(A/T *3)</tspan></text>
<text transform="matrix(1 0 0 1 800.1328 262.4741)" style="&st8;"><tspan x="0" y="0" style="&st24; &st16;">* 2 :RHD A/T</tspan></text>
<text transform="matrix(1 0 0 1 800.1328 253.9741)" style="&st8;"><tspan x="0" y="0" style="&st24; &st16;">* 1 :LHD A/T</tspan></text>
<text transform="matrix(1 0 0 1 536.4727 350.2939)" style="&st8;"><tspan x="0" y="0" style="&st24; &st16;">L(LHD)</tspan></text>
<text transform="matrix(1 0 0 1 536.4727 333.2944)" style="&st8;"><tspan x="0" y="0" style="&st24; &st16;">L(LHD)</tspan></text>
<text transform="matrix(0 -1 1 0 705.4834 194.4941)" style="&st8;"><tspan x="0" y="0" style="&st24; &st16;">L</tspan></text>
<text transform="matrix(0 -1 1 0 716.8125 203.3242)" style="&st8;"><tspan x="0" y="0" style="&st24; &st16;">(*3 *1)</tspan></text>
<text transform="matrix(0 -1 1 0 671.4834 58.5142)" style="&st8;"><tspan x="0" y="0" style="&st24; &st16;">L</tspan></text>
<text transform="matrix(0 -1 1 0 759.3027 391.5439)" style="&st8;"><tspan x="0" y="0" style="&st24; &st16;">(A/T)</tspan></text>
<text transform="matrix(0 -1 1 0 759.3027 272.564)" style="&st8;"><tspan x="0" y="0" style="&st24; &st16;">(A/T)</tspan></text>
<text transform="matrix(1 0 0 1 732.6934 35.8442)" style="&st8;"><tspan x="0" y="0" style="&st24; &st16;">L</tspan></text>
<text transform="matrix(1 0 0 1 721.8525 47.1743)" style="&st8;"><tspan x="0" y="0" style="&st24; &st16;">(A/T *3)</tspan></text>
<text ewd:textID='2' transform='matrix(1 0 0 1 800.1328 270.9741)' style='&st8; &st24; &st16;'>* 3 :For production through approximately Jan. 2011</text>
<text ewd:textID='3' transform='matrix(1 0 0 1 800.1328 279.4741)' style='&st8; &st24; &st16;'>* 4 :For production from approximately Jan. 2011</text>
<text transform="matrix(0 -1 1 0 841.4531 194.4941)" style="&st8;"><tspan x="0" y="0" style="&st24; &st16;">L</tspan></text>
<text transform="matrix(0 -1 1 0 852.793 203.3242)" style="&st8;"><tspan x="0" y="0" style="&st24; &st16;">(*4 *1)</tspan></text>
</svg>
