﻿<?xml version="1.0" encoding="UTF-8"?>
<!DOCTYPE svg PUBLIC "-//W3C//DTD SVG 1.0//EN" "http://www.w3.org/TR/2001/REC-SVG-20010904/DTD/svg10.dtd"[
<!ENTITY ns_flows "http://ns.adobe.com/Flows/1.0/">
<!ENTITY ns_svg "http://www.w3.org/2000/svg">
<!ENTITY ns_xlink "http://www.w3.org/1999/xlink">
	<!ENTITY st0 "fill:none;stroke:#FB0F0C;stroke-width:5.1;stroke-linejoin:round;">
		<!ENTITY st1 "fill:none;stroke:#000000;stroke-width:0.85;stroke-linecap:round;stroke-linejoin:round;stroke-dasharray:3 1.5;enable-background:new    ;">
	<!ENTITY st2 "fill:none;stroke:#000000;stroke-width:5.1;stroke-linejoin:round;">
	<!ENTITY st3 "fill:none;stroke:#000000;stroke-linecap:round;stroke-linejoin:round;">
	<!ENTITY st4 "fill:#1D63A2;">
	<!ENTITY st5 "stroke:#000000;stroke-width:0.28;stroke-linecap:round;stroke-linejoin:round;enable-background:new    ;">
	<!ENTITY st6 "enable-background:new    ;">
		<!ENTITY st7 "fill:none;stroke:#000000;stroke-width:1.42;stroke-linecap:round;stroke-linejoin:round;enable-background:new    ;">
	<!ENTITY st8 "fill:none;stroke:#EE67AA;stroke-width:5.1;stroke-linejoin:round;">
	<!ENTITY st9 "fill:none;stroke:#199DBF;stroke-width:5.1;stroke-linejoin:round;">
	<!ENTITY st10 "opacity:0.5;fill:none;stroke:#34ACCE;stroke-linejoin:round;stroke-dasharray:6;">
	<!ENTITY st11 "fill:none;stroke:#FFFFFF;stroke-width:4.53;stroke-linejoin:round;">
	<!ENTITY st12 "fill:#F6140D;">
		<!ENTITY st13 "fill:none;stroke:#000000;stroke-width:0.85;stroke-linecap:round;stroke-linejoin:round;enable-background:new    ;">
	<!ENTITY st14 "font-size:6px;">
	<!ENTITY st15 "fill:none;stroke:#000000;stroke-width:1.13;stroke-linejoin:round;">
		<!ENTITY st16 "fill:none;stroke:#000000;stroke-width:1.13;stroke-linecap:round;stroke-linejoin:round;stroke-dasharray:3 1.5;enable-background:new    ;">
	<!ENTITY st17 "fill:#FFFFFF;stroke:#000000;stroke-width:1.41;stroke-linecap:round;stroke-linejoin:round;">
	<!ENTITY st18 "fill:none;stroke:#3E65AC;stroke-width:3;">
	<!ENTITY st19 "display:inline;">
	<!ENTITY st20 "fill:#CCCCCC;stroke:#CCCCCC;stroke-width:0.1;stroke-linecap:round;stroke-linejoin:round;">
	<!ENTITY st21 "stroke:#FFFFFF;stroke-width:2;">
	<!ENTITY st22 "font-family:'Arial';">
	<!ENTITY st23 "opacity:0.5;fill:none;stroke:#34ACCE;stroke-linejoin:round;">
	<!ENTITY st24 "fill:#CFE6E7;stroke:#000000;stroke-width:1.133;stroke-linecap:round;stroke-linejoin:round;">
	<!ENTITY st25 "font-size:12px;">
	<!ENTITY st26 "display:none;">
	<!ENTITY st27 "fill:none;stroke:#7EC57E;stroke-width:5.1;stroke-linejoin:round;">
<!ATTLIST svg
xmlns:ewd CDATA #FIXED "http://shcl.co.jp/ewd"
xmlns:a CDATA #FIXED "http://ns.adobe.com/AdobeSVGViewerExtensions/3.0/"
ewd:ver CDATA #IMPLIED
>
<!ATTLIST a
ewd:lineID CDATA #IMPLIED
ewd:groupID CDATA #IMPLIED
ewd:figtype CDATA #IMPLIED
ewd:code CDATA #IMPLIED
ewd:figID CDATA #IMPLIED
ewd:pinNo CDATA #IMPLIED
ewd:comment CDATA #IMPLIED >
<!ATTLIST g
ewd:lineID CDATA #IMPLIED
ewd:groupID CDATA #IMPLIED
ewd:figtype CDATA #IMPLIED
ewd:code CDATA #IMPLIED
ewd:figID CDATA #IMPLIED
ewd:pinNo CDATA #IMPLIED
ewd:comment CDATA #IMPLIED >
<!ATTLIST text
ewd:textID CDATA #IMPLIED >
<!ATTLIST title
ewd:textID CDATA #IMPLIED >
]>
<svg onload="call_execInitLoadProc_svg('system')"
style='overflow:visible;enable-background:new 0 0 652 729.44'
viewBox='0 0 652 729.44'
height='729.44'
width='652'
xml:space="preserve"
xmlns="&ns_svg;"
xmlns:ewd="http://shcl.co.jp/ewd"
xmlns:a="http://ns.adobe.com/AdobeSVGViewerExtensions/3.0/"
xmlns:xlink="&ns_xlink;" ewd:ver="L2.3">
<style type="text/css">
</style>
<script type="text/javascript" xlink:href="../../../../../system/js/ewd/fig/svgfig.js"/>
<defs>
<font horiz-adv-x="1229">
<font-face font-family="Svg Symbol" units-per-em="2048" panose-1="5 5 1 2 1 7 6 2 5 7" ascent="2059" descent="450" alphabetic="0"/>
<missing-glyph d="M 103,0 l 0,1280 1024,0 0,-1280 -1024,0 z m 32,32 l 960,0 0,1216 -960,0 0,-1216 z"/>
<glyph unicode="&#xF057;" horiz-adv-x="1573" d="M 1517,0 l -567,0 24,279 q 141,59 207.5,168 66.5,109 66.5,306    0,272 -132.5,417.5 -132.5,145.5 -333.5,145.5 -194,0 -328,-147.5 -134,-147.5 -134,-401.5 0,-200 68.5,-319 68.5,-119     206.5,-169 l 25,-279 -564,0 0,279 35,0 q 3,-61 32,-83 45,-35 137,-35 l 270,0 0,70 q -210,61 -324.5,209 -114.5,148     -114.5,349 0,252 186.5,425 186.5,173 504.5,173 195,0 358.5,-73.5 163.5,-73.5 252,-214.5 88.5,-141 88.5,-310 0,-207     -121.5,-360.5 -121.5,-153.5 -317.5,-197.5 l -8,-70 275,0 q 92,0 128,28 36,28 42,90 l 38,0 0,-279 z"/>
</font>
</defs>
<g id="ewd_top">
<a ewd:lineID="2" style="cursor:pointer;">
<path style="&st8;" d="M 188.17 , 107.54 L 188.17 , 190.39"/>
</a>
<a ewd:lineID="6" style="cursor:pointer;">
<path style="&st9;" d="M 273.15 , 156.4 L 315.65 , 156.4 L 315.65 , 107.54"/>
</a>
<a ewd:lineID="5" style="cursor:pointer;">
<path style="&st9;" d="M 213.66 , 190.39 L 213.66 , 156.4 L 256.16 , 156.4"/>
</a>
<a ewd:lineID="4" style="cursor:pointer;">
<path style="&st2;" d="M 213.66 , 292.34 L 213.66 , 328.49 L 315.65 , 328.49 L 315.65 , 438.97"/>
<path style="&st11;" d="M 213.66 , 292.34 L 213.66 , 328.49 L 315.65 , 328.49 L 315.65 , 438.97"/>
<path style="&st15;" d="M 213.66 , 292.34 L 213.66 , 328.49 L 315.65 , 328.49 L 315.65 , 438.97"/>
</a>
<a ewd:lineID="1" style="cursor:pointer;">
<path style="&st27;" d="M 188.17 , 292.34 L 188.17 , 330.76"/>
</a>
<a ewd:lineID="3" style="cursor:pointer;">
<path style="&st27;" d="M 188.17 , 354 L 188.17 , 387.99"/>
</a>
<a ewd:lineID="11" style="cursor:pointer;">
<path style="&st27;" d="M 188.17 , 402.72 L 188.17 , 438.42"/>
</a>
<a ewd:lineID="13" style="cursor:pointer;">
<path style="&st2;" d="M 315.65 , 455.98 L 315.65 , 685.44"/>
<path style="&st11;" d="M 315.65 , 455.98 L 315.65 , 685.44"/>
<path style="&st15;" d="M 315.65 , 455.98 L 315.65 , 685.44"/>
</a>
<a ewd:lineID="10" style="cursor:pointer;">
<path style="&st27;" d="M 188.17 , 482.04 L 188.17 , 505.84"/>
</a>
<a ewd:lineID="12" style="cursor:pointer;">
<path style="&st2;" d="M 188.17 , 685.44 L 188.17 , 576.09"/>
<path style="&st11;" d="M 188.17 , 685.44 L 188.17 , 576.09"/>
<path style="&st15;" d="M 188.17 , 685.44 L 188.17 , 576.09"/>
</a>
<a ewd:lineID="8" style="cursor:pointer;">
<path style="&st9;" d="M 111.68 , 576.09 L 111.68 , 617.45"/>
</a>
<a ewd:lineID="7" style="cursor:pointer;">
<path style="&st0;" d="M 43.69 , 576.09 L 43.69 , 617.45"/>
</a>
<a ewd:lineID="9" style="cursor:pointer;">
<path style="&st2;" d="M 111.68 , 685.44 L 111.68 , 651.45"/>
<path style="&st11;" d="M 111.68 , 685.44 L 111.68 , 651.45"/>
<path style="&st15;" d="M 111.68 , 685.44 L 111.68 , 651.45"/>
</a>
<a ewd:code="GQ1" ewd:figtype="w2w" style="cursor:pointer;" ewd:figID="603">
<path style="&st17;" d="M196.67,387.99h-17v8.5h17V387.99"/>
<text transform="matrix(1 0 0 1 181.8379 394.7251)" style="&st6;"><tspan x="0" y="0" style="&st22; &st14;">GQ1</tspan></text>
</a>
<a ewd:code="GA6" ewd:figtype="w2w" style="cursor:pointer;" ewd:figID="602">
<path style="&st17;" d="M196.67,345.5h-17v8.5h17V345.5"/>
<text transform="matrix(1 0 0 1 182.1704 352.2358)" style="&st6;"><tspan x="0" y="0" style="&st22; &st14;">GA6</tspan></text>
</a>
<a ewd:code="GA6" ewd:figtype="w2w" style="cursor:pointer;" ewd:figID="601">
<path style="&st17;" d="M196.67,337h-17v8.5h17V337"/>
<text transform="matrix(1 0 0 1 182.1704 343.7358)" style="&st6;"><tspan x="0" y="0" style="&st22; &st14;">GA6</tspan></text>
</a>
<a ewd:code="1,5" ewd:figtype="rb" style="cursor:pointer;" ewd:figID="402">
<path style="&st24;" d="M222.16,224.39h-42.49v33.99h42.49V224.39"/>
</a>
<a ewd:code="FUSE25" ewd:figtype="rb" style="cursor:pointer;" ewd:figID="401">
<path style="&st24;" d="M175.42,39.55v42.49h25.5V39.55H175.42"/>
</a>
<a ewd:code="2" ewd:figtype="jb" style="cursor:pointer;" ewd:figID="301">
<path style="&st20;" d="M298.65,39.55v67.99h67.99V39.55H298.65"/>
</a>
<a ewd:code="Q2" ewd:figtype="gp" style="cursor:pointer;" ewd:figID="201">
<path style="&st17;" d="M101.06,685.44h21.24l-10.62,15.58L101.06,685.44"/>
<text transform="matrix(1 0 0 1 106.7036 693.5962)" style="&st6;"><tspan x="0" y="0" style="&st22; &st14;">Q2</tspan></text>
</a>
<a ewd:code="Q1" ewd:figtype="gp" style="cursor:pointer;" ewd:figID="202">
<path style="&st17;" d="M177.55,685.44h21.24l-10.62,15.58L177.55,685.44"/>
<text transform="matrix(1 0 0 1 183.604 693.5962)" style="&st6;"><tspan x="0" y="0" style="&st22; &st14;">Q1</tspan></text>
</a>
<a ewd:code="A1" ewd:figtype="gp" style="cursor:pointer;" ewd:figID="203">
<path style="&st17;" d="M305.02,685.44h21.25l-10.62,15.58L305.02,685.44"/>
<text transform="matrix(1 0 0 1 311.5229 693.5962)" style="&st6;"><tspan x="0" y="0" style="&st22; &st14;">A1</tspan></text>
</a>
<a ewd:code="FUSE25" ewd:figtype="fuse" style="cursor:pointer;" ewd:figID="101">
<path style="&st7;" d="M175.42,39.55v42.49h25.5V39.55H175.42"/>
</a>
<a ewd:code="FUSE75" ewd:figtype="fuse" style="cursor:pointer;" ewd:figID="102">
<path style="&st7;" d="M302.9,39.55v42.49h25.5V39.55H302.9"/>
</a>
<a ewd:code="Q23,Q24" ewd:figtype="conn" style="cursor:pointer;" ewd:figID="4">
<path style="&st24;" d="M179.67,447.48h17v25.5h-17V447.48"/>
<title ewd:textID="6">Junction Connector</title>
</a>
<a ewd:code="A69" ewd:figtype="conn" style="cursor:pointer;" ewd:figID="1">
<path style="&st24;" d="M256.16,147.9h16.99v17h-16.99V147.9"/>
<title ewd:textID="6">Junction Connector</title>
</a>
<a ewd:code="A70" ewd:figtype="conn" style="cursor:pointer;" ewd:figID="5">
<path style="&st24;" d="M307.15,438.98h17v17h-17V438.98"/>
<title ewd:textID="6">Junction Connector</title>
</a>
<a ewd:code="Q17,Q27" ewd:figtype="conn" style="cursor:pointer;" ewd:figID="3">
<path style="&st24;" d="M26.7,523.97v33.99h178.47v-33.99H26.7"/>
<title ewd:textID="8">Voltage Inverter Assembly</title>
</a>
<a ewd:code="Q22" ewd:figtype="conn" style="cursor:pointer;" ewd:figID="2">
<path style="&st24;" d="M26.7,617.45v34h101.98v-34H26.7"/>
<title ewd:textID="7">Power Outlet Socket</title>
</a>
</g>
</svg>
