﻿<?xml version="1.0" encoding="UTF-8"?>
<!DOCTYPE svg PUBLIC "-//W3C//DTD SVG 1.0//EN" "http://www.w3.org/TR/2001/REC-SVG-20010904/DTD/svg10.dtd"[
<!ENTITY ns_flows "http://ns.adobe.com/Flows/1.0/">
<!ENTITY ns_svg "http://www.w3.org/2000/svg">
<!ENTITY ns_xlink "http://www.w3.org/1999/xlink">
	<!ENTITY st0 "fill:none;stroke:#99280C;stroke-width:5.1;stroke-linejoin:round;">
	<!ENTITY st1 "fill:none;stroke:#000000;stroke-width:5.1;stroke-linejoin:round;">
	<!ENTITY st2 "fill:#1D63A2;">
	<!ENTITY st3 "stroke:#000000;stroke-width:0.28;stroke-linecap:round;stroke-linejoin:round;">
	<!ENTITY st4 "enable-background:new    ;">
	<!ENTITY st5 "opacity:0.5;fill:none;stroke:#34ACCE;stroke-linejoin:round;stroke-dasharray:6;">
	<!ENTITY st6 "fill:none;stroke:#FFFFFF;stroke-width:4.53;stroke-linejoin:round;">
	<!ENTITY st7 "fill:#F6140D;">
	<!ENTITY st8 "font-size:6px;">
	<!ENTITY st9 "fill:none;stroke:#000000;stroke-width:1.13;stroke-linecap:round;stroke-linejoin:round;stroke-dasharray:3 1.5;">
	<!ENTITY st10 "fill:none;stroke:#000000;stroke-width:1.13;stroke-linejoin:round;">
	<!ENTITY st11 "fill:#FFFFFF;stroke:#000000;stroke-width:1.41;stroke-linecap:round;stroke-linejoin:round;">
	<!ENTITY st12 "fill:none;stroke:#3E65AC;stroke-width:3;">
	<!ENTITY st13 "display:inline;">
	<!ENTITY st14 "fill:#CCCCCC;stroke:#CCCCCC;stroke-width:0.1;stroke-linecap:round;stroke-linejoin:round;">
	<!ENTITY st15 "stroke:#FFFFFF;stroke-width:2;">
	<!ENTITY st16 "fill:none;stroke:#9B9999;stroke-width:5.1;stroke-linejoin:round;">
	<!ENTITY st17 "font-family:'Arial';">
	<!ENTITY st18 "opacity:0.5;fill:none;stroke:#34ACCE;stroke-linejoin:round;">
	<!ENTITY st19 "fill:none;stroke:#000000;stroke-width:1.42;stroke-linecap:round;stroke-linejoin:round;">
	<!ENTITY st20 "fill:#CFE6E7;stroke:#000000;stroke-width:1.133;stroke-linecap:round;stroke-linejoin:round;">
	<!ENTITY st21 "font-size:12px;">
	<!ENTITY st22 "fill:none;stroke:#000000;stroke-width:0.85;stroke-linecap:round;stroke-linejoin:round;stroke-dasharray:3 1.5;">
	<!ENTITY st23 "display:none;">
	<!ENTITY st24 "fill:none;stroke:#209BBB;stroke-width:5.1;stroke-linejoin:round;">
	<!ENTITY st25 "fill:none;stroke:#000000;stroke-width:0.85;stroke-linecap:round;stroke-linejoin:round;">
<!ATTLIST svg
xmlns:ewd CDATA #FIXED "http://shcl.co.jp/ewd"
xmlns:a CDATA #FIXED "http://ns.adobe.com/AdobeSVGViewerExtensions/3.0/"
ewd:ver CDATA #IMPLIED
>
<!ATTLIST a
ewd:lineID CDATA #IMPLIED
ewd:groupID CDATA #IMPLIED
ewd:figtype CDATA #IMPLIED
ewd:code CDATA #IMPLIED
ewd:figID CDATA #IMPLIED
ewd:pinNo CDATA #IMPLIED
ewd:comment CDATA #IMPLIED >
<!ATTLIST g
ewd:lineID CDATA #IMPLIED
ewd:groupID CDATA #IMPLIED
ewd:figtype CDATA #IMPLIED
ewd:code CDATA #IMPLIED
ewd:figID CDATA #IMPLIED
ewd:pinNo CDATA #IMPLIED
ewd:comment CDATA #IMPLIED >
<!ATTLIST text
ewd:textID CDATA #IMPLIED >
<!ATTLIST title
ewd:textID CDATA #IMPLIED >
]>
<svg 
viewBox='0 0 11408.02 729.44'
height='729.44'
width='11408.02'
xml:space="preserve"
xmlns="&ns_svg;"
xmlns:ewd="http://shcl.co.jp/ewd"
xmlns:xlink="&ns_xlink;" ewd:ver="L2.3">
<g ewd:code="GA1" ewd:figID="6086" ewd:figtype="w2w" ewd:pinNo="">
<path style="&st19;" d="M4821.66,532.47v4.25"/>
<path style="&st19;" d="M4816,528.22l4.25,4.25l-4.25,4.25"/>
<path style="&st19;" d="M4812.6,528.22l4.25,4.25l-4.25,4.25"/>
<text transform="matrix(1 0 0 1 4828.4932 525.228)" style="&st4;"><tspan x="0" y="0" style="&st17; &st8;">1</tspan></text>
</g>
<g ewd:code="GA7" ewd:figID="6087" ewd:figtype="w2w" ewd:pinNo="">
<path style="&st19;" d="M5008.63,562.21v4.25"/>
<path style="&st19;" d="M5014.3,570.71l-4.25-4.25l4.25-4.25"/>
<path style="&st19;" d="M5017.7,570.71l-4.25-4.25l4.25-4.25"/>
<text transform="matrix(1 0 0 1 4998.4688 559.2183)" style="&st4;"><tspan x="0" y="0" style="&st17; &st8;">2</tspan></text>
</g>
<g ewd:code="G5" ewd:figID="2015" ewd:figtype="gp">
<path style="&st25;" d="M4922.23,712.97h2.83"/>
<path style="&st25;" d="M4920.81,710.14h5.67"/>
<path style="&st25;" d="M4919.4,707.31h8.5"/>
<path style="&st25;" d="M4915.15,704.48h16.99"/>
<path style="&st25;" d="M4923.65,700.23v4.25"/>
</g>
<g ewd:code="G106" ewd:figID="23" ewd:figtype="conn">
<path style="&st25;" d="M4915.15,583.47h8.5"/>
<path style="&st25;" d="M4923.65,430.48v254.17"/>
<path style="&st19;" d="M4932.14,421.99h-16.99v229.46h16.99V421.99"/>
<path style="&st25;" d="M4915.15,642.94h8.5"/>
<path style="&st25;" d="M4915.15,532.47h8.5"/>
<path style="&st25;" d="M4915.15,430.48h8.5"/>
<path style="&st25;" d="M4922.45,429.48l-0.27,0.47l-0.09,0.53l0.09,0.54l0.27,0.47l0.42,0.34l0.51,0.19h0.53l0.51-0.19l0.42-0.34l0.27-0.47l0.09-0.54l-0.09-0.53l-0.27-0.47l-0.42-0.34l-0.51-0.19h-0.53l-0.51,0.19L4922.45,429.48l0.4,0.71v0.59l0.37,0.44l0.57,0.1l0.51-0.29l0.2-0.55l-0.2-0.54l-0.51-0.29l-0.57,0.1l0.43,0.73"/>
<path style="&st25;" d="M4922.45,531.46l-0.27,0.47l-0.09,0.54l0.09,0.53l0.27,0.47l0.42,0.35l0.51,0.18h0.53l0.51-0.18l0.42-0.35l0.27-0.47l0.09-0.53l-0.09-0.54l-0.27-0.47l-0.42-0.34l-0.51-0.19h-0.53l-0.51,0.19L4922.45,531.46l0.4,0.72v0.58l0.37,0.44l0.57,0.1l0.51-0.29l0.2-0.54l-0.2-0.55l-0.51-0.29l-0.57,0.1l0.43,0.74"/>
<path style="&st25;" d="M4922.45,582.47l-0.27,0.47l-0.09,0.53l0.09,0.53l0.27,0.47l0.42,0.35l0.51,0.19h0.53l0.51-0.19l0.42-0.35l0.27-0.47l0.09-0.53l-0.09-0.53l-0.27-0.47l-0.42-0.35l-0.51-0.19h-0.53l-0.51,0.19L4922.45,582.47l0.4,0.71v0.58l0.37,0.45l0.57,0.1l0.51-0.29l0.2-0.55l-0.2-0.55l-0.51-0.29l-0.57,0.1l0.43,0.74"/>
<path style="&st25;" d="M4922.45,641.94l-0.27,0.47l-0.09,0.53l0.09,0.53l0.27,0.47l0.42,0.35l0.51,0.18h0.53l0.51-0.18l0.42-0.35l0.27-0.47l0.09-0.53l-0.09-0.53l-0.27-0.47l-0.42-0.35l-0.51-0.19h-0.53l-0.51,0.19L4922.45,641.94l0.4,0.71v0.58l0.37,0.45l0.57,0.09l0.51-0.28l0.2-0.55l-0.2-0.55l-0.51-0.29l-0.57,0.1l0.43,0.74"/>
<path style="&st25;" d="M4923.65,532.47h8.49"/>
<path style="&st25;" d="M4923.65,430.48v-8.49"/>
<path style="&st25;" d="M4923.65,642.94h8.49"/>
<path style="&st25;" d="M4932.14,430.48h-8.49"/>
<text transform="matrix(1 0 0 1 4909.1421 426.7866)" style="&st4;"><tspan x="0" y="0" style="&st17; &st8;">1</tspan></text>
<text transform="matrix(1 0 0 1 4908.3628 528.7769)" style="&st4;"><tspan x="0" y="0" style="&st17; &st8;">2</tspan></text>
<text transform="matrix(1 0 0 1 4908.3628 639.2573)" style="&st4;"><tspan x="0" y="0" style="&st17; &st8;">8</tspan></text>
<text ewd:textID='192' transform='matrix(0 -1 1 0 4946.8628 500.9976)' style='&st4; &st17; &st8;'>Junction <tspan x='0' y='6' >Connector</tspan></text>
<text transform="matrix(0 -1 1 0 4939.7622 500.9976)" style="&st4;"><tspan x="0" y="0" style="&st17; &st8;">G106</tspan></text>
<text transform="matrix(1 0 0 1 4908.3628 579.7788)" style="&st4;"><tspan x="0" y="0" style="&st17; &st8;">3</tspan></text>
<text transform="matrix(1 0 0 1 4934.9819 639.2573)" style="&st4;"><tspan x="0" y="0" style="&st17; &st8;">5</tspan></text>
<text transform="matrix(1 0 0 1 4934.9819 528.7769)" style="&st4;"><tspan x="0" y="0" style="&st17; &st8;">7</tspan></text>
<text transform="matrix(1 0 0 1 4934.9819 426.7866)" style="&st4;"><tspan x="0" y="0" style="&st17; &st8;">6</tspan></text>
<text transform="matrix(1 0 0 1 4916.8628 418.2964)" style="&st4;"><tspan x="0" y="0" style="&st17; &st8;">4</tspan></text>
</g>
<text transform="matrix(1 0 0 1 4547.2607 324.8198)" style="&st4;"><tspan x="0" y="0" style="&st17; &st8;">W-B</tspan></text>
<text transform="matrix(1 0 0 1 4546.7031 336.1499)" style="&st4;"><tspan x="0" y="0" style="&st17; &st8;">(*39)</tspan></text>
<text transform="matrix(1 0 0 1 4547.2607 358.7983)" style="&st4;"><tspan x="0" y="0" style="&st17; &st8;">W-B</tspan></text>
<text transform="matrix(1 0 0 1 4546.7031 370.1382)" style="&st4;"><tspan x="0" y="0" style="&st17; &st8;">(*37)</tspan></text>
<text transform="matrix(1 0 0 1 4547.2607 188.8394)" style="&st4;"><tspan x="0" y="0" style="&st17; &st8;">W-B</tspan></text>
<text transform="matrix(1 0 0 1 4544.7031 200.1694)" style="&st4;"><tspan x="0" y="0" style="&st17; &st8;">(*39)</tspan></text>
<text transform="matrix(1 0 0 1 4547.2607 222.8179)" style="&st4;"><tspan x="0" y="0" style="&st17; &st8;">W-B</tspan></text>
<text transform="matrix(1 0 0 1 4544.7031 234.1577)" style="&st4;"><tspan x="0" y="0" style="&st17; &st8;">(*37)</tspan></text>
<text transform="matrix(1 0 0 1 4533.5122 511.7788)" style="&st4;"><tspan x="0" y="0" style="&st17; &st8;">W-B</tspan></text>
<text transform="matrix(1 0 0 1 4635.4917 579.769)" style="&st4;"><tspan x="0" y="0" style="&st17; &st8;">W-B</tspan></text>
<text transform="matrix(1 0 0 1 4635.4917 639.2476)" style="&st4;"><tspan x="0" y="0" style="&st17; &st8;">W-B</tspan></text>
<text transform="matrix(1 0 0 1 4686.4917 579.769)" style="&st4;"><tspan x="0" y="0" style="&st17; &st8;">W-B</tspan></text>
<text transform="matrix(1 0 0 1 4686.4917 639.2476)" style="&st4;"><tspan x="0" y="0" style="&st17; &st8;">W-B</tspan></text>
<text transform="matrix(1 0 0 1 4685.5015 650.5776)" style="&st4;"><tspan x="0" y="0" style="&st17; &st8;">(*12)</tspan></text>
<text transform="matrix(1 0 0 1 4634.5122 650.5776)" style="&st4;"><tspan x="0" y="0" style="&st17; &st8;">(*12)</tspan></text>
<text transform="matrix(1 0 0 1 4832.751 392.7866)" style="&st4;"><tspan x="0" y="0" style="&st17; &st8;">W-B</tspan></text>
<text transform="matrix(1 0 0 1 4834.1934 404.1167)" style="&st4;"><tspan x="0" y="0" style="&st17; &st8;">(*2)</tspan></text>
<text transform="matrix(1 0 0 1 4832.751 426.7866)" style="&st4;"><tspan x="0" y="0" style="&st17; &st8;">W-B</tspan></text>
<text transform="matrix(1 0 0 1 4831.8618 438.1167)" style="&st4;"><tspan x="0" y="0" style="&st17; &st8;">(*11)</tspan></text>
<text transform="matrix(1 0 0 1 4832.751 460.7769)" style="&st4;"><tspan x="0" y="0" style="&st17; &st8;">W-B</tspan></text>
<text transform="matrix(1 0 0 1 4832.416 472.1069)" style="&st4;"><tspan x="0" y="0" style="&st17; &st8;">(*12)</tspan></text>
<text transform="matrix(1 0 0 1 4813.9624 494.7769)" style="&st4;"><tspan x="0" y="0" style="&st17; &st8;">W-B</tspan></text>
<text transform="matrix(1 0 0 1 4812.4116 506.1069)" style="&st4;"><tspan x="0" y="0" style="&st17; &st8;">(LHD)</tspan></text>
<text transform="matrix(1 0 0 1 4783.0586 528.7671)" style="&st4;"><tspan x="0" y="0" style="&st17; &st8;">W-B</tspan></text>
<text transform="matrix(1 0 0 1 4779.8359 540.0972)" style="&st4;"><tspan x="0" y="0" style="&st17; &st8;">(RHD)</tspan></text>
<text transform="matrix(1 0 0 1 4862.0479 528.7671)" style="&st4;"><tspan x="0" y="0" style="&st17; &st8;">W-B</tspan></text>
<text transform="matrix(1 0 0 1 4858.8262 540.0972)" style="&st4;"><tspan x="0" y="0" style="&st17; &st8;">(RHD)</tspan></text>
<text transform="matrix(1 0 0 1 4856.4624 639.2476)" style="&st4;"><tspan x="0" y="0" style="&st17; &st8;">W-B</tspan></text>
<text transform="matrix(1 0 0 1 4855.4819 650.5776)" style="&st4;"><tspan x="0" y="0" style="&st17; &st8;">(*12)</tspan></text>
<text transform="matrix(1 0 0 1 4856.4624 579.769)" style="&st4;"><tspan x="0" y="0" style="&st17; &st8;">W-B</tspan></text>
<text transform="matrix(1 0 0 1 4958.4429 639.2476)" style="&st4;"><tspan x="0" y="0" style="&st17; &st8;">W-B</tspan></text>
<text transform="matrix(1 0 0 1 4958.4429 562.7573)" style="&st4;"><tspan x="0" y="0" style="&st17; &st8;">W-B</tspan></text>
<text transform="matrix(1 0 0 1 4952.8726 574.0972)" style="&st4;"><tspan x="0" y="0" style="&st17; &st8;">(LHD *2)</tspan></text>
<text transform="matrix(1 0 0 1 4958.4429 528.7671)" style="&st4;"><tspan x="0" y="0" style="&st17; &st8;">W-B</tspan></text>
<text transform="matrix(1 0 0 1 4956.3921 540.0972)" style="&st4;"><tspan x="0" y="0" style="&st17; &st8;">(RHD)</tspan></text>
<text transform="matrix(1 0 0 1 4958.4429 426.7866)" style="&st4;"><tspan x="0" y="0" style="&st17; &st8;">W-B</tspan></text>
<text transform="matrix(0 -1 1 0 4919.9526 395.687)" style="&st4;"><tspan x="0" y="0" style="&st17; &st8;">W-B</tspan></text>
<text transform="matrix(1 0 0 1 4698.1577 66.9097)" style="&st4;"><tspan x="0" y="0" style="&st17; &st8;">* 2 :2TR-FE</tspan></text>
<text transform="matrix(1 0 0 1 4698.1577 76.5317)" style="&st4;"><tspan x="0" y="0" style="&st17; &st8;">*11 :1GR-FE</tspan></text>
<text transform="matrix(1 0 0 1 4698.1577 86.1538)" style="&st4;"><tspan x="0" y="0" style="&st17; &st8;">*12 :1KD-FTV</tspan></text>
<text ewd:textID='32' transform='matrix(1 0 0 1 4698.1577 95.7759)' style='&st4; &st17; &st8;'>*36 :w/ Pattern Select Switch Assembly</text>
<text ewd:textID='33' transform='matrix(1 0 0 1 4698.1577 105.3979)' style='&st4; &st17; &st8;'>*37 :A/T w/ Climate Control Seat</text>
<text ewd:textID='34' transform='matrix(1 0 0 1 4698.1577 115.02)' style='&st4; &st17; &st8;'>*38 :M/T w/ Climate Control Seat</text>
<text ewd:textID='35' transform='matrix(1 0 0 1 4698.1577 124.6421)' style='&st4; &st17; &st8;'>*39 :A/T w/ Seat Heater (Front)</text>
<text ewd:textID='36' transform='matrix(1 0 0 1 4698.1577 134.2642)' style='&st4; &st17; &st8;'>*40 :M/T w/ Seat Heater (Front)</text>
<text ewd:textID='37' transform='matrix(1 0 0 1 4698.1577 143.8862)' style='&st4; &st17; &st8;'>*41 :w/ Viscous Heater</text>
<text ewd:textID='38' transform='matrix(1 0 0 1 4698.1577 153.5083)' style='&st4; &st17; &st8;'>*42 :w/o Crawl</text>
<text ewd:textID='39' transform='matrix(1 0 0 1 4698.1577 163.1304)' style='&st4; &st17; &st8;'>*43 :w/ Downhill Assist Control</text>
<text transform="matrix(1 0 0 1 4574.1914 296.4893)" style="&st4;"><tspan x="0" y="0" style="&st17; &st8;">(E)</tspan></text>
<text transform="matrix(1 0 0 1 4599.4307 295.0488)" style="&st4;"><tspan x="0" y="0" style="&st17; &st8;">G109</tspan></text>
<text ewd:textID='270' transform='matrix(1 0 0 1 4599.4307 302.1494)' style='&st4; &st17; &st8;'>Seat Heater <tspan x='0' y='6' >Switch RH</tspan></text>
<text ewd:textID='270' transform='matrix(1 0 0 1 4599.4307 336.1494)' style='&st4; &st17; &st8;'>Seat Heater <tspan x='0' y='6' >Switch RH</tspan></text>
<text transform="matrix(1 0 0 1 4599.4307 329.0391)" style="&st4;"><tspan x="0" y="0" style="&st17; &st8;">i3</tspan></text>
<text transform="matrix(1 0 0 1 4574.1914 330.4785)" style="&st4;"><tspan x="0" y="0" style="&st17; &st8;">(E)</tspan></text>
<text transform="matrix(1 0 0 1 4574.1914 262.499)" style="&st4;"><tspan x="0" y="0" style="&st17; &st8;">(E)</tspan></text>
<text transform="matrix(1 0 0 1 4599.4307 261.0586)" style="&st4;"><tspan x="0" y="0" style="&st17; &st8;">G170</tspan></text>
<text ewd:textID='262' transform='matrix(1 0 0 1 4599.4307 268.1592)' style='&st4; &st17; &st8;'>Refreshing Seat <tspan x='0' y='6' >Switch RH</tspan></text>
<text ewd:textID='262' transform='matrix(1 0 0 1 4599.4307 370.1382)' style='&st4; &st17; &st8;'>Refreshing Seat <tspan x='0' y='6' >Switch RH</tspan></text>
<text transform="matrix(1 0 0 1 4599.4307 363.0293)" style="&st4;"><tspan x="0" y="0" style="&st17; &st8;">i5</tspan></text>
<text transform="matrix(1 0 0 1 4574.1914 364.4683)" style="&st4;"><tspan x="0" y="0" style="&st17; &st8;">(E)</tspan></text>
<text ewd:textID='312' transform='matrix(1 0 0 1 4599.4307 98.1787)' style='&st4; &st17; &st8;'>Yaw Rate Sensor <tspan x='0' y='6' >Assembly</tspan></text>
<text transform="matrix(1 0 0 1 4599.4307 91.0684)" style="&st4;"><tspan x="0" y="0" style="&st17; &st8;">G52</tspan></text>
<text transform="matrix(1 0 0 1 4574.1914 92.5088)" style="&st4;"><tspan x="0" y="0" style="&st17; &st8;">(GND)</tspan></text>
<text transform="matrix(1 0 0 1 4574.1914 160.5088)" style="&st4;"><tspan x="0" y="0" style="&st17; &st8;">(E)</tspan></text>
<text transform="matrix(1 0 0 1 4599.4307 159.0684)" style="&st4;"><tspan x="0" y="0" style="&st17; &st8;">G108</tspan></text>
<text ewd:textID='269' transform='matrix(1 0 0 1 4599.4307 166.1689)' style='&st4; &st17; &st8;'>Seat Heater <tspan x='0' y='6' >Switch LH</tspan></text>
<text ewd:textID='269' transform='matrix(1 0 0 1 4599.4307 200.1689)' style='&st4; &st17; &st8;'>Seat Heater <tspan x='0' y='6' >Switch LH</tspan></text>
<text transform="matrix(1 0 0 1 4599.4307 193.0586)" style="&st4;"><tspan x="0" y="0" style="&st17; &st8;">i4</tspan></text>
<text transform="matrix(1 0 0 1 4574.1914 194.498)" style="&st4;"><tspan x="0" y="0" style="&st17; &st8;">(E)</tspan></text>
<text transform="matrix(1 0 0 1 4574.1914 398.4585)" style="&st4;"><tspan x="0" y="0" style="&st17; &st8;">(E)</tspan></text>
<text transform="matrix(1 0 0 1 4599.4307 397.019)" style="&st4;"><tspan x="0" y="0" style="&st17; &st8;">G20</tspan></text>
<text ewd:textID='173' transform='matrix(1 0 0 1 4599.4307 404.1284)' style='&st4; &st17; &st8;'>Idle Up Switch</text>
<text ewd:textID='122' transform='matrix(1 0 0 1 4599.4307 438.1187)' style='&st4; &st17; &st8;'>Engine Switch</text>
<text transform="matrix(1 0 0 1 4599.4307 431.019)" style="&st4;"><tspan x="0" y="0" style="&st17; &st8;">G36</tspan></text>
<text transform="matrix(1 0 0 1 4574.1914 432.4585)" style="&st4;"><tspan x="0" y="0" style="&st17; &st8;">(GND)</tspan></text>
<text transform="matrix(1 0 0 1 4574.1914 474.9487)" style="&st4;"><tspan x="0" y="0" style="&st17; &st8;">(L)</tspan></text>
<text transform="matrix(1 0 0 1 4599.4307 473.5093)" style="&st4;"><tspan x="0" y="0" style="&st17; &st8;">G17</tspan></text>
<text ewd:textID='74' transform='matrix(1 0 0 1 4599.4307 523.1089)' style='&st4; &st17; &st8;'>A/C Control <tspan x='0' y='6' >Assembly</tspan></text>
<text transform="matrix(1 0 0 1 4599.4307 515.9995)" style="&st4;"><tspan x="0" y="0" style="&st17; &st8;">T3(*78),T7(*79)</tspan></text>
<text transform="matrix(1 0 0 1 4574.1914 517.439)" style="&st4;"><tspan x="0" y="0" style="&st17; &st8;">(E)</tspan></text>
<text transform="matrix(1 0 0 1 4574.1914 551.439)" style="&st4;"><tspan x="0" y="0" style="&st17; &st8;">(E)</tspan></text>
<text transform="matrix(1 0 0 1 4599.4307 549.9995)" style="&st4;"><tspan x="0" y="0" style="&st17; &st8;">G47</tspan></text>
<text ewd:textID='300' transform='matrix(1 0 0 1 4599.4307 557.0991)' style='&st4; &st17; &st8;'>Transmission <tspan x='0' y='6' >Control Switch</tspan></text>
<text transform="matrix(1 0 0 1 4678.9116 532.9976)" style="&st4;"><tspan x="0" y="0" style="&st17; &st8;">A49</tspan></text>
<text ewd:textID='288' transform='matrix(1 0 0 1 4678.9116 540.0972)' style='&st4; &st17; &st8;'>Suspension Control <tspan x='0' y='6' >ECU</tspan></text>
<text transform="matrix(1 0 0 1 4742.6323 534.437)" style="&st4;"><tspan x="0" y="0" style="&st17; &st8;">(GND)</tspan></text>
<text transform="matrix(1 0 0 1 4678.9116 498.9976)" style="&st4;"><tspan x="0" y="0" style="&st17; &st8;">G26</tspan></text>
<text ewd:textID='128' transform='matrix(1 0 0 1 4678.9116 506.1069)' style='&st4; &st17; &st8;'>Front Blower with <tspan x='0' y='6' >Fan Motor Sub-Assembly</tspan></text>
<text transform="matrix(1 0 0 1 4742.6323 500.437)" style="&st4;"><tspan x="0" y="0" style="&st17; &st8;">(GND)</tspan></text>
<text transform="matrix(1 0 0 1 4678.9116 465.0073)" style="&st4;"><tspan x="0" y="0" style="&st17; &st8;">G57</tspan></text>
<text transform="matrix(1 0 0 1 4678.9116 472.1069)" style="&st4;"><tspan x="0" y="0" style="&st17; &st8;">ECM</tspan></text>
<text transform="matrix(1 0 0 1 4747.9224 466.4468)" style="&st4;"><tspan x="0" y="0" style="&st17; &st8;">(EC)</tspan></text>
<text transform="matrix(1 0 0 1 4678.9116 431.0073)" style="&st4;"><tspan x="0" y="0" style="&st17; &st8;">G55</tspan></text>
<text transform="matrix(1 0 0 1 4678.9116 438.1167)" style="&st4;"><tspan x="0" y="0" style="&st17; &st8;">ECM</tspan></text>
<text transform="matrix(1 0 0 1 4747.9224 432.4468)" style="&st4;"><tspan x="0" y="0" style="&st17; &st8;">(EC)</tspan></text>
<text transform="matrix(1 0 0 1 4678.9116 397.0171)" style="&st4;"><tspan x="0" y="0" style="&st17; &st8;">G59</tspan></text>
<text transform="matrix(1 0 0 1 4678.9116 404.1167)" style="&st4;"><tspan x="0" y="0" style="&st17; &st8;">ECM</tspan></text>
<text transform="matrix(1 0 0 1 4747.9224 398.4565)" style="&st4;"><tspan x="0" y="0" style="&st17; &st8;">(EC)</tspan></text>
<text transform="matrix(1 0 0 1 4574.1914 126.5186)" style="&st4;"><tspan x="0" y="0" style="&st17; &st8;">(E)</tspan></text>
<text transform="matrix(1 0 0 1 4599.4307 125.0781)" style="&st4;"><tspan x="0" y="0" style="&st17; &st8;">G157</tspan></text>
<text ewd:textID='261' transform='matrix(1 0 0 1 4599.4307 132.1787)' style='&st4; &st17; &st8;'>Refreshing Seat <tspan x='0' y='6' >Switch LH</tspan></text>
<text ewd:textID='261' transform='matrix(1 0 0 1 4599.4307 234.1582)' style='&st4; &st17; &st8;'>Refreshing Seat <tspan x='0' y='6' >Switch LH</tspan></text>
<text transform="matrix(1 0 0 1 4599.4307 227.0488)" style="&st4;"><tspan x="0" y="0" style="&st17; &st8;">i6</tspan></text>
<text transform="matrix(1 0 0 1 4574.1914 228.4883)" style="&st4;"><tspan x="0" y="0" style="&st17; &st8;">(E)</tspan></text>
<text transform="matrix(1 0 0 1 4574.1914 670.4077)" style="&st4;"><tspan x="0" y="0" style="&st17; &st8;">(E)</tspan></text>
<text transform="matrix(1 0 0 1 4599.4307 668.9683)" style="&st4;"><tspan x="0" y="0" style="&st17; &st8;">C46</tspan></text>
<text ewd:textID='121' transform='matrix(1 0 0 1 4599.4307 676.0776)' style='&st4; &st17; &st8;'>Engine Oil <tspan x='0' y='6' >Level Sensor</tspan></text>
<text ewd:textID='92' transform='matrix(1 0 0 1 4599.4307 480.6187)' style='&st4; &st17; &st8;'>Center <tspan x='0' y='6' >Differential </tspan><tspan x='0' y='12' style='&st17; &st8;'>Lock Switch</tspan></text>
</svg>
