﻿<?xml version="1.0" encoding="UTF-8"?>
<!DOCTYPE svg PUBLIC "-//W3C//DTD SVG 1.0//EN" "http://www.w3.org/TR/2001/REC-SVG-20010904/DTD/svg10.dtd"[
<!ENTITY ns_flows "http://ns.adobe.com/Flows/1.0/">
<!ENTITY ns_svg "http://www.w3.org/2000/svg">
<!ENTITY ns_xlink "http://www.w3.org/1999/xlink">
	<!ENTITY st0 "fill:none;stroke:#FB0F0C;stroke-width:5.1;stroke-linejoin:round;">
	<!ENTITY st1 "fill:none;stroke:#9A9999;stroke-width:5.1;stroke-linejoin:round;">
		<!ENTITY st2 "fill:none;stroke:#000000;stroke-width:0.85;stroke-linecap:round;stroke-linejoin:round;stroke-dasharray:3 1.5;enable-background:new    ;">
	<!ENTITY st3 "fill:none;stroke:#000000;stroke-width:5.1;stroke-linejoin:round;">
	<!ENTITY st4 "fill:none;stroke:#000000;stroke-linecap:round;stroke-linejoin:round;">
	<!ENTITY st5 "stroke:#000000;stroke-width:0.28;stroke-linecap:round;stroke-linejoin:round;enable-background:new    ;">
	<!ENTITY st6 "enable-background:new    ;">
		<!ENTITY st7 "fill:none;stroke:#000000;stroke-width:1.42;stroke-linecap:round;stroke-linejoin:round;enable-background:new    ;">
	<!ENTITY st8 "fill:none;stroke:#EE67AA;stroke-width:5.1;stroke-linejoin:round;">
	<!ENTITY st9 "fill:none;stroke:#199DBF;stroke-width:5.1;stroke-linejoin:round;">
	<!ENTITY st10 "opacity:0.5;fill:none;stroke:#34ACCE;stroke-linejoin:round;stroke-dasharray:6;">
	<!ENTITY st11 "fill:none;stroke:#FFFFFF;stroke-width:4.53;stroke-linejoin:round;">
		<!ENTITY st12 "fill:none;stroke:#000000;stroke-width:0.85;stroke-linecap:round;stroke-linejoin:round;enable-background:new    ;">
	<!ENTITY st13 "fill:none;stroke:#56107C;stroke-width:5.1;stroke-linejoin:round;">
	<!ENTITY st14 "font-size:6px;">
	<!ENTITY st15 "fill:none;stroke:#168638;stroke-width:5.1;stroke-linejoin:round;">
	<!ENTITY st16 "fill:none;stroke:#000000;stroke-width:1.13;stroke-linejoin:round;">
		<!ENTITY st17 "fill:none;stroke:#000000;stroke-width:1.13;stroke-linecap:round;stroke-linejoin:round;stroke-dasharray:3 1.5;enable-background:new    ;">
	<!ENTITY st18 "fill:#FFFFFF;stroke:#000000;stroke-width:1.41;stroke-linecap:round;stroke-linejoin:round;">
	<!ENTITY st19 "fill:none;stroke:#3E65AC;stroke-width:3;">
	<!ENTITY st20 "fill:#CCCCCC;stroke:#CCCCCC;stroke-width:0.1;stroke-linecap:round;stroke-linejoin:round;">
	<!ENTITY st21 "font-family:'Arial';">
	<!ENTITY st22 "opacity:0.5;fill:none;stroke:#34ACCE;stroke-linejoin:round;">
	<!ENTITY st23 "fill:#CFE6E7;stroke:#000000;stroke-width:1.133;stroke-linecap:round;stroke-linejoin:round;">
	<!ENTITY st24 "fill:none;stroke:#99D5E0;stroke-width:5.1;stroke-linejoin:round;">
	<!ENTITY st25 "fill:none;stroke:#7EC57E;stroke-width:5.1;stroke-linejoin:round;">
<!ATTLIST svg
xmlns:ewd CDATA #FIXED "http://shcl.co.jp/ewd"
xmlns:a CDATA #FIXED "http://ns.adobe.com/AdobeSVGViewerExtensions/3.0/"
ewd:ver CDATA #IMPLIED
>
<!ATTLIST a
ewd:lineID CDATA #IMPLIED
ewd:groupID CDATA #IMPLIED
ewd:figtype CDATA #IMPLIED
ewd:code CDATA #IMPLIED
ewd:figID CDATA #IMPLIED
ewd:pinNo CDATA #IMPLIED
ewd:comment CDATA #IMPLIED >
<!ATTLIST g
ewd:lineID CDATA #IMPLIED
ewd:groupID CDATA #IMPLIED
ewd:figtype CDATA #IMPLIED
ewd:code CDATA #IMPLIED
ewd:figID CDATA #IMPLIED
ewd:pinNo CDATA #IMPLIED
ewd:comment CDATA #IMPLIED >
<!ATTLIST text
ewd:textID CDATA #IMPLIED >
<!ATTLIST title
ewd:textID CDATA #IMPLIED >
]>
<svg 
viewBox='0 0 2076.64 729.44'
height='729.44'
width='2076.64'
xml:space="preserve"
xmlns="&ns_svg;"
xmlns:ewd="http://shcl.co.jp/ewd"
xmlns:xlink="&ns_xlink;" ewd:ver="L2.3">
<g ewd:code="2" ewd:figID="306" ewd:figtype="jb">
<path style="&st7;" d="M1474.88,133.03h-4.25"/>
<path style="&st7;" d="M1474.88,124.53h-4.25"/>
<path style="&st5;" d="M1472.75,119.64l-2.83-2.84v4.25l2.83,2.84l2.84-2.84v-4.25L1472.75,119.64"/>
<path style="&st12;" d="M1472.75,124.53V82.04"/>
<path style="&st7;" d="M1479.13,128.78c0-2.35-1.9-4.25-4.25-4.25"/>
<path style="&st7;" d="M1474.88,133.03c2.35,0,4.25-1.9,4.25-4.25"/>
<path style="&st7;" d="M1466.38,128.78c0,2.35,1.9,4.25,4.25,4.25"/>
<path style="&st7;" d="M1470.63,124.53c-2.35,0-4.25,1.9-4.25,4.25"/>
<text transform="matrix(1 0 0 1 1468.2998 130.7466)" style="&st6;"><tspan x="0" y="0" style="&st21; &st14;">2D</tspan></text>
<text transform="matrix(1 0 0 1 1460.0605 130.7466)" style="&st6;"><tspan x="0" y="0" style="&st21; &st14;">4</tspan></text>
</g>
<g ewd:code="G5" ewd:figID="203" ewd:figtype="gp">
<path style="&st12;" d="M1319.78,701.02v4.25"/>
<path style="&st12;" d="M1311.28,705.27h17"/>
<path style="&st12;" d="M1315.53,708.1h8.5"/>
<path style="&st12;" d="M1316.95,710.94h5.66"/>
<path style="&st12;" d="M1318.36,713.77h2.84"/>
</g>
<g ewd:code="G3" ewd:figID="204" ewd:figtype="gp">
<path style="&st12;" d="M1472.75,701.02v4.25"/>
<path style="&st12;" d="M1464.26,705.27h16.99"/>
<path style="&st12;" d="M1468.5,708.1h8.5"/>
<path style="&st12;" d="M1469.92,710.94h5.67"/>
<path style="&st12;" d="M1471.34,713.77h2.83"/>
</g>
<g ewd:code="G96,G133" ewd:figID="6" ewd:figtype="conn">
<path style="&st7;" d="M1098.82,201.02h67.98v17h-67.98V201.02"/>
<path style="&st12;" d="M1107.31,201.02v17"/>
<path style="&st12;" d="M1158.31,201.02v17"/>
<path style="&st7;" d="M1111.85,196.49c0-2.5-2.03-4.53-4.53-4.53"/>
<path style="&st7;" d="M1107.32,191.96c-2.51,0-4.54,2.03-4.54,4.53"/>
<path style="&st7;" d="M1102.78,196.49c0,2.5,2.03,4.53,4.54,4.53"/>
<path style="&st7;" d="M1107.32,201.02c2.5,0,4.53-2.03,4.53-4.53"/>
<path style="&st7;" d="M1111.85,187.42c0-2.5-2.03-4.53-4.53-4.53"/>
<path style="&st7;" d="M1107.32,182.89c-2.51,0-4.54,2.03-4.54,4.53"/>
<path style="&st7;" d="M1102.78,187.42c0,2.51,2.03,4.54,4.54,4.54"/>
<path style="&st7;" d="M1107.32,191.96c2.5,0,4.53-2.03,4.53-4.54"/>
<path style="&st7;" d="M1162.84,196.49c0-2.5-2.03-4.53-4.53-4.53"/>
<path style="&st7;" d="M1158.31,191.96c-2.51,0-4.54,2.03-4.54,4.53"/>
<path style="&st7;" d="M1153.77,196.49c0,2.5,2.03,4.53,4.54,4.53"/>
<path style="&st7;" d="M1158.31,201.02c2.5,0,4.53-2.03,4.53-4.53"/>
<path style="&st7;" d="M1162.84,187.42c0-2.5-2.03-4.53-4.53-4.53"/>
<path style="&st7;" d="M1158.31,182.89c-2.51,0-4.54,2.03-4.54,4.53"/>
<path style="&st7;" d="M1153.77,187.42c0,2.51,2.03,4.54,4.54,4.54"/>
<path style="&st7;" d="M1158.31,191.96c2.5,0,4.53-2.03,4.53-4.54"/>
<path style="&st7;" d="M1111.85,222.55c0-2.5-2.03-4.53-4.53-4.53"/>
<path style="&st7;" d="M1107.32,218.02c-2.51,0-4.54,2.03-4.54,4.53"/>
<path style="&st7;" d="M1102.78,222.55c0,2.51,2.03,4.53,4.54,4.53"/>
<path style="&st7;" d="M1107.32,227.08c2.5,0,4.53-2.02,4.53-4.53"/>
<path style="&st7;" d="M1111.85,231.62c0-2.51-2.03-4.54-4.53-4.54"/>
<path style="&st7;" d="M1107.32,227.08c-2.51,0-4.54,2.03-4.54,4.54"/>
<path style="&st7;" d="M1102.78,231.62c0,2.5,2.03,4.53,4.54,4.53"/>
<path style="&st7;" d="M1107.32,236.15c2.5,0,4.53-2.03,4.53-4.53"/>
<path style="&st7;" d="M1162.84,222.55c0-2.5-2.03-4.53-4.53-4.53"/>
<path style="&st7;" d="M1158.31,218.02c-2.51,0-4.54,2.03-4.54,4.53"/>
<path style="&st7;" d="M1153.77,222.55c0,2.51,2.03,4.53,4.54,4.53"/>
<path style="&st7;" d="M1158.31,227.08c2.5,0,4.53-2.02,4.53-4.53"/>
<path style="&st7;" d="M1162.84,231.62c0-2.51-2.03-4.54-4.53-4.54"/>
<path style="&st7;" d="M1158.31,227.08c-2.51,0-4.54,2.03-4.54,4.54"/>
<path style="&st7;" d="M1153.77,231.62c0,2.5,2.03,4.53,4.54,4.53"/>
<path style="&st7;" d="M1158.31,236.15c2.5,0,4.53-2.03,4.53-4.53"/>
<text transform="matrix(1 0 0 1 1096.4395 198.4565)" style="&st6;"><tspan x="0" y="0" style="&st21; &st14;">4</tspan></text>
<text transform="matrix(1 0 0 1 1104.9805 198.4565)" style="&st6;"><tspan x="0" y="0" style="&st21; &st14;">B</tspan></text>
<text transform="matrix(1 0 0 1 1096.4395 189.3867)" style="&st6;"><tspan x="0" y="0" style="&st21; &st14;">4</tspan></text>
<text transform="matrix(1 0 0 1 1104.9805 189.3867)" style="&st6;"><tspan x="0" y="0" style="&st21; &st14;">A</tspan></text>
<text transform="matrix(1 0 0 1 1144.25 198.4565)" style="&st6;"><tspan x="0" y="0" style="&st21; &st14;">15</tspan></text>
<text transform="matrix(1 0 0 1 1155.9805 198.4565)" style="&st6;"><tspan x="0" y="0" style="&st21; &st14;">B</tspan></text>
<text transform="matrix(1 0 0 1 1144.25 189.3867)" style="&st6;"><tspan x="0" y="0" style="&st21; &st14;">15</tspan></text>
<text transform="matrix(1 0 0 1 1155.9805 189.3867)" style="&st6;"><tspan x="0" y="0" style="&st21; &st14;">A</tspan></text>
<text transform="matrix(1 0 0 1 1096.4395 224.5166)" style="&st6;"><tspan x="0" y="0" style="&st21; &st14;">3</tspan></text>
<text transform="matrix(1 0 0 1 1104.9805 224.5166)" style="&st6;"><tspan x="0" y="0" style="&st21; &st14;">A</tspan></text>
<text transform="matrix(1 0 0 1 1096.4395 233.5864)" style="&st6;"><tspan x="0" y="0" style="&st21; &st14;">3</tspan></text>
<text transform="matrix(1 0 0 1 1104.9805 233.5864)" style="&st6;"><tspan x="0" y="0" style="&st21; &st14;">B</tspan></text>
<text transform="matrix(1 0 0 1 1144.25 224.5166)" style="&st6;"><tspan x="0" y="0" style="&st21; &st14;">14</tspan></text>
<text transform="matrix(1 0 0 1 1155.9805 224.5166)" style="&st6;"><tspan x="0" y="0" style="&st21; &st14;">A</tspan></text>
<text transform="matrix(1 0 0 1 1144.25 233.5864)" style="&st6;"><tspan x="0" y="0" style="&st21; &st14;">14</tspan></text>
<text transform="matrix(1 0 0 1 1155.9805 233.5864)" style="&st6;"><tspan x="0" y="0" style="&st21; &st14;">B</tspan></text>
<text ewd:textID='13' transform='matrix(0 -1 1 0 1095.1201 220.5366)' style='&st6; &st21; &st14;'>Junction Connector</text>
<text transform="matrix(0 -1 1 0 1088.0098 220.5366)" style="&st6;"><tspan x="0" y="0" style="&st21; &st14;">G96(A),G133(B)</tspan></text>
</g>
<g ewd:code="G127" ewd:figID="7" ewd:figtype="conn">
<path style="&st7;" d="M1430.26,311.5h-17v17h17V311.5"/>
<path style="&st12;" d="M1421.76,328.5v-17"/>
<path style="&st7;" d="M1426.3,333.03c0-2.5-2.03-4.53-4.54-4.53"/>
<path style="&st7;" d="M1421.76,328.5c-2.5,0-4.53,2.03-4.53,4.53"/>
<path style="&st7;" d="M1417.23,333.03c0,2.51,2.03,4.53,4.53,4.53"/>
<path style="&st7;" d="M1421.76,337.56c2.51,0,4.54-2.02,4.54-4.53"/>
<path style="&st7;" d="M1426.3,306.97c0-2.5-2.03-4.53-4.54-4.53"/>
<path style="&st7;" d="M1421.76,302.44c-2.5,0-4.53,2.03-4.53,4.53"/>
<path style="&st7;" d="M1417.23,306.97c0,2.5,2.03,4.53,4.53,4.53"/>
<path style="&st7;" d="M1421.76,311.5c2.51,0,4.54-2.03,4.54-4.53"/>
<text transform="matrix(1 0 0 1 1419.4297 308.9365)" style="&st6;"><tspan x="0" y="0" style="&st21; &st14;">B</tspan></text>
<text transform="matrix(1 0 0 1 1410.8896 308.9365)" style="&st6;"><tspan x="0" y="0" style="&st21; &st14;">8</tspan></text>
<text transform="matrix(1 0 0 1 1419.4297 334.9966)" style="&st6;"><tspan x="0" y="0" style="&st21; &st14;">B</tspan></text>
<text transform="matrix(1 0 0 1 1410.8896 334.9966)" style="&st6;"><tspan x="0" y="0" style="&st21; &st14;">7</tspan></text>
<text ewd:textID='13' transform='matrix(0 -1 1 0 1444.9805 331.0166)' style='&st6; &st21; &st14;'>Junction Connector</text>
<text transform="matrix(0 -1 1 0 1437.8701 331.0166)" style="&st6;"><tspan x="0" y="0" style="&st21; &st14;">G127(B)</tspan></text>
</g>
<g ewd:code="G79,G80,G140,G141" ewd:figID="8" ewd:figtype="conn">
<path style="&st12;" d="M1472.75,311.5V337"/>
<path style="&st17;" d="M1464.26,328.5h16.99"/>
<path style="&st17;" d="M1464.26,320h16.99"/>
<path style="&st7;" d="M1464.26,311.5V337h16.99v-25.5H1464.26"/>
<path style="&st7;" d="M1477.29,350.6c0-2.51-2.03-4.54-4.54-4.54"/>
<path style="&st7;" d="M1472.75,346.06c-2.5,0-4.53,2.03-4.53,4.54"/>
<path style="&st7;" d="M1468.22,350.6c0,2.5,2.03,4.53,4.53,4.53"/>
<path style="&st7;" d="M1472.75,355.13c2.51,0,4.54-2.03,4.54-4.53"/>
<path style="&st7;" d="M1477.29,297.91c0-2.51-2.03-4.54-4.54-4.54"/>
<path style="&st7;" d="M1472.75,293.37c-2.5,0-4.53,2.03-4.53,4.54"/>
<path style="&st7;" d="M1468.22,297.91c0,2.5,2.03,4.53,4.53,4.53"/>
<path style="&st7;" d="M1472.75,302.44c2.51,0,4.54-2.03,4.54-4.53"/>
<path style="&st7;" d="M1477.29,341.53c0-2.5-2.03-4.53-4.54-4.53"/>
<path style="&st7;" d="M1472.75,337c-2.5,0-4.53,2.03-4.53,4.53"/>
<path style="&st7;" d="M1468.22,341.53c0,2.51,2.03,4.53,4.53,4.53"/>
<path style="&st7;" d="M1472.75,346.06c2.51,0,4.54-2.02,4.54-4.53"/>
<path style="&st7;" d="M1477.29,306.97c0-2.5-2.03-4.53-4.54-4.53"/>
<path style="&st7;" d="M1472.75,302.44c-2.5,0-4.53,2.03-4.53,4.53"/>
<path style="&st7;" d="M1468.22,306.97c0,2.5,2.03,4.53,4.53,4.53"/>
<path style="&st7;" d="M1472.75,311.5c2.51,0,4.54-2.03,4.54-4.53"/>
<text transform="matrix(1 0 0 1 1459.4805 308.9365)" style="&st6;"><tspan x="0" y="0" style="&st21; &st14;">11</tspan></text>
<text transform="matrix(1 0 0 1 1470.2803 308.9365)" style="&st6;"><tspan x="0" y="0" style="&st21; &st14;">D</tspan></text>
<text transform="matrix(1 0 0 1 1459.4805 299.8765)" style="&st6;"><tspan x="0" y="0" style="&st21; &st14;">11</tspan></text>
<text transform="matrix(1 0 0 1 1470.4199 299.8765)" style="&st6;"><tspan x="0" y="0" style="&st21; &st14;">B</tspan></text>
<text transform="matrix(1 0 0 1 1461.8799 352.5664)" style="&st6;"><tspan x="0" y="0" style="&st21; &st14;">7</tspan></text>
<text transform="matrix(1 0 0 1 1470.2803 352.5664)" style="&st6;"><tspan x="0" y="0" style="&st21; &st14;">C</tspan></text>
<text transform="matrix(1 0 0 1 1461.8799 343.4966)" style="&st6;"><tspan x="0" y="0" style="&st21; &st14;">7</tspan></text>
<text transform="matrix(1 0 0 1 1470.4199 343.4966)" style="&st6;"><tspan x="0" y="0" style="&st21; &st14;">A</tspan></text>
<text ewd:textID='13' transform='matrix(1 0 0 1 1484.3896 329.3364)' style='&st6; &st21; &st14;'>Junction <tspan x='0' y='7' >Connector</tspan></text>
<text transform="matrix(1 0 0 1 1484.3896 316.2764)" style="&st6;"><tspan x="0" y="0" style="&st21; &st14;">G79(A),G80(B),</tspan></text>
<text transform="matrix(1 0 0 1 1484.3896 322.2764)" style="&st6;"><tspan x="0" y="0" style="&st21; &st14;">G140(C),G141(D)</tspan></text>
</g>
<g ewd:code="G81-A,G82-B,G164,G165" ewd:figID="16" ewd:figtype="conn">
<path style="&st17;" d="M1311.28,540.97h17"/>
<path style="&st7;" d="M1311.28,532.47h17v25.49h-17V532.47"/>
<path style="&st12;" d="M1319.78,532.47v25.49"/>
<path style="&st17;" d="M1311.28,549.46h17"/>
<path style="&st7;" d="M1324.31,527.93c0-2.5-2.03-4.53-4.53-4.53"/>
<path style="&st7;" d="M1319.78,523.4c-2.5,0-4.53,2.03-4.53,4.53"/>
<path style="&st7;" d="M1315.25,527.93c0,2.51,2.03,4.54,4.53,4.54"/>
<path style="&st7;" d="M1319.78,532.47c2.5,0,4.53-2.03,4.53-4.54"/>
<path style="&st7;" d="M1324.31,562.5c0-2.51-2.03-4.54-4.53-4.54"/>
<path style="&st7;" d="M1319.78,557.96c-2.5,0-4.53,2.03-4.53,4.54"/>
<path style="&st7;" d="M1315.25,562.5c0,2.5,2.03,4.53,4.53,4.53"/>
<path style="&st7;" d="M1319.78,567.03c2.5,0,4.53-2.03,4.53-4.53"/>
<path style="&st7;" d="M1324.31,571.56c0-2.51-2.03-4.54-4.53-4.54"/>
<path style="&st7;" d="M1319.78,567.03c-2.5,0-4.53,2.03-4.53,4.54"/>
<path style="&st7;" d="M1315.25,571.56c0,2.5,2.03,4.53,4.53,4.53"/>
<path style="&st7;" d="M1319.78,576.09c2.5,0,4.53-2.03,4.53-4.53"/>
<path style="&st7;" d="M1324.31,518.86c0-2.5-2.03-4.53-4.53-4.53"/>
<path style="&st7;" d="M1319.78,514.33c-2.5,0-4.53,2.03-4.53,4.53"/>
<path style="&st7;" d="M1315.25,518.86c0,2.51,2.03,4.54,4.53,4.54"/>
<path style="&st7;" d="M1319.78,523.4c2.5,0,4.53-2.03,4.53-4.54"/>
<text transform="matrix(1 0 0 1 1308.9004 564.4575)" style="&st6;"><tspan x="0" y="0" style="&st21; &st14;">7</tspan></text>
<text transform="matrix(1 0 0 1 1317.4502 564.4575)" style="&st6;"><tspan x="0" y="0" style="&st21; &st14;">A</tspan></text>
<text transform="matrix(1 0 0 1 1308.9004 573.5259)" style="&st6;"><tspan x="0" y="0" style="&st21; &st14;">7</tspan></text>
<text transform="matrix(1 0 0 1 1317.4502 573.5259)" style="&st6;"><tspan x="0" y="0" style="&st21; &st14;">E</tspan></text>
<text transform="matrix(1 0 0 1 1305.7197 529.897)" style="&st6;"><tspan x="0" y="0" style="&st21; &st14;">12</tspan></text>
<text transform="matrix(1 0 0 1 1317.4502 529.897)" style="&st6;"><tspan x="0" y="0" style="&st21; &st14;">F</tspan></text>
<text transform="matrix(1 0 0 1 1305.7197 520.8267)" style="&st6;"><tspan x="0" y="0" style="&st21; &st14;">12</tspan></text>
<text transform="matrix(1 0 0 1 1317.4502 520.8267)" style="&st6;"><tspan x="0" y="0" style="&st21; &st14;">B</tspan></text>
<text transform="matrix(0 -1 1 0 1286.8896 559.4868)" style="&st6;"><tspan x="0" y="0" style="&st21; &st14;">G81(A),G82(B), </tspan></text>
<text ewd:textID='13' transform='matrix(0 -1 1 0 1301.8447 559.2935)' style='&st6; &st21; &st14;'>Junction <tspan x='0' y='7' >Connector</tspan></text>
<text transform="matrix(0 -1 1 0 1294.7344 559.2935)" style="&st6;"><tspan x="0" y="0" style="&st21; &st14;">G164(E),G165(F)</tspan></text>
</g>
<g ewd:code="G128-C,G129-D" ewd:figID="15" ewd:figtype="conn">
<path style="&st17;" d="M1250.29,540.97h17"/>
<path style="&st7;" d="M1250.29,532.47h17v25.49h-17V532.47"/>
<path style="&st12;" d="M1258.79,532.47v25.49"/>
<path style="&st17;" d="M1250.29,549.46h17"/>
<path style="&st7;" d="M1263.32,562.5c0-2.51-2.03-4.54-4.53-4.54"/>
<path style="&st7;" d="M1258.79,557.96c-2.5,0-4.53,2.03-4.53,4.54"/>
<path style="&st7;" d="M1254.26,562.5c0,2.5,2.03,4.53,4.53,4.53"/>
<path style="&st7;" d="M1258.79,567.03c2.5,0,4.53-2.03,4.53-4.53"/>
<path style="&st7;" d="M1263.32,527.93c0-2.5-2.03-4.53-4.53-4.53"/>
<path style="&st7;" d="M1258.79,523.4c-2.5,0-4.53,2.03-4.53,4.53"/>
<path style="&st7;" d="M1254.26,527.93c0,2.51,2.03,4.54,4.53,4.54"/>
<path style="&st7;" d="M1258.79,532.47c2.5,0,4.53-2.03,4.53-4.54"/>
<text transform="matrix(1 0 0 1 1247.9102 564.4575)" style="&st6;"><tspan x="0" y="0" style="&st21; &st14;">7</tspan></text>
<text transform="matrix(1 0 0 1 1256.3203 564.4575)" style="&st6;"><tspan x="0" y="0" style="&st21; &st14;">C</tspan></text>
<text transform="matrix(1 0 0 1 1244.7305 529.897)" style="&st6;"><tspan x="0" y="0" style="&st21; &st14;">12</tspan></text>
<text transform="matrix(1 0 0 1 1256.3203 529.897)" style="&st6;"><tspan x="0" y="0" style="&st21; &st14;">D</tspan></text>
<text ewd:textID='13' transform='matrix(0 -1 1 0 1241 559.4868)' style='&st6; &st21; &st14;'>Junction <tspan x='0' y='7' >Connector</tspan></text>
<text transform="matrix(0 -1 1 0 1233.9004 559.4868)" style="&st6;"><tspan x="0" y="0" style="&st21; &st14;">G128(C),G129(D)</tspan></text>
</g>
<g ewd:code="G106" ewd:figID="17" ewd:figtype="conn">
<path style="&st7;" d="M1311.28,659.95v16.99h17v-16.99H1311.28"/>
<path style="&st12;" d="M1319.78,659.95v25.49"/>
<text transform="matrix(1 0 0 1 1312.9902 656.2563)" style="&st6;"><tspan x="0" y="0" style="&st21; &st14;">4</tspan></text>
<text ewd:textID='13' transform='matrix(1 0 0 1 1331.4199 668.9966)' style='&st6; &st21; &st14;'>Junction <tspan x='0' y='7' >Connector</tspan></text>
<text transform="matrix(1 0 0 1 1331.4199 661.8872)" style="&st6;"><tspan x="0" y="0" style="&st21; &st14;">G106</tspan></text>
</g>
<g ewd:code="G104" ewd:figID="18" ewd:figtype="conn">
<path style="&st7;" d="M1464.26,659.95h16.99v16.99h-16.99V659.95"/>
<path style="&st12;" d="M1472.75,659.95v25.49"/>
<text transform="matrix(1 0 0 1 1465.9697 656.2563)" style="&st6;"><tspan x="0" y="0" style="&st21; &st14;">4</tspan></text>
<text ewd:textID='13' transform='matrix(1 0 0 1 1484.3896 668.9966)' style='&st6; &st21; &st14;'>Junction <tspan x='0' y='7' >Connector</tspan></text>
<text transform="matrix(1 0 0 1 1484.3896 661.8872)" style="&st6;"><tspan x="0" y="0" style="&st21; &st14;">G104</tspan></text>
</g>
<text transform="matrix(1 0 0 1 1059.5898 460.2964)" style="&st6;"><tspan x="0" y="0" style="&st21; &st14;">GR</tspan></text>
<text transform="matrix(1 0 0 1 1061.4697 477.2964)" style="&st6;"><tspan x="0" y="0" style="&st21; &st14;">W</tspan></text>
<text transform="matrix(1 0 0 1 1008.5996 460.2964)" style="&st6;"><tspan x="0" y="0" style="&st21; &st14;">GR</tspan></text>
<text transform="matrix(1 0 0 1 1010.4805 477.2964)" style="&st6;"><tspan x="0" y="0" style="&st21; &st14;">W</tspan></text>
<text transform="matrix(0 -1 1 0 1327.4199 626.7075)" style="&st6;"><tspan x="0" y="0" style="&st21; &st14;">(LHD)</tspan></text>
<text transform="matrix(0 -1 1 0 1316.0801 625.147)" style="&st6;"><tspan x="0" y="0" style="&st21; &st14;">W-B</tspan></text>
<text transform="matrix(0 -1 1 0 1255.0898 217.2168)" style="&st6;"><tspan x="0" y="0" style="&st21; &st14;">W-B</tspan></text>
<text transform="matrix(0 -1 1 0 1316.0801 217.2168)" style="&st6;"><tspan x="0" y="0" style="&st21; &st14;">W-B</tspan></text>
<text transform="matrix(0 -1 1 0 1266.4297 219.2666)" style="&st6;"><tspan x="0" y="0" style="&st21; &st14;">(RHD)</tspan></text>
<text transform="matrix(0 -1 1 0 1327.4199 218.7666)" style="&st6;"><tspan x="0" y="0" style="&st21; &st14;">(LHD)</tspan></text>
<text transform="matrix(0 -1 1 0 1429.4004 219.2666)" style="&st6;"><tspan x="0" y="0" style="&st21; &st14;">(RHD)</tspan></text>
<text transform="matrix(0 -1 1 0 1418.0703 217.2168)" style="&st6;"><tspan x="0" y="0" style="&st21; &st14;">W-B</tspan></text>
<text transform="matrix(0 -1 1 0 1480.3896 218.7666)" style="&st6;"><tspan x="0" y="0" style="&st21; &st14;">(LHD)</tspan></text>
<text transform="matrix(0 -1 1 0 1469.0605 217.2168)" style="&st6;"><tspan x="0" y="0" style="&st21; &st14;">W-B</tspan></text>
<text transform="matrix(0 -1 1 0 1418.0703 378.686)" style="&st6;"><tspan x="0" y="0" style="&st21; &st14;">W-B</tspan></text>
<text transform="matrix(0 -1 1 0 1429.4004 380.7368)" style="&st6;"><tspan x="0" y="0" style="&st21; &st14;">(RHD)</tspan></text>
<text transform="matrix(0 -1 1 0 1469.0605 378.686)" style="&st6;"><tspan x="0" y="0" style="&st21; &st14;">W-B</tspan></text>
<text transform="matrix(0 -1 1 0 1480.3896 380.2466)" style="&st6;"><tspan x="0" y="0" style="&st21; &st14;">(LHD)</tspan></text>
<text transform="matrix(0 -1 1 0 1469.0605 625.147)" style="&st6;"><tspan x="0" y="0" style="&st21; &st14;">W-B</tspan></text>
<text transform="matrix(0 -1 1 0 1480.3896 626.7075)" style="&st6;"><tspan x="0" y="0" style="&st21; &st14;">(LHD)</tspan></text>
<text transform="matrix(0 -1 1 0 1418.0703 625.147)" style="&st6;"><tspan x="0" y="0" style="&st21; &st14;">W-B</tspan></text>
<text transform="matrix(0 -1 1 0 1429.4004 627.1958)" style="&st6;"><tspan x="0" y="0" style="&st21; &st14;">(RHD)</tspan></text>
<text transform="matrix(0 -1 1 0 1266.4297 627.1958)" style="&st6;"><tspan x="0" y="0" style="&st21; &st14;">(RHD)</tspan></text>
<text transform="matrix(0 -1 1 0 1255.0898 625.147)" style="&st6;"><tspan x="0" y="0" style="&st21; &st14;">W-B</tspan></text>
<text transform="matrix(1 0 0 1 1164.2803 198.4565)" style="&st6;"><tspan x="0" y="0" style="&st21; &st14;">(RHD)</tspan></text>
<text transform="matrix(1 0 0 1 1164.2803 189.3867)" style="&st6;"><tspan x="0" y="0" style="&st21; &st14;">(LHD)</tspan></text>
<text transform="matrix(1 0 0 1 1164.2803 224.5166)" style="&st6;"><tspan x="0" y="0" style="&st21; &st14;">(LHD)</tspan></text>
<text transform="matrix(1 0 0 1 1164.2803 233.5864)" style="&st6;"><tspan x="0" y="0" style="&st21; &st14;">(RHD)</tspan></text>
<text transform="matrix(0 -1 1 0 1154.6104 119.3867)" style="&st6;"><tspan x="0" y="0" style="&st21; &st14;">W</tspan></text>
<text transform="matrix(0 -1 1 0 1103.6201 118.3667)" style="&st6;"><tspan x="0" y="0" style="&st21; &st14;">P</tspan></text>
<text transform="matrix(0 -1 1 0 1154.6104 323.8667)" style="&st6;"><tspan x="0" y="0" style="&st21; &st14;">W</tspan></text>
<text transform="matrix(0 -1 1 0 1103.6201 325.7363)" style="&st6;"><tspan x="0" y="0" style="&st21; &st14;">GR</tspan></text>
<text transform="matrix(1 0 0 1 1478.7305 308.9365)" style="&st6;"><tspan x="0" y="0" style="&st21; &st14;">(*5)</tspan></text>
<text transform="matrix(1 0 0 1 1478.7305 299.8765)" style="&st6;"><tspan x="0" y="0" style="&st21; &st14;">(*4)</tspan></text>
<text transform="matrix(1 0 0 1 1478.7305 352.5664)" style="&st6;"><tspan x="0" y="0" style="&st21; &st14;">(*5)</tspan></text>
<text transform="matrix(1 0 0 1 1478.7305 343.4966)" style="&st6;"><tspan x="0" y="0" style="&st21; &st14;">(*4)</tspan></text>
<text transform="matrix(1 0 0 1 1325.75 520.8257)" style="&st6;"><tspan x="0" y="0" style="&st21; &st14;">(*8)</tspan></text>
<text transform="matrix(1 0 0 1 1325.75 529.896)" style="&st6;"><tspan x="0" y="0" style="&st21; &st14;">(*9)</tspan></text>
<text transform="matrix(1 0 0 1 1325.75 564.4644)" style="&st6;"><tspan x="0" y="0" style="&st21; &st14;">(*8)</tspan></text>
<text transform="matrix(1 0 0 1 1325.75 573.5347)" style="&st6;"><tspan x="0" y="0" style="&st21; &st14;">(*9)</tspan></text>
</svg>
