﻿<?xml version="1.0" encoding="UTF-8"?>
<!DOCTYPE svg PUBLIC "-//W3C//DTD SVG 1.0//EN" "http://www.w3.org/TR/2001/REC-SVG-20010904/DTD/svg10.dtd"[
<!ENTITY ns_flows "http://ns.adobe.com/Flows/1.0/">
<!ENTITY ns_svg "http://www.w3.org/2000/svg">
<!ENTITY ns_xlink "http://www.w3.org/1999/xlink">
		<!ENTITY st0 "fill:none;stroke:#000000;stroke-width:0.85;stroke-linecap:round;stroke-linejoin:round;stroke-dasharray:3 1.5;enable-background:new    ;">
	<!ENTITY st1 "fill:none;stroke:#000000;stroke-width:5.1;stroke-linejoin:round;">
	<!ENTITY st2 "fill:none;stroke:#000000;stroke-linecap:round;stroke-linejoin:round;">
	<!ENTITY st3 "fill:none;stroke:#000000;stroke-width:4.54;stroke-linejoin:round;">
	<!ENTITY st4 "fill:#1D63A2;">
	<!ENTITY st5 "stroke:#000000;stroke-width:0.28;stroke-linecap:round;stroke-linejoin:round;enable-background:new    ;">
	<!ENTITY st6 "enable-background:new    ;">
		<!ENTITY st7 "fill:none;stroke:#000000;stroke-width:1.42;stroke-linecap:round;stroke-linejoin:round;enable-background:new    ;">
	<!ENTITY st8 "fill:none;stroke:#199DBF;stroke-width:5.1;stroke-linejoin:round;">
	<!ENTITY st9 "opacity:0.5;fill:none;stroke:#34ACCE;stroke-linejoin:round;stroke-dasharray:6;">
	<!ENTITY st10 "fill:none;stroke:#FFFFFF;stroke-width:4.53;stroke-linejoin:round;">
		<!ENTITY st11 "fill:#CFE6E7;stroke:#000000;stroke-width:1.133;stroke-linecap:round;stroke-linejoin:round;enable-background:new    ;">
	<!ENTITY st12 "fill:#F6140D;">
		<!ENTITY st13 "fill:none;stroke:#000000;stroke-width:0.85;stroke-linecap:round;stroke-linejoin:round;enable-background:new    ;">
	<!ENTITY st14 "font-size:6px;">
	<!ENTITY st15 "fill:none;stroke:#FFFFFF;stroke-width:2.27;stroke-linejoin:round;">
	<!ENTITY st16 "fill:none;stroke:#FB0F0C;stroke-width:1.13;stroke-linejoin:round;">
	<!ENTITY st17 "fill:none;stroke:#168638;stroke-width:5.1;stroke-linejoin:round;">
	<!ENTITY st18 "fill:none;stroke:#000000;stroke-width:1.13;stroke-linejoin:round;">
		<!ENTITY st19 "fill:none;stroke:#000000;stroke-width:1.13;stroke-linecap:round;stroke-linejoin:round;stroke-dasharray:3 1.5;enable-background:new    ;">
	<!ENTITY st20 "fill:#FFFFFF;stroke:#000000;stroke-width:1.41;stroke-linecap:round;stroke-linejoin:round;">
	<!ENTITY st21 "fill:none;stroke:#3E65AC;stroke-width:3;">
	<!ENTITY st22 "display:inline;">
	<!ENTITY st23 "fill:#CCCCCC;stroke:#CCCCCC;stroke-width:0.1;stroke-linecap:round;stroke-linejoin:round;">
	<!ENTITY st24 "stroke:#FFFFFF;stroke-width:2;">
	<!ENTITY st25 "font-family:'Arial';">
	<!ENTITY st26 "opacity:0.5;fill:none;stroke:#34ACCE;stroke-linejoin:round;">
	<!ENTITY st27 "fill:#CFE6E7;stroke:#000000;stroke-width:1.133;stroke-linecap:round;stroke-linejoin:round;">
	<!ENTITY st28 "font-size:12px;">
	<!ENTITY st29 "fill:none;stroke:#FFFFFF;stroke-width:1.7;">
	<!ENTITY st30 "fill:none;stroke:#99D5E0;stroke-width:5.1;stroke-linejoin:round;">
	<!ENTITY st31 "display:none;">
<!ATTLIST svg
xmlns:ewd CDATA #FIXED "http://shcl.co.jp/ewd"
xmlns:a CDATA #FIXED "http://ns.adobe.com/AdobeSVGViewerExtensions/3.0/"
ewd:ver CDATA #IMPLIED
>
<!ATTLIST a
ewd:lineID CDATA #IMPLIED
ewd:groupID CDATA #IMPLIED
ewd:figtype CDATA #IMPLIED
ewd:code CDATA #IMPLIED
ewd:figID CDATA #IMPLIED
ewd:pinNo CDATA #IMPLIED
ewd:comment CDATA #IMPLIED >
<!ATTLIST g
ewd:lineID CDATA #IMPLIED
ewd:groupID CDATA #IMPLIED
ewd:figtype CDATA #IMPLIED
ewd:code CDATA #IMPLIED
ewd:figID CDATA #IMPLIED
ewd:pinNo CDATA #IMPLIED
ewd:comment CDATA #IMPLIED >
<!ATTLIST text
ewd:textID CDATA #IMPLIED >
<!ATTLIST title
ewd:textID CDATA #IMPLIED >
]>
<svg onload="call_execInitLoadProc_svg('system')"
style='overflow:visible;enable-background:new 0 0 1039.82 729.44'
viewBox='0 0 1039.82 729.44'
height='729.44'
width='1039.82'
xml:space="preserve"
xmlns="&ns_svg;"
xmlns:ewd="http://shcl.co.jp/ewd"
xmlns:a="http://ns.adobe.com/AdobeSVGViewerExtensions/3.0/"
xmlns:xlink="&ns_xlink;" ewd:ver="L2.3">
<style type="text/css">
</style>
<script type="text/javascript" xlink:href="../../../../../system/js/ewd/fig/svgfig.js"/>
<defs>
<font horiz-adv-x="1229">
<font-face font-family="Svg Symbol" units-per-em="2048" panose-1="5 5 1 2 1 7 6 2 5 7" ascent="2059" descent="450" alphabetic="0"/>
<missing-glyph d="M 103,0 l 0,1280 1024,0 0,-1280 -1024,0 z m 32,32 l 960,0 0,1216 -960,0 0,-1216 z"/>
<glyph unicode="&#xF057;" horiz-adv-x="1573" d="M 1517,0 l -567,0 24,279 q 141,59 207.5,168 66.5,109 66.5,306    0,272 -132.5,417.5 -132.5,145.5 -333.5,145.5 -194,0 -328,-147.5 -134,-147.5 -134,-401.5 0,-200 68.5,-319 68.5,-119     206.5,-169 l 25,-279 -564,0 0,279 35,0 q 3,-61 32,-83 45,-35 137,-35 l 270,0 0,70 q -210,61 -324.5,209 -114.5,148     -114.5,349 0,252 186.5,425 186.5,173 504.5,173 195,0 358.5,-73.5 163.5,-73.5 252,-214.5 88.5,-141 88.5,-310 0,-207     -121.5,-360.5 -121.5,-153.5 -317.5,-197.5 l -8,-70 275,0 q 92,0 128,28 36,28 42,90 l 38,0 0,-279 z"/>
</font>
</defs>
<g id="ewd_top">
<a ewd:lineID="2" style="cursor:pointer;">
<path style="&st8;" d="M 36.99 , 107.54 L 36.99 , 152.05"/>
</a>
<a ewd:lineID="1" style="cursor:pointer;">
<path style="&st8;" d="M 36.99 , 167.03 L 36.99 , 192.52 L 189.97 , 192.52"/>
</a>
<a ewd:lineID="3" style="cursor:pointer;">
<path style="&st17;" d="M 138.97 , 107.54 L 138.97 , 141.53 L 189.97 , 141.53"/>
</a>
<a ewd:lineID="5" style="cursor:pointer;">
<path style="&st30;" d="M 249.46 , 158.53 L 699.88 , 158.53 L 699.88 , 175.53"/>
</a>
<a ewd:lineID="4" style="cursor:pointer;">
<path style="&st8;" d="M 249.46 , 209.52 L 317.44 , 209.52 L 317.44 , 252.01"/>
</a>
<a ewd:lineID="6" style="cursor:pointer;">
<path style="&st8;" d="M 317.44 , 266.74 L 317.44 , 303.01"/>
</a>
<a ewd:lineID="19" style="cursor:pointer;">
<path style="&st3;" d="M 28.49 , 549.46 L 28.49 , 540.97 L 45.49 , 523.97 L 45.49 , 455.98 L 121.98 , 455.98 L 121.98 , 533.04 L 138.97 , 550.04 L 138.97 , 556.27"/>
<path style="&st29;" d="M 28.49 , 549.46 L 28.49 , 540.97 L 45.49 , 523.97 L 45.49 , 455.98 L 121.98 , 455.98 L 121.98 , 533.04 L 138.97 , 550.04 L 138.97 , 556.27"/>
</a>
<a ewd:lineID="25" style="cursor:pointer;">
<path style="&st1;" d="M 266.45 , 421.99 L 266.45 , 430.48 L 249.46 , 447.48 L 223.96 , 447.48 L 223.96 , 481.48"/>
</a>
<a ewd:lineID="28" style="cursor:pointer;">
<path style="&st1;" d="M 266.45 , 421.99 L 266.45 , 483.74"/>
</a>
<a ewd:lineID="26" style="cursor:pointer;">
<path style="&st1;" d="M 223.96 , 496.21 L 223.96 , 565.33"/>
</a>
<a ewd:lineID="24" style="cursor:pointer;">
<path style="&st1;" d="M 266.45 , 498.47 L 266.45 , 541.54 L 240.96 , 541.54 L 223.96 , 558.53 L 223.96 , 565.33"/>
</a>
<a ewd:lineID="29" style="cursor:pointer;">
<path style="&st1;" d="M 342.94 , 421.99 L 342.94 , 532.47"/>
<path style="&st10;" d="M 342.94 , 421.99 L 342.94 , 532.47"/>
<path style="&st18;" d="M 342.94 , 421.99 L 342.94 , 532.47"/>
</a>
<a ewd:lineID="30" style="cursor:pointer;">
<path style="&st1;" d="M 342.94 , 549.46 L 342.94 , 685.44"/>
<path style="&st10;" d="M 342.94 , 549.46 L 342.94 , 685.44"/>
<path style="&st18;" d="M 342.94 , 549.46 L 342.94 , 685.44"/>
</a>
<a ewd:lineID="7" style="cursor:pointer;">
<path style="&st1;" d="M 342.94 , 303.01 L 342.94 , 252.01 L 402.43 , 252.01"/>
<path style="&st10;" d="M 342.94 , 303.01 L 342.94 , 252.01 L 402.43 , 252.01"/>
</a>
<a ewd:lineID="8" style="cursor:pointer;">
<path style="&st1;" d="M 895.35 , 549.46 L 895.35 , 617.45 L 393.93 , 617.45 L 393.93 , 286.01 L 410.93 , 269.01 L 410.93 , 260.51"/>
<path style="&st10;" d="M 895.35 , 549.46 L 895.35 , 617.45 L 393.93 , 617.45 L 393.93 , 286.01 L 410.93 , 269.01 L 410.93 , 260.51"/>
</a>
<a ewd:lineID="9" style="cursor:pointer;">
<path style="&st1;" d="M 784.87 , 465.61 L 784.87 , 600.46 L 410.93 , 600.46 L 410.93 , 260.51"/>
<path style="&st10;" d="M 784.87 , 465.61 L 784.87 , 600.46 L 410.93 , 600.46 L 410.93 , 260.51"/>
</a>
<a ewd:lineID="10" style="cursor:pointer;">
<path style="&st1;" d="M 419.43 , 252.01 L 623.39 , 252.01 L 623.39 , 279.49"/>
<path style="&st10;" d="M 419.43 , 252.01 L 623.39 , 252.01 L 623.39 , 279.49"/>
</a>
<a ewd:lineID="11" style="cursor:pointer;">
<path style="&st1;" d="M 623.39 , 303.01 L 623.39 , 344.93"/>
<path style="&st10;" d="M 623.39 , 303.01 L 623.39 , 344.93"/>
</a>
<a ewd:lineID="31" style="cursor:pointer;">
<path style="&st1;" d="M 623.39 , 397.06 L 623.39 , 543.1 L 682.88 , 543.1 L 682.88 , 516.04"/>
<path style="&st10;" d="M 623.39 , 397.06 L 623.39 , 543.1 L 682.88 , 543.1 L 682.88 , 516.04"/>
</a>
<a ewd:lineID="32" style="cursor:pointer;">
<path style="&st1;" d="M 699.88 , 397.06 L 699.88 , 446.91"/>
</a>
<a ewd:lineID="13" style="cursor:pointer;">
<path style="&st1;" d="M 699.88 , 311.5 L 699.88 , 344.93"/>
</a>
<a ewd:lineID="12" style="cursor:pointer;">
<path style="&st1;" d="M 699.88 , 226.52 L 699.88 , 260.51"/>
</a>
<a ewd:lineID="15" style="cursor:pointer;">
<path style="&st1;" d="M 784.87 , 226.52 L 784.87 , 260.51"/>
</a>
<a ewd:lineID="16" style="cursor:pointer;">
<path style="&st1;" d="M 784.87 , 283.74 L 784.87 , 286.01 L 793.37 , 294.51 L 895.35 , 294.51 L 895.35 , 311.5"/>
</a>
<a ewd:lineID="14" style="cursor:pointer;">
<path style="&st1;" d="M 784.87 , 283.74 L 784.87 , 395.36"/>
</a>
<a ewd:lineID="17" style="cursor:pointer;">
<path style="&st1;" d="M 895.35 , 334.73 L 895.35 , 395.36"/>
</a>
<a ewd:lineID="33" style="cursor:pointer;">
<path style="&st1;" d="M 895.35 , 465.61 L 895.35 , 525.95"/>
<path style="&st10;" d="M 895.35 , 465.61 L 895.35 , 525.95"/>
</a>
<a ewd:lineID="20" style="cursor:pointer;">
<path style="&st1;" d="M 28.49 , 549.46 L 28.49 , 438.98 L 138.97 , 438.98 L 138.97 , 556.27"/>
<path style="&st15;" d="M 28.49 , 549.46 L 28.49 , 438.98 L 138.97 , 438.98 L 138.97 , 556.27"/>
<path style="&st16;" d="M 28.49 , 549.46 L 28.49 , 438.98 L 138.97 , 438.98 L 138.97 , 556.27"/>
</a>
<a ewd:code="AC2" ewd:figtype="w2w" style="cursor:pointer;" ewd:figID="6010">
<path style="&st20;" d="M232.46,481.48h-17v8.49h17V481.48"/>
<text transform="matrix(1 0 0 1 218.124 488.2163)" style="&st6;"><tspan x="0" y="0" style="&st25; &st14;">AC2</tspan></text>
</a>
<a ewd:code="CA1" ewd:figtype="w2w" style="cursor:pointer;" ewd:figID="6011">
<path style="&st20;" d="M274.95,489.97h-17v8.5h17V489.97"/>
<text transform="matrix(1 0 0 1 260.6143 496.7163)" style="&st6;"><tspan x="0" y="0" style="&st25; &st14;">CA1</tspan></text>
</a>
<a ewd:code="GA4" ewd:figtype="w2w" style="cursor:pointer;" ewd:figID="6002">
<path style="&st20;" d="M325.94,252.01h-16.99v8.5h16.99V252.01"/>
<text transform="matrix(1 0 0 1 311.4424 258.7568)" style="&st6;"><tspan x="0" y="0" style="&st25; &st14;">GA4</tspan></text>
</a>
<a ewd:code="Ar3" ewd:figtype="w2w" style="cursor:pointer;" ewd:figID="6014">
<path style="&st20;" d="M903.85,540.97h-17v8.49h17V540.97"/>
<text transform="matrix(1 0 0 1 890.6812 547.7065)" style="&st6;"><tspan x="0" y="0" style="&st25; &st14;">Ar3</tspan></text>
</a>
<a ewd:code="Ar1" ewd:figtype="w2w" style="cursor:pointer;" ewd:figID="6013">
<path style="&st20;" d="M903.85,532.47h-17v8.5h17V532.47"/>
<text transform="matrix(1 0 0 1 890.6812 539.2065)" style="&st6;"><tspan x="0" y="0" style="&st25; &st14;">Ar1</tspan></text>
</a>
<a ewd:code="Ar1" ewd:figtype="w2w" style="cursor:pointer;" ewd:figID="6008">
<path style="&st20;" d="M903.85,320h-17v8.5h17V320"/>
<text transform="matrix(1 0 0 1 890.6812 326.7466)" style="&st6;"><tspan x="0" y="0" style="&st25; &st14;">Ar1</tspan></text>
</a>
<a ewd:code="Ar3" ewd:figtype="w2w" style="cursor:pointer;" ewd:figID="6007">
<path style="&st20;" d="M903.85,311.5h-17v8.5h17V311.5"/>
<text transform="matrix(1 0 0 1 890.6812 318.2466)" style="&st6;"><tspan x="0" y="0" style="&st25; &st14;">Ar3</tspan></text>
</a>
<a ewd:code="GA8" ewd:figtype="w2w" style="cursor:pointer;" ewd:figID="6001">
<path style="&st20;" d="M45.49,158.53h-17v8.5h17V158.53"/>
<text transform="matrix(1 0 0 1 30.9873 165.2666)" style="&st6;"><tspan x="0" y="0" style="&st25; &st14;">GA8</tspan></text>
</a>
<a ewd:code="GA2" ewd:figtype="w2w" style="cursor:pointer;" ewd:figID="6004">
<path style="&st20;" d="M631.89,294.51h-17v8.5h17V294.51"/>
<text transform="matrix(1 0 0 1 617.3872 301.2466)" style="&st6;"><tspan x="0" y="0" style="&st25; &st14;">GA2</tspan></text>
</a>
<a ewd:code="GA6" ewd:figtype="w2w" style="cursor:pointer;" ewd:figID="6003">
<path style="&st20;" d="M631.89,286.01h-17v8.5h17V286.01"/>
<text transform="matrix(1 0 0 1 617.3872 292.7466)" style="&st6;"><tspan x="0" y="0" style="&st25; &st14;">GA6</tspan></text>
</a>
<a ewd:code="GA6" ewd:figtype="w2w" style="cursor:pointer;" ewd:figID="6005">
<path style="&st20;" d="M793.37,260.51h-17v8.5h17V260.51"/>
<text transform="matrix(1 0 0 1 778.8677 267.2568)" style="&st6;"><tspan x="0" y="0" style="&st25; &st14;">GA6</tspan></text>
</a>
<a ewd:code="GA2" ewd:figtype="w2w" style="cursor:pointer;" ewd:figID="6006">
<path style="&st20;" d="M793.37,269.01h-17v8.5h17V269.01"/>
<text transform="matrix(1 0 0 1 778.8677 275.7466)" style="&st6;"><tspan x="0" y="0" style="&st25; &st14;">GA2</tspan></text>
</a>
<a ewd:code="1" ewd:figtype="rb" style="cursor:pointer;" ewd:figID="4002">
<path style="&st27;" d="M351.44,345.5h-42.49v33.99h42.49V345.5"/>
</a>
<a ewd:code="FUSE55,FUSE50" ewd:figtype="rb" style="cursor:pointer;" ewd:figID="4001">
<path style="&st27;" d="M24.24,39.55v42.49h25.5V39.55H24.24"/>
</a>
<a ewd:code="3JB" ewd:figtype="jb" style="cursor:pointer;" ewd:figID="3002">
<path style="&st23;" d="M682.88,175.53v50.99h110.49v-50.99H682.88"/>
</a>
<a ewd:code="4JB" ewd:figtype="jb" style="cursor:pointer;" ewd:figID="3003">
<path style="&st23;" d="M682.88,260.51v50.99h25.5v-50.99H682.88"/>
</a>
<a ewd:code="2" ewd:figtype="jb" style="cursor:pointer;" ewd:figID="3001">
<path style="&st23;" d="M121.98,39.55v67.99h50.99V39.55H121.98"/>
</a>
<a ewd:code="A1" ewd:figtype="gp" style="cursor:pointer;" ewd:figID="2001">
<path style="&st20;" d="M332.32,685.44h21.24l-10.62,15.58L332.32,685.44"/>
<text transform="matrix(1 0 0 1 338.8096 693.5972)" style="&st6;"><tspan x="0" y="0" style="&st25; &st14;">A1</tspan></text>
</a>
<a ewd:code="FUSE55,FUSE50" ewd:figtype="fuse" style="cursor:pointer;" ewd:figID="1001">
<path style="&st7;" d="M24.24,39.55v42.49h25.5V39.55H24.24"/>
</a>
<a ewd:code="FUSE66" ewd:figtype="fuse" style="cursor:pointer;" ewd:figID="1002">
<path style="&st7;" d="M126.23,39.55v42.49h25.49V39.55H126.23"/>
</a>
<a ewd:code="G2" ewd:figtype="conn" style="cursor:pointer;" ewd:figID="1">
<path style="&st27;" d="M189.97,226.52h59.49V107.54h-59.49V226.52"/>
<title ewd:textID="5">Ignition or Starter Switch Assembly</title>
</a>
<a ewd:code="A65" ewd:figtype="conn" style="cursor:pointer;" ewd:figID="2">
<path style="&st27;" d="M402.43,243.52v16.99h17v-16.99H402.43"/>
<title ewd:textID="6">Junction Connector</title>
</a>
<a ewd:code="C95,C158,D4,D5,D6" ewd:figtype="conn" style="cursor:pointer;" ewd:figID="4">
<path style="&st27;" d="M257.95,642.95H121.98v-59.49h135.97V642.95"/>
<title ewd:textID="9">Starter Assembly</title>
</a>
<a ewd:code="A70" ewd:figtype="conn" style="cursor:pointer;" ewd:figID="5">
<path style="&st27;" d="M334.44,532.47h17v16.99h-17V532.47"/>
<title ewd:textID="6">Junction Connector</title>
</a>
<a ewd:code="C49,G107" ewd:figtype="conn" style="cursor:pointer;" ewd:figID="3">
<path style="&st27;" d="M614.89,354v33.99h93.49V354H614.89"/>
<title ewd:textID="6">Junction Connector</title>
</a>
<a ewd:code="C159" ewd:figtype="conn" style="cursor:pointer;" ewd:figID="6">
<path style="&st27;" d="M657.39,455.98h50.99v50.99h-50.99V455.98"/>
<title ewd:textID="7">Park/Neutral Position Switch</title>
</a>
<a ewd:code="A40,A41" ewd:figtype="conn" style="cursor:pointer;" ewd:figID="7">
<path style="&st27;" d="M793.37,447.48v-33.99h-17v33.99H793.37"/>
<title ewd:textID="4">Clutch Start Switch Assembly</title>
</a>
<a ewd:code="r1,r2" ewd:figtype="conn" style="cursor:pointer;" ewd:figID="8">
<path style="&st27;" d="M903.85,447.48v-33.99h-17v33.99H903.85"/>
<title ewd:textID="4">Clutch Start Switch Assembly</title>
</a>
</g>
</svg>
