﻿<?xml version="1.0" encoding="UTF-8"?>
<!DOCTYPE svg PUBLIC "-//W3C//DTD SVG 1.0//EN" "http://www.w3.org/TR/2001/REC-SVG-20010904/DTD/svg10.dtd"[
<!ENTITY ns_flows "http://ns.adobe.com/Flows/1.0/">
<!ENTITY ns_svg "http://www.w3.org/2000/svg">
<!ENTITY ns_xlink "http://www.w3.org/1999/xlink">
	<!ENTITY st0 "fill:none;stroke:#FB0F0C;stroke-width:5.1;stroke-linejoin:round;">
	<!ENTITY st1 "fill:none;stroke:#9A9999;stroke-width:5.1;stroke-linejoin:round;">
	<!ENTITY st2 "fill:none;stroke:#99280B;stroke-width:5.1;stroke-linejoin:round;">
	<!ENTITY st3 "fill:none;stroke:#000000;stroke-width:5.1;stroke-linejoin:round;">
	<!ENTITY st4 "fill:none;stroke:#000000;stroke-linecap:round;stroke-linejoin:round;">
	<!ENTITY st5 "stroke:#000000;stroke-width:0.28;stroke-linecap:round;stroke-linejoin:round;enable-background:new    ;">
	<!ENTITY st6 "enable-background:new    ;">
		<!ENTITY st7 "fill:none;stroke:#000000;stroke-width:1.42;stroke-linecap:round;stroke-linejoin:round;enable-background:new    ;">
	<!ENTITY st8 "fill:none;stroke:#EE67AA;stroke-width:5.1;stroke-linejoin:round;">
	<!ENTITY st9 "fill:none;stroke:#FFFFFF;stroke-width:4;">
	<!ENTITY st10 "fill:none;stroke:#199DBF;stroke-width:5.1;stroke-linejoin:round;">
	<!ENTITY st11 "opacity:0.5;fill:none;stroke:#34ACCE;stroke-linejoin:round;stroke-dasharray:6;">
	<!ENTITY st12 "fill:none;stroke:#FFFFFF;stroke-width:4.53;stroke-linejoin:round;">
		<!ENTITY st13 "fill:none;stroke:#000000;stroke-width:0.85;stroke-linecap:round;stroke-linejoin:round;enable-background:new    ;">
	<!ENTITY st14 "font-size:6px;">
	<!ENTITY st15 "fill:none;stroke:#168638;stroke-width:5.1;stroke-linejoin:round;">
	<!ENTITY st16 "fill:none;stroke:#000000;stroke-width:1.13;stroke-linejoin:round;">
	<!ENTITY st17 "fill:#FFFFFF;stroke:#000000;stroke-width:1.41;stroke-linecap:round;stroke-linejoin:round;">
	<!ENTITY st18 "fill:none;stroke:#550E7B;stroke-width:5.1;stroke-linejoin:round;">
	<!ENTITY st19 "fill:none;stroke:#000000;stroke-width:1.133;stroke-linecap:round;stroke-linejoin:round;">
	<!ENTITY st20 "fill:none;stroke:#3E65AC;stroke-width:3;">
	<!ENTITY st21 "fill:#CCCCCC;stroke:#CCCCCC;stroke-width:0.1;stroke-linecap:round;stroke-linejoin:round;">
	<!ENTITY st22 "fill:none;stroke:#000000;stroke-width:1.42;stroke-linejoin:round;">
	<!ENTITY st23 "font-family:'Arial';">
	<!ENTITY st24 "opacity:0.5;fill:none;stroke:#34ACCE;stroke-linejoin:round;">
	<!ENTITY st25 "fill:none;stroke:#000000;stroke-width:1.42;stroke-linecap:round;stroke-linejoin:round;">
	<!ENTITY st26 "fill:#CFE6E7;stroke:#000000;stroke-width:1.133;stroke-linecap:round;stroke-linejoin:round;">
	<!ENTITY st27 "fill:none;stroke:#F7E416;stroke-width:5.1;stroke-linejoin:round;">
	<!ENTITY st28 "fill:none;stroke:#000000;stroke-width:0.85;stroke-linecap:round;stroke-linejoin:round;stroke-dasharray:3 1.5;">
	<!ENTITY st29 "fill:#CFE6E7;stroke:#000000;stroke-width:1.13;stroke-linejoin:round;">
	<!ENTITY st30 "fill:none;stroke:#000000;stroke-width:0.85;stroke-linecap:round;stroke-linejoin:round;">
	<!ENTITY st31 "fill:none;stroke:#7EC57E;stroke-width:5.1;stroke-linejoin:round;">
<!ATTLIST svg
xmlns:ewd CDATA #FIXED "http://shcl.co.jp/ewd"
xmlns:a CDATA #FIXED "http://ns.adobe.com/AdobeSVGViewerExtensions/3.0/"
ewd:ver CDATA #IMPLIED
>
<!ATTLIST a
ewd:lineID CDATA #IMPLIED
ewd:groupID CDATA #IMPLIED
ewd:figtype CDATA #IMPLIED
ewd:code CDATA #IMPLIED
ewd:figID CDATA #IMPLIED
ewd:pinNo CDATA #IMPLIED
ewd:comment CDATA #IMPLIED >
<!ATTLIST g
ewd:lineID CDATA #IMPLIED
ewd:groupID CDATA #IMPLIED
ewd:figtype CDATA #IMPLIED
ewd:code CDATA #IMPLIED
ewd:figID CDATA #IMPLIED
ewd:pinNo CDATA #IMPLIED
ewd:comment CDATA #IMPLIED >
<!ATTLIST text
ewd:textID CDATA #IMPLIED >
<!ATTLIST title
ewd:textID CDATA #IMPLIED >
]>
<svg 
viewBox='0 0 4668.69 733.05'
height='733.05'
width='4668.69'
xml:space="preserve"
xmlns="&ns_svg;"
xmlns:ewd="http://shcl.co.jp/ewd"
xmlns:xlink="&ns_xlink;" ewd:ver="L2.3">
<g ewd:code="GR1" ewd:figID="6025" ewd:figtype="w2w" ewd:pinNo="27">
<path style="&st7;" d="M3822.84,438.07l-4.25-4.25l-4.25,4.25"/>
<path style="&st7;" d="M3822.84,434.67l-4.25-4.25l-4.25,4.25"/>
<text transform="matrix(1 0 0 1 3800.415 426.728)" style="&st6;"><tspan x="0" y="0" style="&st23; &st14;">27</tspan></text>
</g>
<g ewd:code="GR1" ewd:figID="6026" ewd:figtype="w2w" ewd:pinNo="28">
<path style="&st7;" d="M3857.98,438.07l-4.25-4.25l-4.25,4.25"/>
<path style="&st7;" d="M3857.98,434.67l-4.25-4.25l-4.25,4.25"/>
<text transform="matrix(1 0 0 1 3835.5596 426.728)" style="&st6;"><tspan x="0" y="0" style="&st23; &st14;">28</tspan></text>
</g>
<g ewd:code="GR2" ewd:figID="6027" ewd:figtype="w2w" ewd:pinNo="14">
<path style="&st7;" d="M3928.28,438.07l-4.25-4.25l-4.25,4.25"/>
<path style="&st7;" d="M3928.28,434.67l-4.25-4.25l-4.25,4.25"/>
<text transform="matrix(1 0 0 1 3905.8604 426.728)" style="&st6;"><tspan x="0" y="0" style="&st23; &st14;">14</tspan></text>
</g>
<g ewd:code="GR2" ewd:figID="6028" ewd:figtype="w2w" ewd:pinNo="15">
<path style="&st7;" d="M3963.43,438.07l-4.25-4.25l-4.25,4.25"/>
<path style="&st7;" d="M3963.43,434.67l-4.25-4.25l-4.25,4.25"/>
<text transform="matrix(1 0 0 1 3941.0078 426.728)" style="&st6;"><tspan x="0" y="0" style="&st23; &st14;">15</tspan></text>
</g>
<g ewd:code="GA2" ewd:figID="6009" ewd:figtype="w2w" ewd:pinNo="13">
<path style="&st7;" d="M3928.28,332.98l-4.25,4.25l-4.25-4.25"/>
<path style="&st7;" d="M3928.28,336.38l-4.25,4.25l-4.25-4.25"/>
<text transform="matrix(1 0 0 1 3905.8604 346.8481)" style="&st6;"><tspan x="0" y="0" style="&st23; &st14;">13</tspan></text>
</g>
<g ewd:code="GA2" ewd:figID="6010" ewd:figtype="w2w" ewd:pinNo="14">
<path style="&st7;" d="M3963.43,332.98l-4.25,4.25l-4.25-4.25"/>
<path style="&st7;" d="M3963.43,336.38l-4.25,4.25l-4.25-4.25"/>
<text transform="matrix(1 0 0 1 3941.0078 346.8481)" style="&st6;"><tspan x="0" y="0" style="&st23; &st14;">14</tspan></text>
</g>
<g ewd:code="GA2" ewd:figID="6011" ewd:figtype="w2w" ewd:pinNo="1">
<path style="&st7;" d="M4007.67,331.57l4.24,4.25l4.25-4.25"/>
<path style="&st7;" d="M4016.16,334.97l-4.25,4.25l-4.24-4.25"/>
<text transform="matrix(1 0 0 1 3997.0693 346.8481)" style="&st6;"><tspan x="0" y="0" style="&st23; &st14;">1</tspan></text>
</g>
<g ewd:code="G154" ewd:figID="42" ewd:figtype="conn">
<path style="&st7;" d="M3530.42,539.98v36.36h65.91v-36.36H3530.42"/>
<text transform="matrix(1 0 0 1 3538.7803 536.2886)" style="&st6;"><tspan x="0" y="0" style="&st23; &st14;">3</tspan></text>
<text transform="matrix(1 0 0 1 3573.9307 536.2886)" style="&st6;"><tspan x="0" y="0" style="&st23; &st14;">5</tspan></text>
<text transform="matrix(1 0 0 1 3542.0693 548.3374)" style="&st6;"><tspan x="0" y="0" style="&st23; &st14;">R1</tspan></text>
<text transform="matrix(1 0 0 1 3577.7363 548.3374)" style="&st6;"><tspan x="0" y="0" style="&st23; &st14;">R2</tspan></text>
<text transform="matrix(1 0 0 1 3527.417 585.3364)" style="&st6;"><tspan x="0" y="0" style="&st23; &st14;">G154</tspan></text>
<text ewd:textID='30' transform='matrix(1 0 0 1 3527.417 592.4468)' style='&st6; &st23; &st14;'>Clearance Warning <tspan x='0' y='7' >ECU Assembly</tspan></text>
</g>
<g ewd:code="G123" ewd:figID="43" ewd:figtype="conn">
<path style="&st7;" d="M3715.79,450.75v36.36h65.91v-36.36H3715.79"/>
<text transform="matrix(1 0 0 1 3720.8203 447.0581)" style="&st6;"><tspan x="0" y="0" style="&st23; &st14;">29</tspan></text>
<text transform="matrix(1 0 0 1 3755.9707 447.0581)" style="&st6;"><tspan x="0" y="0" style="&st23; &st14;">28</tspan></text>
<text transform="matrix(1 0 0 1 3722.4463 459.1069)" style="&st6;"><tspan x="0" y="0" style="&st23; &st14;">CANH</tspan></text>
<text transform="matrix(1 0 0 1 3758.1133 459.1069)" style="&st6;"><tspan x="0" y="0" style="&st23; &st14;">CANL</tspan></text>
<text transform="matrix(1 0 0 1 3712.7939 496.106)" style="&st6;"><tspan x="0" y="0" style="&st23; &st14;">G123</tspan></text>
<text ewd:textID='54' transform='matrix(1 0 0 1 3712.7939 503.2163)' style='&st6; &st23; &st14;'>Stabilizer Control ECU</text>
</g>
<g ewd:code="G95" ewd:figID="18" ewd:figtype="conn">
<path style="&st7;" d="M3721.93,315.07v26.36h140.99v-26.36H3721.93"/>
<path style="&st30;" d="M3730.72,315.07v26.36"/>
<path style="&st30;" d="M3765.87,315.07v26.36"/>
<path style="&st30;" d="M3818.59,315.07v26.36"/>
<path style="&st30;" d="M3853.74,315.07v26.36"/>
<path style="&st30;" d="M3730.72,323.86h87.87"/>
<path style="&st30;" d="M3765.87,332.65h87.87"/>
<path style="&st13;" d="M3729.53,322.86l-0.27,0.47l-0.09,0.53l0.09,0.53l0.27,0.47l0.42,0.35l0.5,0.19h0.55l0.5-0.19l0.42-0.35l0.27-0.47l0.09-0.53l-0.09-0.53l-0.27-0.47l-0.42-0.35l-0.5-0.19h-0.55l-0.5,0.19L3729.53,322.86l0.4,0.71v0.58l0.37,0.45l0.57,0.1l0.51-0.29l0.19-0.55l-0.19-0.55l-0.51-0.29l-0.57,0.1l0.42,0.74"/>
<path style="&st13;" d="M3764.68,331.65l-0.27,0.47l-0.09,0.53l0.09,0.53l0.27,0.47l0.42,0.35l0.5,0.19h0.55l0.5-0.19l0.42-0.35l0.27-0.47l0.09-0.53l-0.09-0.53l-0.27-0.47l-0.42-0.35l-0.5-0.19h-0.55l-0.5,0.19L3764.68,331.65l0.4,0.71v0.58l0.37,0.45l0.57,0.1l0.51-0.29l0.19-0.55l-0.19-0.55l-0.51-0.29l-0.57,0.1l0.42,0.74"/>
<path style="&st13;" d="M3817.4,322.86l-0.27,0.47l-0.09,0.53l0.09,0.53l0.27,0.47l0.42,0.35l0.5,0.19h0.55l0.5-0.19l0.42-0.35l0.27-0.47l0.09-0.53l-0.09-0.53l-0.27-0.47l-0.42-0.35l-0.5-0.19h-0.55l-0.5,0.19L3817.4,322.86l0.4,0.71v0.58l0.37,0.45l0.57,0.1l0.51-0.29l0.19-0.55l-0.19-0.55l-0.51-0.29l-0.57,0.1l0.42,0.74"/>
<path style="&st13;" d="M3852.55,331.65l-0.27,0.47l-0.09,0.53l0.09,0.53l0.27,0.47l0.42,0.35l0.5,0.19h0.55l0.5-0.19l0.42-0.35l0.27-0.47l0.09-0.53l-0.09-0.53l-0.27-0.47l-0.42-0.35l-0.5-0.19h-0.55l-0.5,0.19L3852.55,331.65l0.4,0.71v0.58l0.37,0.45l0.57,0.1l0.51-0.29l0.19-0.55l-0.19-0.55l-0.51-0.29l-0.57,0.1l0.42,0.74"/>
<text ewd:textID='38' transform='matrix(0 -1 1 0 3877.6406 343.9541)' style='&st6; &st23; &st14;'>Junction Connector</text>
<text transform="matrix(0 -1 1 0 3870.5313 343.9541)" style="&st6;"><tspan x="0" y="0" style="&st23; &st14;">G95</tspan></text>
<text transform="matrix(1 0 0 1 3723.6807 311.3833)" style="&st6;"><tspan x="0" y="0" style="&st23; &st14;">1</tspan></text>
<text transform="matrix(1 0 0 1 3755.4912 311.3833)" style="&st6;"><tspan x="0" y="0" style="&st23; &st14;">12</tspan></text>
<text transform="matrix(1 0 0 1 3811.5518 311.3833)" style="&st6;"><tspan x="0" y="0" style="&st23; &st14;">6</tspan></text>
<text transform="matrix(1 0 0 1 3843.3652 311.3833)" style="&st6;"><tspan x="0" y="0" style="&st23; &st14;">17</tspan></text>
<text transform="matrix(1 0 0 1 3723.6807 349.6348)" style="&st6;"><tspan x="0" y="0" style="&st23; &st14;">5</tspan></text>
<text transform="matrix(1 0 0 1 3755.4912 349.6348)" style="&st6;"><tspan x="0" y="0" style="&st23; &st14;">16</tspan></text>
<text transform="matrix(1 0 0 1 3811.5518 349.6348)" style="&st6;"><tspan x="0" y="0" style="&st23; &st14;">3</tspan></text>
<text transform="matrix(1 0 0 1 3843.3652 349.6348)" style="&st6;"><tspan x="0" y="0" style="&st23; &st14;">14</tspan></text>
</g>
<g ewd:code="G118-B" ewd:figID="19" ewd:figtype="conn">
<path style="&st7;" d="M3803.19,147.24v36.36h65.91v-36.36H3803.19"/>
<path style="&st7;" d="M3823.12,188.13c0-2.5-2.02-4.53-4.53-4.53"/>
<path style="&st7;" d="M3818.59,183.6c-2.5,0-4.53,2.03-4.53,4.53"/>
<path style="&st7;" d="M3814.06,188.13c0,2.51,2.03,4.53,4.53,4.53"/>
<path style="&st7;" d="M3818.59,192.66c2.51,0,4.53-2.02,4.53-4.53"/>
<path style="&st7;" d="M3858.27,188.13c0-2.5-2.02-4.53-4.53-4.53"/>
<path style="&st7;" d="M3853.74,183.6c-2.5,0-4.53,2.03-4.53,4.53"/>
<path style="&st7;" d="M3849.21,188.13c0,2.51,2.03,4.53,4.53,4.53"/>
<path style="&st7;" d="M3853.74,192.66c2.51,0,4.53-2.02,4.53-4.53"/>
<text transform="matrix(1 0 0 1 3810.6631 179.3462)" style="&st6;"><tspan x="0" y="0" style="&st23; &st14;">CANH</tspan></text>
<text transform="matrix(1 0 0 1 3846.3301 179.3462)" style="&st6;"><tspan x="0" y="0" style="&st23; &st14;">CANL</tspan></text>
<text transform="matrix(1 0 0 1 3816.2607 190.0952)" style="&st6;"><tspan x="0" y="0" style="&st23; &st14;">B</tspan></text>
<text transform="matrix(1 0 0 1 3808.2129 190.0864)" style="&st6;"><tspan x="0" y="0" style="&st23; &st14;">1</tspan></text>
<text transform="matrix(1 0 0 1 3851.4121 190.0952)" style="&st6;"><tspan x="0" y="0" style="&st23; &st14;">B</tspan></text>
<text transform="matrix(1 0 0 1 3843.3643 190.0864)" style="&st6;"><tspan x="0" y="0" style="&st23; &st14;">2</tspan></text>
<text ewd:textID='52' transform='matrix(1 0 0 1 3800.5947 143.2368)' style='&st6; &st23; &st14;'>Seat Belt Control ECU</text>
<text transform="matrix(1 0 0 1 3800.5947 136.1265)" style="&st6;"><tspan x="0" y="0" style="&st23; &st14;">G118B)</tspan></text>
</g>
<g ewd:code="A49-B" ewd:figID="20" ewd:figtype="conn">
<path style="&st7;" d="M3908.64,146.6v36.36h65.91V146.6H3908.64"/>
<path style="&st7;" d="M3928.56,187.49c0-2.5-2.02-4.53-4.53-4.53"/>
<path style="&st7;" d="M3924.03,182.96c-2.5,0-4.53,2.03-4.53,4.53"/>
<path style="&st7;" d="M3919.5,187.49c0,2.51,2.03,4.53,4.53,4.53"/>
<path style="&st7;" d="M3924.03,192.02c2.51,0,4.53-2.02,4.53-4.53"/>
<path style="&st7;" d="M3963.71,187.49c0-2.5-2.02-4.53-4.53-4.53"/>
<path style="&st7;" d="M3959.19,182.96c-2.5,0-4.53,2.03-4.53,4.53"/>
<path style="&st7;" d="M3954.66,187.49c0,2.51,2.03,4.53,4.53,4.53"/>
<path style="&st7;" d="M3959.19,192.02c2.51,0,4.53-2.02,4.53-4.53"/>
<text transform="matrix(1 0 0 1 3916.1064 178.7139)" style="&st6;"><tspan x="0" y="0" style="&st23; &st14;">CANH</tspan></text>
<text transform="matrix(1 0 0 1 3951.7734 178.7139)" style="&st6;"><tspan x="0" y="0" style="&st23; &st14;">CANL</tspan></text>
<text transform="matrix(1 0 0 1 3921.7041 189.4629)" style="&st6;"><tspan x="0" y="0" style="&st23; &st14;">B</tspan></text>
<text transform="matrix(1 0 0 1 3913.6563 189.4541)" style="&st6;"><tspan x="0" y="0" style="&st23; &st14;">7</tspan></text>
<text transform="matrix(1 0 0 1 3956.8555 189.4629)" style="&st6;"><tspan x="0" y="0" style="&st23; &st14;">B</tspan></text>
<text transform="matrix(1 0 0 1 3948.8076 189.4541)" style="&st6;"><tspan x="0" y="0" style="&st23; &st14;">8</tspan></text>
<text ewd:textID='56' transform='matrix(1 0 0 1 3906.0381 142.6045)' style='&st6; &st23; &st14;'>Suspension Control ECU</text>
<text transform="matrix(1 0 0 1 3906.0381 135.4941)" style="&st6;"><tspan x="0" y="0" style="&st23; &st14;">A49(B)</tspan></text>
</g>
<g ewd:code="A58" ewd:figID="22" ewd:figtype="conn">
<path style="&st7;" d="M3996.51,146.6v36.36h65.91V146.6H3996.51"/>
<text transform="matrix(1 0 0 1 4001.5313 191.1631)" style="&st6;"><tspan x="0" y="0" style="&st23; &st14;">12</tspan></text>
<text transform="matrix(1 0 0 1 4036.6816 191.1631)" style="&st6;"><tspan x="0" y="0" style="&st23; &st14;">13</tspan></text>
<text transform="matrix(1 0 0 1 4003.9775 178.7139)" style="&st6;"><tspan x="0" y="0" style="&st23; &st14;">CANH</tspan></text>
<text transform="matrix(1 0 0 1 4039.6445 178.7139)" style="&st6;"><tspan x="0" y="0" style="&st23; &st14;">CANL</tspan></text>
<text ewd:textID='37' transform='matrix(1 0 0 1 3993.9092 135.4941)' style='&st6; &st23; &st14;'>Headlight Swivel <tspan x='0' y='7' >ECU Assembly</tspan></text>
<text transform="matrix(1 0 0 1 3993.9092 128.3838)" style="&st6;"><tspan x="0" y="0" style="&st23; &st14;">A58</tspan></text>
</g>
<g ewd:code="A73" ewd:figID="21" ewd:figtype="conn">
<path style="&st7;" d="M3915.25,253.26v26.36h140.99v-26.36H3915.25"/>
<path style="&st30;" d="M3924.03,253.26v26.36"/>
<path style="&st30;" d="M3959.18,253.26v26.36"/>
<path style="&st30;" d="M4011.91,253.26v26.36"/>
<path style="&st30;" d="M4047.06,253.26v26.36"/>
<path style="&st30;" d="M3924.03,262.05h87.87"/>
<path style="&st30;" d="M3959.18,270.83h87.87"/>
<path style="&st13;" d="M3922.84,261.05l-0.27,0.47l-0.09,0.53l0.09,0.53l0.27,0.47l0.42,0.35l0.5,0.19h0.55l0.5-0.19l0.42-0.35l0.27-0.47l0.09-0.53l-0.09-0.53l-0.27-0.47l-0.42-0.35l-0.5-0.19h-0.55l-0.5,0.19L3922.84,261.05l0.4,0.71v0.58l0.37,0.45l0.57,0.1l0.51-0.29l0.19-0.55l-0.19-0.55l-0.51-0.29l-0.57,0.1l0.42,0.74"/>
<path style="&st13;" d="M3957.99,269.83l-0.27,0.47l-0.09,0.53l0.09,0.53l0.27,0.47l0.42,0.35l0.5,0.19h0.55l0.5-0.19l0.42-0.35l0.27-0.47l0.09-0.53l-0.09-0.53l-0.27-0.47l-0.42-0.35l-0.5-0.19h-0.55l-0.5,0.19L3957.99,269.83l0.4,0.71v0.58l0.37,0.45l0.57,0.1l0.51-0.29l0.19-0.55l-0.19-0.55l-0.51-0.29l-0.57,0.1l0.42,0.74"/>
<path style="&st13;" d="M4010.72,261.05l-0.27,0.47l-0.09,0.53l0.09,0.53l0.27,0.47l0.42,0.35l0.5,0.19h0.55l0.5-0.19l0.42-0.35l0.27-0.47l0.09-0.53l-0.09-0.53l-0.27-0.47l-0.42-0.35l-0.5-0.19h-0.55l-0.5,0.19L4010.72,261.05l0.4,0.71v0.58l0.37,0.45l0.57,0.1l0.51-0.29l0.19-0.55l-0.19-0.55l-0.51-0.29l-0.57,0.1l0.42,0.74"/>
<path style="&st13;" d="M4045.87,269.83l-0.27,0.47l-0.09,0.53l0.09,0.53l0.27,0.47l0.42,0.35l0.5,0.19h0.55l0.5-0.19l0.42-0.35l0.27-0.47l0.09-0.53l-0.09-0.53l-0.27-0.47l-0.42-0.35l-0.5-0.19h-0.55l-0.5,0.19L4045.87,269.83l0.4,0.71v0.58l0.37,0.45l0.57,0.1l0.51-0.29l0.19-0.55l-0.19-0.55l-0.51-0.29l-0.57,0.1l0.42,0.74"/>
<text ewd:textID='38' transform='matrix(0 -1 1 0 4070.957 282.1396)' style='&st6; &st23; &st14;'>Junction Connector</text>
<text transform="matrix(0 -1 1 0 4063.8477 282.1396)" style="&st6;"><tspan x="0" y="0" style="&st23; &st14;">A73</tspan></text>
<text transform="matrix(1 0 0 1 3916.9971 249.5688)" style="&st6;"><tspan x="0" y="0" style="&st23; &st14;">3</tspan></text>
<text transform="matrix(1 0 0 1 3948.8076 249.5688)" style="&st6;"><tspan x="0" y="0" style="&st23; &st14;">14</tspan></text>
<text transform="matrix(1 0 0 1 4004.8682 249.5688)" style="&st6;"><tspan x="0" y="0" style="&st23; &st14;">4</tspan></text>
<text transform="matrix(1 0 0 1 4036.6816 249.5688)" style="&st6;"><tspan x="0" y="0" style="&st23; &st14;">15</tspan></text>
<text transform="matrix(1 0 0 1 3916.9971 287.8203)" style="&st6;"><tspan x="0" y="0" style="&st23; &st14;">2</tspan></text>
<text transform="matrix(1 0 0 1 3948.8076 287.8203)" style="&st6;"><tspan x="0" y="0" style="&st23; &st14;">13</tspan></text>
<text transform="matrix(1 0 0 1 4004.8682 287.8203)" style="&st6;"><tspan x="0" y="0" style="&st23; &st14;">1</tspan></text>
<text transform="matrix(1 0 0 1 4036.6816 287.8203)" style="&st6;"><tspan x="0" y="0" style="&st23; &st14;">12</tspan></text>
</g>
<g ewd:code="G102" ewd:figID="47" ewd:figtype="conn">
<path style="&st7;" d="M3996.53,424.17v79.31h65.91v-79.31H3996.53"/>
<path style="&st30;" d="M4047.06,424.17v20.08l3.03,1.52l-6.06,3.03l6.06,3.03l-6.06,3.03l6.06,3.03l-6.06,3.03l3.03,1.52v20.45"/>
<path style="&st30;" d="M4011.91,424.17v20.08l3.03,1.52l-6.06,3.03l6.06,3.03l-6.06,3.03l6.06,3.03l-6.06,3.03l3.03,1.52v9.09h35.15"/>
<path style="&st30;" d="M4042.52,482.88h9.09"/>
<path style="&st30;" d="M4042.52,487.42h9.09"/>
<path style="&st30;" d="M4047.06,487.42v16.05"/>
<path style="&st13;" d="M4045.87,470.52l-0.27,0.47l-0.09,0.53l0.09,0.53l0.27,0.47l0.42,0.35l0.5,0.19h0.55l0.5-0.19l0.42-0.35l0.27-0.47l0.09-0.53l-0.09-0.53l-0.27-0.47l-0.42-0.35l-0.5-0.19h-0.55l-0.5,0.19L4045.87,470.52l0.4,0.71v0.58l0.37,0.45l0.57,0.1l0.51-0.29l0.19-0.55l-0.19-0.55l-0.51-0.29l-0.57,0.1l0.42,0.74"/>
<text transform="matrix(0 -1 1 0 4008.5928 445.3433)" style="&st6;"><tspan x="0" y="0" style="&st23; &st14;">CANH</tspan></text>
<text transform="matrix(0 -1 1 0 4043.4541 445.3433)" style="&st6;"><tspan x="0" y="0" style="&st23; &st14;">CANL</tspan></text>
<text transform="matrix(1 0 0 1 4039.7686 499.5356)" style="&st6;"><tspan x="0" y="0" style="&st23; &st14;">E</tspan></text>
<text ewd:textID='39' transform='matrix(0 -1 1 0 4077.1572 505.9976)' style='&st6; &st23; &st14;'>Junction Terminal</text>
<text transform="matrix(0 -1 1 0 4070.0479 505.9976)" style="&st6;"><tspan x="0" y="0" style="&st23; &st14;">G102</tspan></text>
<text transform="matrix(1 0 0 1 4004.873 420.481)" style="&st6;"><tspan x="0" y="0" style="&st23; &st14;">3</tspan></text>
<text transform="matrix(1 0 0 1 4040.0225 511.6782)" style="&st6;"><tspan x="0" y="0" style="&st23; &st14;">1</tspan></text>
<text transform="matrix(1 0 0 1 4040.0205 420.481)" style="&st6;"><tspan x="0" y="0" style="&st23; &st14;">2</tspan></text>
</g>
<g ewd:code="R43" ewd:figID="44" ewd:figtype="conn">
<path style="&st7;" d="M3750.46,640.18v36.36h65.91v-36.36H3750.46"/>
<text transform="matrix(1 0 0 1 3758.8281 636.4897)" style="&st6;"><tspan x="0" y="0" style="&st23; &st14;">1</tspan></text>
<text transform="matrix(1 0 0 1 3793.9785 636.4897)" style="&st6;"><tspan x="0" y="0" style="&st23; &st14;">6</tspan></text>
<text transform="matrix(1 0 0 1 3757.1172 648.5386)" style="&st6;"><tspan x="0" y="0" style="&st23; &st14;">CA2P</tspan></text>
<text transform="matrix(1 0 0 1 3792.7842 648.5386)" style="&st6;"><tspan x="0" y="0" style="&st23; &st14;">CA2N</tspan></text>
<text transform="matrix(1 0 0 1 3747.4648 685.5376)" style="&st6;"><tspan x="0" y="0" style="&st23; &st14;">R43</tspan></text>
<text ewd:textID='27' transform='matrix(1 0 0 1 3747.4648 692.6479)' style='&st6; &st23; &st14;'>Blind Spot Monitor <tspan x='0' y='7' >Sensor RH</tspan></text>
</g>
<g ewd:code="R42" ewd:figID="46" ewd:figtype="conn">
<path style="&st7;" d="M3838.34,640.18v36.36h136.2v-36.36H3838.34"/>
<text transform="matrix(1 0 0 1 3835.3398 685.5376)" style="&st6;"><tspan x="0" y="0" style="&st23; &st14;">R42</tspan></text>
<text ewd:textID='26' transform='matrix(1 0 0 1 3835.3398 692.6479)' style='&st6; &st23; &st14;'>Blind Spot Monitor <tspan x='0' y='7' >Sensor LH</tspan></text>
<text transform="matrix(1 0 0 1 3846.6963 636.4897)" style="&st6;"><tspan x="0" y="0" style="&st23; &st14;">1</tspan></text>
<text transform="matrix(1 0 0 1 3846.502 648.5386)" style="&st6;"><tspan x="0" y="0" style="&st23; &st14;">CA2P</tspan></text>
<text transform="matrix(1 0 0 1 3881.8467 636.4897)" style="&st6;"><tspan x="0" y="0" style="&st23; &st14;">6</tspan></text>
<text transform="matrix(1 0 0 1 3881.6523 648.5386)" style="&st6;"><tspan x="0" y="0" style="&st23; &st14;">CA2N</tspan></text>
<text transform="matrix(1 0 0 1 3916.9971 636.4897)" style="&st6;"><tspan x="0" y="0" style="&st23; &st14;">2</tspan></text>
<text transform="matrix(1 0 0 1 3916.8027 648.5386)" style="&st6;"><tspan x="0" y="0" style="&st23; &st14;">CA1P</tspan></text>
<text transform="matrix(1 0 0 1 3952.1475 636.4897)" style="&st6;"><tspan x="0" y="0" style="&st23; &st14;">7</tspan></text>
<text transform="matrix(1 0 0 1 3951.9531 648.5386)" style="&st6;"><tspan x="0" y="0" style="&st23; &st14;">CA1N</tspan></text>
</g>
<g ewd:code="R47" ewd:figID="45" ewd:figtype="conn">
<path style="&st7;" d="M3809.8,533.85v26.36h158.57v-26.36H3809.8"/>
<path style="&st30;" d="M3818.59,533.85v8.79h105.45"/>
<path style="&st30;" d="M3853.74,533.85v17.57h105.45"/>
<path style="&st30;" d="M3924.04,533.85v26.36"/>
<path style="&st30;" d="M3959.18,533.85v26.36"/>
<path style="&st13;" d="M3922.85,541.63l-0.27,0.47l-0.09,0.53l0.09,0.53l0.27,0.47l0.42,0.35l0.5,0.19h0.55l0.5-0.19l0.42-0.35l0.27-0.47l0.09-0.53l-0.09-0.53l-0.27-0.47l-0.42-0.35l-0.5-0.19h-0.55l-0.5,0.19L3922.85,541.63l0.4,0.71v0.58l0.37,0.45l0.57,0.1l0.51-0.29l0.19-0.55l-0.19-0.55l-0.51-0.29l-0.57,0.1l0.42,0.74"/>
<path style="&st13;" d="M3958.33,550.42l-0.27,0.47l-0.09,0.53l0.09,0.53l0.27,0.47l0.42,0.35l0.5,0.19h0.55l0.5-0.19l0.42-0.35l0.27-0.47l0.09-0.53l-0.09-0.53l-0.27-0.47l-0.42-0.35l-0.5-0.19h-0.55l-0.5,0.19L3958.33,550.42l0.4,0.71v0.58l0.37,0.45l0.57,0.1l0.51-0.29l0.19-0.55l-0.19-0.55l-0.51-0.29l-0.57,0.1l0.42,0.74"/>
<text ewd:textID='38' transform='matrix(0 -1 1 0 3983.0889 562.728)' style='&st6; &st23; &st14;'>Junction Connector</text>
<text transform="matrix(0 -1 1 0 3975.9795 562.728)" style="&st6;"><tspan x="0" y="0" style="&st23; &st14;">R47</tspan></text>
<text transform="matrix(1 0 0 1 3811.5518 530.1597)" style="&st6;"><tspan x="0" y="0" style="&st23; &st14;">1</tspan></text>
<text transform="matrix(1 0 0 1 3843.3623 530.1597)" style="&st6;"><tspan x="0" y="0" style="&st23; &st14;">12</tspan></text>
<text transform="matrix(1 0 0 1 3917 530.1597)" style="&st6;"><tspan x="0" y="0" style="&st23; &st14;">3</tspan></text>
<text transform="matrix(1 0 0 1 3948.8105 530.1597)" style="&st6;"><tspan x="0" y="0" style="&st23; &st14;">14</tspan></text>
<text transform="matrix(1 0 0 1 3917.0039 568.4087)" style="&st6;"><tspan x="0" y="0" style="&st23; &st14;">2</tspan></text>
<text transform="matrix(1 0 0 1 3948.8145 568.4087)" style="&st6;"><tspan x="0" y="0" style="&st23; &st14;">13</tspan></text>
</g>
<text transform="matrix(0 -1 1 0 3541.6338 441.4097)" style="&st6;"><tspan x="0" y="0" style="&st23; &st14;">R</tspan></text>
<text transform="matrix(0 -1 1 0 3552.9639 445.7456)" style="&st6;"><tspan x="0" y="0" style="&st23; &st14;">(*17)</tspan></text>
<text transform="matrix(0 -1 1 0 3576.7813 442.0747)" style="&st6;"><tspan x="0" y="0" style="&st23; &st14;">W</tspan></text>
<text transform="matrix(0 -1 1 0 3588.1113 445.7456)" style="&st6;"><tspan x="0" y="0" style="&st23; &st14;">(*17)</tspan></text>
<text transform="matrix(0 -1 1 0 3727.0107 398.3726)" style="&st6;"><tspan x="0" y="0" style="&st23; &st14;">V</tspan></text>
<text transform="matrix(0 -1 1 0 3738.3408 406.5435)" style="&st6;"><tspan x="0" y="0" style="&st23; &st14;">(*4,*24)</tspan></text>
<text transform="matrix(0 -1 1 0 3762.1582 399.2026)" style="&st6;"><tspan x="0" y="0" style="&st23; &st14;">W</tspan></text>
<text transform="matrix(0 -1 1 0 3773.4883 406.5435)" style="&st6;"><tspan x="0" y="0" style="&st23; &st14;">(*4,*24)</tspan></text>
<text transform="matrix(0 -1 1 0 3797.3096 617.1147)" style="&st6;"><tspan x="0" y="0" style="&st23; &st14;">W</tspan></text>
<text transform="matrix(0 -1 1 0 3808.6396 620.7856)" style="&st6;"><tspan x="0" y="0" style="&st23; &st14;">(*20)</tspan></text>
<text transform="matrix(0 -1 1 0 3955.4814 613.1147)" style="&st6;"><tspan x="0" y="0" style="&st23; &st14;">W</tspan></text>
<text transform="matrix(0 -1 1 0 3966.8115 616.7856)" style="&st6;"><tspan x="0" y="0" style="&st23; &st14;">(*20)</tspan></text>
<text transform="matrix(0 -1 1 0 3920.3311 613.1147)" style="&st6;"><tspan x="0" y="0" style="&st23; &st14;">G</tspan></text>
<text transform="matrix(0 -1 1 0 3931.6611 616.7856)" style="&st6;"><tspan x="0" y="0" style="&st23; &st14;">(*20)</tspan></text>
<text transform="matrix(0 -1 1 0 3762.1582 617.1147)" style="&st6;"><tspan x="0" y="0" style="&st23; &st14;">V</tspan></text>
<text transform="matrix(0 -1 1 0 3773.4883 620.7856)" style="&st6;"><tspan x="0" y="0" style="&st23; &st14;">(*20)</tspan></text>
<text transform="matrix(0 -1 1 0 3814.8887 408.3003)" style="&st6;"><tspan x="0" y="0" style="&st23; &st14;">LG</tspan></text>
<text transform="matrix(0 -1 1 0 3826.2188 411.4663)" style="&st6;"><tspan x="0" y="0" style="&st23; &st14;">(*10)</tspan></text>
<text transform="matrix(0 -1 1 0 3814.8887 508.6421)" style="&st6;"><tspan x="0" y="0" style="&st23; &st14;">LG</tspan></text>
<text transform="matrix(0 -1 1 0 3826.2188 511.8081)" style="&st6;"><tspan x="0" y="0" style="&st23; &st14;">(*20)</tspan></text>
<text transform="matrix(0 -1 1 0 3850.0332 408.3003)" style="&st6;"><tspan x="0" y="0" style="&st23; &st14;">W</tspan></text>
<text transform="matrix(0 -1 1 0 3861.3633 411.4663)" style="&st6;"><tspan x="0" y="0" style="&st23; &st14;">(*10)</tspan></text>
<text transform="matrix(0 -1 1 0 3850.0332 508.6421)" style="&st6;"><tspan x="0" y="0" style="&st23; &st14;">W</tspan></text>
<text transform="matrix(0 -1 1 0 3861.3633 511.8081)" style="&st6;"><tspan x="0" y="0" style="&st23; &st14;">(*20)</tspan></text>
<text transform="matrix(0 -1 1 0 3920.334 408.3003)" style="&st6;"><tspan x="0" y="0" style="&st23; &st14;">B</tspan></text>
<text transform="matrix(0 -1 1 0 3931.6641 411.4663)" style="&st6;"><tspan x="0" y="0" style="&st23; &st14;">(*10)</tspan></text>
<text transform="matrix(1 0 0 1 3876.4766 386.0571)" style="&st6;"><tspan x="0" y="0" style="&st23; &st14;">B(*11)</tspan></text>
<text transform="matrix(1 0 0 1 3876.4766 476.5854)" style="&st6;"><tspan x="0" y="0" style="&st23; &st14;">B(*21)</tspan></text>
<text transform="matrix(0 -1 1 0 3920.334 508.6421)" style="&st6;"><tspan x="0" y="0" style="&st23; &st14;">B</tspan></text>
<text transform="matrix(0 -1 1 0 3931.6641 511.8081)" style="&st6;"><tspan x="0" y="0" style="&st23; &st14;">(*20)</tspan></text>
<text transform="matrix(0 -1 1 0 3955.4814 408.3003)" style="&st6;"><tspan x="0" y="0" style="&st23; &st14;">W</tspan></text>
<text transform="matrix(0 -1 1 0 3966.8115 411.4663)" style="&st6;"><tspan x="0" y="0" style="&st23; &st14;">(*10)</tspan></text>
<text transform="matrix(1 0 0 1 3875.6455 370.6782)" style="&st6;"><tspan x="0" y="0" style="&st23; &st14;">W(*11)</tspan></text>
<text transform="matrix(1 0 0 1 3875.6455 461.2085)" style="&st6;"><tspan x="0" y="0" style="&st23; &st14;">W(*21)</tspan></text>
<text transform="matrix(0 -1 1 0 3955.4814 508.6421)" style="&st6;"><tspan x="0" y="0" style="&st23; &st14;">W</tspan></text>
<text transform="matrix(0 -1 1 0 3966.8115 511.8081)" style="&st6;"><tspan x="0" y="0" style="&st23; &st14;">(*20)</tspan></text>
<text transform="matrix(0 -1 1 0 3920.334 309.4067)" style="&st6;"><tspan x="0" y="0" style="&st23; &st14;">B</tspan></text>
<text transform="matrix(0 -1 1 0 3931.6641 313.0776)" style="&st6;"><tspan x="0" y="0" style="&st23; &st14;">(*1)</tspan></text>
<text transform="matrix(0 -1 1 0 3955.4814 309.4067)" style="&st6;"><tspan x="0" y="0" style="&st23; &st14;">W</tspan></text>
<text transform="matrix(0 -1 1 0 3966.8115 313.0776)" style="&st6;"><tspan x="0" y="0" style="&st23; &st14;">(*1)</tspan></text>
<text transform="matrix(0 -1 1 0 3814.8887 271.0005)" style="&st6;"><tspan x="0" y="0" style="&st23; &st14;">L</tspan></text>
<text transform="matrix(0 -1 1 0 3826.2188 275.8345)" style="&st6;"><tspan x="0" y="0" style="&st23; &st14;">(*19)</tspan></text>
<text transform="matrix(0 -1 1 0 3850.0391 272.1636)" style="&st6;"><tspan x="0" y="0" style="&st23; &st14;">W</tspan></text>
<text transform="matrix(0 -1 1 0 3861.3691 275.8345)" style="&st6;"><tspan x="0" y="0" style="&st23; &st14;">(*19)</tspan></text>
<text transform="matrix(0 -1 1 0 3920.332 223.1558)" style="&st6;"><tspan x="0" y="0" style="&st23; &st14;">GR</tspan></text>
<text transform="matrix(0 -1 1 0 3931.6621 225.1582)" style="&st6;"><tspan x="0" y="0" style="&st23; &st14;">(*22)</tspan></text>
<text transform="matrix(0 -1 1 0 3955.4824 221.4873)" style="&st6;"><tspan x="0" y="0" style="&st23; &st14;">W</tspan></text>
<text transform="matrix(0 -1 1 0 3966.8125 225.1582)" style="&st6;"><tspan x="0" y="0" style="&st23; &st14;">(*22)</tspan></text>
<text transform="matrix(0 -1 1 0 3727.0107 269.4526)" style="&st6;"><tspan x="0" y="0" style="&st23; &st14;">P</tspan></text>
<text transform="matrix(0 -1 1 0 3738.3408 272.2856)" style="&st6;"><tspan x="0" y="0" style="&st23; &st14;">(*1)</tspan></text>
<text transform="matrix(0 -1 1 0 3762.1621 270.2832)" style="&st6;"><tspan x="0" y="0" style="&st23; &st14;">W</tspan></text>
<text transform="matrix(0 -1 1 0 3773.4922 272.2856)" style="&st6;"><tspan x="0" y="0" style="&st23; &st14;">(*1)</tspan></text>
<text transform="matrix(1 0 0 1 3604.3711 35.8467)" style="&st6;"><tspan x="0" y="0" style="&st23; &st14;">V</tspan></text>
<text transform="matrix(1 0 0 1 3603.541 55.8467)" style="&st6;"><tspan x="0" y="0" style="&st23; &st14;">W</tspan></text>
<text transform="matrix(1 0 0 1 3596.4238 47.1768)" style="&st6;"><tspan x="0" y="0" style="&st23; &st14;">(*1 *11)</tspan></text>
<text transform="matrix(1 0 0 1 3596.4238 67.1768)" style="&st6;"><tspan x="0" y="0" style="&st23; &st14;">(*1 *11)</tspan></text>
<text transform="matrix(1 0 0 1 3653.3711 35.8467)" style="&st6;"><tspan x="0" y="0" style="&st23; &st14;">V</tspan></text>
<text transform="matrix(1 0 0 1 3652.54 55.8467)" style="&st6;"><tspan x="0" y="0" style="&st23; &st14;">W</tspan></text>
<text transform="matrix(1 0 0 1 3645.4229 47.1768)" style="&st6;"><tspan x="0" y="0" style="&st23; &st14;">(*1 *11)</tspan></text>
<text transform="matrix(1 0 0 1 3645.4229 67.1768)" style="&st6;"><tspan x="0" y="0" style="&st23; &st14;">(*1 *11)</tspan></text>
<text transform="matrix(1 0 0 1 3604.3711 75.8467)" style="&st6;"><tspan x="0" y="0" style="&st23; &st14;">L</tspan></text>
<text transform="matrix(1 0 0 1 3603.541 96.4209)" style="&st6;"><tspan x="0" y="0" style="&st23; &st14;">W</tspan></text>
<text transform="matrix(1 0 0 1 3596.4238 87.1768)" style="&st6;"><tspan x="0" y="0" style="&st23; &st14;">(*1 *11)</tspan></text>
<text transform="matrix(1 0 0 1 3596.4238 107.751)" style="&st6;"><tspan x="0" y="0" style="&st23; &st14;">(*1 *11)</tspan></text>
<text transform="matrix(1 0 0 1 3653.3711 75.8467)" style="&st6;"><tspan x="0" y="0" style="&st23; &st14;">L</tspan></text>
<text transform="matrix(1 0 0 1 3652.54 96.4209)" style="&st6;"><tspan x="0" y="0" style="&st23; &st14;">W</tspan></text>
<text transform="matrix(1 0 0 1 3645.4229 87.1768)" style="&st6;"><tspan x="0" y="0" style="&st23; &st14;">(*1 *11)</tspan></text>
<text transform="matrix(1 0 0 1 3645.4229 107.751)" style="&st6;"><tspan x="0" y="0" style="&st23; &st14;">(*1 *11)</tspan></text>
<text transform="matrix(1 0 0 1 3604.3711 196.6108)" style="&st6;"><tspan x="0" y="0" style="&st23; &st14;">P</tspan></text>
<text transform="matrix(1 0 0 1 3601.5381 207.9409)" style="&st6;"><tspan x="0" y="0" style="&st23; &st14;">(*1)</tspan></text>
<text transform="matrix(1 0 0 1 3653.3711 196.6108)" style="&st6;"><tspan x="0" y="0" style="&st23; &st14;">P</tspan></text>
<text transform="matrix(1 0 0 1 3650.5381 207.9409)" style="&st6;"><tspan x="0" y="0" style="&st23; &st14;">(*1)</tspan></text>
<text transform="matrix(1 0 0 1 3603.541 223.5195)" style="&st6;"><tspan x="0" y="0" style="&st23; &st14;">W</tspan></text>
<text transform="matrix(1 0 0 1 3601.5381 234.8496)" style="&st6;"><tspan x="0" y="0" style="&st23; &st14;">(*1)</tspan></text>
<text transform="matrix(1 0 0 1 3652.541 223.5195)" style="&st6;"><tspan x="0" y="0" style="&st23; &st14;">W</tspan></text>
<text transform="matrix(1 0 0 1 3650.5381 234.8496)" style="&st6;"><tspan x="0" y="0" style="&st23; &st14;">(*1)</tspan></text>
</svg>
