﻿<?xml version="1.0" encoding="UTF-8"?>
<!DOCTYPE svg PUBLIC "-//W3C//DTD SVG 1.0//EN" "http://www.w3.org/TR/2001/REC-SVG-20010904/DTD/svg10.dtd"[
<!ENTITY ns_flows "http://ns.adobe.com/Flows/1.0/">
<!ENTITY ns_svg "http://www.w3.org/2000/svg">
<!ENTITY ns_xlink "http://www.w3.org/1999/xlink">
	<!ENTITY st0 "fill:none;stroke:#FB0F0C;stroke-width:5.1;stroke-linejoin:round;">
	<!ENTITY st1 "fill:none;stroke:#9A9999;stroke-width:5.1;stroke-linejoin:round;">
	<!ENTITY st2 "fill:none;stroke:#99280B;stroke-width:5.1;stroke-linejoin:round;">
	<!ENTITY st3 "fill:none;stroke:#000000;stroke-width:5.1;stroke-linejoin:round;">
	<!ENTITY st4 "fill:none;stroke:#000000;stroke-linecap:round;stroke-linejoin:round;">
	<!ENTITY st5 "stroke:#000000;stroke-width:0.28;stroke-linecap:round;stroke-linejoin:round;enable-background:new    ;">
	<!ENTITY st6 "enable-background:new    ;">
		<!ENTITY st7 "fill:none;stroke:#000000;stroke-width:1.42;stroke-linecap:round;stroke-linejoin:round;enable-background:new    ;">
	<!ENTITY st8 "fill:none;stroke:#EE67AA;stroke-width:5.1;stroke-linejoin:round;">
	<!ENTITY st9 "fill:none;stroke:#FFFFFF;stroke-width:4;">
	<!ENTITY st10 "fill:none;stroke:#199DBF;stroke-width:5.1;stroke-linejoin:round;">
	<!ENTITY st11 "opacity:0.5;fill:none;stroke:#34ACCE;stroke-linejoin:round;stroke-dasharray:6;">
	<!ENTITY st12 "fill:none;stroke:#FFFFFF;stroke-width:4.53;stroke-linejoin:round;">
		<!ENTITY st13 "fill:none;stroke:#000000;stroke-width:0.85;stroke-linecap:round;stroke-linejoin:round;enable-background:new    ;">
	<!ENTITY st14 "font-size:6px;">
	<!ENTITY st15 "fill:none;stroke:#168638;stroke-width:5.1;stroke-linejoin:round;">
	<!ENTITY st16 "fill:none;stroke:#000000;stroke-width:1.13;stroke-linejoin:round;">
	<!ENTITY st17 "fill:#FFFFFF;stroke:#000000;stroke-width:1.41;stroke-linecap:round;stroke-linejoin:round;">
	<!ENTITY st18 "fill:none;stroke:#550E7B;stroke-width:5.1;stroke-linejoin:round;">
	<!ENTITY st19 "fill:none;stroke:#000000;stroke-width:1.133;stroke-linecap:round;stroke-linejoin:round;">
	<!ENTITY st20 "fill:none;stroke:#3E65AC;stroke-width:3;">
	<!ENTITY st21 "fill:#CCCCCC;stroke:#CCCCCC;stroke-width:0.1;stroke-linecap:round;stroke-linejoin:round;">
	<!ENTITY st22 "fill:none;stroke:#000000;stroke-width:1.42;stroke-linejoin:round;">
	<!ENTITY st23 "font-family:'Arial';">
	<!ENTITY st24 "opacity:0.5;fill:none;stroke:#34ACCE;stroke-linejoin:round;">
	<!ENTITY st25 "fill:none;stroke:#000000;stroke-width:1.42;stroke-linecap:round;stroke-linejoin:round;">
	<!ENTITY st26 "fill:#CFE6E7;stroke:#000000;stroke-width:1.133;stroke-linecap:round;stroke-linejoin:round;">
	<!ENTITY st27 "fill:none;stroke:#F7E416;stroke-width:5.1;stroke-linejoin:round;">
	<!ENTITY st28 "fill:none;stroke:#000000;stroke-width:0.85;stroke-linecap:round;stroke-linejoin:round;stroke-dasharray:3 1.5;">
	<!ENTITY st29 "fill:#CFE6E7;stroke:#000000;stroke-width:1.13;stroke-linejoin:round;">
	<!ENTITY st30 "fill:none;stroke:#000000;stroke-width:0.85;stroke-linecap:round;stroke-linejoin:round;">
	<!ENTITY st31 "fill:none;stroke:#7EC57E;stroke-width:5.1;stroke-linejoin:round;">
<!ATTLIST svg
xmlns:ewd CDATA #FIXED "http://shcl.co.jp/ewd"
xmlns:a CDATA #FIXED "http://ns.adobe.com/AdobeSVGViewerExtensions/3.0/"
ewd:ver CDATA #IMPLIED
>
<!ATTLIST a
ewd:lineID CDATA #IMPLIED
ewd:groupID CDATA #IMPLIED
ewd:figtype CDATA #IMPLIED
ewd:code CDATA #IMPLIED
ewd:figID CDATA #IMPLIED
ewd:pinNo CDATA #IMPLIED
ewd:comment CDATA #IMPLIED >
<!ATTLIST g
ewd:lineID CDATA #IMPLIED
ewd:groupID CDATA #IMPLIED
ewd:figtype CDATA #IMPLIED
ewd:code CDATA #IMPLIED
ewd:figID CDATA #IMPLIED
ewd:pinNo CDATA #IMPLIED
ewd:comment CDATA #IMPLIED >
<!ATTLIST text
ewd:textID CDATA #IMPLIED >
<!ATTLIST title
ewd:textID CDATA #IMPLIED >
]>
<svg onload="call_execInitLoadProc_svg('system')"
style='overflow:visible;enable-background:new 0 0 4150.28 729.44'
viewBox='0 0 4150.28 729.44'
height='729.44'
width='4150.28'
xml:space="preserve"
xmlns="&ns_svg;"
xmlns:ewd="http://shcl.co.jp/ewd"
xmlns:a="http://ns.adobe.com/AdobeSVGViewerExtensions/3.0/"
xmlns:xlink="&ns_xlink;" ewd:ver="L2.3">
<style type="text/css">
</style>
<script type="text/javascript" xlink:href="../../../../../system/js/ewd/fig/svgfig.js"/>
<defs>
<font horiz-adv-x="1229">
<font-face font-family="Svg Symbol" units-per-em="2048" panose-1="5 5 1 2 1 7 6 2 5 7" ascent="2059" descent="450" alphabetic="0"/>
<missing-glyph d="M 103,0 l 0,1280 1024,0 0,-1280 -1024,0 z m 32,32 l 960,0 0,1216 -960,0 0,-1216 z"/>
<glyph unicode="&#xF057;" horiz-adv-x="1573" d="M 1517,0 l -567,0 24,279 q 141,59 207.5,168 66.5,109 66.5,306    0,272 -132.5,417.5 -132.5,145.5 -333.5,145.5 -194,0 -328,-147.5 -134,-147.5 -134,-401.5 0,-200 68.5,-319 68.5,-119     206.5,-169 l 25,-279 -564,0 0,279 35,0 q 3,-61 32,-83 45,-35 137,-35 l 270,0 0,70 q -210,61 -324.5,209 -114.5,148     -114.5,349 0,252 186.5,425 186.5,173 504.5,173 195,0 358.5,-73.5 163.5,-73.5 252,-214.5 88.5,-141 88.5,-310 0,-207     -121.5,-360.5 -121.5,-153.5 -317.5,-197.5 l -8,-70 275,0 q 92,0 128,28 36,28 42,90 l 38,0 0,-279 z"/>
</font>
</defs>
<g id="ewd_top">
<a ewd:lineID="1" style="cursor:pointer;">
<path style="&st1;" d="M 29.41 , 75.91 L 29.41 , 272.19"/>
</a>
<a ewd:lineID="3" style="cursor:pointer;">
<path style="&st3;" d="M 64.56 , 75.91 L 64.56 , 272.19"/>
<path style="&st12;" d="M 64.56 , 75.91 L 64.56 , 272.19"/>
</a>
<a ewd:lineID="7" style="cursor:pointer;">
<path style="&st3;" d="M 170 , 94.04 L 170 , 272.19"/>
<path style="&st12;" d="M 170 , 94.04 L 170 , 272.19"/>
</a>
<a ewd:lineID="11" style="cursor:pointer;">
<path style="&st3;" d="M 325.3 , 272.19 L 325.3 , 59.8 L 998.42 , 59.8 L 998.42 , 146.64"/>
<path style="&st12;" d="M 325.3 , 272.19 L 325.3 , 59.8 L 998.42 , 59.8 L 998.42 , 146.64"/>
</a>
<a ewd:lineID="9" style="cursor:pointer;">
<path style="&st8;" d="M 282.8 , 272.19 L 282.8 , 39.37 L 963.27 , 39.37 L 963.27 , 146.64"/>
</a>
<a ewd:lineID="6" style="cursor:pointer;">
<path style="&st0;" d="M 134.86 , 94.04 L 134.86 , 272.19"/>
</a>
<a ewd:lineID="112" style="cursor:pointer;">
<path style="&st3;" d="M 170 , 501.64 L 170 , 541.41"/>
<path style="&st9;" d="M 170 , 501.64 L 170 , 541.41"/>
<path style="&st16;" d="M 170 , 501.64 L 170 , 541.41"/>
</a>
<a ewd:lineID="8" style="cursor:pointer;">
<path style="&st3;" d="M 170 , 298.55 L 170 , 422.33"/>
<path style="&st12;" d="M 170 , 298.55 L 170 , 422.33"/>
</a>
<a ewd:lineID="5" style="cursor:pointer;">
<path style="&st31;" d="M 134.86 , 298.55 L 134.86 , 422.33"/>
</a>
<a ewd:lineID="109" style="cursor:pointer;">
<path style="&st10;" d="M 29.41 , 424.54 L 29.41 , 487.24"/>
</a>
<a ewd:lineID="108" style="cursor:pointer;">
<path style="&st10;" d="M 29.41 , 502.34 L 29.41 , 557.42"/>
</a>
<a ewd:lineID="2" style="cursor:pointer;">
<path style="&st10;" d="M 29.41 , 298.55 L 29.41 , 410.23"/>
</a>
<a ewd:lineID="111" style="cursor:pointer;">
<path style="&st3;" d="M 64.56 , 424.54 L 64.56 , 487.24"/>
<path style="&st12;" d="M 64.56 , 424.54 L 64.56 , 487.24"/>
</a>
<a ewd:lineID="110" style="cursor:pointer;">
<path style="&st3;" d="M 64.56 , 502.34 L 64.56 , 557.42"/>
<path style="&st12;" d="M 64.56 , 502.34 L 64.56 , 557.42"/>
</a>
<a ewd:lineID="4" style="cursor:pointer;">
<path style="&st3;" d="M 64.56 , 298.55 L 64.56 , 410.23"/>
<path style="&st12;" d="M 64.56 , 298.55 L 64.56 , 410.23"/>
</a>
<a ewd:lineID="113" style="cursor:pointer;">
<path style="&st3;" d="M 170 , 592.4 L 170 , 659.94"/>
<path style="&st9;" d="M 170 , 592.4 L 170 , 659.94"/>
<path style="&st16;" d="M 170 , 592.4 L 170 , 659.94"/>
</a>
<a ewd:lineID="12" style="cursor:pointer;">
<path style="&st3;" d="M 580.46 , 526.12 L 580.46 , 344.61 L 661.78 , 344.61 L 661.78 , 327.03 L 679.36 , 309.45 L 679.36 , 300.66"/>
<path style="&st12;" d="M 580.46 , 526.12 L 580.46 , 344.61 L 661.78 , 344.61 L 661.78 , 327.03 L 679.36 , 309.45 L 679.36 , 300.66"/>
</a>
<a ewd:lineID="10" style="cursor:pointer;">
<path style="&st0;" d="M 545.31 , 526.12 L 545.31 , 327.04 L 626.64 , 327.04 L 644.22 , 309.46 L 644.22 , 300.67"/>
</a>
<a ewd:lineID="15" style="cursor:pointer;">
<path style="&st31;" d="M 738.66 , 300.67 L 738.66 , 409.76"/>
</a>
<a ewd:lineID="18" style="cursor:pointer;">
<path style="&st3;" d="M 773.81 , 300.67 L 773.81 , 409.76"/>
<path style="&st12;" d="M 773.81 , 300.67 L 773.81 , 409.76"/>
</a>
<a ewd:lineID="13" style="cursor:pointer;">
<path style="&st0;" d="M 644.21 , 300.67 L 644.21 , 407.62"/>
</a>
<a ewd:lineID="14" style="cursor:pointer;">
<path style="&st3;" d="M 679.36 , 300.67 L 679.36 , 407.62"/>
<path style="&st12;" d="M 679.36 , 300.67 L 679.36 , 407.62"/>
</a>
<a ewd:lineID="114" style="cursor:pointer;">
<path style="&st0;" d="M 644.21 , 443.33 L 644.21 , 526.12"/>
</a>
<a ewd:lineID="115" style="cursor:pointer;">
<path style="&st3;" d="M 679.36 , 443.33 L 679.36 , 526.12"/>
<path style="&st12;" d="M 679.36 , 443.33 L 679.36 , 526.12"/>
</a>
<a ewd:lineID="116" style="cursor:pointer;">
<path style="&st31;" d="M 738.66 , 424.07 L 738.66 , 517.05"/>
</a>
<a ewd:lineID="117" style="cursor:pointer;">
<path style="&st3;" d="M 773.81 , 424.07 L 773.81 , 517.05"/>
<path style="&st12;" d="M 773.81 , 424.07 L 773.81 , 517.05"/>
</a>
<a ewd:lineID="29" style="cursor:pointer;">
<path style="&st8;" d="M 1072.97 , 244.39 L 1072.97 , 314.69"/>
</a>
<a ewd:lineID="33" style="cursor:pointer;">
<path style="&st3;" d="M 1108.12 , 244.39 L 1108.12 , 314.69"/>
<path style="&st12;" d="M 1108.12 , 244.39 L 1108.12 , 314.69"/>
</a>
<a ewd:lineID="35" style="cursor:pointer;">
<path style="&st1;" d="M 1178.42 , 341.05 L 1178.42 , 431.35 L 1303.34 , 431.35 L 1303.34 , 341.05"/>
</a>
<a ewd:lineID="36" style="cursor:pointer;">
<path style="&st3;" d="M 1213.69 , 341.05 L 1213.69 , 411.35 L 1338.5 , 411.35 L 1338.5 , 341.05"/>
<path style="&st12;" d="M 1213.69 , 341.05 L 1213.69 , 411.35 L 1338.5 , 411.35 L 1338.5 , 341.05"/>
</a>
<a ewd:lineID="32" style="cursor:pointer;">
<path style="&st8;" d="M 1213.57 , 75.91 L 1213.57 , 208.18 L 1125.7 , 208.18 L 1107.69 , 226.19 L 1107.69 , 229.66"/>
</a>
<a ewd:lineID="28" style="cursor:pointer;">
<path style="&st3;" d="M 1178.42 , 75.91 L 1178.42 , 190.61 L 1090.54 , 190.61 L 1090.54 , 208.18 L 1072.53 , 226.19 L 1072.53 , 229.66"/>
<path style="&st12;" d="M 1178.42 , 75.91 L 1178.42 , 190.61 L 1090.54 , 190.61 L 1090.54 , 208.18 L 1072.53 , 226.19 L 1072.53 , 229.66"/>
</a>
<a ewd:lineID="27" style="cursor:pointer;">
<path style="&st3;" d="M 1072.54 , 75.91 L 1072.54 , 229.66"/>
<path style="&st12;" d="M 1072.54 , 75.91 L 1072.54 , 229.66"/>
</a>
<a ewd:lineID="31" style="cursor:pointer;">
<path style="&st8;" d="M 1107.69 , 75.91 L 1107.69 , 229.66"/>
</a>
<a ewd:lineID="26" style="cursor:pointer;">
<path style="&st3;" d="M 998.42 , 201.13 L 998.42 , 314.69"/>
<path style="&st12;" d="M 998.42 , 201.13 L 998.42 , 314.69"/>
</a>
<a ewd:lineID="24" style="cursor:pointer;">
<path style="&st10;" d="M 963.27 , 201.13 L 963.27 , 314.69"/>
</a>
<a ewd:lineID="23" style="cursor:pointer;">
<path style="&st0;" d="M 963.27 , 341.05 L 963.27 , 566.5"/>
</a>
<a ewd:lineID="25" style="cursor:pointer;">
<path style="&st3;" d="M 998.42 , 341.05 L 998.42 , 566.5"/>
<path style="&st12;" d="M 998.42 , 341.05 L 998.42 , 566.5"/>
</a>
<a ewd:lineID="22" style="cursor:pointer;">
<path style="&st3;" d="M 891.21 , 341.05 L 891.21 , 557.43"/>
<path style="&st12;" d="M 891.21 , 341.05 L 891.21 , 557.43"/>
</a>
<a ewd:lineID="30" style="cursor:pointer;">
<path style="&st15;" d="M 1072.97 , 341.05 L 1072.97 , 565.98"/>
</a>
<a ewd:lineID="34" style="cursor:pointer;">
<path style="&st3;" d="M 1108.12 , 341.05 L 1108.12 , 566.5"/>
<path style="&st12;" d="M 1108.12 , 341.05 L 1108.12 , 566.5"/>
</a>
<a ewd:lineID="21" style="cursor:pointer;">
<path style="&st27;" d="M 856.07 , 341.05 L 856.07 , 557.43"/>
</a>
<a ewd:lineID="19" style="cursor:pointer;">
<path style="&st3;" d="M 773.81 , 195.09 L 773.81 , 168.48 L 891.21 , 168.48 L 891.21 , 314.68"/>
<path style="&st12;" d="M 773.81 , 195.09 L 773.81 , 168.48 L 891.21 , 168.48 L 891.21 , 314.68"/>
</a>
<a ewd:lineID="17" style="cursor:pointer;">
<path style="&st3;" d="M 738.66 , 195.09 L 738.66 , 148.48 L 856.06 , 148.48 L 856.06 , 314.68"/>
</a>
<a ewd:lineID="39" style="cursor:pointer;">
<path style="&st8;" d="M 1391.21 , 84.97 L 1391.21 , 287.42 L 1461.51 , 287.42 L 1479.08 , 304.99 L 1479.08 , 315.5"/>
</a>
<a ewd:lineID="41" style="cursor:pointer;">
<path style="&st3;" d="M 1426.36 , 84.97 L 1426.36 , 270.69 L 1496.66 , 270.69 L 1496.66 , 287.42 L 1514.23 , 304.99 L 1514.23 , 315.5"/>
<path style="&st12;" d="M 1426.36 , 84.97 L 1426.36 , 270.69 L 1496.66 , 270.69 L 1496.66 , 287.42 L 1514.23 , 304.99 L 1514.23 , 315.5"/>
</a>
<a ewd:lineID="46" style="cursor:pointer;">
<path style="&st3;" d="M 1514.24 , 314.68 L 1514.24 , 59.55 L 3850.37 , 59.55 L 3850.37 , 449.81"/>
<path style="&st12;" d="M 1514.24 , 314.68 L 1514.24 , 59.55 L 3850.37 , 59.55 L 3850.37 , 449.81"/>
</a>
<a ewd:lineID="44" style="cursor:pointer;">
<path style="&st18;" d="M 1479.1 , 314.68 L 1479.1 , 39.55 L 3815.23 , 39.55 L 3815.23 , 449.81"/>
</a>
<a ewd:lineID="47" style="cursor:pointer;">
<path style="&st31;" d="M 1701.12 , 521.52 L 1701.12 , 581.69 L 1579.72 , 581.69 L 1579.72 , 341.05"/>
</a>
<a ewd:lineID="53" style="cursor:pointer;">
<path style="&st3;" d="M 1736.27 , 521.52 L 1736.27 , 601.69 L 1614.87 , 601.69 L 1614.87 , 341.05"/>
<path style="&st12;" d="M 1736.27 , 521.52 L 1736.27 , 601.69 L 1614.87 , 601.69 L 1614.87 , 341.05"/>
</a>
<a ewd:lineID="54" style="cursor:pointer;">
<path style="&st3;" d="M 1736.27 , 168.1 L 1736.27 , 176.99 L 1726.27 , 186.99 L 1726.27 , 214.55 L 1632.44 , 214.55 L 1632.44 , 287.42 L 1614.87 , 304.99 L 1614.87 , 314.68"/>
<path style="&st12;" d="M 1736.27 , 168.1 L 1736.27 , 176.99 L 1726.27 , 186.99 L 1726.27 , 214.55 L 1632.44 , 214.55 L 1632.44 , 287.42 L 1614.87 , 304.99 L 1614.87 , 314.68"/>
</a>
<a ewd:lineID="50" style="cursor:pointer;">
<path style="&st2;" d="M 1579.72 , 314.4 L 1579.72 , 303.89 L 1597.29 , 286.32 L 1597.29 , 186.87 L 1691.42 , 186.7 L 1701.12 , 176.7 L 1701.12 , 167.82"/>
</a>
<a ewd:lineID="52" style="cursor:pointer;">
<path style="&st3;" d="M 1614.86 , 314.68 L 1614.86 , 99.55 L 1841.71 , 99.55 L 1841.71 , 113.63"/>
<path style="&st12;" d="M 1614.86 , 314.68 L 1614.86 , 99.55 L 1841.71 , 99.55 L 1841.71 , 113.63"/>
</a>
<a ewd:lineID="37" style="cursor:pointer;">
<path style="&st0;" d="M 1303.34 , 75.91 L 1303.34 , 314.69"/>
</a>
<a ewd:lineID="38" style="cursor:pointer;">
<path style="&st3;" d="M 1338.49 , 75.91 L 1338.49 , 314.69"/>
<path style="&st12;" d="M 1338.49 , 75.91 L 1338.49 , 314.69"/>
</a>
<a ewd:lineID="49" style="cursor:pointer;">
<path style="&st2;" d="M 1579.72 , 314.68 L 1579.72 , 79.55 L 1806.57 , 79.55 L 1806.57 , 113.63"/>
</a>
<a ewd:lineID="40" style="cursor:pointer;">
<path style="&st10;" d="M 1391.22 , 341.05 L 1391.22 , 583.12"/>
</a>
<a ewd:lineID="42" style="cursor:pointer;">
<path style="&st3;" d="M 1426.37 , 341.05 L 1426.37 , 583.12"/>
<path style="&st12;" d="M 1426.37 , 341.05 L 1426.37 , 583.12"/>
</a>
<a ewd:lineID="43" style="cursor:pointer;">
<path style="&st15;" d="M 1479.08 , 341.05 L 1479.08 , 574.05"/>
</a>
<a ewd:lineID="45" style="cursor:pointer;">
<path style="&st3;" d="M 1514.23 , 341.05 L 1514.23 , 574.05"/>
<path style="&st12;" d="M 1514.23 , 341.05 L 1514.23 , 574.05"/>
</a>
<a ewd:lineID="56" style="cursor:pointer;">
<path style="&st2;" d="M 1701.14 , 332.53 L 1701.14 , 439.86"/>
</a>
<a ewd:lineID="55" style="cursor:pointer;">
<path style="&st2;" d="M 1701.12 , 168.1 L 1701.12 , 288.05"/>
</a>
<a ewd:lineID="57" style="cursor:pointer;">
<path style="&st27;" d="M 1736.27 , 168.1 L 1736.27 , 288.05"/>
</a>
<a ewd:lineID="58" style="cursor:pointer;">
<path style="&st1;" d="M 1736.29 , 332.53 L 1736.29 , 439.86"/>
</a>
<a ewd:lineID="62" style="cursor:pointer;">
<path style="&st18;" d="M 2319.66 , 305.62 L 2319.66 , 79.55 L 1880.76 , 79.55 L 1880.76 , 113.63"/>
</a>
<a ewd:lineID="64" style="cursor:pointer;">
<path style="&st3;" d="M 2354.81 , 305.62 L 2354.81 , 99.55 L 1915.91 , 99.55 L 1915.91 , 113.63"/>
<path style="&st12;" d="M 2354.81 , 305.62 L 2354.81 , 99.55 L 1915.91 , 99.55 L 1915.91 , 113.63"/>
</a>
<a ewd:lineID="121" style="cursor:pointer;">
<path style="&st3;" d="M 1786.75 , 494.34 L 1786.75 , 547.4"/>
</a>
<a ewd:lineID="123" style="cursor:pointer;">
<path style="&st3;" d="M 1821.9 , 494.34 L 1821.9 , 547.4"/>
<path style="&st12;" d="M 1821.9 , 494.34 L 1821.9 , 547.4"/>
</a>
<a ewd:lineID="59" style="cursor:pointer;">
<path style="&st2;" d="M 1806.57 , 168.1 L 1806.57 , 288.05"/>
</a>
<a ewd:lineID="60" style="cursor:pointer;">
<path style="&st3;" d="M 1841.71 , 168.1 L 1841.71 , 288.05"/>
<path style="&st12;" d="M 1841.71 , 168.1 L 1841.71 , 288.05"/>
</a>
<a ewd:lineID="120" style="cursor:pointer;">
<path style="&st3;" d="M 1786.75 , 562.51 L 1786.75 , 617.59"/>
</a>
<a ewd:lineID="122" style="cursor:pointer;">
<path style="&st3;" d="M 1821.9 , 562.51 L 1821.9 , 617.59"/>
<path style="&st12;" d="M 1821.9 , 562.51 L 1821.9 , 617.59"/>
</a>
<a ewd:lineID="66" style="cursor:pointer;">
<path style="&st3;" d="M 2355 , 584.74 L 2355 , 350.11"/>
<path style="&st12;" d="M 2355 , 584.74 L 2355 , 350.11"/>
</a>
<a ewd:lineID="65" style="cursor:pointer;">
<path style="&st0;" d="M 2319.85 , 584.74 L 2319.85 , 350.11"/>
</a>
<a ewd:lineID="61" style="cursor:pointer;">
<path style="&st15;" d="M 2234.39 , 350.11 L 2234.39 , 406.42"/>
</a>
<a ewd:lineID="63" style="cursor:pointer;">
<path style="&st3;" d="M 2269.54 , 350.11 L 2269.54 , 406.42"/>
<path style="&st12;" d="M 2269.54 , 350.11 L 2269.54 , 406.42"/>
</a>
<a ewd:lineID="74" style="cursor:pointer;">
<path style="&st3;" d="M 2440.44 , 304.99 L 2458.01 , 287.42 L 2458.01 , 274.46 L 2693.02 , 274.46 L 2693.02 , 444.52 L 2831.95 , 444.52 L 2831.95 , 429.4"/>
<path style="&st12;" d="M 2440.44 , 304.99 L 2458.01 , 287.42 L 2458.01 , 274.46 L 2693.02 , 274.46 L 2693.02 , 444.52 L 2831.95 , 444.52 L 2831.95 , 429.4"/>
</a>
<a ewd:lineID="73" style="cursor:pointer;">
<path style="&st3;" d="M 2440.44 , 305.62 L 2440.44 , 99.55 L 3780.08 , 99.55 L 3780.08 , 449.81"/>
<path style="&st12;" d="M 2440.44 , 305.62 L 2440.44 , 99.55 L 3780.08 , 99.55 L 3780.08 , 449.81"/>
</a>
<a ewd:lineID="70" style="cursor:pointer;">
<path style="&st3;" d="M 2405.8 , 304.49 L 2422.88 , 287.42 L 2422.88 , 254.46 L 2658.17 , 254.46 L 2658.17 , 464.52 L 2796.81 , 464.52 L 2796.81 , 429.4"/>
</a>
<a ewd:lineID="124" style="cursor:pointer;">
<path style="&st0;" d="M 2404.8 , 536.61 L 2404.8 , 575.09"/>
</a>
<a ewd:lineID="125" style="cursor:pointer;">
<path style="&st3;" d="M 2439.95 , 536.61 L 2439.95 , 575.09"/>
<path style="&st12;" d="M 2439.95 , 536.61 L 2439.95 , 575.09"/>
</a>
<a ewd:lineID="69" style="cursor:pointer;">
<path style="&st10;" d="M 2405.29 , 305.62 L 2405.29 , 79.55 L 3744.93 , 79.55 L 3744.93 , 449.81"/>
</a>
<a ewd:lineID="126" style="cursor:pointer;">
<path style="&st3;" d="M 2937.39 , 415.33 L 2937.39 , 412.11 L 2919.82 , 394.54 L 2919.82 , 376.96 L 2849.52 , 376.96 L 2849.52 , 394.54 L 2831.95 , 412.11 L 2831.95 , 416.49"/>
<path style="&st12;" d="M 2937.39 , 415.33 L 2937.39 , 412.11 L 2919.82 , 394.54 L 2919.82 , 376.96 L 2849.52 , 376.96 L 2849.52 , 394.54 L 2831.95 , 412.11 L 2831.95 , 416.49"/>
</a>
<a ewd:lineID="78" style="cursor:pointer;">
<path style="&st3;" d="M 2902.25 , 415.33 L 2902.25 , 412.12 L 2884.67 , 394.54 L 2884.67 , 361.58 L 2814.38 , 361.58 L 2814.38 , 394.54 L 2796.8 , 411.89 L 2796.8 , 416.49"/>
</a>
<a ewd:lineID="84" style="cursor:pointer;">
<path style="&st3;" d="M 2937.4 , 308.03 L 2937.4 , 415.33"/>
<path style="&st12;" d="M 2937.4 , 308.03 L 2937.4 , 415.33"/>
</a>
<a ewd:lineID="81" style="cursor:pointer;">
<path style="&st31;" d="M 2902.25 , 308.03 L 2902.25 , 415.33"/>
</a>
<a ewd:lineID="77" style="cursor:pointer;">
<path style="&st3;" d="M 2796.8 , 308.03 L 2796.8 , 416.5"/>
</a>
<a ewd:lineID="79" style="cursor:pointer;">
<path style="&st3;" d="M 2831.95 , 308.03 L 2831.95 , 416.5"/>
<path style="&st12;" d="M 2831.95 , 308.03 L 2831.95 , 416.5"/>
</a>
<a ewd:lineID="83" style="cursor:pointer;">
<path style="&st3;" d="M 2937.4 , 171.04 L 2937.4 , 281.66"/>
<path style="&st12;" d="M 2937.4 , 171.04 L 2937.4 , 281.66"/>
</a>
<a ewd:lineID="80" style="cursor:pointer;">
<path style="&st15;" d="M 2902.25 , 171.04 L 2902.25 , 281.66"/>
</a>
<a ewd:lineID="75" style="cursor:pointer;">
<path style="&st18;" d="M 2744.07 , 171.04 L 2744.07 , 228.16 L 2831.94 , 228.16 L 2831.94 , 171.04"/>
</a>
<a ewd:lineID="76" style="cursor:pointer;">
<path style="&st3;" d="M 2779.22 , 171.04 L 2779.22 , 210.58 L 2867.09 , 210.58 L 2867.09 , 171.04"/>
<path style="&st12;" d="M 2779.22 , 171.04 L 2779.22 , 210.58 L 2867.09 , 210.58 L 2867.09 , 171.04"/>
</a>
<a ewd:lineID="99" style="cursor:pointer;">
<path style="&st31;" d="M 3450.19 , 341.04 L 3450.19 , 381.21"/>
</a>
<a ewd:lineID="100" style="cursor:pointer;">
<path style="&st3;" d="M 3485.34 , 341.04 L 3485.34 , 383.24"/>
<path style="&st12;" d="M 3485.34 , 341.04 L 3485.34 , 383.24"/>
</a>
<a ewd:lineID="132" style="cursor:pointer;">
<path style="&st3;" d="M 3485.34 , 397.69 L 3485.34 , 443.76"/>
<path style="&st12;" d="M 3485.34 , 397.69 L 3485.34 , 443.76"/>
</a>
<a ewd:lineID="131" style="cursor:pointer;">
<path style="&st31;" d="M 3450.19 , 397.69 L 3450.19 , 443.76"/>
</a>
<a ewd:lineID="134" style="cursor:pointer;">
<path style="&st3;" d="M 3485.34 , 523.07 L 3485.34 , 562.84"/>
<path style="&st9;" d="M 3485.34 , 523.07 L 3485.34 , 562.84"/>
<path style="&st16;" d="M 3485.34 , 523.07 L 3485.34 , 562.84"/>
</a>
<a ewd:lineID="133" style="cursor:pointer;">
<path style="&st3;" d="M 3485.34 , 613.83 L 3485.34 , 659.95"/>
<path style="&st9;" d="M 3485.34 , 613.83 L 3485.34 , 659.95"/>
<path style="&st16;" d="M 3485.34 , 613.83 L 3485.34 , 659.95"/>
</a>
<a ewd:lineID="96" style="cursor:pointer;">
<path style="&st3;" d="M 3378.4 , 305.62 L 3378.4 , 171.12 L 3485.34 , 171.12 L 3485.34 , 216.99"/>
<path style="&st12;" d="M 3378.4 , 305.62 L 3378.4 , 171.12 L 3485.34 , 171.12 L 3485.34 , 216.99"/>
</a>
<a ewd:lineID="101" style="cursor:pointer;">
<path style="&st3;" d="M 3485.34 , 232.3 L 3485.34 , 314.69"/>
<path style="&st12;" d="M 3485.34 , 232.3 L 3485.34 , 314.69"/>
</a>
<a ewd:lineID="97" style="cursor:pointer;">
<path style="&st3;" d="M 3450.19 , 314.68 L 3450.19 , 303.7 L 3438.17 , 291.68 L 3419.62 , 291.68 L 3419.62 , 247.7 L 3438.17 , 247.7 L 3450.19 , 235.68 L 3450.19 , 232.29"/>
</a>
<a ewd:lineID="98" style="cursor:pointer;">
<path style="&st1;" d="M 3450.19 , 232.3 L 3450.19 , 314.69"/>
</a>
<a ewd:lineID="92" style="cursor:pointer;">
<path style="&st3;" d="M 3343.43 , 305.62 L 3343.43 , 300.59 L 3325.86 , 283.92 L 3325.86 , 118.4 L 3467.77 , 118.4 L 3467.77 , 195.09 L 3450.19 , 212.67 L 3450.19 , 216.99"/>
</a>
<a ewd:lineID="94" style="cursor:pointer;">
<path style="&st1;" d="M 3450.19 , 216.99 L 3450.19 , 144.98 L 3343.43 , 144.98 L 3343.43 , 305.63"/>
</a>
<a ewd:lineID="91" style="cursor:pointer;">
<path style="&st3;" d="M 3290.71 , 180.18 L 3290.71 , 305.62"/>
<path style="&st12;" d="M 3290.71 , 180.18 L 3290.71 , 305.62"/>
</a>
<a ewd:lineID="89" style="cursor:pointer;">
<path style="&st10;" d="M 3255.56 , 180.18 L 3255.56 , 305.62"/>
</a>
<a ewd:lineID="87" style="cursor:pointer;">
<path style="&st3;" d="M 3202.84 , 171.04 L 3202.84 , 305.62"/>
<path style="&st12;" d="M 3202.84 , 171.04 L 3202.84 , 305.62"/>
</a>
<a ewd:lineID="86" style="cursor:pointer;">
<path style="&st18;" d="M 3167.69 , 171.04 L 3167.69 , 305.62"/>
</a>
<a ewd:lineID="85" style="cursor:pointer;">
<path style="&st3;" d="M 2937.4 , 429.66 L 2937.4 , 444.52 L 3185.26 , 444.52 L 3185.26 , 372.72 L 3202.83 , 355.15 L 3202.83 , 350.12"/>
<path style="&st12;" d="M 2937.4 , 429.66 L 2937.4 , 444.52 L 3185.26 , 444.52 L 3185.26 , 372.72 L 3202.83 , 355.15 L 3202.83 , 350.12"/>
</a>
<a ewd:lineID="82" style="cursor:pointer;">
<path style="&st31;" d="M 2902.25 , 429.66 L 2902.25 , 464.52 L 3150.12 , 464.52 L 3150.12 , 372.72 L 3167.69 , 355.15 L 3167.69 , 350.12"/>
</a>
<a ewd:lineID="129" style="cursor:pointer;">
<path style="&st0;" d="M 3342.76 , 465.04 L 3342.76 , 528.96"/>
</a>
<a ewd:lineID="130" style="cursor:pointer;">
<path style="&st3;" d="M 3377.91 , 465.04 L 3377.91 , 528.96"/>
<path style="&st12;" d="M 3377.91 , 465.04 L 3377.91 , 528.96"/>
</a>
<a ewd:lineID="93" style="cursor:pointer;">
<path style="&st0;" d="M 3342.76 , 350.11 L 3342.76 , 451.88"/>
</a>
<a ewd:lineID="95" style="cursor:pointer;">
<path style="&st3;" d="M 3377.91 , 350.11 L 3377.91 , 451.88"/>
<path style="&st12;" d="M 3377.91 , 350.11 L 3377.91 , 451.88"/>
</a>
<a ewd:lineID="88" style="cursor:pointer;">
<path style="&st3;" d="M 3255.56 , 350.11 L 3255.56 , 451.88"/>
</a>
<a ewd:lineID="90" style="cursor:pointer;">
<path style="&st3;" d="M 3290.7 , 350.11 L 3290.7 , 451.88"/>
<path style="&st12;" d="M 3290.7 , 350.11 L 3290.7 , 451.88"/>
</a>
<a ewd:lineID="127" style="cursor:pointer;">
<path style="&st3;" d="M 3255.56 , 465.04 L 3255.56 , 520.46"/>
</a>
<a ewd:lineID="128" style="cursor:pointer;">
<path style="&st3;" d="M 3290.7 , 465.04 L 3290.7 , 520.46"/>
<path style="&st12;" d="M 3290.7 , 465.04 L 3290.7 , 520.46"/>
</a>
<a ewd:lineID="103" style="cursor:pointer;">
<path style="&st3;" d="M 3555.64 , 171.04 L 3555.64 , 314.68"/>
<path style="&st12;" d="M 3555.64 , 171.04 L 3555.64 , 314.68"/>
</a>
<a ewd:lineID="102" style="cursor:pointer;">
<path style="&st18;" d="M 3520.49 , 171.04 L 3520.49 , 314.68"/>
</a>
<a ewd:lineID="135" style="cursor:pointer;">
<path style="&st3;" d="M 3999.76 , 486.17 L 3999.76 , 685.05"/>
<path style="&st9;" d="M 3999.76 , 486.17 L 3999.76 , 685.05"/>
<path style="&st16;" d="M 3999.76 , 486.17 L 3999.76 , 685.05"/>
</a>
<a ewd:lineID="104" style="cursor:pointer;">
<path style="&st10;" d="M 3885.97 , 449.81 L 3885.97 , 116.05"/>
</a>
<a ewd:lineID="105" style="cursor:pointer;">
<path style="&st3;" d="M 3946.64 , 449.81 L 3946.64 , 116.05"/>
<path style="&st12;" d="M 3946.64 , 449.81 L 3946.64 , 116.05"/>
</a>
<a ewd:lineID="107" style="cursor:pointer;">
<path style="&st10;" d="M 3999.76 , 449.81 L 3999.76 , 290.85"/>
</a>
<a ewd:lineID="106" style="cursor:pointer;">
<path style="&st10;" d="M 3999.76 , 116.05 L 3999.76 , 239.86"/>
</a>
<a ewd:lineID="20" style="cursor:pointer;">
<path style="&st3;" d="M 773.81 , 210.16 L 773.81 , 274.31"/>
<path style="&st12;" d="M 773.81 , 210.16 L 773.81 , 274.31"/>
</a>
<a ewd:lineID="16" style="cursor:pointer;">
<path style="&st3;" d="M 738.66 , 210.16 L 738.66 , 274.31"/>
</a>
<a ewd:lineID="71" style="cursor:pointer;">
<path style="&st3;" d="M 2439.95 , 350.11 L 2439.95 , 354.98 L 2458.02 , 372.71 L 2458.02 , 484.51 L 3202.84 , 484.51 L 3202.84 , 350.11"/>
<path style="&st12;" d="M 2439.95 , 350.11 L 2439.95 , 354.98 L 2458.02 , 372.71 L 2458.02 , 484.51 L 3202.84 , 484.51 L 3202.84 , 350.11"/>
</a>
<a ewd:lineID="67" style="cursor:pointer;">
<path style="&st8;" d="M 2404.8 , 350.11 L 2404.8 , 354.64 L 2422.88 , 372.72 L 2422.88 , 504.52 L 3167.69 , 504.52 L 3167.69 , 350.11"/>
</a>
<a ewd:lineID="72" style="cursor:pointer;">
<path style="&st3;" d="M 2439.95 , 350.11 L 2439.95 , 523.45"/>
<path style="&st12;" d="M 2439.95 , 350.11 L 2439.95 , 523.45"/>
</a>
<a ewd:lineID="68" style="cursor:pointer;">
<path style="&st0;" d="M 2404.8 , 350.11 L 2404.8 , 523.45"/>
</a>
<a ewd:lineID="136" style="cursor:pointer;">
<path style="&st10;" d="M 2234.39 , 442.78 L 2234.39 , 499.9"/>
</a>
<a ewd:lineID="137" style="cursor:pointer;">
<path style="&st3;" d="M 2269.54 , 442.78 L 2269.54 , 499.9"/>
<path style="&st12;" d="M 2269.54 , 442.78 L 2269.54 , 499.9"/>
</a>
<a ewd:lineID="138" style="cursor:pointer;">
<path style="&st10;" d="M 2234.39 , 513.4 L 2234.39 , 584.31"/>
</a>
<a ewd:lineID="139" style="cursor:pointer;">
<path style="&st3;" d="M 2269.54 , 513.4 L 2269.54 , 584.31"/>
<path style="&st12;" d="M 2269.54 , 513.4 L 2269.54 , 584.31"/>
</a>
<a ewd:lineID="140" style="cursor:pointer;">
<path style="&st3;" d="M 282.8 , 298.55 L 282.8 , 343.3"/>
</a>
<a ewd:lineID="141" style="cursor:pointer;">
<path style="&st3;" d="M 282.81 , 357.1 L 282.81 , 402.85"/>
</a>
<a ewd:lineID="142" style="cursor:pointer;">
<path style="&st3;" d="M 282.81 , 417.67 L 282.81 , 485.8"/>
</a>
<a ewd:lineID="144" style="cursor:pointer;">
<path style="&st3;" d="M 282.81 , 500.6 L 282.81 , 545.35"/>
</a>
<a ewd:lineID="145" style="cursor:pointer;">
<path style="&st3;" d="M 282.81 , 560.16 L 282.81 , 604.91"/>
</a>
<a ewd:lineID="143" style="cursor:pointer;">
<path style="&st3;" d="M 282.81 , 417.67 L 282.81 , 426.17 L 292.81 , 436.17 L 311.07 , 436.17 L 311.07 , 446.8 L 390.18 , 446.8 L 390.18 , 557.43"/>
</a>
<a ewd:lineID="151" style="cursor:pointer;">
<path style="&st3;" d="M 325.3 , 298.55 L 325.3 , 343.3"/>
<path style="&st12;" d="M 325.3 , 298.55 L 325.3 , 343.3"/>
</a>
<a ewd:lineID="150" style="cursor:pointer;">
<path style="&st3;" d="M 325.31 , 358.11 L 325.31 , 402.86"/>
<path style="&st12;" d="M 325.31 , 358.11 L 325.31 , 402.86"/>
</a>
<a ewd:lineID="147" style="cursor:pointer;">
<path style="&st3;" d="M 325.31 , 500.6 L 325.31 , 545.35"/>
<path style="&st12;" d="M 325.31 , 500.6 L 325.31 , 545.35"/>
</a>
<a ewd:lineID="146" style="cursor:pointer;">
<path style="&st3;" d="M 325.31 , 560.16 L 325.31 , 604.91"/>
<path style="&st12;" d="M 325.31 , 560.16 L 325.31 , 604.91"/>
</a>
<a ewd:lineID="149" style="cursor:pointer;">
<path style="&st3;" d="M 325.31 , 417.67 L 325.31 , 426.17 L 335.31 , 436.17 L 432.68 , 436.17 L 432.68 , 557.42"/>
<path style="&st12;" d="M 325.31 , 417.67 L 325.31 , 426.17 L 335.31 , 436.17 L 432.68 , 436.17 L 432.68 , 557.42"/>
</a>
<a ewd:lineID="152" style="cursor:pointer;">
<path style="&st10;" d="M 1786.57 , 439.86 L 1786.57 , 403.61"/>
</a>
<a ewd:lineID="153" style="cursor:pointer;">
<path style="&st10;" d="M 1786.57 , 388.55 L 1786.57 , 352.64 L 1996.99 , 352.64 L 1996.99 , 390.8"/>
</a>
<a ewd:lineID="154" style="cursor:pointer;">
<path style="&st3;" d="M 1822.43 , 439.86 L 1822.43 , 403.61"/>
<path style="&st12;" d="M 1822.43 , 439.86 L 1822.43 , 403.61"/>
</a>
<a ewd:lineID="155" style="cursor:pointer;">
<path style="&st3;" d="M 1822.43 , 388.8 L 1822.43 , 367.42 L 2039.49 , 367.42 L 2039.49 , 380.17"/>
<path style="&st12;" d="M 1822.43 , 388.8 L 1822.43 , 367.42 L 2039.49 , 367.42 L 2039.49 , 380.17"/>
</a>
<a ewd:lineID="160" style="cursor:pointer;">
<path style="&st3;" d="M 1996.99 , 405.86 L 1996.99 , 450.61"/>
<path style="&st12;" d="M 1996.99 , 405.86 L 1996.99 , 450.61"/>
</a>
<a ewd:lineID="161" style="cursor:pointer;">
<path style="&st15;" d="M 1996.99 , 465.42 L 1996.99 , 510.17"/>
</a>
<a ewd:lineID="162" style="cursor:pointer;">
<path style="&st15;" d="M 1996.99 , 524.98 L 1996.99 , 582.48"/>
</a>
<a ewd:lineID="163" style="cursor:pointer;">
<path style="&st15;" d="M 1996.99 , 597.29 L 1996.99 , 654.79"/>
</a>
<a ewd:lineID="167" style="cursor:pointer;">
<path style="&st3;" d="M 2039.49 , 405.86 L 2039.49 , 450.61"/>
</a>
<a ewd:lineID="166" style="cursor:pointer;">
<path style="&st3;" d="M 2039.49 , 465.42 L 2039.49 , 510.17"/>
<path style="&st12;" d="M 2039.49 , 465.42 L 2039.49 , 510.17"/>
</a>
<a ewd:lineID="165" style="cursor:pointer;">
<path style="&st3;" d="M 2039.49 , 524.98 L 2039.49 , 582.48"/>
<path style="&st12;" d="M 2039.49 , 524.98 L 2039.49 , 582.48"/>
</a>
<a ewd:lineID="164" style="cursor:pointer;">
<path style="&st3;" d="M 2039.49 , 597.29 L 2039.49 , 654.79"/>
<path style="&st12;" d="M 2039.49 , 597.29 L 2039.49 , 654.79"/>
</a>
<a ewd:lineID="156" style="cursor:pointer;">
<path style="&st10;" d="M 1890.74 , 405.86 L 1890.74 , 544.11"/>
</a>
<a ewd:lineID="157" style="cursor:pointer;">
<path style="&st10;" d="M 1890.74 , 558.92 L 1890.74 , 654.79"/>
</a>
<a ewd:lineID="159" style="cursor:pointer;">
<path style="&st3;" d="M 1933.24 , 405.86 L 1933.24 , 544.11"/>
<path style="&st12;" d="M 1933.24 , 405.86 L 1933.24 , 544.11"/>
</a>
<a ewd:lineID="158" style="cursor:pointer;">
<path style="&st3;" d="M 1933.24 , 558.92 L 1933.24 , 654.79"/>
<path style="&st12;" d="M 1933.24 , 558.92 L 1933.24 , 654.79"/>
</a>
<a ewd:lineID="170" style="cursor:pointer;">
<path style="&st18;" d="M 1806.57 , 169.1 L 1806.57 , 177.6 L 1816.57 , 187.6 L 1822.4 , 187.6 L 1822.4 , 202.48 L 2298.95 , 202.48 L 2298.95 , 287.13 L 2309.66 , 287.13 L 2319.66 , 297.13 L 2319.66 , 305.63"/>
</a>
<a ewd:lineID="171" style="cursor:pointer;">
<path style="&st3;" d="M 1841.72 , 168.1 L 1841.72 , 176.6 L 1851.72 , 186.6 L 2375.44 , 186.6 L 2375.44 , 287.12 L 2364.81 , 287.12 L 2354.81 , 297.12 L 2354.81 , 305.62"/>
<path style="&st12;" d="M 1841.72 , 168.1 L 1841.72 , 176.6 L 1851.72 , 186.6 L 2375.44 , 186.6 L 2375.44 , 287.12 L 2364.81 , 287.12 L 2354.81 , 297.12 L 2354.81 , 305.62"/>
</a>
<a ewd:lineID="169" style="cursor:pointer;">
<path style="&st3;" d="M 1736.27 , 168.48 L 1736.27 , 176.98 L 1746.27 , 186.98 L 1767.52 , 186.98 L 1767.52 , 222.53 L 2269.54 , 222.53 L 2269.54 , 305.62"/>
<path style="&st12;" d="M 1736.27 , 168.48 L 1736.27 , 176.98 L 1746.27 , 186.98 L 1767.52 , 186.98 L 1767.52 , 222.53 L 2269.54 , 222.53 L 2269.54 , 305.62"/>
</a>
<a ewd:lineID="168" style="cursor:pointer;">
<path style="&st2;" d="M 1701.11 , 168.48 L 1701.11 , 176.98 L 1711.11 , 186.98 L 1715.36 , 186.98 L 1715.36 , 243.78 L 2234.39 , 243.78 L 2234.39 , 305.62"/>
</a>
<a ewd:lineID="148" style="cursor:pointer;">
<path style="&st3;" d="M 325.31 , 417.67 L 325.31 , 485.8"/>
<path style="&st12;" d="M 325.31 , 417.67 L 325.31 , 485.8"/>
</a>
<a ewd:code="Qa1" ewd:figtype="w2w" style="cursor:pointer;" ewd:figID="6009">
<path style="&st17;" d="M73.05,487.24h-17v8.5h17V487.24"/>
<text transform="matrix(1 0 0 1 58.8833 493.979)" style="&st6;"><tspan x="0" y="0" style="&st23; &st14;">Qa1</tspan></text>
</a>
<a ewd:code="Qa1" ewd:figtype="w2w" style="cursor:pointer;" ewd:figID="6008">
<path style="&st17;" d="M37.91,487.24h-17v8.5h17V487.24"/>
<text transform="matrix(1 0 0 1 23.7358 493.979)" style="&st6;"><tspan x="0" y="0" style="&st23; &st14;">Qa1</tspan></text>
</a>
<a ewd:code="GQ1" ewd:figtype="w2w" style="cursor:pointer;" ewd:figID="6007">
<path style="&st17;" d="M37.91,410.23h-17v8.5h17V410.23"/>
<text transform="matrix(1 0 0 1 23.0708 416.9653)" style="&st6;"><tspan x="0" y="0" style="&st23; &st14;">GQ1</tspan></text>
</a>
<a ewd:code="GQ1" ewd:figtype="w2w" style="cursor:pointer;" ewd:figID="6010">
<path style="&st17;" d="M73.05,410.23h-17v8.5h17V410.23"/>
<text transform="matrix(1 0 0 1 58.2183 416.9653)" style="&st6;"><tspan x="0" y="0" style="&st23; &st14;">GQ1</tspan></text>
</a>
<a ewd:code="GA6" ewd:figtype="w2w" style="cursor:pointer;" ewd:figID="6001">
<path style="&st17;" d="M747.16,195.09h-17v8.5h17V195.09"/>
<text transform="matrix(1 0 0 1 732.6567 201.8311)" style="&st6;"><tspan x="0" y="0" style="&st23; &st14;">GA6</tspan></text>
</a>
<a ewd:code="GA6" ewd:figtype="w2w" style="cursor:pointer;" ewd:figID="6002">
<path style="&st17;" d="M782.31,195.09h-17v8.5h17V195.09"/>
<text transform="matrix(1 0 0 1 767.8042 201.8311)" style="&st6;"><tspan x="0" y="0" style="&st23; &st14;">GA6</tspan></text>
</a>
<a ewd:code="GA6" ewd:figtype="w2w" style="cursor:pointer;" ewd:figID="6011">
<path style="&st17;" d="M747.15,415.57h-17v8.5h17V415.57"/>
<text transform="matrix(1 0 0 1 732.6519 422.313)" style="&st6;"><tspan x="0" y="0" style="&st23; &st14;">GA6</tspan></text>
</a>
<a ewd:code="GA6" ewd:figtype="w2w" style="cursor:pointer;" ewd:figID="6012">
<path style="&st17;" d="M782.3,415.57h-17v8.5h17V415.57"/>
<text transform="matrix(1 0 0 1 767.7993 422.313)" style="&st6;"><tspan x="0" y="0" style="&st23; &st14;">GA6</tspan></text>
</a>
<a ewd:code="GH1" ewd:figtype="w2w" style="cursor:pointer;" ewd:figID="6003">
<path style="&st17;" d="M1081.04,235.47h-17v8.5h17V235.47"/>
<text transform="matrix(1 0 0 1 1066.3672 242.2056)" style="&st6;"><tspan x="0" y="0" style="&st23; &st14;">GH1</tspan></text>
</a>
<a ewd:code="GH1" ewd:figtype="w2w" style="cursor:pointer;" ewd:figID="6004">
<path style="&st17;" d="M1116.18,235.47h-17v8.5h17V235.47"/>
<text transform="matrix(1 0 0 1 1101.5146 242.2056)" style="&st6;"><tspan x="0" y="0" style="&st23; &st14;">GH1</tspan></text>
</a>
<a ewd:code="CG2" ewd:figtype="w2w" style="cursor:pointer;" ewd:figID="6013">
<path style="&st17;" d="M1795.25,547.4h-17v8.5h17V547.4"/>
<text transform="matrix(1 0 0 1 1780.585 554.144)" style="&st6;"><tspan x="0" y="0" style="&st23; &st14;">CG2</tspan></text>
</a>
<a ewd:code="CG2" ewd:figtype="w2w" style="cursor:pointer;" ewd:figID="6014">
<path style="&st17;" d="M1830.4,547.4h-17v8.5h17V547.4"/>
<text transform="matrix(1 0 0 1 1815.7314 554.144)" style="&st6;"><tspan x="0" y="0" style="&st23; &st14;">CG2</tspan></text>
</a>
<a ewd:code="GA2" ewd:figtype="w2w" style="cursor:pointer;" ewd:figID="6015">
<path style="&st17;" d="M2413.3,523.44h-17v8.5h17V523.44"/>
<text transform="matrix(1 0 0 1 2398.7949 530.1851)" style="&st6;"><tspan x="0" y="0" style="&st23; &st14;">GA2</tspan></text>
</a>
<a ewd:code="GA2" ewd:figtype="w2w" style="cursor:pointer;" ewd:figID="6016">
<path style="&st17;" d="M2448.45,523.44h-17v8.5h17V523.44"/>
<text transform="matrix(1 0 0 1 2433.9434 530.1851)" style="&st6;"><tspan x="0" y="0" style="&st23; &st14;">GA2</tspan></text>
</a>
<a ewd:code="GR2" ewd:figtype="w2w" style="cursor:pointer;" ewd:figID="6017">
<path style="&st17;" d="M2805.3,420.9h-17v8.5h17V420.9"/>
<text transform="matrix(1 0 0 1 2790.6299 427.6382)" style="&st6;"><tspan x="0" y="0" style="&st23; &st14;">GR2</tspan></text>
</a>
<a ewd:code="GR2" ewd:figtype="w2w" style="cursor:pointer;" ewd:figID="6018">
<path style="&st17;" d="M2840.45,420.9h-17v8.5h17V420.9"/>
<text transform="matrix(1 0 0 1 2825.7783 427.6382)" style="&st6;"><tspan x="0" y="0" style="&st23; &st14;">GR2</tspan></text>
</a>
<a ewd:code="GR1" ewd:figtype="w2w" style="cursor:pointer;" ewd:figID="6019">
<path style="&st17;" d="M2910.75,420.9h-17v8.5h17V420.9"/>
<text transform="matrix(1 0 0 1 2896.0791 427.6382)" style="&st6;"><tspan x="0" y="0" style="&st23; &st14;">GR1</tspan></text>
</a>
<a ewd:code="GR1" ewd:figtype="w2w" style="cursor:pointer;" ewd:figID="6020">
<path style="&st17;" d="M2945.89,420.9h-17v8.5h17V420.9"/>
<text transform="matrix(1 0 0 1 2931.2256 427.6382)" style="&st6;"><tspan x="0" y="0" style="&st23; &st14;">GR1</tspan></text>
</a>
<a ewd:code="IG1" ewd:figtype="w2w" style="cursor:pointer;" ewd:figID="6021">
<path style="&st17;" d="M3264.05,456.28h-17v8.5h17V456.28"/>
<text transform="matrix(1 0 0 1 3250.7178 463.021)" style="&st6;"><tspan x="0" y="0" style="&st23; &st14;">IG1</tspan></text>
</a>
<a ewd:code="IG1" ewd:figtype="w2w" style="cursor:pointer;" ewd:figID="6022">
<path style="&st17;" d="M3299.2,456.28h-17v8.5h17V456.28"/>
<text transform="matrix(1 0 0 1 3285.8643 463.021)" style="&st6;"><tspan x="0" y="0" style="&st23; &st14;">IG1</tspan></text>
</a>
<a ewd:code="IG1" ewd:figtype="w2w" style="cursor:pointer;" ewd:figID="6023">
<path style="&st17;" d="M3351.26,456.28h-17v8.5h17V456.28"/>
<text transform="matrix(1 0 0 1 3337.9209 463.021)" style="&st6;"><tspan x="0" y="0" style="&st23; &st14;">IG1</tspan></text>
</a>
<a ewd:code="IG1" ewd:figtype="w2w" style="cursor:pointer;" ewd:figID="6024">
<path style="&st17;" d="M3386.41,456.28h-17v8.5h17V456.28"/>
<text transform="matrix(1 0 0 1 3373.0693 463.021)" style="&st6;"><tspan x="0" y="0" style="&st23; &st14;">IG1</tspan></text>
</a>
<a ewd:code="GA6" ewd:figtype="w2w" style="cursor:pointer;" ewd:figID="6025">
<path style="&st17;" d="M3458.69,389.05h-17v8.5h17V389.05"/>
<text transform="matrix(1 0 0 1 3444.1836 395.7915)" style="&st6;"><tspan x="0" y="0" style="&st23; &st14;">GA6</tspan></text>
</a>
<a ewd:code="GA6" ewd:figtype="w2w" style="cursor:pointer;" ewd:figID="6026">
<path style="&st17;" d="M3493.83,389.05h-17v8.5h17V389.05"/>
<text transform="matrix(1 0 0 1 3479.332 395.7915)" style="&st6;"><tspan x="0" y="0" style="&st23; &st14;">GA6</tspan></text>
</a>
<a ewd:code="GA6" ewd:figtype="w2w" style="cursor:pointer;" ewd:figID="6005">
<path style="&st17;" d="M3458.69,216.99h-17v8.5h17V216.99"/>
<text transform="matrix(1 0 0 1 3444.1836 223.7256)" style="&st6;"><tspan x="0" y="0" style="&st23; &st14;">GA6</tspan></text>
</a>
<a ewd:code="GA6" ewd:figtype="w2w" style="cursor:pointer;" ewd:figID="6006">
<path style="&st17;" d="M3493.84,216.99h-17v8.5h17V216.99"/>
<text transform="matrix(1 0 0 1 3479.334 223.7256)" style="&st6;"><tspan x="0" y="0" style="&st23; &st14;">GA6</tspan></text>
</a>
<a ewd:code="GA1" ewd:figtype="w2w" style="cursor:pointer;" ewd:figID="6027">
<path style="&st17;" d="M2242.89,504.9h-17v8.5h17V504.9"/>
<text transform="matrix(1 0 0 1 2228.3867 511.644)" style="&st6;"><tspan x="0" y="0" style="&st23; &st14;">GA1</tspan></text>
</a>
<a ewd:code="GA1" ewd:figtype="w2w" style="cursor:pointer;" ewd:figID="6028">
<path style="&st17;" d="M2278.04,504.9h-17v8.5h17V504.9"/>
<text transform="matrix(1 0 0 1 2263.5352 511.644)" style="&st6;"><tspan x="0" y="0" style="&st23; &st14;">GA1</tspan></text>
</a>
<a ewd:code="XQ1" ewd:figtype="w2w" style="cursor:pointer;" ewd:figID="6031">
<path style="&st17;" d="M291.3,409.17h-17v8.5h17V409.17"/>
<text transform="matrix(1 0 0 1 276.7993 415.4438)"><tspan x="0" y="0" style="&st23; &st14;">XQ1</tspan></text>
</a>
<a ewd:code="Xu1" ewd:figtype="w2w" style="cursor:pointer;" ewd:figID="6033">
<path style="&st17;" d="M291.3,485.79h-17v8.5h17V485.79"/>
<text transform="matrix(1 0 0 1 277.4644 492.0688)"><tspan x="0" y="0" style="&st23; &st14;">Xu1</tspan></text>
</a>
<a ewd:code="uv1" ewd:figtype="w2w" style="cursor:pointer;" ewd:figID="6035">
<path style="&st17;" d="M291.31,545.35h-17v8.5h17V545.35"/>
<text transform="matrix(1 0 0 1 277.9683 551.6294)"><tspan x="0" y="0" style="&st23; &st14;">uv1</tspan></text>
</a>
<a ewd:code="XQ1" ewd:figtype="w2w" style="cursor:pointer;" ewd:figID="6032">
<path style="&st17;" d="M333.8,409.17h-17v8.5h17V409.17"/>
<text transform="matrix(1 0 0 1 319.2993 415.4438)"><tspan x="0" y="0" style="&st23; &st14;">XQ1</tspan></text>
</a>
<a ewd:code="Xu1" ewd:figtype="w2w" style="cursor:pointer;" ewd:figID="6034">
<path style="&st17;" d="M333.8,485.79h-17v8.5h17V485.79"/>
<text transform="matrix(1 0 0 1 319.9644 492.0688)"><tspan x="0" y="0" style="&st23; &st14;">Xu1</tspan></text>
</a>
<a ewd:code="uv1" ewd:figtype="w2w" style="cursor:pointer;" ewd:figID="6036">
<path style="&st17;" d="M333.81,545.35h-17v8.5h17V545.35"/>
<text transform="matrix(1 0 0 1 320.4683 551.6294)"><tspan x="0" y="0" style="&st23; &st14;">uv1</tspan></text>
</a>
<a ewd:code="GQ2" ewd:figtype="w2w" style="cursor:pointer;" ewd:figID="6037">
<path style="&st17;" d="M1795.07,395.11h-17v8.5h17V395.11"/>
<text transform="matrix(1 0 0 1 1780.2295 401.3872)"><tspan x="0" y="0" style="&st23; &st14;">GQ2</tspan></text>
</a>
<a ewd:code="GQ2" ewd:figtype="w2w" style="cursor:pointer;" ewd:figID="6038">
<path style="&st17;" d="M1830.92,395.11h-17v8.5h17V395.11"/>
<text transform="matrix(1 0 0 1 1816.0889 401.3872)"><tspan x="0" y="0" style="&st23; &st14;">GQ2</tspan></text>
</a>
<a ewd:code="GQ2" ewd:figtype="w2w" style="cursor:pointer;" ewd:figID="6041">
<path style="&st17;" d="M2005.48,456.92h-17v8.5h17V456.92"/>
<text transform="matrix(1 0 0 1 1990.6475 463.1948)"><tspan x="0" y="0" style="&st23; &st14;">GQ2</tspan></text>
</a>
<a ewd:code="sR2" ewd:figtype="w2w" style="cursor:pointer;" ewd:figID="6045">
<path style="&st17;" d="M2005.49,588.79h-17v8.5h17V588.79"/>
<text transform="matrix(1 0 0 1 1991.6523 595.0659)"><tspan x="0" y="0" style="&st23; &st14;">sR2</tspan></text>
</a>
<a ewd:code="GQ2" ewd:figtype="w2w" style="cursor:pointer;" ewd:figID="6042">
<path style="&st17;" d="M2047.98,456.92h-17v8.5h17V456.92"/>
<text transform="matrix(1 0 0 1 2033.1475 463.1948)"><tspan x="0" y="0" style="&st23; &st14;">GQ2</tspan></text>
</a>
<a ewd:code="sR2" ewd:figtype="w2w" style="cursor:pointer;" ewd:figID="6046">
<path style="&st17;" d="M2047.99,588.79h-17v8.5h17V588.79"/>
<text transform="matrix(1 0 0 1 2034.1523 595.0659)"><tspan x="0" y="0" style="&st23; &st14;">sR2</tspan></text>
</a>
<a ewd:code="Qs1" ewd:figtype="w2w" style="cursor:pointer;" ewd:figID="6039">
<path style="&st17;" d="M1899.23,544.11h-17v8.5h17V544.11"/>
<text transform="matrix(1 0 0 1 1885.2314 550.3843)"><tspan x="0" y="0" style="&st23; &st14;">Qs1</tspan></text>
</a>
<a ewd:code="Qs1" ewd:figtype="w2w" style="cursor:pointer;" ewd:figID="6040">
<path style="&st17;" d="M1941.73,544.11h-17v8.5h17V544.11"/>
<text transform="matrix(1 0 0 1 1927.7314 550.3843)"><tspan x="0" y="0" style="&st23; &st14;">Qs1</tspan></text>
</a>
<a ewd:code="GQ1" ewd:figtype="w2w" style="cursor:pointer;" ewd:figID="6029">
<path style="&st17;" d="M291.31,343.3h-17v8.5h17V343.3"/>
<text transform="matrix(1 0 0 1 276.4697 349.5728)"><tspan x="0" y="0" style="&st23; &st14;">GQ1</tspan></text>
</a>
<a ewd:code="GQ1" ewd:figtype="w2w" style="cursor:pointer;" ewd:figID="6030">
<path style="&st17;" d="M333.81,343.3h-17v8.5h17V343.3"/>
<text transform="matrix(1 0 0 1 318.9697 349.5728)"><tspan x="0" y="0" style="&st23; &st14;">GQ1</tspan></text>
</a>
<a ewd:code="GR4" ewd:figtype="w2w" style="cursor:pointer;" ewd:figID="6043">
<path style="&st17;" d="M2005.49,510.17h-17v8.5h17V510.17"/>
<text transform="matrix(1 0 0 1 1990.8174 516.4448)"><tspan x="0" y="0" style="&st23; &st14;">GR4</tspan></text>
</a>
<a ewd:code="GR4" ewd:figtype="w2w" style="cursor:pointer;" ewd:figID="6044">
<path style="&st17;" d="M2047.99,509.98h-17v8.5h17V509.98"/>
<text transform="matrix(1 0 0 1 2033.3174 516.2544)"><tspan x="0" y="0" style="&st23; &st14;">GR4</tspan></text>
</a>
<a ewd:code="FUSE10" ewd:figtype="rb" style="cursor:pointer;" ewd:figID="4001">
<path style="&st26;" d="M3987.02,39.55v42.49h25.49V39.55H3987.02"/>
</a>
<a ewd:code="2" ewd:figtype="jb" style="cursor:pointer;" ewd:figID="3001">
<path style="&st21;" d="M3868.97,107.56v8.49h111.42V39.84h-111.42"/>
<path style="&st19;" d="M3873.23,39.55v42.49h25.49V39.55H3873.23"/>
<path style="&st19;" d="M3933.9,39.55v42.49h25.49V39.55H3933.9"/>
</a>
<a ewd:code="2" ewd:figtype="jb" style="cursor:pointer;" ewd:figID="3002">
<path style="&st21;" d="M3982.76,239.86v50.99h25.5v-50.99H3982.76"/>
</a>
<a ewd:code="3JB" ewd:figtype="jb" style="cursor:pointer;" ewd:figID="3005">
<path style="&st21;" d="M3468.34,562.84v50.99h25.5v-50.99H3468.34"/>
</a>
<a ewd:code="3JB" ewd:figtype="jb" style="cursor:pointer;" ewd:figID="3003">
<path style="&st21;" d="M153,541.41v50.99h25.5v-50.99H153"/>
</a>
<a ewd:code="G2" ewd:figtype="gp" style="cursor:pointer;" ewd:figID="2004">
<path style="&st17;" d="M3989.14,685.05h21.25l-10.62,15.58L3989.14,685.05"/>
<text transform="matrix(1 0 0 1 3994.7803 693.2075)" style="&st6;"><tspan x="0" y="0" style="&st23; &st14;">G2</tspan></text>
</a>
<a ewd:code="G3" ewd:figtype="gp" style="cursor:pointer;" ewd:figID="2003">
<path style="&st17;" d="M3474.72,685.44h21.25l-10.62,15.58L3474.72,685.44"/>
<text transform="matrix(1 0 0 1 3480.3604 693.5952)" style="&st6;"><tspan x="0" y="0" style="&st23; &st14;">G3</tspan></text>
</a>
<a ewd:code="G3" ewd:figtype="gp" style="cursor:pointer;" ewd:figID="2001">
<path style="&st17;" d="M159.38,685.44h21.25l-10.62,15.58L159.38,685.44"/>
<text transform="matrix(1 0 0 1 165.0234 693.5952)" style="&st6;"><tspan x="0" y="0" style="&st23; &st14;">G3</tspan></text>
</a>
<a ewd:code="FUSE10" ewd:figtype="fuse" style="cursor:pointer;" ewd:figID="1003">
<path style="&st7;" d="M3987.02,39.55v42.49h25.49V39.55H3987.02"/>
</a>
<a ewd:code="FUSE76" ewd:figtype="fuse" style="cursor:pointer;" ewd:figID="1002">
<path style="&st7;" d="M3933.9,39.55v42.49h25.49V39.55H3933.9"/>
</a>
<a ewd:code="FUSE75" ewd:figtype="fuse" style="cursor:pointer;" ewd:figID="1001">
<path style="&st7;" d="M3873.23,39.55v42.49h25.49V39.55H3873.23"/>
</a>
<a ewd:code="G116" ewd:figtype="conn" style="cursor:pointer;" ewd:figID="1">
<path style="&st26;" d="M14.02,39.55v36.36h65.91V39.55H14.02"/>
<title ewd:textID="37">Multiplex Tilt &amp; Telescopic ECU</title>
</a>
<a ewd:code="G76,G163" ewd:figtype="conn" style="cursor:pointer;" ewd:figID="3">
<path style="&st26;" d="M119.46,39.55v36.36h65.91V39.55H119.46"/>
<title ewd:textID="28">Driving Support Switch Control ECU</title>
</a>
<a ewd:code="G133" ewd:figtype="conn" style="cursor:pointer;" ewd:figID="2">
<path style="&st26;" d="M20.62,272.19v26.36h313.47v-26.36H20.62"/>
<title ewd:textID="33">Junction Connector</title>
</a>
<a ewd:code="G103" ewd:figtype="conn" style="cursor:pointer;" ewd:figID="25">
<path style="&st26;" d="M119.48,422.33v79.31h65.91v-79.31H119.48"/>
<title ewd:textID="34">Junction Terminal</title>
</a>
<a ewd:code="a5" ewd:figtype="conn" style="cursor:pointer;" ewd:figID="24">
<path style="&st26;" d="M13.83,566.5v36.36h65.91V566.5H13.83"/>
<title ewd:textID="31">Front Position Control ECU and Switch Assembly RH (Front Power Seat Switch RH)</title>
</a>
<a ewd:code="G104" ewd:figtype="conn" style="cursor:pointer;" ewd:figID="26">
<path style="&st26;" d="M161.51,659.94h16.99v16.99h-16.99V659.94"/>
<title ewd:textID="33">Junction Connector</title>
</a>
<a ewd:code="A6" ewd:figtype="conn" style="cursor:pointer;" ewd:figID="27">
<path style="&st26;" d="M529.92,526.12v36.36h65.91v-36.36H529.92"/>
<title ewd:textID="23">Brake Actuator Assembly</title>
</a>
<a ewd:code="A7" ewd:figtype="conn" style="cursor:pointer;" ewd:figID="28">
<path style="&st26;" d="M628.82,526.12v36.36h65.91v-36.36H628.82"/>
<title ewd:textID="23">Brake Actuator Assembly</title>
</a>
<a ewd:code="G6-A" ewd:figtype="conn" style="cursor:pointer;" ewd:figID="30">
<path style="&st26;" d="M723.08,526.12v36.36h65.91v-36.36H723.08"/>
<title ewd:textID="26">Combination Meter Assembly</title>
</a>
<a ewd:code="A47,A48" ewd:figtype="conn" style="cursor:pointer;" ewd:figID="29">
<path style="&st26;" d="M635.43,425.48v8.79h52.72v-8.79H635.43"/>
<path style="&st26;" d="M635.43,416.69v8.79h52.72v-8.79H635.43"/>
<title ewd:textID="49">Short Connector</title>
</a>
<a ewd:code="A72" ewd:figtype="conn" style="cursor:pointer;" ewd:figID="4">
<path style="&st26;" d="M635.43,274.31v26.36H782.6v-26.36H635.43"/>
<title ewd:textID="33">Junction Connector</title>
</a>
<a ewd:code="G132" ewd:figtype="conn" style="cursor:pointer;" ewd:figID="5">
<path style="&st26;" d="M847.27,314.69v26.36h375.08v-26.36H847.27"/>
<title ewd:textID="33">Junction Connector</title>
</a>
<a ewd:code="G63-A,G64-B" ewd:figtype="conn" style="cursor:pointer;" ewd:figID="6">
<path style="&st26;" d="M947.88,155.71v36.36h65.91v-36.36H947.88"/>
<title ewd:textID="35">Main Body ECU</title>
</a>
<a ewd:code="H51" ewd:figtype="conn" style="cursor:pointer;" ewd:figID="7">
<path style="&st26;" d="M1057.58,39.55v36.36h65.91V39.55H1057.58"/>
<title ewd:textID="46">Radio &amp; Display Receiver Assembly</title>
</a>
<a ewd:code="H56" ewd:figtype="conn" style="cursor:pointer;" ewd:figID="8">
<path style="&st26;" d="M1163.03,39.55v36.36h67.55V39.55H1163.03"/>
<title ewd:textID="40">Navigation Receiver Assembly</title>
</a>
<a ewd:code="G33" ewd:figtype="conn" style="cursor:pointer;" ewd:figID="33">
<path style="&st26;" d="M1057.6,566.5v36.36h65.91V566.5H1057.6"/>
<title ewd:textID="51">Steering Sensor</title>
</a>
<a ewd:code="G48" ewd:figtype="conn" style="cursor:pointer;" ewd:figID="32">
<path style="&st26;" d="M947.88,566.5v36.36h65.91V566.5H947.88"/>
<title>DLC3</title>
</a>
<a ewd:code="G1-A" ewd:figtype="conn" style="cursor:pointer;" ewd:figID="31">
<path style="&st26;" d="M840.49,566.5v36.36h65.91V566.5H840.49"/>
<title ewd:textID="20">Airbag Sensor Assembly</title>
</a>
<a ewd:code="G46" ewd:figtype="conn" style="cursor:pointer;" ewd:figID="34">
<path style="&st26;" d="M1375.82,583.12v36.36h65.91v-36.36H1375.82"/>
<title ewd:textID="45">Power Steering ECU Assembly</title>
</a>
<a ewd:code="G53-A" ewd:figtype="conn" style="cursor:pointer;" ewd:figID="35">
<path style="&st26;" d="M1463.69,583.12v36.36h65.91v-36.36H1463.69"/>
<title ewd:textID="30">Four Wheel Drive Control ECU</title>
</a>
<a ewd:code="G134" ewd:figtype="conn" style="cursor:pointer;" ewd:figID="10">
<path style="&st26;" d="M1294.56,314.69v26.36h329.09v-26.36H1294.56"/>
<title ewd:textID="33">Junction Connector</title>
</a>
<a ewd:code="G52" ewd:figtype="conn" style="cursor:pointer;" ewd:figID="9">
<path style="&st26;" d="M1287.95,39.55v36.36h65.91V39.55H1287.95"/>
<title ewd:textID="55">Yaw Rate Sensor Assembly</title>
</a>
<a ewd:code="G38-A" ewd:figtype="conn" style="cursor:pointer;" ewd:figID="11">
<path style="&st26;" d="M1375.83,39.55v36.36h65.91V39.55H1375.83"/>
<title ewd:textID="24">Certification ECU Assembly</title>
</a>
<a ewd:code="G25-B" ewd:figtype="conn" style="cursor:pointer;" ewd:figID="12">
<path style="&st26;" d="M1685.73,122.68v36.36h65.91v-36.36H1685.73"/>
<title ewd:textID="19">A/C Amplifier Assembly</title>
</a>
<a ewd:code="G51-B" ewd:figtype="conn" style="cursor:pointer;" ewd:figID="14">
<path style="&st26;" d="M1791.17,122.68v36.36h142.32v-36.36H1791.17"/>
<title ewd:textID="44">Power Management Control ECU</title>
</a>
<a ewd:code="G98" ewd:figtype="conn" style="cursor:pointer;" ewd:figID="13">
<path style="&st26;" d="M1692.33,297.11v26.36h158.57v-26.36H1692.33"/>
<title ewd:textID="33">Junction Connector</title>
</a>
<a ewd:code="C92-O,G56-F,G57-Q,G58-R,G183-i,G184-m" ewd:figtype="conn" style="cursor:pointer;" ewd:figID="38">
<path style="&st26;" d="M1685.74,448.92v36.36h151.35v-36.36H1685.74"/>
<title>ECM</title>
</a>
<a ewd:code="G98" ewd:figtype="conn" style="cursor:pointer;" ewd:figID="15">
<path style="&st26;" d="M2225.6,314.68v26.36h223.62v-26.36H2225.6"/>
<title ewd:textID="33">Junction Connector</title>
</a>
<a ewd:code="A49-B" ewd:figtype="conn" style="cursor:pointer;" ewd:figID="42">
<path style="&st26;" d="M2389.89,583.12v36.36h65.91v-36.36H2389.89"/>
<title ewd:textID="52">Suspension Control ECU</title>
</a>
<a ewd:code="G154" ewd:figtype="conn" style="cursor:pointer;" ewd:figID="41">
<path style="&st26;" d="M2304.93,584.74v36.36h65.91v-36.36H2304.93"/>
<title ewd:textID="25">Clearance Warning ECU Assembly</title>
</a>
<a ewd:code="G119" ewd:figtype="conn" style="cursor:pointer;" ewd:figID="40">
<path style="&st26;" d="M2219,406.42v36.36h65.91v-36.36H2219"/>
<title ewd:textID="27">Driving Support ECU Assembly</title>
</a>
<a ewd:code="G70-B" ewd:figtype="conn" style="cursor:pointer;" ewd:figID="39">
<path style="&st26;" d="M1771.18,626.66v36.36h65.91v-36.36H1771.18"/>
<title ewd:textID="53">Transmission Control ECU Assembly</title>
</a>
<a ewd:code="R47" ewd:figtype="conn" style="cursor:pointer;" ewd:figID="17">
<path style="&st26;" d="M2788.01,281.67v26.36h158.57v-26.36H2788.01"/>
<title ewd:textID="33">Junction Connector</title>
</a>
<a ewd:code="R43" ewd:figtype="conn" style="cursor:pointer;" ewd:figID="16">
<path style="&st26;" d="M2728.68,134.69v36.36h65.91v-36.36H2728.68"/>
<title ewd:textID="22">Blind Spot Monitor Sensor RH</title>
</a>
<a ewd:code="R42" ewd:figtype="conn" style="cursor:pointer;" ewd:figID="18">
<path style="&st26;" d="M2816.56,134.69v36.36h148.18v-36.36H2816.56"/>
<title ewd:textID="21">Blind Spot Monitor Sensor LH</title>
</a>
<a ewd:code="G123" ewd:figtype="conn" style="cursor:pointer;" ewd:figID="19">
<path style="&st26;" d="M3152.3,134.69v36.36h65.91v-36.36H3152.3"/>
<title ewd:textID="50">Stabilizer Control ECU</title>
</a>
<a ewd:code="G118-B" ewd:figtype="conn" style="cursor:pointer;" ewd:figID="21">
<path style="&st26;" d="M3240.17,134.76v36.36h65.91v-36.36H3240.17"/>
<title ewd:textID="48">Seat Belt Control ECU</title>
</a>
<a ewd:code="A58" ewd:figtype="conn" style="cursor:pointer;" ewd:figID="23">
<path style="&st26;" d="M3505.09,134.69v36.36H3571v-36.36H3505.09"/>
<title ewd:textID="32">Headlight Swivel ECU Assembly</title>
</a>
<a ewd:code="A72" ewd:figtype="conn" style="cursor:pointer;" ewd:figID="22">
<path style="&st26;" d="M3441.41,314.68v26.36h123.02v-26.36H3441.41"/>
<title ewd:textID="33">Junction Connector</title>
</a>
<a ewd:code="G95" ewd:figtype="conn" style="cursor:pointer;" ewd:figID="20">
<path style="&st26;" d="M3158.72,314.68v26.36h228.46v-26.36H3158.72"/>
<title ewd:textID="33">Junction Connector</title>
</a>
<a ewd:code="G102" ewd:figtype="conn" style="cursor:pointer;" ewd:figID="45">
<path style="&st26;" d="M3434.81,443.76v79.31h65.91v-79.31H3434.81"/>
<title ewd:textID="34">Junction Terminal</title>
</a>
<a ewd:code="I1" ewd:figtype="conn" style="cursor:pointer;" ewd:figID="44">
<path style="&st26;" d="M3327.85,528.96v36.36h65.91v-36.36H3327.85"/>
<title ewd:textID="25">Clearance Warning ECU Assembly</title>
</a>
<a ewd:code="I7" ewd:figtype="conn" style="cursor:pointer;" ewd:figID="43">
<path style="&st26;" d="M3239.98,529.54v36.36h65.91v-36.36H3239.98"/>
<title ewd:textID="43">Parking Assist ECU</title>
</a>
<a ewd:code="G104" ewd:figtype="conn" style="cursor:pointer;" ewd:figID="46">
<path style="&st26;" d="M3476.85,659.94h16.99v16.99h-16.99V659.94"/>
<title ewd:textID="33">Junction Connector</title>
</a>
<a ewd:code="G155" ewd:figtype="conn" style="cursor:pointer;" ewd:figID="47">
<path style="&st26;" d="M3727.38,449.81v36.36h287.77v-36.36H3727.38"/>
<title ewd:textID="41">Network Gateway ECU</title>
</a>
<a ewd:code="A15" ewd:figtype="conn" style="cursor:pointer;" ewd:figID="48">
<path style="&st26;" d="M2219.48,584.65V621h65.91v-36.36H2219.48"/>
<title ewd:textID="36">Millimeter Wave Radar Sensor Assembly</title>
</a>
<a ewd:code="v3" ewd:figtype="conn" style="cursor:pointer;" ewd:figID="49">
<path style="&st29;" d="M265.81,647.91v-34h76.5v34H265.81z"/>
<title ewd:textID="47">Rear Television Camera Assembly</title>
</a>
<a ewd:code="X10" ewd:figtype="conn" style="cursor:pointer;" ewd:figID="50">
<path style="&st29;" d="M373.17,600.42v-34h76.5v34H373.17z"/>
<title ewd:textID="47">Rear Television Camera Assembly</title>
</a>
<a ewd:code="s6" ewd:figtype="conn" style="cursor:pointer;" ewd:figID="52">
<path style="&st29;" d="M1873.74,688.79v-34h76.5v34H1873.74z"/>
<title ewd:textID="42">Nitrogen Oxides Sensor (Exhaust Side)</title>
</a>
<a ewd:code="s4" ewd:figtype="conn" style="cursor:pointer;" ewd:figID="53">
<path style="&st29;" d="M1979.99,688.79v-34h76.5v34H1979.99z"/>
<title ewd:textID="54">Urea Pump Control ECU</title>
</a>
<a ewd:code="Q41" ewd:figtype="conn" style="cursor:pointer;" ewd:figID="51">
<path style="&st29;" d="M1882.24,405.86v-25.68h165.75v25.68H1882.24z"/>
<title ewd:textID="33">Junction Connector</title>
</a>
</g>
</svg>
