﻿<?xml version="1.0" encoding="UTF-8"?>
<!DOCTYPE svg PUBLIC "-//W3C//DTD SVG 1.0//EN" "http://www.w3.org/TR/2001/REC-SVG-20010904/DTD/svg10.dtd"[
<!ENTITY ns_flows "http://ns.adobe.com/Flows/1.0/">
<!ENTITY ns_svg "http://www.w3.org/2000/svg">
<!ENTITY ns_xlink "http://www.w3.org/1999/xlink">
	<!ENTITY st0 "fill:none;stroke:#F8E616;stroke-width:5.1;stroke-linejoin:round;">
	<!ENTITY st1 "fill:none;stroke:#FB0F0C;stroke-width:5.1;stroke-linejoin:round;">
	<!ENTITY st2 "fill:none;stroke:#9A9999;stroke-width:5.1;stroke-linejoin:round;">
	<!ENTITY st3 "fill:none;stroke:#99280B;stroke-width:5.1;stroke-linejoin:round;">
		<!ENTITY st4 "fill:none;stroke:#000000;stroke-width:0.85;stroke-linecap:round;stroke-linejoin:round;stroke-dasharray:3 1.5;enable-background:new    ;">
	<!ENTITY st5 "font-family:'MS-PGothic','ＭＳ Ｐゴシック';adobe-font-script:japanese;">
	<!ENTITY st6 "fill:none;stroke:#000000;stroke-width:5.1;stroke-linejoin:round;">
	<!ENTITY st7 "fill:none;stroke:#199DBF;stroke-width:1.13;stroke-linejoin:round;">
	<!ENTITY st8 "fill:none;stroke:#000000;stroke-linecap:round;stroke-linejoin:round;">
	<!ENTITY st9 "fill:#1D63A2;">
	<!ENTITY st10 "stroke:#000000;stroke-width:0.28;stroke-linecap:round;stroke-linejoin:round;enable-background:new    ;">
	<!ENTITY st11 "stroke:#000000;stroke-width:0.28;stroke-linecap:round;stroke-linejoin:round;">
	<!ENTITY st12 "enable-background:new    ;">
		<!ENTITY st13 "fill:none;stroke:#000000;stroke-width:1.42;stroke-linecap:round;stroke-linejoin:round;enable-background:new    ;">
	<!ENTITY st14 "fill:none;stroke:#EE67AA;stroke-width:5.1;stroke-linejoin:round;">
	<!ENTITY st15 "fill:none;stroke:#199DBF;stroke-width:5.1;stroke-linejoin:round;">
	<!ENTITY st16 "opacity:0.5;fill:none;stroke:#34ACCE;stroke-linejoin:round;stroke-dasharray:6;">
	<!ENTITY st17 "fill:none;stroke:#FFFFFF;stroke-width:4.53;stroke-linejoin:round;">
	<!ENTITY st18 "fill:#F6140D;">
		<!ENTITY st19 "fill:none;stroke:#000000;stroke-width:0.85;stroke-linecap:round;stroke-linejoin:round;enable-background:new    ;">
	<!ENTITY st20 "fill:none;stroke:#56107C;stroke-width:5.1;stroke-linejoin:round;">
	<!ENTITY st21 "font-size:6px;">
	<!ENTITY st22 "fill:none;stroke:#FFFFFF;stroke-width:2.27;stroke-linejoin:round;">
	<!ENTITY st23 "fill:none;stroke:#FB0F0C;stroke-width:1.13;stroke-linejoin:round;">
	<!ENTITY st24 "fill:none;stroke:#FFFFFF;stroke-width:1.13;stroke-linejoin:round;">
	<!ENTITY st25 "fill:none;stroke:#168638;stroke-width:5.1;stroke-linejoin:round;">
	<!ENTITY st26 "fill:none;stroke:#000000;stroke-width:1.13;stroke-linejoin:round;">
		<!ENTITY st27 "fill:none;stroke:#000000;stroke-width:1.13;stroke-linecap:round;stroke-linejoin:round;stroke-dasharray:3 1.5;enable-background:new    ;">
	<!ENTITY st28 "fill:#CCCCCC;stroke:#CECECF;stroke-width:0.1;stroke-linecap:round;stroke-linejoin:round;">
	<!ENTITY st29 "fill:#FFFFFF;stroke:#000000;stroke-width:1.41;stroke-linecap:round;stroke-linejoin:round;">
	<!ENTITY st30 "fill:none;stroke:#3E65AC;stroke-width:3;">
	<!ENTITY st31 "display:inline;">
	<!ENTITY st32 "fill:#CCCCCC;stroke:#CCCCCC;stroke-width:0.1;stroke-linecap:round;stroke-linejoin:round;">
	<!ENTITY st33 "stroke:#FFFFFF;stroke-width:2;">
	<!ENTITY st34 "fill:none;stroke:#000000;stroke-width:1.42;stroke-linejoin:round;">
	<!ENTITY st35 "font-family:'Arial';">
	<!ENTITY st36 "opacity:0.5;fill:none;stroke:#34ACCE;stroke-linejoin:round;">
	<!ENTITY st37 "fill:none;stroke:#000000;stroke-width:1.42;stroke-linecap:round;stroke-linejoin:round;">
	<!ENTITY st38 "fill:#CFE6E7;stroke:#000000;stroke-width:1.133;stroke-linecap:round;stroke-linejoin:round;">
	<!ENTITY st39 "font-size:12px;">
	<!ENTITY st40 "fill:none;stroke:#99D5E0;stroke-width:5.1;stroke-linejoin:round;">
	<!ENTITY st41 "fill:none;stroke:#FF0000;stroke-width:1.13;stroke-linejoin:round;">
	<!ENTITY st42 "display:none;">
	<!ENTITY st43 "fill:#CFE6E7;stroke:#000000;stroke-width:1.13;stroke-linejoin:round;">
	<!ENTITY st44 "fill:none;stroke:#000000;stroke-width:0.85;stroke-linecap:round;stroke-linejoin:round;">
	<!ENTITY st45 "fill:none;stroke:#7EC57E;stroke-width:5.1;stroke-linejoin:round;">
<!ATTLIST svg
xmlns:ewd CDATA #FIXED "http://shcl.co.jp/ewd"
xmlns:a CDATA #FIXED "http://ns.adobe.com/AdobeSVGViewerExtensions/3.0/"
ewd:ver CDATA #IMPLIED
>
<!ATTLIST a
ewd:lineID CDATA #IMPLIED
ewd:groupID CDATA #IMPLIED
ewd:figtype CDATA #IMPLIED
ewd:code CDATA #IMPLIED
ewd:figID CDATA #IMPLIED
ewd:pinNo CDATA #IMPLIED
ewd:comment CDATA #IMPLIED >
<!ATTLIST g
ewd:lineID CDATA #IMPLIED
ewd:groupID CDATA #IMPLIED
ewd:figtype CDATA #IMPLIED
ewd:code CDATA #IMPLIED
ewd:figID CDATA #IMPLIED
ewd:pinNo CDATA #IMPLIED
ewd:comment CDATA #IMPLIED >
<!ATTLIST text
ewd:textID CDATA #IMPLIED >
<!ATTLIST title
ewd:textID CDATA #IMPLIED >
]>
<svg 
viewBox='0 0 8303.49 729.44'
height='729.44'
width='8303.49'
xml:space="preserve"
xmlns="&ns_svg;"
xmlns:ewd="http://shcl.co.jp/ewd"
xmlns:xlink="&ns_xlink;" ewd:ver="L2.3">
<g ewd:code="GA6" ewd:figID="6054" ewd:figtype="w2w" ewd:pinNo="15">
<path style="&st13;" d="M6052.7,420.49h-8.49"/>
<path style="&st13;" d="M6048.45,429.56l-4.25-4.25l-4.25,4.25"/>
<path style="&st13;" d="M6048.45,426.16l-4.25-4.25l-4.25,4.25"/>
<text transform="matrix(1 0 0 1 6026.0327 418.2065)" style="&st12;"><tspan x="0" y="0" style="&st35; &st21;">15</tspan></text>
</g>
<g ewd:code="GA6" ewd:figID="6055" ewd:figtype="w2w" ewd:pinNo="14">
<path style="&st13;" d="M6086.7,420.49h-8.5"/>
<path style="&st13;" d="M6082.45,429.56l-4.25-4.25l-4.25,4.25"/>
<path style="&st13;" d="M6082.45,426.16l-4.25-4.25l-4.25,4.25"/>
<text transform="matrix(1 0 0 1 6060.0229 418.2065)" style="&st12;"><tspan x="0" y="0" style="&st35; &st21;">14</tspan></text>
</g>
<g ewd:code="GA6" ewd:figID="6056" ewd:figtype="w2w" ewd:pinNo="37">
<path style="&st13;" d="M6124.94,420.49h-8.5"/>
<path style="&st13;" d="M6120.69,429.56l-4.25-4.25l-4.25,4.25"/>
<path style="&st13;" d="M6120.69,426.16l-4.25-4.25l-4.25,4.25"/>
<text transform="matrix(1 0 0 1 6098.2632 418.2065)" style="&st12;"><tspan x="0" y="0" style="&st35; &st21;">37</tspan></text>
</g>
<g ewd:code="GA6" ewd:figID="6057" ewd:figtype="w2w" ewd:pinNo="36">
<path style="&st13;" d="M6158.94,420.49h-8.5"/>
<path style="&st13;" d="M6154.68,429.56l-4.25-4.25l-4.24,4.25"/>
<path style="&st13;" d="M6154.68,426.16l-4.25-4.25l-4.24,4.25"/>
<text transform="matrix(1 0 0 1 6132.2632 418.2065)" style="&st12;"><tspan x="0" y="0" style="&st35; &st21;">36</tspan></text>
</g>
<g ewd:code="A72" ewd:figID="58" ewd:figtype="conn">
<path style="&st19;" d="M6078.2,489.98v8.5"/>
<path style="&st19;" d="M6044.2,506.98v-17"/>
<path style="&st13;" d="M6035.7,489.98v25.5h123.23v-25.5H6035.7"/>
<path style="&st19;" d="M6078.2,498.48h38.24v-8.5"/>
<path style="&st19;" d="M6044.2,506.98h106.23v-17"/>
<text transform="matrix(1 0 0 1 6071.4077 486.2866)" style="&st12;"><tspan x="0" y="0" style="&st35; &st21;">9</tspan></text>
<text transform="matrix(1 0 0 1 6033.4565 486.2866)" style="&st12;"><tspan x="0" y="0" style="&st35; &st21;">20</tspan></text>
<text ewd:textID='57' transform='matrix(1 0 0 1 6065.519 531.0757)' style='&st12; &st35; &st21;'>Junction Connector</text>
<text transform="matrix(1 0 0 1 6065.519 523.9761)" style="&st12;"><tspan x="0" y="0" style="&st35; &st21;">A72</tspan></text>
<text transform="matrix(1 0 0 1 6106.4683 486.2866)" style="&st12;"><tspan x="0" y="0" style="&st35; &st21;">10</tspan></text>
<text transform="matrix(1 0 0 1 6140.4683 486.2866)" style="&st12;"><tspan x="0" y="0" style="&st35; &st21;">21</tspan></text>
</g>
<g ewd:code="G98" ewd:figID="30" ewd:figtype="conn">
<path style="&st13;" d="M6476.79,355.6v17h50.99v-17H6476.79"/>
<path style="&st19;" d="M6519.28,355.6v17"/>
<path style="&st19;" d="M6485.29,355.6v17"/>
<text transform="matrix(1 0 0 1 6509.3218 351.9136)" style="&st12;"><tspan x="0" y="0" style="&st35; &st21;">21</tspan></text>
<text transform="matrix(1 0 0 1 6475.3218 351.9136)" style="&st12;"><tspan x="0" y="0" style="&st35; &st21;">10</tspan></text>
<text ewd:textID='57' transform='matrix(0 -1 1 0 6541.8833 372.603)' style='&st12; &st35; &st21;'>Junction <tspan x='0' y='7' >Connector</tspan></text>
<text transform="matrix(0 -1 1 0 6534.7827 372.603)" style="&st12;"><tspan x="0" y="0" style="&st35; &st21;">G98</tspan></text>
<text transform="matrix(1 0 0 1 6478.5015 380.7925)" style="&st12;"><tspan x="0" y="0" style="&st35; &st21;">9</tspan></text>
<text transform="matrix(1 0 0 1 6508.5425 380.7925)" style="&st12;"><tspan x="0" y="0" style="&st35; &st21;">20</tspan></text>
</g>
<g ewd:code="C34-A,C35-B,C36-C,G56-F,C90-M,C92-O,G57-Q,G58-R,G62-V,C149-W,C152-Z,C153-a,C154-b,C162-e,G180-f,G181-g,G182-h,G183-i,G184-m,G185-n" ewd:figID="59" ewd:figtype="conn">
<path style="&st13;" d="M6353.55,434.74v50.99h1315.41v-50.99H6353.55"/>
<path style="&st13;" d="M6489.82,430.21c0-2.51-2.03-4.54-4.53-4.54"/>
<path style="&st13;" d="M6485.29,425.67c-2.5,0-4.53,2.03-4.53,4.54"/>
<path style="&st13;" d="M6480.76,430.21c0,2.5,2.03,4.53,4.53,4.53"/>
<path style="&st13;" d="M6485.29,434.74c2.5,0,4.53-2.03,4.53-4.53"/>
<path style="&st13;" d="M6409.07,421.14c0-2.51-2.03-4.54-4.53-4.54"/>
<path style="&st13;" d="M6404.54,416.6c-2.5,0-4.53,2.03-4.53,4.54"/>
<path style="&st13;" d="M6400.01,421.14c0,2.5,2.03,4.53,4.53,4.53"/>
<path style="&st13;" d="M6404.54,425.67c2.5,0,4.53-2.03,4.53-4.53"/>
<path style="&st13;" d="M6375.08,421.14c0-2.51-2.03-4.54-4.53-4.54"/>
<path style="&st13;" d="M6370.55,416.6c-2.51,0-4.54,2.03-4.54,4.54"/>
<path style="&st13;" d="M6366.01,421.14c0,2.5,2.03,4.53,4.54,4.53"/>
<path style="&st13;" d="M6370.55,425.67c2.5,0,4.53-2.03,4.53-4.53"/>
<path style="&st13;" d="M6523.82,430.21c0-2.51-2.03-4.54-4.53-4.54"/>
<path style="&st13;" d="M6519.29,425.67c-2.51,0-4.54,2.03-4.54,4.54"/>
<path style="&st13;" d="M6514.75,430.21c0,2.5,2.03,4.53,4.54,4.53"/>
<path style="&st13;" d="M6519.29,434.74c2.5,0,4.53-2.03,4.53-4.53"/>
<path style="&st13;" d="M6696.38,490.26c0-2.5-2.03-4.53-4.54-4.53"/>
<path style="&st13;" d="M6691.84,485.73c-2.5,0-4.53,2.03-4.53,4.53"/>
<path style="&st13;" d="M6687.31,490.26c0,2.51,2.03,4.54,4.53,4.54"/>
<path style="&st13;" d="M6691.84,494.8c2.51,0,4.54-2.03,4.54-4.54"/>
<path style="&st13;" d="M6653.88,490.26c0-2.5-2.03-4.53-4.53-4.53"/>
<path style="&st13;" d="M6649.35,485.73c-2.5,0-4.53,2.03-4.53,4.53"/>
<path style="&st13;" d="M6644.82,490.26c0,2.51,2.03,4.54,4.53,4.54"/>
<path style="&st13;" d="M6649.35,494.8c2.5,0,4.53-2.03,4.53-4.54"/>
<path style="&st13;" d="M6489.82,526.53c0-2.5-2.03-4.53-4.53-4.53"/>
<path style="&st13;" d="M6485.29,522c-2.5,0-4.53,2.03-4.53,4.53"/>
<path style="&st13;" d="M6480.76,526.53c0,2.51,2.03,4.54,4.53,4.54"/>
<path style="&st13;" d="M6485.29,531.07c2.5,0,4.53-2.03,4.53-4.54"/>
<path style="&st13;" d="M6549.31,526.53c0-2.5-2.03-4.53-4.53-4.53"/>
<path style="&st13;" d="M6544.78,522c-2.5,0-4.53,2.03-4.53,4.53"/>
<path style="&st13;" d="M6540.25,526.53c0,2.51,2.03,4.54,4.53,4.54"/>
<path style="&st13;" d="M6544.78,531.07c2.5,0,4.53-2.03,4.53-4.54"/>
<path style="&st13;" d="M7022.58,490.26c0-2.5-2.03-4.53-4.53-4.53"/>
<path style="&st13;" d="M7018.05,485.73c-2.51,0-4.54,2.03-4.54,4.53"/>
<path style="&st13;" d="M7013.51,490.26c0,2.51,2.03,4.54,4.54,4.54"/>
<path style="&st13;" d="M7018.05,494.8c2.5,0,4.53-2.03,4.53-4.54"/>
<path style="&st13;" d="M6992.83,490.26c0-2.5-2.02-4.53-4.53-4.53"/>
<path style="&st13;" d="M6988.3,485.73c-2.5,0-4.53,2.03-4.53,4.53"/>
<path style="&st13;" d="M6983.77,490.26c0,2.51,2.03,4.54,4.53,4.54"/>
<path style="&st13;" d="M6988.3,494.8c2.51,0,4.53-2.03,4.53-4.54"/>
<path style="&st13;" d="M7367.51,490.26c0-2.5-2.03-4.53-4.54-4.53"/>
<path style="&st13;" d="M7362.97,485.73c-2.5,0-4.53,2.03-4.53,4.53"/>
<path style="&st13;" d="M7358.44,490.26c0,2.51,2.03,4.54,4.53,4.54"/>
<path style="&st13;" d="M7362.97,494.8c2.51,0,4.54-2.03,4.54-4.54"/>
<path style="&st13;" d="M7397.25,490.26c0-2.5-2.03-4.53-4.53-4.53"/>
<path style="&st13;" d="M7392.72,485.73c-2.51,0-4.53,2.03-4.53,4.53"/>
<path style="&st13;" d="M7388.19,490.26c0,2.51,2.02,4.54,4.53,4.54"/>
<path style="&st13;" d="M7392.72,494.8c2.5,0,4.53-2.03,4.53-4.54"/>
<path style="&st13;" d="M6549.31,490.26c0-2.5-2.03-4.53-4.53-4.53"/>
<path style="&st13;" d="M6544.78,485.73c-2.5,0-4.53,2.03-4.53,4.53"/>
<path style="&st13;" d="M6540.25,490.26c0,2.51,2.03,4.54,4.53,4.54"/>
<path style="&st13;" d="M6544.78,494.8c2.5,0,4.53-2.03,4.53-4.54"/>
<path style="&st13;" d="M7168.33,490.26c0-2.5-2.03-4.53-4.53-4.53"/>
<path style="&st13;" d="M7163.8,485.73c-2.5,0-4.53,2.03-4.53,4.53"/>
<path style="&st13;" d="M7159.27,490.26c0,2.51,2.03,4.54,4.53,4.54"/>
<path style="&st13;" d="M7163.8,494.8c2.5,0,4.53-2.03,4.53-4.54"/>
<path style="&st13;" d="M7193.83,490.26c0-2.5-2.03-4.53-4.53-4.53"/>
<path style="&st13;" d="M7189.3,485.73c-2.51,0-4.54,2.03-4.54,4.53"/>
<path style="&st13;" d="M7184.76,490.26c0,2.51,2.03,4.54,4.54,4.54"/>
<path style="&st13;" d="M7189.3,494.8c2.5,0,4.53-2.03,4.53-4.54"/>
<path style="&st13;" d="M6878.09,490.26c0-2.5-2.03-4.53-4.53-4.53"/>
<path style="&st13;" d="M6873.56,485.73c-2.5,0-4.53,2.03-4.53,4.53"/>
<path style="&st13;" d="M6869.03,490.26c0,2.51,2.03,4.54,4.53,4.54"/>
<path style="&st13;" d="M6873.56,494.8c2.5,0,4.53-2.03,4.53-4.54"/>
<path style="&st13;" d="M6844.1,490.26c0-2.5-2.03-4.53-4.54-4.53"/>
<path style="&st13;" d="M6839.56,485.73c-2.5,0-4.53,2.03-4.53,4.53"/>
<path style="&st13;" d="M6835.03,490.26c0,2.51,2.03,4.54,4.53,4.54"/>
<path style="&st13;" d="M6839.56,494.8c2.51,0,4.54-2.03,4.54-4.54"/>
<path style="&st13;" d="M6489.82,490.26c0-2.5-2.03-4.53-4.53-4.53"/>
<path style="&st13;" d="M6485.29,485.73c-2.5,0-4.53,2.03-4.53,4.53"/>
<path style="&st13;" d="M6480.76,490.26c0,2.51,2.03,4.54,4.53,4.54"/>
<path style="&st13;" d="M6485.29,494.8c2.5,0,4.53-2.03,4.53-4.54"/>
<path style="&st13;" d="M7656.5,490.26c0-2.5-2.03-4.53-4.54-4.53"/>
<path style="&st13;" d="M7651.96,485.73c-2.5,0-4.53,2.03-4.53,4.53"/>
<path style="&st13;" d="M7647.43,490.26c0,2.51,2.03,4.54,4.53,4.54"/>
<path style="&st13;" d="M7651.96,494.8c2.51,0,4.54-2.03,4.54-4.54"/>
<path style="&st13;" d="M6375.08,517.46c0-2.5-2.03-4.53-4.53-4.53"/>
<path style="&st13;" d="M6370.55,512.93c-2.51,0-4.54,2.03-4.54,4.53"/>
<path style="&st13;" d="M6366.01,517.46c0,2.51,2.03,4.54,4.54,4.54"/>
<path style="&st13;" d="M6370.55,522c2.5,0,4.53-2.03,4.53-4.54"/>
<path style="&st13;" d="M6409.07,517.46c0-2.5-2.03-4.53-4.53-4.53"/>
<path style="&st13;" d="M6404.54,512.93c-2.5,0-4.53,2.03-4.53,4.53"/>
<path style="&st13;" d="M6400.01,517.46c0,2.51,2.03,4.54,4.53,4.54"/>
<path style="&st13;" d="M6404.54,522c2.5,0,4.53-2.03,4.53-4.54"/>
<path style="&st13;" d="M6409.07,499.33c0-2.5-2.03-4.53-4.53-4.53"/>
<path style="&st13;" d="M6404.54,494.8c-2.5,0-4.53,2.03-4.53,4.53"/>
<path style="&st13;" d="M6400.01,499.33c0,2.5,2.03,4.53,4.53,4.53"/>
<path style="&st13;" d="M6404.54,503.86c2.5,0,4.53-2.03,4.53-4.53"/>
<path style="&st13;" d="M6375.08,499.33c0-2.5-2.03-4.53-4.53-4.53"/>
<path style="&st13;" d="M6370.55,494.8c-2.51,0-4.54,2.03-4.54,4.53"/>
<path style="&st13;" d="M6366.01,499.33c0,2.5,2.03,4.53,4.54,4.53"/>
<path style="&st13;" d="M6370.55,503.86c2.5,0,4.53-2.03,4.53-4.53"/>
<path style="&st13;" d="M6409.07,490.26c0-2.5-2.03-4.53-4.53-4.53"/>
<path style="&st13;" d="M6404.54,485.73c-2.5,0-4.53,2.03-4.53,4.53"/>
<path style="&st13;" d="M6400.01,490.26c0,2.51,2.03,4.54,4.53,4.54"/>
<path style="&st13;" d="M6404.54,494.8c2.5,0,4.53-2.03,4.53-4.54"/>
<path style="&st13;" d="M6375.08,490.26c0-2.5-2.03-4.53-4.53-4.53"/>
<path style="&st13;" d="M6370.55,485.73c-2.51,0-4.54,2.03-4.54,4.53"/>
<path style="&st13;" d="M6366.01,490.26c0,2.51,2.03,4.54,4.54,4.54"/>
<path style="&st13;" d="M6370.55,494.8c2.5,0,4.53-2.03,4.53-4.54"/>
<path style="&st13;" d="M6409.07,526.53c0-2.5-2.03-4.53-4.53-4.53"/>
<path style="&st13;" d="M6404.54,522c-2.5,0-4.53,2.03-4.53,4.53"/>
<path style="&st13;" d="M6400.01,526.53c0,2.5,2.03,4.53,4.53,4.53"/>
<path style="&st13;" d="M6404.54,531.06c2.5,0,4.53-2.03,4.53-4.53"/>
<path style="&st13;" d="M6375.08,526.53c0-2.5-2.03-4.53-4.53-4.53"/>
<path style="&st13;" d="M6370.55,522c-2.51,0-4.54,2.03-4.54,4.53"/>
<path style="&st13;" d="M6366.01,526.53c0,2.5,2.03,4.53,4.54,4.53"/>
<path style="&st13;" d="M6370.55,531.06c2.5,0,4.53-2.03,4.53-4.53"/>
<path style="&st13;" d="M6549.31,508.4c0-2.5-2.03-4.53-4.53-4.53"/>
<path style="&st13;" d="M6544.78,503.87c-2.5,0-4.53,2.03-4.53,4.53"/>
<path style="&st13;" d="M6540.25,508.4c0,2.5,2.03,4.53,4.53,4.53"/>
<path style="&st13;" d="M6544.78,512.93c2.5,0,4.53-2.03,4.53-4.53"/>
<path style="&st13;" d="M6489.82,508.4c0-2.5-2.03-4.53-4.53-4.53"/>
<path style="&st13;" d="M6485.29,503.87c-2.5,0-4.53,2.03-4.53,4.53"/>
<path style="&st13;" d="M6480.76,508.4c0,2.5,2.03,4.53,4.53,4.53"/>
<path style="&st13;" d="M6485.29,512.93c2.5,0,4.53-2.03,4.53-4.53"/>
<path style="&st13;" d="M6549.31,499.33c0-2.5-2.03-4.53-4.53-4.53"/>
<path style="&st13;" d="M6544.78,494.8c-2.5,0-4.53,2.03-4.53,4.53"/>
<path style="&st13;" d="M6540.25,499.33c0,2.51,2.03,4.54,4.53,4.54"/>
<path style="&st13;" d="M6544.78,503.87c2.5,0,4.53-2.03,4.53-4.54"/>
<path style="&st13;" d="M6489.82,499.33c0-2.5-2.03-4.53-4.53-4.53"/>
<path style="&st13;" d="M6485.29,494.8c-2.5,0-4.53,2.03-4.53,4.53"/>
<path style="&st13;" d="M6480.76,499.33c0,2.51,2.03,4.54,4.53,4.54"/>
<path style="&st13;" d="M6485.29,503.87c2.5,0,4.53-2.03,4.53-4.54"/>
<path style="&st13;" d="M6409.07,412.07c0-2.51-2.03-4.54-4.53-4.54"/>
<path style="&st13;" d="M6404.54,407.53c-2.5,0-4.53,2.03-4.53,4.54"/>
<path style="&st13;" d="M6400.01,412.07c0,2.5,2.03,4.53,4.53,4.53"/>
<path style="&st13;" d="M6404.54,416.6c2.5,0,4.53-2.03,4.53-4.53"/>
<path style="&st13;" d="M6375.08,412.07c0-2.51-2.03-4.54-4.53-4.54"/>
<path style="&st13;" d="M6370.55,407.53c-2.51,0-4.54,2.03-4.54,4.54"/>
<path style="&st13;" d="M6366.01,412.07c0,2.5,2.03,4.53,4.54,4.53"/>
<path style="&st13;" d="M6370.55,416.6c2.5,0,4.53-2.03,4.53-4.53"/>
<path style="&st13;" d="M6409.07,393.93c0-2.51-2.03-4.54-4.53-4.54"/>
<path style="&st13;" d="M6404.54,389.39c-2.5,0-4.53,2.03-4.53,4.54"/>
<path style="&st13;" d="M6400.01,393.93c0,2.5,2.03,4.53,4.53,4.53"/>
<path style="&st13;" d="M6404.54,398.46c2.5,0,4.53-2.03,4.53-4.53"/>
<path style="&st13;" d="M6375.08,393.93c0-2.51-2.03-4.54-4.53-4.54"/>
<path style="&st13;" d="M6370.55,389.39c-2.51,0-4.54,2.03-4.54,4.54"/>
<path style="&st13;" d="M6366.01,393.93c0,2.5,2.03,4.53,4.54,4.53"/>
<path style="&st13;" d="M6370.55,398.46c2.5,0,4.53-2.03,4.53-4.53"/>
<path style="&st13;" d="M6409.07,403c0-2.51-2.03-4.54-4.53-4.54"/>
<path style="&st13;" d="M6404.54,398.46c-2.5,0-4.53,2.03-4.53,4.54"/>
<path style="&st13;" d="M6400.01,403c0,2.5,2.03,4.53,4.53,4.53"/>
<path style="&st13;" d="M6404.54,407.53c2.5,0,4.53-2.03,4.53-4.53"/>
<path style="&st13;" d="M6375.08,403c0-2.51-2.03-4.54-4.53-4.54"/>
<path style="&st13;" d="M6370.55,398.46c-2.51,0-4.54,2.03-4.54,4.54"/>
<path style="&st13;" d="M6366.01,403c0,2.5,2.03,4.53,4.54,4.53"/>
<path style="&st13;" d="M6370.55,407.53c2.5,0,4.53-2.03,4.53-4.53"/>
<path style="&st13;" d="M6409.07,430.21c0-2.51-2.03-4.54-4.53-4.54"/>
<path style="&st13;" d="M6404.54,425.67c-2.5,0-4.53,2.03-4.53,4.54"/>
<path style="&st13;" d="M6400.01,430.21c0,2.5,2.03,4.53,4.53,4.53"/>
<path style="&st13;" d="M6404.54,434.74c2.5,0,4.53-2.03,4.53-4.53"/>
<path style="&st13;" d="M6375.08,430.21c0-2.51-2.03-4.54-4.53-4.54"/>
<path style="&st13;" d="M6370.55,425.67c-2.51,0-4.54,2.03-4.54,4.54"/>
<path style="&st13;" d="M6366.01,430.21c0,2.5,2.03,4.53,4.54,4.53"/>
<path style="&st13;" d="M6370.55,434.74c2.5,0,4.53-2.03,4.53-4.53"/>
<path style="&st13;" d="M6523.82,421.14c0-2.5-2.03-4.53-4.53-4.53"/>
<path style="&st13;" d="M6519.29,416.61c-2.51,0-4.54,2.03-4.54,4.53"/>
<path style="&st13;" d="M6514.75,421.14c0,2.51,2.03,4.53,4.54,4.53"/>
<path style="&st13;" d="M6519.29,425.67c2.5,0,4.53-2.02,4.53-4.53"/>
<path style="&st13;" d="M6489.82,421.14c0-2.5-2.03-4.53-4.53-4.53"/>
<path style="&st13;" d="M6485.29,416.61c-2.5,0-4.53,2.03-4.53,4.53"/>
<path style="&st13;" d="M6480.76,421.14c0,2.51,2.03,4.53,4.53,4.53"/>
<path style="&st13;" d="M6485.29,425.67c2.5,0,4.53-2.02,4.53-4.53"/>
<path style="&st13;" d="M6375.08,508.39c0-2.5-2.03-4.53-4.53-4.53"/>
<path style="&st13;" d="M6370.55,503.86c-2.51,0-4.54,2.03-4.54,4.53"/>
<path style="&st13;" d="M6366.01,508.39c0,2.51,2.03,4.54,4.54,4.54"/>
<path style="&st13;" d="M6370.55,512.93c2.5,0,4.53-2.03,4.53-4.54"/>
<path style="&st13;" d="M6409.07,508.39c0-2.5-2.03-4.53-4.53-4.53"/>
<path style="&st13;" d="M6404.54,503.86c-2.5,0-4.53,2.03-4.53,4.53"/>
<path style="&st13;" d="M6400.01,508.39c0,2.51,2.03,4.54,4.53,4.54"/>
<path style="&st13;" d="M6404.54,512.93c2.5,0,4.53-2.03,4.53-4.54"/>
<path style="&st13;" d="M6375.08,535.59c0-2.5-2.03-4.53-4.53-4.53"/>
<path style="&st13;" d="M6370.55,531.06c-2.51,0-4.54,2.03-4.54,4.53"/>
<path style="&st13;" d="M6366.01,535.59c0,2.51,2.03,4.54,4.54,4.54"/>
<path style="&st13;" d="M6370.55,540.13c2.5,0,4.53-2.03,4.53-4.54"/>
<path style="&st13;" d="M6409.07,535.59c0-2.5-2.03-4.53-4.53-4.53"/>
<path style="&st13;" d="M6404.54,531.06c-2.5,0-4.53,2.03-4.53,4.53"/>
<path style="&st13;" d="M6400.01,535.59c0,2.51,2.03,4.54,4.53,4.54"/>
<path style="&st13;" d="M6404.54,540.13c2.5,0,4.53-2.03,4.53-4.54"/>
<path style="&st13;" d="M7592.75,490.26c0-2.5-2.03-4.53-4.54-4.53"/>
<path style="&st13;" d="M7588.21,485.73c-2.5,0-4.53,2.03-4.53,4.53"/>
<path style="&st13;" d="M7583.68,490.26c0,2.51,2.03,4.54,4.53,4.54"/>
<path style="&st13;" d="M7588.21,494.8c2.51,0,4.54-2.03,4.54-4.54"/>
<path style="&st13;" d="M7550.25,490.26c0-2.5-2.03-4.53-4.54-4.53"/>
<path style="&st13;" d="M7545.71,485.73c-2.5,0-4.53,2.03-4.53,4.53"/>
<path style="&st13;" d="M7541.18,490.26c0,2.51,2.03,4.54,4.53,4.54"/>
<path style="&st13;" d="M7545.71,494.8c2.51,0,4.54-2.03,4.54-4.54"/>
<path style="&st13;" d="M7507.75,490.26c0-2.5-2.03-4.53-4.54-4.53"/>
<path style="&st13;" d="M7503.21,485.73c-2.5,0-4.53,2.03-4.53,4.53"/>
<path style="&st13;" d="M7498.68,490.26c0,2.51,2.03,4.54,4.53,4.54"/>
<path style="&st13;" d="M7503.21,494.8c2.51,0,4.54-2.03,4.54-4.54"/>
<text transform="matrix(1 0 0 1 6541.5308 528.4976)" style="&st12;"><tspan x="0" y="0" style="&st35; &st21;">W</tspan></text>
<text transform="matrix(1 0 0 1 6531.5015 528.4976)" style="&st12;"><tspan x="0" y="0" style="&st35; &st21;">27</tspan></text>
<text transform="matrix(1 0 0 1 6981.4819 482.0269)" style="&st12;"><tspan x="0" y="0" style="&st35; &st21;">TDC-</tspan></text>
<text transform="matrix(1 0 0 1 6986.6343 492.2261)" style="&st12;"><tspan x="0" y="0" style="&st35; &st21;">e</tspan></text>
<text transform="matrix(1 0 0 1 6974.271 492.2261)" style="&st12;"><tspan x="0" y="0" style="&st35; &st21;">34</tspan></text>
<text transform="matrix(1 0 0 1 7016.3745 492.2261)" style="&st12;"><tspan x="0" y="0" style="&st35; &st21;">e</tspan></text>
<text transform="matrix(1 0 0 1 7004.021 492.2261)" style="&st12;"><tspan x="0" y="0" style="&st35; &st21;">26</tspan></text>
<text transform="matrix(1 0 0 1 7011.2319 482.0269)" style="&st12;"><tspan x="0" y="0" style="&st35; &st21;">TDC+</tspan></text>
<text transform="matrix(1 0 0 1 7385.9028 482.0269)" style="&st12;"><tspan x="0" y="0" style="&st35; &st21;">NE-</tspan></text>
<text transform="matrix(1 0 0 1 7381.8735 492.2261)" style="&st12;"><tspan x="0" y="0" style="&st35; &st21;">8</tspan></text>
<text transform="matrix(1 0 0 1 7389.9634 492.2261)" style="&st12;"><tspan x="0" y="0" style="&st35; &st21;">O</tspan></text>
<text transform="matrix(1 0 0 1 7352.1333 492.2261)" style="&st12;"><tspan x="0" y="0" style="&st35; &st21;">7</tspan></text>
<text transform="matrix(1 0 0 1 7360.2231 492.2261)" style="&st12;"><tspan x="0" y="0" style="&st35; &st21;">O</tspan></text>
<text transform="matrix(1 0 0 1 7356.1626 482.0269)" style="&st12;"><tspan x="0" y="0" style="&st35; &st21;">NE+</tspan></text>
<text transform="matrix(1 0 0 1 6534.5015 482.0269)" style="&st12;"><tspan x="0" y="0" style="&st35; &st21;">ETHW</tspan></text>
<text transform="matrix(1 0 0 1 6533.9312 492.2261)" style="&st12;"><tspan x="0" y="0" style="&st35; &st21;">4</tspan></text>
<text transform="matrix(1 0 0 1 6542.7554 492.2261)" style="&st12;"><tspan x="0" y="0" style="&st35; &st21;">C</tspan></text>
<text transform="matrix(1 0 0 1 7182.4839 482.0269)" style="&st12;"><tspan x="0" y="0" style="&st35; &st21;">NE-</tspan></text>
<text transform="matrix(1 0 0 1 7175.3022 492.2261)" style="&st12;"><tspan x="0" y="0" style="&st35; &st21;">34</tspan></text>
<text transform="matrix(1 0 0 1 7187.4194 492.2261)" style="&st12;"><tspan x="0" y="0" style="&st35; &st21;">a</tspan></text>
<text transform="matrix(1 0 0 1 7149.7729 492.2261)" style="&st12;"><tspan x="0" y="0" style="&st35; &st21;">27</tspan></text>
<text transform="matrix(1 0 0 1 7161.9292 492.2261)" style="&st12;"><tspan x="0" y="0" style="&st35; &st21;">a</tspan></text>
<text transform="matrix(1 0 0 1 7156.9839 482.0269)" style="&st12;"><tspan x="0" y="0" style="&st35; &st21;">NE+</tspan></text>
<text transform="matrix(1 0 0 1 6832.7515 482.0269)" style="&st12;"><tspan x="0" y="0" style="&st35; &st21;">NE+</tspan></text>
<text transform="matrix(1 0 0 1 6837.2319 492.2261)" style="&st12;"><tspan x="0" y="0" style="&st35; &st21;">A</tspan></text>
<text transform="matrix(1 0 0 1 6828.7222 492.2261)" style="&st12;"><tspan x="0" y="0" style="&st35; &st21;">6</tspan></text>
<text transform="matrix(1 0 0 1 6871.2319 492.2261)" style="&st12;"><tspan x="0" y="0" style="&st35; &st21;">A</tspan></text>
<text transform="matrix(1 0 0 1 6862.7124 492.2261)" style="&st12;"><tspan x="0" y="0" style="&st35; &st21;">5</tspan></text>
<text transform="matrix(1 0 0 1 6866.7417 482.0269)" style="&st12;"><tspan x="0" y="0" style="&st35; &st21;">NE-</tspan></text>
<text transform="matrix(1 0 0 1 6477.3413 482.0269)" style="&st12;"><tspan x="0" y="0" style="&st35; &st21;">THW</tspan></text>
<text transform="matrix(1 0 0 1 6474.4429 492.2261)" style="&st12;"><tspan x="0" y="0" style="&st35; &st21;">5</tspan></text>
<text transform="matrix(1 0 0 1 6483.1245 492.2261)" style="&st12;"><tspan x="0" y="0" style="&st35; &st21;">C</tspan></text>
<text transform="matrix(1 0 0 1 6542.8315 510.3667)" style="&st12;"><tspan x="0" y="0" style="&st35; &st21;">b</tspan></text>
<text transform="matrix(1 0 0 1 6530.7319 510.3667)" style="&st12;"><tspan x="0" y="0" style="&st35; &st21;">30</tspan></text>
<text transform="matrix(1 0 0 1 6483.3433 510.3667)" style="&st12;"><tspan x="0" y="0" style="&st35; &st21;">b</tspan></text>
<text transform="matrix(1 0 0 1 6471.2417 510.3667)" style="&st12;"><tspan x="0" y="0" style="&st35; &st21;">22</tspan></text>
<text transform="matrix(1 0 0 1 6533.9312 501.2964)" style="&st12;"><tspan x="0" y="0" style="&st35; &st21;">8</tspan></text>
<text transform="matrix(1 0 0 1 6542.9214 501.2964)" style="&st12;"><tspan x="0" y="0" style="&st35; &st21;">B</tspan></text>
<text transform="matrix(1 0 0 1 6471.2612 501.2964)" style="&st12;"><tspan x="0" y="0" style="&st35; &st21;">17</tspan></text>
<text transform="matrix(1 0 0 1 6483.1245 501.2964)" style="&st12;"><tspan x="0" y="0" style="&st35; &st21;">C</tspan></text>
<text transform="matrix(1 0 0 1 6355.7124 423.1069)" style="&st12;"><tspan x="0" y="0" style="&st35; &st21;">36</tspan></text>
<text transform="matrix(1 0 0 1 6389.7124 423.1069)" style="&st12;"><tspan x="0" y="0" style="&st35; &st21;">35</tspan></text>
<text transform="matrix(1 0 0 1 6368.3745 423.1069)" style="&st12;"><tspan x="0" y="0" style="&st35; &st21;">R</tspan></text>
<text transform="matrix(1 0 0 1 6402.3647 423.1069)" style="&st12;"><tspan x="0" y="0" style="&st35; &st21;">R</tspan></text>
<text transform="matrix(1 0 0 1 6355.7124 414.0366)" style="&st12;"><tspan x="0" y="0" style="&st35; &st21;">14</tspan></text>
<text transform="matrix(1 0 0 1 6389.7124 414.0366)" style="&st12;"><tspan x="0" y="0" style="&st35; &st21;">13</tspan></text>
<text transform="matrix(1 0 0 1 6368.8726 414.0366)" style="&st12;"><tspan x="0" y="0" style="&st35; &st21;">g</tspan></text>
<text transform="matrix(1 0 0 1 6402.8628 414.0366)" style="&st12;"><tspan x="0" y="0" style="&st35; &st21;">g</tspan></text>
<text transform="matrix(1 0 0 1 6355.7124 395.896)" style="&st12;"><tspan x="0" y="0" style="&st35; &st21;">25</tspan></text>
<text transform="matrix(1 0 0 1 6389.7124 395.896)" style="&st12;"><tspan x="0" y="0" style="&st35; &st21;">31</tspan></text>
<text transform="matrix(1 0 0 1 6368.7085 395.896)" style="&st12;"><tspan x="0" y="0" style="&st35; &st21;">F</tspan></text>
<text transform="matrix(1 0 0 1 6402.6987 395.896)" style="&st12;"><tspan x="0" y="0" style="&st35; &st21;">F</tspan></text>
<text transform="matrix(1 0 0 1 6355.7124 404.9663)" style="&st12;"><tspan x="0" y="0" style="&st35; &st21;">31</tspan></text>
<text transform="matrix(1 0 0 1 6389.7124 404.9663)" style="&st12;"><tspan x="0" y="0" style="&st35; &st21;">32</tspan></text>
<text transform="matrix(1 0 0 1 6368.7085 404.9663)" style="&st12;"><tspan x="0" y="0" style="&st35; &st21;">F</tspan></text>
<text transform="matrix(1 0 0 1 6402.6987 404.9663)" style="&st12;"><tspan x="0" y="0" style="&st35; &st21;">F</tspan></text>
<text transform="matrix(1 0 0 1 6355.7124 432.1772)" style="&st12;"><tspan x="0" y="0" style="&st35; &st21;">27</tspan></text>
<text transform="matrix(1 0 0 1 6389.7124 432.1772)" style="&st12;"><tspan x="0" y="0" style="&st35; &st21;">17</tspan></text>
<text transform="matrix(1 0 0 1 6368.0415 432.1772)" style="&st12;"><tspan x="0" y="0" style="&st35; &st21;">m</tspan></text>
<text transform="matrix(1 0 0 1 6402.0317 432.1772)" style="&st12;"><tspan x="0" y="0" style="&st35; &st21;">m</tspan></text>
<text transform="matrix(1 0 0 1 6361.2925 442.3667)" style="&st12;"><tspan x="0" y="0" style="&st35; &st21;">CANL</tspan></text>
<text transform="matrix(1 0 0 1 6394.7925 442.3667)" style="&st12;"><tspan x="0" y="0" style="&st35; &st21;">CANH</tspan></text>
<text transform="matrix(1 0 0 1 6505.2319 432.1772)" style="&st12;"><tspan x="0" y="0" style="&st35; &st21;">21</tspan></text>
<text transform="matrix(1 0 0 1 6482.5425 432.1772)" style="&st12;"><tspan x="0" y="0" style="&st35; &st21;">Q</tspan></text>
<text transform="matrix(1 0 0 1 6470.4624 432.1772)" style="&st12;"><tspan x="0" y="0" style="&st35; &st21;">20</tspan></text>
<text transform="matrix(1 0 0 1 6475.6831 442.3667)" style="&st12;"><tspan x="0" y="0" style="&st35; &st21;">CANP</tspan></text>
<text transform="matrix(1 0 0 1 6509.5425 442.3667)" style="&st12;"><tspan x="0" y="0" style="&st35; &st21;">CANN</tspan></text>
<text transform="matrix(1 0 0 1 6516.5327 432.1772)" style="&st12;"><tspan x="0" y="0" style="&st35; &st21;">Q</tspan></text>
<text transform="matrix(1 0 0 1 6504.4526 423.1069)" style="&st12;"><tspan x="0" y="0" style="&st35; &st21;">33</tspan></text>
<text transform="matrix(1 0 0 1 6517.1714 423.1069)" style="&st12;"><tspan x="0" y="0" style="&st35; &st21;">F</tspan></text>
<text transform="matrix(1 0 0 1 6470.4624 423.1069)" style="&st12;"><tspan x="0" y="0" style="&st35; &st21;">34</tspan></text>
<text transform="matrix(1 0 0 1 6483.1714 423.1069)" style="&st12;"><tspan x="0" y="0" style="&st35; &st21;">F</tspan></text>
<text transform="matrix(1 0 0 1 6683.0093 482.0269)" style="&st12;"><tspan x="0" y="0" style="&st35; &st21;">ETHW</tspan></text>
<text transform="matrix(1 0 0 1 6642.519 482.0269)" style="&st12;"><tspan x="0" y="0" style="&st35; &st21;">THW</tspan></text>
<text transform="matrix(1 0 0 1 6690.0854 492.2261)" style="&st12;"><tspan x="0" y="0" style="&st35; &st21;">e</tspan></text>
<text transform="matrix(1 0 0 1 6677.8501 492.2261)" style="&st12;"><tspan x="0" y="0" style="&st35; &st21;">29</tspan></text>
<text transform="matrix(1 0 0 1 6647.5952 492.2261)" style="&st12;"><tspan x="0" y="0" style="&st35; &st21;">e</tspan></text>
<text transform="matrix(1 0 0 1 6635.3501 492.2261)" style="&st12;"><tspan x="0" y="0" style="&st35; &st21;">21</tspan></text>
<text transform="matrix(1 0 0 1 6482.0405 528.4976)" style="&st12;"><tspan x="0" y="0" style="&st35; &st21;">W</tspan></text>
<text transform="matrix(1 0 0 1 6471.2612 528.4976)" style="&st12;"><tspan x="0" y="0" style="&st35; &st21;">34</tspan></text>
<text transform="matrix(1 0 0 1 6403.6616 528.4976)" style="&st12;"><tspan x="0" y="0" style="&st35; &st21;">i</tspan></text>
<text transform="matrix(1 0 0 1 6368.6597 528.4976)" style="&st12;"><tspan x="0" y="0" style="&st35; &st21;">h</tspan></text>
<text transform="matrix(1 0 0 1 6356.4917 528.4976)" style="&st12;"><tspan x="0" y="0" style="&st35; &st21;">34</tspan></text>
<text transform="matrix(1 0 0 1 6393.6929 528.4976)" style="&st12;"><tspan x="0" y="0" style="&st35; &st21;">9</tspan></text>
<text transform="matrix(1 0 0 1 7642.5698 482.0269)" style="&st12;"><tspan x="0" y="0" style="&st35; &st21;">TACH</tspan></text>
<text transform="matrix(1 0 0 1 7649.6304 492.2261)" style="&st12;"><tspan x="0" y="0" style="&st35; &st21;">V</tspan></text>
<text transform="matrix(1 0 0 1 6445.0903 467.8794)" style="&st12;"><tspan x="0" y="0" style="&st35; &st21;">ECM</tspan></text>
<text transform="matrix(1 0 0 1 6445.0903 454.4048)" style="&st12;"><tspan x="0" y="0" style="&st35; &st21;">C34(A),C35(B),C36(C),G56(F),C90(M),C92(O),G57(Q),G58(R),G62(V),C149(W),C152(Z),</tspan><tspan x="0" y="7" style="&st35; &st21;">C153(a),C154(b),C162(e),G180(f),G181(g),G182(h),G183(i),G184(m),G185(n)</tspan></text>
<text transform="matrix(1 0 0 1 6898.4233 467.8794)" style="&st12;"><tspan x="0" y="0" style="&st35; &st21;">ECM</tspan></text>
<text transform="matrix(1 0 0 1 6898.4233 454.4048)" style="&st12;"><tspan x="0" y="0" style="&st35; &st21;">C34(A),C35(B),C36(C),G56(F),C90(M),C92(O),G57(Q),G58(R),G62(V),C149(W),C152(Z),</tspan><tspan x="0" y="7" style="&st35; &st21;">C153(a),C154(b),C162(e),G180(f),G181(g),G182(h),G183(i),G184(m),G185(n)</tspan></text>
<text transform="matrix(1 0 0 1 7365.7563 467.8794)" style="&st12;"><tspan x="0" y="0" style="&st35; &st21;">ECM</tspan></text>
<text transform="matrix(1 0 0 1 7365.7563 454.4048)" style="&st12;"><tspan x="0" y="0" style="&st35; &st21;">C34(A),C35(B),C36(C),G56(F),C90(M),C92(O),G57(Q),G58(R),G62(V),C149(W),C152(Z),</tspan><tspan x="0" y="7" style="&st35; &st21;">C153(a),C154(b),C162(e),G180(f),G181(g),G182(h),G183(i),G184(m),G185(n)</tspan></text>
<text transform="matrix(1 0 0 1 6397.6226 482.0269)" style="&st12;"><tspan x="0" y="0" style="&st35; &st21;">ACT</tspan></text>
<text transform="matrix(1 0 0 1 6364.1519 482.0269)" style="&st12;"><tspan x="0" y="0" style="&st35; &st21;">AC1</tspan></text>
<text transform="matrix(1 0 0 1 6368.021 519.4272)" style="&st12;"><tspan x="0" y="0" style="&st35; &st21;">R</tspan></text>
<text transform="matrix(1 0 0 1 6356.4917 519.4272)" style="&st12;"><tspan x="0" y="0" style="&st35; &st21;">10</tspan></text>
<text transform="matrix(1 0 0 1 6402.021 519.4272)" style="&st12;"><tspan x="0" y="0" style="&st35; &st21;">R</tspan></text>
<text transform="matrix(1 0 0 1 6390.4819 519.4272)" style="&st12;"><tspan x="0" y="0" style="&st35; &st21;">13</tspan></text>
<text transform="matrix(1 0 0 1 6369.353 510.3569)" style="&st12;"><tspan x="0" y="0" style="&st35; &st21;">f</tspan></text>
<text transform="matrix(1 0 0 1 6356.4917 510.3569)" style="&st12;"><tspan x="0" y="0" style="&st35; &st21;">30</tspan></text>
<text transform="matrix(1 0 0 1 6403.353 510.3569)" style="&st12;"><tspan x="0" y="0" style="&st35; &st21;">f</tspan></text>
<text transform="matrix(1 0 0 1 6390.4819 510.3569)" style="&st12;"><tspan x="0" y="0" style="&st35; &st21;">24</tspan></text>
<text transform="matrix(1 0 0 1 6402.8452 501.2964)" style="&st12;"><tspan x="0" y="0" style="&st35; &st21;">F</tspan></text>
<text transform="matrix(1 0 0 1 6390.4819 501.2964)" style="&st12;"><tspan x="0" y="0" style="&st35; &st21;">27</tspan></text>
<text transform="matrix(1 0 0 1 6368.855 501.2964)" style="&st12;"><tspan x="0" y="0" style="&st35; &st21;">F</tspan></text>
<text transform="matrix(1 0 0 1 6356.4917 501.2964)" style="&st12;"><tspan x="0" y="0" style="&st35; &st21;">25</tspan></text>
<text transform="matrix(1 0 0 1 6390.4819 492.2261)" style="&st12;"><tspan x="0" y="0" style="&st35; &st21;">27</tspan></text>
<text transform="matrix(1 0 0 1 6402.7065 492.2261)" style="&st12;"><tspan x="0" y="0" style="&st35; &st21;">F</tspan></text>
<text transform="matrix(1 0 0 1 6356.4917 492.2261)" style="&st12;"><tspan x="0" y="0" style="&st35; &st21;">33</tspan></text>
<text transform="matrix(1 0 0 1 6368.7163 492.2261)" style="&st12;"><tspan x="0" y="0" style="&st35; &st21;">F</tspan></text>
<text transform="matrix(1 0 0 1 6368.519 537.5562)" style="&st12;"><tspan x="0" y="0" style="&st35; &st21;">n</tspan></text>
<text transform="matrix(1 0 0 1 6356.4917 537.5562)" style="&st12;"><tspan x="0" y="0" style="&st35; &st21;">15</tspan></text>
<text transform="matrix(1 0 0 1 6402.519 537.5562)" style="&st12;"><tspan x="0" y="0" style="&st35; &st21;">n</tspan></text>
<text transform="matrix(1 0 0 1 6390.4819 537.5562)" style="&st12;"><tspan x="0" y="0" style="&st35; &st21;">14</tspan></text>
<text transform="matrix(1 0 0 1 7641.0894 492.2261)" style="&st12;"><tspan x="0" y="0" style="&st35; &st21;">7</tspan></text>
<text transform="matrix(1 0 0 1 7583.0444 482.0269)" style="&st12;"><tspan x="0" y="0" style="&st35; &st21;">NE-</tspan></text>
<text transform="matrix(1 0 0 1 7585.8804 492.2261)" style="&st12;"><tspan x="0" y="0" style="&st35; &st21;">Z</tspan></text>
<text transform="matrix(1 0 0 1 7574.2104 492.2261)" style="&st12;"><tspan x="0" y="0" style="&st35; &st21;">19</tspan></text>
<text transform="matrix(1 0 0 1 7539.7905 482.0269)" style="&st12;"><tspan x="0" y="0" style="&st35; &st21;">NE+</tspan></text>
<text transform="matrix(1 0 0 1 7543.3804 492.2261)" style="&st12;"><tspan x="0" y="0" style="&st35; &st21;">Z</tspan></text>
<text transform="matrix(1 0 0 1 7531.7104 492.2261)" style="&st12;"><tspan x="0" y="0" style="&st35; &st21;">28</tspan></text>
<text transform="matrix(1 0 0 1 7494.8755 482.0269)" style="&st12;"><tspan x="0" y="0" style="&st35; &st21;">VCNE</tspan></text>
<text transform="matrix(1 0 0 1 7500.8804 492.2261)" style="&st12;"><tspan x="0" y="0" style="&st35; &st21;">Z</tspan></text>
<text transform="matrix(1 0 0 1 7489.2104 492.2261)" style="&st12;"><tspan x="0" y="0" style="&st35; &st21;">20</tspan></text>
</g>
<text transform="matrix(0 -1 1 0 6481.6011 588.9429)" style="&st12;"><tspan x="0" y="0" style="&st35; &st21;">R-L</tspan></text>
<text transform="matrix(0 -1 1 0 6040.5073 378.0591)" style="&st12;"><tspan x="0" y="0" style="&st35; &st21;">W</tspan></text>
<text transform="matrix(0 -1 1 0 6051.8374 462.3521)" style="&st12;"><tspan x="0" y="0" style="&st35; &st21;">(*2)</tspan></text>
<text transform="matrix(0 -1 1 0 6074.4976 377.394)" style="&st12;"><tspan x="0" y="0" style="&st35; &st21;">R</tspan></text>
<text transform="matrix(0 -1 1 0 6085.8374 462.3521)" style="&st12;"><tspan x="0" y="0" style="&st35; &st21;">(*2)</tspan></text>
<text transform="matrix(0 -1 1 0 6074.4976 459.6851)" style="&st12;"><tspan x="0" y="0" style="&st35; &st21;">R</tspan></text>
<text transform="matrix(0 -1 1 0 6051.8374 380.062)" style="&st12;"><tspan x="0" y="0" style="&st35; &st21;">(*2)</tspan></text>
<text transform="matrix(0 -1 1 0 6040.5581 250.8525)" style="&st12;"><tspan x="0" y="0" style="&st35; &st21;">W</tspan></text>
<text transform="matrix(0 -1 1 0 6051.8882 252.8555)" style="&st12;"><tspan x="0" y="0" style="&st35; &st21;">(*2)</tspan></text>
<text transform="matrix(0 -1 1 0 6040.5073 460.3501)" style="&st12;"><tspan x="0" y="0" style="&st35; &st21;">W</tspan></text>
<text transform="matrix(0 -1 1 0 6085.8374 380.062)" style="&st12;"><tspan x="0" y="0" style="&st35; &st21;">(*2)</tspan></text>
<text transform="matrix(0 -1 1 0 6074.5483 249.3525)" style="&st12;"><tspan x="0" y="0" style="&st35; &st21;">R</tspan></text>
<text transform="matrix(0 -1 1 0 6085.8882 252.0205)" style="&st12;"><tspan x="0" y="0" style="&st35; &st21;">(*2)</tspan></text>
<text transform="matrix(0 -1 1 0 6481.603 399.5298)" style="&st12;"><tspan x="0" y="0" style="&st35; &st21;">BR</tspan></text>
<text transform="matrix(0 -1 1 0 6492.9331 414.8696)" style="&st12;"><tspan x="0" y="0" style="&st35; &st21;">(*1 M/T,*3 *22)</tspan></text>
<text transform="matrix(1 0 0 1 6260.811 261.8062)" style="&st12;"><tspan x="0" y="0" style="&st35; &st21;">W(*1,*3,*27)</tspan></text>
<text transform="matrix(1 0 0 1 6084.188 182.3965)" style="&st12;"><tspan x="0" y="0" style="&st35; &st21;">(LHD *33)</tspan></text>
<text transform="matrix(1 0 0 1 6261.0171 240.5562)" style="&st12;"><tspan x="0" y="0" style="&st35; &st21;">LG(RHD *1,RHD *3,RHD *27)</tspan></text>
<text transform="matrix(1 0 0 1 6262.2212 224.853)" style="&st12;"><tspan x="0" y="0" style="&st35; &st21;">R(LHD *1,LHD *3,LHD *27)</tspan></text>
<text transform="matrix(0 -1 1 0 6124.0776 462.3521)" style="&st12;"><tspan x="0" y="0" style="&st35; &st21;">(*2)</tspan></text>
<text transform="matrix(0 -1 1 0 6112.7476 461.52)" style="&st12;"><tspan x="0" y="0" style="&st35; &st21;">LG</tspan></text>
<text transform="matrix(0 -1 1 0 6158.0679 462.3521)" style="&st12;"><tspan x="0" y="0" style="&st35; &st21;">(*2)</tspan></text>
<text transform="matrix(0 -1 1 0 6146.7378 460.3501)" style="&st12;"><tspan x="0" y="0" style="&st35; &st21;">W</tspan></text>
<text transform="matrix(1 0 0 1 6262.1479 360.7651)" style="&st12;"><tspan x="0" y="0" style="&st35; &st21;">W(*2)</tspan></text>
<text transform="matrix(1 0 0 1 6261.9526 343.4058)" style="&st12;"><tspan x="0" y="0" style="&st35; &st21;">LG(*2)</tspan></text>
<text transform="matrix(1 0 0 1 6181.4819 360.7651)" style="&st12;"><tspan x="0" y="0" style="&st35; &st21;">W(*2)</tspan></text>
<text transform="matrix(1 0 0 1 6181.2856 343.4058)" style="&st12;"><tspan x="0" y="0" style="&st35; &st21;">LG(*2)</tspan></text>
<text transform="matrix(1 0 0 1 6410.5132 528.4976)" style="&st12;"><tspan x="0" y="0" style="&st35; &st21;">(*4)</tspan></text>
<text transform="matrix(1 0 0 1 6260.1841 310.6714)" style="&st12;"><tspan x="0" y="0" style="&st35; &st21;">BR(*1 M/T,*3 *22)</tspan></text>
<text transform="matrix(0 -1 1 0 6481.5923 338.0186)" style="&st12;"><tspan x="0" y="0" style="&st35; &st21;">BR</tspan></text>
<text transform="matrix(0 -1 1 0 6492.9224 353.3584)" style="&st12;"><tspan x="0" y="0" style="&st35; &st21;">(*1 M/T,*3 *22)</tspan></text>
<text transform="matrix(1 0 0 1 6262.3511 289.4312)" style="&st12;"><tspan x="0" y="0" style="&st35; &st21;">Y(*1 M/T,*3 *22)</tspan></text>
<text transform="matrix(1 0 0 1 6136.144 261.8062)" style="&st12;"><tspan x="0" y="0" style="&st35; &st21;">W(*1,*3,*27)</tspan></text>
<text transform="matrix(1 0 0 1 6136.3491 240.5562)" style="&st12;"><tspan x="0" y="0" style="&st35; &st21;">LG(RHD *1,RHD *3,RHD *27)</tspan></text>
<text transform="matrix(1 0 0 1 6137.5542 224.853)" style="&st12;"><tspan x="0" y="0" style="&st35; &st21;">R(LHD *1,LHD *3,LHD *27)</tspan></text>
<text transform="matrix(1 0 0 1 6135.5171 310.6714)" style="&st12;"><tspan x="0" y="0" style="&st35; &st21;">BR(*1 M/T,*3 *22)</tspan></text>
<text transform="matrix(1 0 0 1 6137.6831 289.4312)" style="&st12;"><tspan x="0" y="0" style="&st35; &st21;">Y(*1 M/T,*3 *22)</tspan></text>
<text transform="matrix(1 0 0 1 6252.4175 613.7573)" style="&st12;"><tspan x="0" y="0" style="&st35; &st21;">R</tspan></text>
<text transform="matrix(1 0 0 1 6084.188 147.8369)" style="&st12;"><tspan x="0" y="0" style="&st35; &st21;">(RHD)</tspan></text>
<text transform="matrix(1 0 0 1 6084.188 138.7666)" style="&st12;"><tspan x="0" y="0" style="&st35; &st21;">(LHD *33)</tspan></text>
<text transform="matrix(1 0 0 1 6174.2886 54.9717)" style="&st12;"><tspan x="0" y="0" style="&st35; &st21;">GR(*2,*13)</tspan></text>
<text transform="matrix(1 0 0 1 6175.9565 37.9717)" style="&st12;"><tspan x="0" y="0" style="&st35; &st21;">W(*2,*13)</tspan></text>
<text transform="matrix(1 0 0 1 6252.1421 54.9717)" style="&st12;"><tspan x="0" y="0" style="&st35; &st21;">GR(*2,*13)</tspan></text>
<text transform="matrix(1 0 0 1 6253.8101 37.9717)" style="&st12;"><tspan x="0" y="0" style="&st35; &st21;">W(*2,*13)</tspan></text>
<text transform="matrix(1 0 0 1 6177.9585 88.9614)" style="&st12;"><tspan x="0" y="0" style="&st35; &st21;">GR(*14)</tspan></text>
<text transform="matrix(1 0 0 1 6179.6265 74.0864)" style="&st12;"><tspan x="0" y="0" style="&st35; &st21;">W(*14)</tspan></text>
<text transform="matrix(1 0 0 1 6255.812 88.9614)" style="&st12;"><tspan x="0" y="0" style="&st35; &st21;">GR(*14)</tspan></text>
<text transform="matrix(1 0 0 1 6257.48 74.0864)" style="&st12;"><tspan x="0" y="0" style="&st35; &st21;">W(*14)</tspan></text>
<text transform="matrix(1 0 0 1 6101.7036 54.9717)" style="&st12;"><tspan x="0" y="0" style="&st35; &st21;">GR(*2,*13)</tspan></text>
<text transform="matrix(1 0 0 1 6048.1226 37.9717)" style="&st12;"><tspan x="0" y="0" style="&st35; &st21;">W(*2,*13)</tspan></text>
<text transform="matrix(1 0 0 1 6105.3726 88.9614)" style="&st12;"><tspan x="0" y="0" style="&st35; &st21;">GR(*14)</tspan></text>
<text transform="matrix(1 0 0 1 6051.7915 74.0864)" style="&st12;"><tspan x="0" y="0" style="&st35; &st21;">W(*14)</tspan></text>
<text transform="matrix(0 -1 1 0 6400.8433 557.3276)" style="&st12;"><tspan x="0" y="0" style="&st35; &st21;">R</tspan></text>
<text transform="matrix(0 -1 1 0 6366.853 559.5874)" style="&st12;"><tspan x="0" y="0" style="&st35; &st21;">LG</tspan></text>
<text transform="matrix(1 0 0 1 6410.5132 519.4272)" style="&st12;"><tspan x="0" y="0" style="&st35; &st21;">(*3)</tspan></text>
<text transform="matrix(1 0 0 1 6410.5132 501.2964)" style="&st12;"><tspan x="0" y="0" style="&st35; &st21;">(*1 M/T)</tspan></text>
<text transform="matrix(1 0 0 1 6410.5132 492.2261)" style="&st12;"><tspan x="0" y="0" style="&st35; &st21;">(*1 A/T)</tspan></text>
<text transform="matrix(1 0 0 1 6410.5132 510.3569)" style="&st12;"><tspan x="0" y="0" style="&st35; &st21;">(*2)</tspan></text>
<text transform="matrix(1 0 0 1 6410.5132 537.5562)" style="&st12;"><tspan x="0" y="0" style="&st35; &st21;">(*27)</tspan></text>
<text transform="matrix(1 0 0 1 6410.5112 423.0962)" style="&st12;"><tspan x="0" y="0" style="&st35; &st21;">(*3)</tspan></text>
<text transform="matrix(1 0 0 1 6410.5112 414.0259)" style="&st12;"><tspan x="0" y="0" style="&st35; &st21;">(*2)</tspan></text>
<text transform="matrix(1 0 0 1 6410.5112 395.896)" style="&st12;"><tspan x="0" y="0" style="&st35; &st21;">(*1 A/T)</tspan></text>
<text transform="matrix(1 0 0 1 6410.5112 404.9663)" style="&st12;"><tspan x="0" y="0" style="&st35; &st21;">(*1 M/T)</tspan></text>
<text transform="matrix(1 0 0 1 6410.5112 432.1772)" style="&st12;"><tspan x="0" y="0" style="&st35; &st21;">(*27)</tspan></text>
<text transform="matrix(1 0 0 1 6474.4429 519.4272)" style="&st12;"><tspan x="0" y="0" style="&st35; &st21;">5</tspan></text>
<text transform="matrix(1 0 0 1 6482.7925 519.4272)" style="&st12;"><tspan x="0" y="0" style="&st35; &st21;">M</tspan></text>
<text transform="matrix(1 0 0 1 6199.1577 596.7573)" style="&st12;"><tspan x="0" y="0" style="&st35; &st21;">LG</tspan></text>
<text transform="matrix(1 0 0 1 6201.4272 613.7573)" style="&st12;"><tspan x="0" y="0" style="&st35; &st21;">R</tspan></text>
<text transform="matrix(1 0 0 1 6251.0327 596.7573)" style="&st12;"><tspan x="0" y="0" style="&st35; &st21;">LG</tspan></text>
<text transform="matrix(1 0 0 1 6084.188 129.6973)" style="&st12;"><tspan x="0" y="0" style="&st35; &st21;">(LHD *34)</tspan></text>
<text transform="matrix(1 0 0 1 6084.188 191.4668)" style="&st12;"><tspan x="0" y="0" style="&st35; &st21;">(RHD)</tspan></text>
<text transform="matrix(1 0 0 1 6084.188 200.5361)" style="&st12;"><tspan x="0" y="0" style="&st35; &st21;">(LHD *34)</tspan></text>
</svg>
