﻿<?xml version="1.0" encoding="UTF-8"?>
<!DOCTYPE svg PUBLIC "-//W3C//DTD SVG 1.0//EN" "http://www.w3.org/TR/2001/REC-SVG-20010904/DTD/svg10.dtd"[
<!ENTITY ns_flows "http://ns.adobe.com/Flows/1.0/">
<!ENTITY ns_svg "http://www.w3.org/2000/svg">
<!ENTITY ns_xlink "http://www.w3.org/1999/xlink">
	<!ENTITY st0 "fill:none;stroke:#F8E616;stroke-width:5.1;stroke-linejoin:round;">
	<!ENTITY st1 "fill:none;stroke:#FB0F0C;stroke-width:5.1;stroke-linejoin:round;">
	<!ENTITY st2 "fill:none;stroke:#9A9999;stroke-width:5.1;stroke-linejoin:round;">
	<!ENTITY st3 "fill:none;stroke:#99280B;stroke-width:5.1;stroke-linejoin:round;">
		<!ENTITY st4 "fill:none;stroke:#000000;stroke-width:0.85;stroke-linecap:round;stroke-linejoin:round;stroke-dasharray:3 1.5;enable-background:new    ;">
	<!ENTITY st5 "font-family:'MS-PGothic','ＭＳ Ｐゴシック';adobe-font-script:japanese;">
	<!ENTITY st6 "fill:none;stroke:#000000;stroke-width:5.1;stroke-linejoin:round;">
	<!ENTITY st7 "fill:none;stroke:#199DBF;stroke-width:1.13;stroke-linejoin:round;">
	<!ENTITY st8 "fill:none;stroke:#000000;stroke-linecap:round;stroke-linejoin:round;">
	<!ENTITY st9 "fill:#1D63A2;">
	<!ENTITY st10 "stroke:#000000;stroke-width:0.28;stroke-linecap:round;stroke-linejoin:round;enable-background:new    ;">
	<!ENTITY st11 "stroke:#000000;stroke-width:0.28;stroke-linecap:round;stroke-linejoin:round;">
	<!ENTITY st12 "enable-background:new    ;">
		<!ENTITY st13 "fill:none;stroke:#000000;stroke-width:1.42;stroke-linecap:round;stroke-linejoin:round;enable-background:new    ;">
	<!ENTITY st14 "fill:none;stroke:#EE67AA;stroke-width:5.1;stroke-linejoin:round;">
	<!ENTITY st15 "fill:none;stroke:#199DBF;stroke-width:5.1;stroke-linejoin:round;">
	<!ENTITY st16 "opacity:0.5;fill:none;stroke:#34ACCE;stroke-linejoin:round;stroke-dasharray:6;">
	<!ENTITY st17 "fill:none;stroke:#FFFFFF;stroke-width:4.53;stroke-linejoin:round;">
	<!ENTITY st18 "fill:#F6140D;">
		<!ENTITY st19 "fill:none;stroke:#000000;stroke-width:0.85;stroke-linecap:round;stroke-linejoin:round;enable-background:new    ;">
	<!ENTITY st20 "fill:none;stroke:#56107C;stroke-width:5.1;stroke-linejoin:round;">
	<!ENTITY st21 "font-size:6px;">
	<!ENTITY st22 "fill:none;stroke:#FFFFFF;stroke-width:2.27;stroke-linejoin:round;">
	<!ENTITY st23 "fill:none;stroke:#FB0F0C;stroke-width:1.13;stroke-linejoin:round;">
	<!ENTITY st24 "fill:none;stroke:#FFFFFF;stroke-width:1.13;stroke-linejoin:round;">
	<!ENTITY st25 "fill:none;stroke:#168638;stroke-width:5.1;stroke-linejoin:round;">
	<!ENTITY st26 "fill:none;stroke:#000000;stroke-width:1.13;stroke-linejoin:round;">
		<!ENTITY st27 "fill:none;stroke:#000000;stroke-width:1.13;stroke-linecap:round;stroke-linejoin:round;stroke-dasharray:3 1.5;enable-background:new    ;">
	<!ENTITY st28 "fill:#CCCCCC;stroke:#CECECF;stroke-width:0.1;stroke-linecap:round;stroke-linejoin:round;">
	<!ENTITY st29 "fill:#FFFFFF;stroke:#000000;stroke-width:1.41;stroke-linecap:round;stroke-linejoin:round;">
	<!ENTITY st30 "fill:none;stroke:#3E65AC;stroke-width:3;">
	<!ENTITY st31 "display:inline;">
	<!ENTITY st32 "fill:#CCCCCC;stroke:#CCCCCC;stroke-width:0.1;stroke-linecap:round;stroke-linejoin:round;">
	<!ENTITY st33 "stroke:#FFFFFF;stroke-width:2;">
	<!ENTITY st34 "fill:none;stroke:#000000;stroke-width:1.42;stroke-linejoin:round;">
	<!ENTITY st35 "font-family:'Arial';">
	<!ENTITY st36 "opacity:0.5;fill:none;stroke:#34ACCE;stroke-linejoin:round;">
	<!ENTITY st37 "fill:none;stroke:#000000;stroke-width:1.42;stroke-linecap:round;stroke-linejoin:round;">
	<!ENTITY st38 "fill:#CFE6E7;stroke:#000000;stroke-width:1.133;stroke-linecap:round;stroke-linejoin:round;">
	<!ENTITY st39 "font-size:12px;">
	<!ENTITY st40 "fill:none;stroke:#99D5E0;stroke-width:5.1;stroke-linejoin:round;">
	<!ENTITY st41 "fill:none;stroke:#FF0000;stroke-width:1.13;stroke-linejoin:round;">
	<!ENTITY st42 "display:none;">
	<!ENTITY st43 "fill:#CFE6E7;stroke:#000000;stroke-width:1.13;stroke-linejoin:round;">
	<!ENTITY st44 "fill:none;stroke:#000000;stroke-width:0.85;stroke-linecap:round;stroke-linejoin:round;">
	<!ENTITY st45 "fill:none;stroke:#7EC57E;stroke-width:5.1;stroke-linejoin:round;">
<!ATTLIST svg
xmlns:ewd CDATA #FIXED "http://shcl.co.jp/ewd"
xmlns:a CDATA #FIXED "http://ns.adobe.com/AdobeSVGViewerExtensions/3.0/"
ewd:ver CDATA #IMPLIED
>
<!ATTLIST a
ewd:lineID CDATA #IMPLIED
ewd:groupID CDATA #IMPLIED
ewd:figtype CDATA #IMPLIED
ewd:code CDATA #IMPLIED
ewd:figID CDATA #IMPLIED
ewd:pinNo CDATA #IMPLIED
ewd:comment CDATA #IMPLIED >
<!ATTLIST g
ewd:lineID CDATA #IMPLIED
ewd:groupID CDATA #IMPLIED
ewd:figtype CDATA #IMPLIED
ewd:code CDATA #IMPLIED
ewd:figID CDATA #IMPLIED
ewd:pinNo CDATA #IMPLIED
ewd:comment CDATA #IMPLIED >
<!ATTLIST text
ewd:textID CDATA #IMPLIED >
<!ATTLIST title
ewd:textID CDATA #IMPLIED >
]>
<svg 
viewBox='0 0 8303.49 729.44'
height='729.44'
width='8303.49'
xml:space="preserve"
xmlns="&ns_svg;"
xmlns:ewd="http://shcl.co.jp/ewd"
xmlns:xlink="&ns_xlink;" ewd:ver="L2.3">
<g ewd:code="Cr1" ewd:figID="6026" ewd:figtype="w2w" ewd:pinNo="1">
<path style="&st29;" d="M4528.83,314.96h8.5"/>
<path style="&st37;" d="M4524.6,324.02l4.24-4.25l4.25,4.25"/>
<path style="&st37;" d="M4533.08,320.62l-4.25-4.25l-4.24,4.25"/>
<text transform="matrix(1 0 0 1 4513.6431 312.7368)"><tspan x="0" y="0" style="&st35; &st21;">1</tspan></text>
</g>
<g ewd:code="FUSE10" ewd:figID="4015" ewd:figtype="rb">
<path style="&st8;" d="M4788.89,39.55v42.49h25.5V39.55H4788.89"/>
<path style="&st13;" d="M4803.77,107.54h-4.25"/>
<path style="&st13;" d="M4803.77,99.04h-4.25"/>
<path style="&st19;" d="M4801.64,73.54v25.5"/>
<path style="&st13;" d="M4788.89,39.55v42.49h25.5V39.55H4788.89"/>
<path style="&st10;" d="M4801.64,94.14l-2.83-2.83v4.25l2.83,2.83l2.83-2.83v-4.25L4801.64,94.14"/>
<path style="&st13;" d="M4808.02,103.29c0-2.35-1.91-4.25-4.25-4.25"/>
<path style="&st13;" d="M4803.77,107.54c2.34,0,4.25-1.9,4.25-4.25"/>
<path style="&st13;" d="M4795.27,103.29c0,2.35,1.9,4.25,4.25,4.25"/>
<path style="&st13;" d="M4799.52,99.04c-2.35,0-4.25,1.9-4.25,4.25"/>
<path style="&st19;" d="M4803.06,72.13c0-0.79-0.63-1.42-1.42-1.42"/>
<path style="&st19;" d="M4801.64,70.71c-0.78,0-1.41,0.63-1.41,1.42"/>
<path style="&st19;" d="M4800.23,72.13c0,0.78,0.63,1.41,1.41,1.41"/>
<path style="&st19;" d="M4801.64,73.54c0.79,0,1.42-0.63,1.42-1.41"/>
<path style="&st19;" d="M4803.06,49.46c0-0.78-0.63-1.41-1.42-1.41"/>
<path style="&st19;" d="M4801.64,48.05c-0.78,0-1.41,0.63-1.41,1.41"/>
<path style="&st19;" d="M4800.23,49.46c0,0.79,0.63,1.42,1.41,1.42"/>
<path style="&st19;" d="M4801.64,50.88c0.79,0,1.42-0.63,1.42-1.42"/>
<path style="&st13;" d="M4801.64,70.71c2.74-1.61,3.65-5.14,2.04-7.88"/>
<path style="&st13;" d="M4803.68,62.83c-0.52-0.88-1.16-1.51-2.04-2.03"/>
<path style="&st13;" d="M4801.64,50.88c-2.74,1.61-3.65,5.14-2.03,7.88"/>
<path style="&st13;" d="M4799.61,58.76c0.52,0.88,1.15,1.52,2.03,2.04"/>
<text transform="matrix(1 0 0 1 4818.9468 59.9365)" style="&st12;"><tspan x="0" y="0" style="&st35; &st21;">10A</tspan></text>
<text transform="matrix(1 0 0 1 4818.9468 65.9365)" style="&st12;"><tspan x="0" y="0" style="&st35; &st21;">ECU-B</tspan></text>
<text transform="matrix(1 0 0 1 4800.0483 105.2568)" style="&st12;"><tspan x="0" y="0" style="&st35; &st21;">1</tspan></text>
<text transform="matrix(1 0 0 1 4794.8472 90.2363)" style="&st12;"><tspan x="0" y="0" style="&st35; &st21;">2</tspan></text>
<text transform="matrix(1 0 0 1 4792.5269 35.8467)" style="&st12;"><tspan x="0" y="0" style="&st35; &st21;">(BAT)</tspan></text>
</g>
<g ewd:code="2" ewd:figID="3017" ewd:figtype="jb">
<path style="&st8;" d="M4856.88,39.55v42.49h25.5V39.55H4856.88"/>
<path style="&st8;" d="M4975.86,39.55v42.49h25.5V39.55H4975.86"/>
<path style="&st8;" d="M4916.37,39.55v42.49h25.5V39.55H4916.37"/>
<path style="&st13;" d="M5160.71,158.53h-4.25"/>
<path style="&st13;" d="M5160.71,150.03h-4.25"/>
<path style="&st19;" d="M5158.58,150.03V82.04"/>
<path style="&st10;" d="M5158.58,145.14l-2.83-2.84v4.25l2.83,2.84l2.83-2.84v-4.25L5158.58,145.14"/>
<path style="&st13;" d="M4975.86,39.55v42.49h25.5V39.55H4975.86"/>
<path style="&st19;" d="M4988.61,73.54v25.5h67.99v-17"/>
<path style="&st13;" d="M4916.37,39.55v42.49h25.5V39.55H4916.37"/>
<path style="&st19;" d="M4929.12,73.54v42.5h161.47v-34"/>
<path style="&st13;" d="M4856.88,39.55v42.49h25.5V39.55H4856.88"/>
<path style="&st19;" d="M4869.63,73.54v59.49h254.96V82.04"/>
<path style="&st13;" d="M5164.96,154.28c0-2.35-1.91-4.25-4.25-4.25"/>
<path style="&st13;" d="M5160.71,158.53c2.34,0,4.25-1.9,4.25-4.25"/>
<path style="&st13;" d="M5152.21,154.28c0,2.35,1.9,4.25,4.25,4.25"/>
<path style="&st13;" d="M5156.46,150.03c-2.35,0-4.25,1.9-4.25,4.25"/>
<path style="&st19;" d="M4990.03,72.13c0-0.79-0.64-1.42-1.42-1.42"/>
<path style="&st19;" d="M4988.61,70.71c-0.78,0-1.41,0.63-1.41,1.42"/>
<path style="&st19;" d="M4987.2,72.13c0,0.78,0.63,1.41,1.41,1.41"/>
<path style="&st19;" d="M4988.61,73.54c0.78,0,1.42-0.63,1.42-1.41"/>
<path style="&st19;" d="M4990.03,49.46c0-0.78-0.64-1.41-1.42-1.41"/>
<path style="&st19;" d="M4988.61,48.05c-0.78,0-1.41,0.63-1.41,1.41"/>
<path style="&st19;" d="M4987.2,49.46c0,0.79,0.63,1.42,1.41,1.42"/>
<path style="&st19;" d="M4988.61,50.88c0.78,0,1.42-0.63,1.42-1.42"/>
<path style="&st13;" d="M4988.61,70.71c2.74-1.61,3.65-5.14,2.04-7.88"/>
<path style="&st13;" d="M4990.65,62.83c-0.52-0.88-1.16-1.51-2.04-2.03"/>
<path style="&st13;" d="M4988.61,50.88c-2.74,1.61-3.65,5.14-2.04,7.88"/>
<path style="&st13;" d="M4986.57,58.76c0.52,0.88,1.16,1.52,2.04,2.04"/>
<path style="&st19;" d="M4871.05,72.13c0-0.79-0.64-1.42-1.42-1.42"/>
<path style="&st19;" d="M4869.63,70.71c-0.78,0-1.41,0.63-1.41,1.42"/>
<path style="&st19;" d="M4868.22,72.13c0,0.78,0.63,1.41,1.41,1.41"/>
<path style="&st19;" d="M4869.63,73.54c0.78,0,1.42-0.63,1.42-1.41"/>
<path style="&st19;" d="M4871.05,49.46c0-0.78-0.64-1.41-1.42-1.41"/>
<path style="&st19;" d="M4869.63,48.05c-0.78,0-1.41,0.63-1.41,1.41"/>
<path style="&st19;" d="M4868.22,49.46c0,0.79,0.63,1.42,1.41,1.42"/>
<path style="&st19;" d="M4869.63,50.88c0.78,0,1.42-0.63,1.42-1.42"/>
<path style="&st13;" d="M4869.63,70.71c2.74-1.61,3.65-5.14,2.04-7.88"/>
<path style="&st13;" d="M4871.67,62.83c-0.52-0.88-1.16-1.51-2.04-2.03"/>
<path style="&st13;" d="M4869.63,50.88c-2.74,1.61-3.65,5.14-2.04,7.88"/>
<path style="&st13;" d="M4867.59,58.76c0.52,0.88,1.16,1.52,2.04,2.04"/>
<path style="&st19;" d="M4930.54,72.13c0-0.79-0.64-1.42-1.42-1.42"/>
<path style="&st19;" d="M4929.12,70.71c-0.78,0-1.41,0.63-1.41,1.42"/>
<path style="&st19;" d="M4927.71,72.13c0,0.78,0.63,1.41,1.41,1.41"/>
<path style="&st19;" d="M4929.12,73.54c0.78,0,1.42-0.63,1.42-1.41"/>
<path style="&st19;" d="M4930.54,49.46c0-0.78-0.64-1.41-1.42-1.41"/>
<path style="&st19;" d="M4929.12,48.05c-0.78,0-1.41,0.63-1.41,1.41"/>
<path style="&st19;" d="M4927.71,49.46c0,0.79,0.63,1.42,1.41,1.42"/>
<path style="&st19;" d="M4929.12,50.88c0.78,0,1.42-0.63,1.42-1.42"/>
<path style="&st13;" d="M4929.12,70.71c2.74-1.61,3.65-5.14,2.04-7.88"/>
<path style="&st13;" d="M4931.16,62.83c-0.52-0.88-1.16-1.51-2.04-2.03"/>
<path style="&st13;" d="M4929.12,50.88c-2.74,1.61-3.65,5.14-2.04,7.88"/>
<path style="&st13;" d="M4927.08,58.76c0.52,0.88,1.16,1.52,2.04,2.04"/>
<text transform="matrix(1 0 0 1 5005.9175 57.1064)" style="&st12;"><tspan x="0" y="0" style="&st35; &st21;">10A</tspan></text>
<text transform="matrix(1 0 0 1 5005.9175 63.1064)" style="&st12;"><tspan x="0" y="0" style="&st35; &st21;">ECU-IG</tspan></text>
<text transform="matrix(1 0 0 1 5005.9175 69.1064)" style="&st12;"><tspan x="0" y="0" style="&st35; &st21;">NO.2</tspan></text>
<text transform="matrix(1 0 0 1 4982.5366 35.8467)" style="&st12;"><tspan x="0" y="0" style="&st35; &st21;">(IG)</tspan></text>
<text transform="matrix(1 0 0 1 5154.4878 156.2466)" style="&st12;"><tspan x="0" y="0" style="&st35; &st21;">2F</tspan></text>
<text transform="matrix(1 0 0 1 5141.937 156.2466)" style="&st12;"><tspan x="0" y="0" style="&st35; &st21;">39</tspan></text>
<text transform="matrix(1 0 0 1 4946.4272 59.9365)" style="&st12;"><tspan x="0" y="0" style="&st35; &st21;">7.5A</tspan></text>
<text transform="matrix(1 0 0 1 4946.4272 65.9365)" style="&st12;"><tspan x="0" y="0" style="&st35; &st21;">ACC</tspan></text>
<text transform="matrix(1 0 0 1 4919.5073 35.8467)" style="&st12;"><tspan x="0" y="0" style="&st35; &st21;">(ACC)</tspan></text>
<text transform="matrix(1 0 0 1 4886.937 57.1064)" style="&st12;"><tspan x="0" y="0" style="&st35; &st21;">25A</tspan></text>
<text transform="matrix(1 0 0 1 4886.937 63.1064)" style="&st12;"><tspan x="0" y="0" style="&st35; &st21;">D/L</tspan></text>
<text transform="matrix(1 0 0 1 4886.937 69.1064)" style="&st12;"><tspan x="0" y="0" style="&st35; &st21;">NO.2</tspan></text>
<text transform="matrix(1 0 0 1 4860.5171 35.8467)" style="&st12;"><tspan x="0" y="0" style="&st35; &st21;">(BAT)</tspan></text>
</g>
<g ewd:code="r4" ewd:figID="21" ewd:figtype="conn">
<path style="&st34;" d="M4511.84,412.77v-34h34v34H4511.84z"/>
<text style='&st35; &st21;' ewd:textID='75' transform='matrix(0 -1 1 0 4561.0366 415.271)'>Viscous Heater with Magnet Clutch ASSY</text>
<text transform="matrix(0 -1 1 0 4553.4351 415.271)"><tspan x="0" y="0" style="&st35; &st21;">r4</tspan></text>
<text transform="matrix(1 0 0 1 4520.7485 375.0815)"><tspan x="0" y="0" style="&st35; &st21;">1</tspan></text>
<text transform="matrix(1 0 0 1 4522.2515 386.4204)"><tspan x="0" y="0" style="&st35; &st21;">MG+</tspan></text>
</g>
<text ewd:textID='7' transform='matrix(1 0 0 1 4577.4653 65.0469)' style='&st12; &st35; &st21;'>*10 :w/ Viscous Heater</text>
<text transform="matrix(1 0 0 1 4641.6079 450.1519)" style="&st12;"><tspan x="0" y="0" style="&st35; &st21;">G</tspan></text>
<text transform="matrix(1 0 0 1 4642.0278 471.3921)" style="&st12;"><tspan x="0" y="0" style="&st35; &st21;">V</tspan></text>
<text transform="matrix(1 0 0 1 4639.6274 596.7573)" style="&st12;"><tspan x="0" y="0" style="&st35; &st21;">LG</tspan></text>
<text transform="matrix(1 0 0 1 4641.8872 613.7573)" style="&st12;"><tspan x="0" y="0" style="&st35; &st21;">R</tspan></text>
<text transform="matrix(1 0 0 1 4696.8979 450.1519)" style="&st12;"><tspan x="0" y="0" style="&st35; &st21;">G</tspan></text>
<text transform="matrix(1 0 0 1 4697.3179 471.3921)" style="&st12;"><tspan x="0" y="0" style="&st35; &st21;">V</tspan></text>
<text transform="matrix(1 0 0 1 4694.9175 596.7573)" style="&st12;"><tspan x="0" y="0" style="&st35; &st21;">LG</tspan></text>
<text transform="matrix(1 0 0 1 4697.1772 613.7573)" style="&st12;"><tspan x="0" y="0" style="&st35; &st21;">R</tspan></text>
<text transform="matrix(0 -1 1 0 4797.9468 126.5068)" style="&st12;"><tspan x="0" y="0" style="&st35; &st21;">L</tspan></text>
<text transform="matrix(1 0 0 1 4577.4653 48.0469)" style="&st12;"><tspan x="0" y="0" style="&st35; &st21;">* 2 :2TR-FE</tspan></text>
<text transform="matrix(1 0 0 1 4577.4653 39.5469)" style="&st12;"><tspan x="0" y="0" style="&st35; &st21;">* 1 :1GR-FE</tspan></text>
<text transform="matrix(1 0 0 1 4577.4653 56.5469)" style="&st12;"><tspan x="0" y="0" style="&st35; &st21;">* 3 :1KD-FTV</tspan></text>
<text ewd:textID='9' transform='matrix(1 0 0 1 4577.4653 82.0469)' style='&st12; &st35; &st21;'>*23 :w/o Entry &amp; Start System</text>
<text ewd:textID='8' transform='matrix(1 0 0 1 4577.4653 73.5469)' style='&st12; &st35; &st21;'>*22 :w/ Entry &amp; Start System</text>
<text transform="matrix(1 0 0 1 4630.9956 513.8921)" style="&st12;"><tspan x="0" y="0" style="&st35; &st21;">W(*23)</tspan></text>
<text transform="matrix(1 0 0 1 4628.3237 545.7671)" style="&st12;"><tspan x="0" y="0" style="&st35; &st21;">BR(*23)</tspan></text>
<text transform="matrix(1 0 0 1 4606.647 562.7573)" style="&st12;"><tspan x="0" y="0" style="&st35; &st21;">Y(*1 M/T,*3 *22)</tspan></text>
<text transform="matrix(1 0 0 1 4600.647 579.7573)" style="&st12;"><tspan x="0" y="0" style="&st35; &st21;">BR(*1 M/T,*3 *22) </tspan></text>
<text transform="matrix(1 0 0 1 4693.7476 513.8921)" style="&st12;"><tspan x="0" y="0" style="&st35; &st21;">W(*23)</tspan></text>
<text transform="matrix(1 0 0 1 4692.2974 545.7671)" style="&st12;"><tspan x="0" y="0" style="&st35; &st21;">BR(*23)</tspan></text>
<text transform="matrix(1 0 0 1 4695.1567 562.7573)" style="&st12;"><tspan x="0" y="0" style="&st35; &st21;">Y(*1 M/T,*3 *22)</tspan></text>
<text transform="matrix(1 0 0 1 4692.687 579.7573)" style="&st12;"><tspan x="0" y="0" style="&st35; &st21;">BR(*1 M/T,*3 *22)</tspan></text>
<text transform="matrix(1 0 0 1 4577.4653 90.5469)" style="&st12;"><tspan x="0" y="0" style="&st35; &st21;">*27 :1GD-FTV</tspan></text>
<text transform="matrix(0 -1 1 0 4525.1362 352.022)"><tspan x="0" y="0" style="&st35; &st21;">B</tspan></text>
<text transform="matrix(0 -1 1 0 4536.4351 362.1201)" style="&st12;"><tspan x="0" y="0" style="&st35; &st21;">(*10 *27)</tspan></text>
<text transform="matrix(1 0 0 1 4597.0024 528.7563)"><tspan x="0" y="0" style="&st35; &st21;">BR(*1 A/T, *2 *22,*27)</tspan></text>
<text transform="matrix(1 0 0 1 4687.9204 528.7563)"><tspan x="0" y="0" style="&st35; &st21;">BR(*1 A/T, *2 *22,*27)</tspan></text>
<text transform="matrix(1 0 0 1 4600.3755 492.6411)"><tspan x="0" y="0" style="&st35; &st21;">W(*1 A/T, *2 *22,*27)</tspan></text>
<text transform="matrix(1 0 0 1 4688.2378 492.6411)"><tspan x="0" y="0" style="&st35; &st21;">W(*1 A/T, *2 *22,*27)</tspan></text>
</svg>
