﻿<?xml version="1.0" encoding="UTF-8"?>
<!DOCTYPE svg PUBLIC "-//W3C//DTD SVG 1.0//EN" "http://www.w3.org/TR/2001/REC-SVG-20010904/DTD/svg10.dtd"[
<!ENTITY ns_flows "http://ns.adobe.com/Flows/1.0/">
<!ENTITY ns_svg "http://www.w3.org/2000/svg">
<!ENTITY ns_xlink "http://www.w3.org/1999/xlink">
	<!ENTITY st0 "fill:none;stroke:#F8E616;stroke-width:5.1;stroke-linejoin:round;">
	<!ENTITY st1 "fill:none;stroke:#FB0F0C;stroke-width:5.1;stroke-linejoin:round;">
	<!ENTITY st2 "fill:none;stroke:#9A9999;stroke-width:5.1;stroke-linejoin:round;">
	<!ENTITY st3 "fill:none;stroke:#99280B;stroke-width:5.1;stroke-linejoin:round;">
	<!ENTITY st4 "fill:none;stroke:#000000;stroke-width:5.1;stroke-linejoin:round;">
	<!ENTITY st5 "fill:none;stroke:#000000;stroke-linecap:round;stroke-linejoin:round;">
	<!ENTITY st6 "stroke:#000000;stroke-width:0.28;stroke-linecap:round;stroke-linejoin:round;">
	<!ENTITY st7 "enable-background:new    ;">
		<!ENTITY st8 "fill:none;stroke:#000000;stroke-width:1.42;stroke-linecap:round;stroke-linejoin:round;enable-background:new    ;">
	<!ENTITY st9 "fill:none;stroke:#090909;stroke-width:0.85;stroke-linecap:round;stroke-linejoin:round;">
	<!ENTITY st10 "fill:none;stroke:#EE67AA;stroke-width:5.1;stroke-linejoin:round;">
	<!ENTITY st11 "fill:none;stroke:#199DBF;stroke-width:5.1;stroke-linejoin:round;">
	<!ENTITY st12 "opacity:0.5;fill:none;stroke:#34ACCE;stroke-linejoin:round;stroke-dasharray:6;">
	<!ENTITY st13 "fill:none;stroke:#FFFFFF;stroke-width:4.53;stroke-linejoin:round;">
		<!ENTITY st14 "fill:none;stroke:#000000;stroke-width:0.85;stroke-linecap:round;stroke-linejoin:round;enable-background:new    ;">
	<!ENTITY st15 "fill:none;stroke:#56107C;stroke-width:5.1;stroke-linejoin:round;">
	<!ENTITY st16 "font-size:6px;">
	<!ENTITY st17 "fill:none;stroke:#168638;stroke-width:5.1;stroke-linejoin:round;">
	<!ENTITY st18 "fill:none;stroke:#000000;stroke-width:1.13;stroke-linejoin:round;">
	<!ENTITY st19 "fill:#CCCCCC;stroke:#CECECF;stroke-width:0.1;stroke-linecap:round;stroke-linejoin:round;">
	<!ENTITY st20 "fill:#FFFFFF;stroke:#000000;stroke-width:1.41;stroke-linecap:round;stroke-linejoin:round;">
	<!ENTITY st21 "fill:none;stroke:#3E65AC;stroke-width:3;">
	<!ENTITY st22 "fill:none;stroke:#000000;stroke-width:1.42;stroke-linejoin:round;">
	<!ENTITY st23 "font-family:'Arial';">
	<!ENTITY st24 "opacity:0.5;fill:none;stroke:#34ACCE;stroke-linejoin:round;">
	<!ENTITY st25 "fill:none;stroke:#000000;stroke-width:1.42;stroke-linecap:round;stroke-linejoin:round;">
	<!ENTITY st26 "fill:#CFE6E7;stroke:#000000;stroke-width:1.133;stroke-linecap:round;stroke-linejoin:round;">
	<!ENTITY st27 "fill:none;stroke:#090909;stroke-width:0.85;stroke-linecap:round;stroke-linejoin:round;stroke-dasharray:3 1.5;">
	<!ENTITY st28 "fill:none;stroke:#000000;stroke-width:0.85;stroke-linecap:round;stroke-linejoin:round;stroke-dasharray:3 1.5;">
	<!ENTITY st29 "fill:#CFE6E7;stroke:#000000;stroke-width:1.13;stroke-linejoin:round;">
	<!ENTITY st30 "fill:none;stroke:#000000;stroke-width:0.85;stroke-linecap:round;stroke-linejoin:round;">
	<!ENTITY st31 "fill:none;stroke:#7EC57E;stroke-width:5.1;stroke-linejoin:round;">
<!ATTLIST svg
xmlns:ewd CDATA #FIXED "http://shcl.co.jp/ewd"
xmlns:a CDATA #FIXED "http://ns.adobe.com/AdobeSVGViewerExtensions/3.0/"
ewd:ver CDATA #IMPLIED
>
<!ATTLIST a
ewd:lineID CDATA #IMPLIED
ewd:groupID CDATA #IMPLIED
ewd:figtype CDATA #IMPLIED
ewd:code CDATA #IMPLIED
ewd:figID CDATA #IMPLIED
ewd:pinNo CDATA #IMPLIED
ewd:comment CDATA #IMPLIED >
<!ATTLIST g
ewd:lineID CDATA #IMPLIED
ewd:groupID CDATA #IMPLIED
ewd:figtype CDATA #IMPLIED
ewd:code CDATA #IMPLIED
ewd:figID CDATA #IMPLIED
ewd:pinNo CDATA #IMPLIED
ewd:comment CDATA #IMPLIED >
<!ATTLIST text
ewd:textID CDATA #IMPLIED >
<!ATTLIST title
ewd:textID CDATA #IMPLIED >
]>
<svg 
viewBox='0 0 3631.87 729.44'
height='729.44'
width='3631.87'
xml:space="preserve"
xmlns="&ns_svg;"
xmlns:ewd="http://shcl.co.jp/ewd"
xmlns:xlink="&ns_xlink;" ewd:ver="L2.3">
<g ewd:code="WG2" ewd:figID="6010" ewd:figtype="w2w" ewd:pinNo="7">
<path style="&st20;" d="M1297.75,178.23h8.5"/>
<path style="&st25;" d="M1302.01,169.17l4.24,4.25l4.25-4.25"/>
<path style="&st25;" d="M1310.5,172.57l-4.25,4.25l-4.24-4.25"/>
<text transform="matrix(1 0 0 1 1291.0615 184.5088)"><tspan x="0" y="0" style="&st23; &st16;">7</tspan></text>
</g>
<g ewd:code="WG2" ewd:figID="6012" ewd:figtype="w2w" ewd:pinNo="8">
<path style="&st20;" d="M1365.75,178.23h8.5"/>
<path style="&st25;" d="M1370.01,169.17l4.24,4.25l4.25-4.25"/>
<path style="&st25;" d="M1378.5,172.57l-4.25,4.25l-4.24-4.25"/>
<text transform="matrix(1 0 0 1 1359.0596 184.5088)"><tspan x="0" y="0" style="&st23; &st16;">8</tspan></text>
</g>
<g ewd:code="WG2" ewd:figID="6011" ewd:figtype="w2w" ewd:pinNo="4">
<path style="&st20;" d="M1331.75,178.23h8.5"/>
<path style="&st25;" d="M1336.01,169.17l4.24,4.25l4.25-4.25"/>
<path style="&st25;" d="M1344.5,172.57l-4.25,4.25l-4.24-4.25"/>
<text transform="matrix(1 0 0 1 1325.0615 184.5088)"><tspan x="0" y="0" style="&st23; &st16;">4</tspan></text>
</g>
<g ewd:code="WG2" ewd:figID="6014" ewd:figtype="w2w" ewd:pinNo="6">
<path style="&st20;" d="M1467.75,178.23h8.5"/>
<path style="&st25;" d="M1472.01,169.17l4.24,4.25l4.25-4.25"/>
<path style="&st25;" d="M1480.5,172.57l-4.25,4.25l-4.24-4.25"/>
<text transform="matrix(1 0 0 1 1461.0615 184.5088)"><tspan x="0" y="0" style="&st23; &st16;">6</tspan></text>
</g>
<g ewd:code="WG2" ewd:figID="6013" ewd:figtype="w2w" ewd:pinNo="5">
<path style="&st20;" d="M1416.75,178.23h8.5"/>
<path style="&st25;" d="M1421.01,169.17l4.24,4.25l4.25-4.25"/>
<path style="&st25;" d="M1429.5,172.57l-4.25,4.25l-4.24-4.25"/>
<text transform="matrix(1 0 0 1 1410.0615 184.5088)"><tspan x="0" y="0" style="&st23; &st16;">5</tspan></text>
</g>
<g ewd:code="WG1" ewd:figID="6009" ewd:figtype="w2w" ewd:pinNo="25">
<path style="&st20;" d="M1174.5,273.98h8.5"/>
<path style="&st25;" d="M1170.26,283.04l4.24-4.25l4.25,4.25"/>
<path style="&st25;" d="M1178.75,279.64l-4.25-4.25l-4.24,4.25"/>
<text transform="matrix(1 0 0 1 1155.9746 271.7588)"><tspan x="0" y="0" style="&st23; &st16;">25</tspan></text>
</g>
<g ewd:code="364002" ewd:figID="5002" ewd:figtype="sp">
<path style="&st25;" d="M1246.75,174.7l-4.97-4.97"/>
<path style="&st25;" d="M1229.75,181.76l4.97,4.97"/>
<path style="&st25;" d="M1241.78,186.73l4.97-4.97"/>
<path style="&st25;" d="M1234.72,169.73l-4.97,4.97"/>
</g>
<g ewd:code="G3" ewd:figID="2002" ewd:figtype="gp">
<path style="&st30;" d="M1173.08,713.77h2.83"/>
<path style="&st30;" d="M1171.66,710.94h5.67"/>
<path style="&st30;" d="M1170.25,708.1h8.5"/>
<path style="&st30;" d="M1166,705.27h17"/>
<path style="&st30;" d="M1174.5,701.02v4.25"/>
</g>
<g ewd:code="G104" ewd:figID="23" ewd:figtype="conn">
<path style="&st30;" d="M1174.5,659.94v25.5"/>
<path style="&st30;" d="M1174.5,659.94v17"/>
<path style="&st25;" d="M1166,659.94h17v17h-17V659.94"/>
<text style='&st23; &st16;' ewd:textID='13' transform='matrix(1 0 0 1 1185.1289 673.3516)'>Junction Connector</text>
<text transform="matrix(1 0 0 1 1185.1289 666.3105)"><tspan x="0" y="0" style="&st23; &st16;">G104</tspan></text>
<text transform="matrix(1 0 0 1 1166.3662 656.2441)"><tspan x="0" y="0" style="&st23; &st16;">4</tspan></text>
</g>
<g ewd:code="G140" ewd:figID="11" ewd:figtype="conn">
<path style="&st25;" d="M1166,368.04h17v17h-17V368.04"/>
<path style="&st30;" d="M1174.5,368.04v17"/>
<path style="&st25;" d="M1179.02,389.54c0-2.48-2.02-4.5-4.5-4.5"/>
<path style="&st25;" d="M1174.49,385.04c-2.48,0-4.5,2.02-4.5,4.5"/>
<path style="&st25;" d="M1169.99,389.54c0,2.48,2.02,4.5,4.5,4.5"/>
<path style="&st25;" d="M1174.52,394.04c2.48,0,4.5-2.02,4.5-4.5"/>
<path style="&st25;" d="M1179.02,363.54c0-2.48-2.02-4.5-4.5-4.5"/>
<path style="&st25;" d="M1174.49,359.04c-2.48,0-4.5,2.02-4.5,4.5"/>
<path style="&st25;" d="M1169.99,363.54c0,2.48,2.02,4.5,4.5,4.5"/>
<path style="&st25;" d="M1174.52,368.04c2.48,0,4.5-2.02,4.5-4.5"/>
<text style='&st23; &st16;' ewd:textID='13' transform='matrix(0 -1 1 0 1197.6543 387.5654)'>Junction Connector</text>
<text transform="matrix(0 -1 1 0 1190.6133 387.5654)"><tspan x="0" y="0" style="&st23; &st16;">G140(C)</tspan></text>
<text transform="matrix(1 0 0 1 1164.3955 391.5146)"><tspan x="0" y="0" style="&st23; &st16;">7</tspan></text>
<text transform="matrix(1 0 0 1 1172.3369 391.5146)"><tspan x="0" y="0" style="&st23; &st16;">C</tspan></text>
<text transform="matrix(1 0 0 1 1164.3955 365.4834)"><tspan x="0" y="0" style="&st23; &st16;">9</tspan></text>
<text transform="matrix(1 0 0 1 1172.3369 365.4834)"><tspan x="0" y="0" style="&st23; &st16;">C</tspan></text>
</g>
<g ewd:code="G63-A" ewd:figID="9" ewd:figtype="conn">
<path style="&st22;" d="M1072.5,349.92v-34h34v34H1072.5z"/>
<path style="&st25;" d="M1094.01,311.42c0-2.48-2.02-4.5-4.5-4.5"/>
<path style="&st25;" d="M1089.48,306.92c-2.48,0-4.5,2.02-4.5,4.5"/>
<path style="&st25;" d="M1084.98,311.42c0,2.48,2.02,4.5,4.5,4.5"/>
<path style="&st25;" d="M1089.51,315.92c2.48,0,4.5-2.02,4.5-4.5"/>
<text style='&st23; &st16;' ewd:textID='14' transform='matrix(0 -1 1 0 1121.6992 352.4224)'>Main Body ECU</text>
<text transform="matrix(0 -1 1 0 1114.0996 352.4224)"><tspan x="0" y="0" style="&st23; &st16;">G63(A)</tspan></text>
<text transform="matrix(1 0 0 1 1076.0547 313.3613)"><tspan x="0" y="0" style="&st23; &st16;">22</tspan></text>
<text transform="matrix(1 0 0 1 1087.499 313.3613)"><tspan x="0" y="0" style="&st23; &st16;">A</tspan></text>
<text transform="matrix(1 0 0 1 1081.165 323.5713)"><tspan x="0" y="0" style="&st23; &st16;">ACAN</tspan></text>
</g>
<g ewd:code="G142" ewd:figID="10" ewd:figtype="conn">
<path style="&st25;" d="M1081,180.92h17v17h-17V180.92"/>
<path style="&st30;" d="M1089.5,180.92v17"/>
<path style="&st25;" d="M1094.02,202.42c0-2.48-2.02-4.5-4.5-4.5"/>
<path style="&st25;" d="M1089.48,197.92c-2.48,0-4.5,2.02-4.5,4.5"/>
<path style="&st25;" d="M1084.98,202.42c0,2.48,2.02,4.5,4.5,4.5"/>
<path style="&st25;" d="M1089.52,206.92c2.48,0,4.5-2.02,4.5-4.5"/>
<path style="&st25;" d="M1094.02,176.42c0-2.48-2.02-4.5-4.5-4.5"/>
<path style="&st25;" d="M1089.48,171.92c-2.48,0-4.5,2.02-4.5,4.5"/>
<path style="&st25;" d="M1084.98,176.42c0,2.48,2.02,4.5,4.5,4.5"/>
<path style="&st25;" d="M1089.52,180.92c2.48,0,4.5-2.02,4.5-4.5"/>
<text style='&st23; &st16;' ewd:textID='13' transform='matrix(0 -1 1 0 1112.6406 200.4219)'>Junction Connector</text>
<text transform="matrix(0 -1 1 0 1105.5996 200.4219)"><tspan x="0" y="0" style="&st23; &st16;">G142(B)</tspan></text>
<text transform="matrix(1 0 0 1 1079.3916 204.3926)"><tspan x="0" y="0" style="&st23; &st16;">1</tspan></text>
<text transform="matrix(1 0 0 1 1087.499 204.3926)"><tspan x="0" y="0" style="&st23; &st16;">B</tspan></text>
<text transform="matrix(1 0 0 1 1079.3916 178.3613)"><tspan x="0" y="0" style="&st23; &st16;">3</tspan></text>
<text transform="matrix(1 0 0 1 1087.499 178.3613)"><tspan x="0" y="0" style="&st23; &st16;">B</tspan></text>
</g>
<g ewd:code="W7" ewd:figID="12" ewd:figtype="conn">
<path style="&st25;" d="M1357.26,351.93l5.67-22.67"/>
<path style="&st30;" d="M1357.26,359.01v-4.25"/>
<path style="&st30;" d="M1357.26,329.26v-4.25"/>
<path style="&st30;" d="M1429.49,384.5h-8.5"/>
<path style="&st30;" d="M1437.98,374.84l-7.36,4.25"/>
<path style="&st30;" d="M1432.63,382.56l7.36-4.25"/>
<path style="&st30;" d="M1480.49,384.5h-8.5"/>
<path style="&st30;" d="M1488.98,374.84l-7.36,4.25"/>
<path style="&st30;" d="M1483.61,382.56l7.36-4.25"/>
<path style="&st30;" d="M1344.52,384.5h-8.5"/>
<path style="&st30;" d="M1352.99,374.84l-7.36,4.25"/>
<path style="&st30;" d="M1347.64,382.56l7.36-4.25"/>
<path style="&st25;" d="M1263.75,316.51v119h254.98v-119H1263.75"/>
<path style="&st25;" d="M1637.52,290.99V308h118.99v-17.01H1637.52"/>
<path style="&st30;" d="M1306.27,265.48v51.02"/>
<path style="&st30;" d="M1340.27,265.48v51.02"/>
<path style="&st30;" d="M1374.26,265.48v51.02"/>
<path style="&st30;" d="M1425.24,265.48v51.02"/>
<path style="&st30;" d="M1476.24,265.48v51.02"/>
<path style="&st30;" d="M1680,265.48v93.51"/>
<path style="&st30;" d="M1714,265.48v93.51"/>
<path style="&st30;" d="M1646,265.48v93.51"/>
<path style="&st30;" d="M1408.26,393v-67.99h-34"/>
<path style="&st25;" d="M1637.52,358.99v25.5h118.99v-25.5H1637.52"/>
<path style="&st30;" d="M1374.26,359.01v-8.5l-2.83-1.42l5.66-2.83l-5.66-2.83l5.66-2.84l-5.66-2.83l5.66-2.83l-2.83-1.42v-17"/>
<path style="&st30;" d="M1374.26,393v-8.5l-2.83-1.41l5.66-2.84l-5.66-2.83l5.66-2.83l-5.66-2.83l5.66-2.84l-2.83-1.41v-8.5"/>
<path style="&st6;" d="M1391.26,376l5.66,8.5h-11.33L1391.26,376"/>
<path style="&st30;" d="M1396.92,378.62l-1.74-2.62h-7.84l-1.74-2.61"/>
<path style="&st30;" d="M1413.92,378.62l-1.74-2.62h-7.85l-1.74-2.61"/>
<path style="&st6;" d="M1408.26,376l5.66,8.5h-11.33L1408.26,376"/>
<path style="&st30;" d="M1374.26,359.01h17V393"/>
<path style="&st30;" d="M1357.26,325.01h17"/>
<path style="&st30;" d="M1357.26,359.01h17"/>
<path style="&st30;" d="M1373.07,324.01l-0.27,0.47l-0.11,0.53l0.11,0.54l0.27,0.47l0.41,0.34l0.51,0.19h0.54l0.51-0.19l0.41-0.34l0.28-0.47l0.09-0.54l-0.09-0.53l-0.28-0.47l-0.41-0.34l-0.51-0.19h-0.54l-0.51,0.19L1373.07,324.01l0.39,0.71v0.59l0.38,0.44l0.57,0.1l0.5-0.29l0.2-0.55l-0.2-0.54l-0.5-0.29l-0.57,0.1l0.42,0.73"/>
<path style="&st30;" d="M1373.07,358l-0.27,0.48l-0.11,0.53l0.11,0.53l0.27,0.47l0.41,0.35l0.51,0.18h0.54l0.51-0.18l0.41-0.35l0.28-0.47l0.09-0.53l-0.09-0.53l-0.28-0.48l-0.41-0.34l-0.51-0.19h-0.54l-0.51,0.19L1373.07,358l0.39,0.72v0.58l0.38,0.44l0.57,0.1l0.5-0.29l0.2-0.54l-0.2-0.55l-0.5-0.29l-0.57,0.1l0.42,0.74"/>
<path style="&st30;" d="M1390.07,392l-0.28,0.47l-0.09,0.53l0.09,0.53l0.28,0.47l0.41,0.35l0.51,0.19h0.54l0.51-0.19l0.41-0.35l0.27-0.47l0.1-0.53l-0.1-0.53l-0.27-0.47l-0.41-0.35l-0.51-0.18h-0.54l-0.51,0.18L1390.07,392l0.39,0.71v0.58l0.37,0.45l0.58,0.1l0.5-0.29l0.2-0.55l-0.2-0.54l-0.5-0.29l-0.58,0.1l0.43,0.73"/>
<path style="&st30;" d="M1373.07,392l-0.27,0.47l-0.11,0.53l0.11,0.53l0.27,0.47l0.41,0.35l0.51,0.19h0.54l0.51-0.19l0.41-0.35l0.28-0.47l0.09-0.53l-0.09-0.53l-0.28-0.47l-0.41-0.35l-0.51-0.18h-0.54l-0.51,0.18L1373.07,392l0.39,0.71v0.58l0.38,0.45l0.57,0.1l0.5-0.29l0.2-0.55l-0.2-0.54l-0.5-0.29l-0.57,0.1l0.42,0.73"/>
<path style="&st30;" d="M1306.27,316.51V393h101.99"/>
<path style="&st6;" d="M1425.24,384.5l-5.66-8.5h11.33L1425.24,384.5"/>
<path style="&st30;" d="M1437.99,374.84l-2.34,3.04l-1.47-2.54L1437.99,374.84l-1.29,0.74l-0.98,1.28l-0.62-1.07l1.6-0.21l-0.64,0.37l-0.31,0.4l-0.19-0.33l0.5-0.07"/>
<path style="&st30;" d="M1439.99,378.31l-2.34,3.04l-1.46-2.54L1439.99,378.31l-1.28,0.74l-0.99,1.28l-0.62-1.07l1.61-0.21l-0.64,0.37l-0.32,0.4l-0.19-0.33l0.51-0.07"/>
<path style="&st6;" d="M1476.24,384.5l-5.66-8.5h11.33L1476.24,384.5"/>
<path style="&st30;" d="M1488.98,374.84l-2.34,3.04l-1.46-2.54L1488.98,374.84l-1.29,0.74l-0.98,1.28l-0.62-1.07l1.6-0.21l-0.64,0.37l-0.31,0.4l-0.19-0.33l0.5-0.07"/>
<path style="&st30;" d="M1490.98,378.31l-2.33,3.04l-1.47-2.54L1490.98,378.31l-1.28,0.74l-0.99,1.28l-0.62-1.07l1.61-0.21l-0.64,0.37l-0.31,0.4l-0.2-0.33l0.51-0.07"/>
<path style="&st30;" d="M1425.24,359.01v-8.5l-2.83-1.42l5.67-2.83l-5.67-2.83l5.67-2.84l-5.67-2.83l5.67-2.83l-2.84-1.42v-17"/>
<path style="&st30;" d="M1476.24,359.01v-8.5l-2.83-1.42l5.67-2.83l-5.67-2.83l5.67-2.84l-5.67-2.83l5.67-2.83l-2.84-1.42v-17"/>
<path style="&st30;" d="M1272.25,265.48v156.88h229.48V393"/>
<path style="&st30;" d="M1425.24,359.01V393h76.49"/>
<path style="&st30;" d="M1476.24,359.01V393"/>
<path style="&st6;" d="M1450.74,376l5.66,8.5h-11.33L1450.74,376"/>
<path style="&st30;" d="M1456.4,378.62l-1.74-2.62h-7.84l-1.74-2.61"/>
<path style="&st6;" d="M1501.74,376l5.67,8.5h-11.34L1501.74,376"/>
<path style="&st30;" d="M1507.4,378.62l-1.74-2.62h-7.84l-1.74-2.61"/>
<path style="&st30;" d="M1450.74,393v-33.99h-25.5"/>
<path style="&st30;" d="M1501.74,393v-33.99h-25.5"/>
<path style="&st30;" d="M1500.55,392l-0.28,0.47l-0.09,0.53l0.09,0.53l0.28,0.47l0.41,0.35l0.51,0.19h0.54l0.51-0.19l0.41-0.35l0.27-0.47l0.1-0.53l-0.1-0.53l-0.27-0.47l-0.41-0.35l-0.51-0.18h-0.54l-0.51,0.18L1500.55,392l0.39,0.71v0.58l0.37,0.45l0.58,0.1l0.5-0.29l0.2-0.55l-0.2-0.54l-0.5-0.29l-0.58,0.1l0.43,0.73"/>
<path style="&st30;" d="M1449.56,392l-0.28,0.47l-0.09,0.53l0.09,0.53l0.28,0.47l0.41,0.35l0.51,0.19h0.54l0.51-0.19l0.41-0.35l0.27-0.47l0.1-0.53l-0.1-0.53l-0.27-0.47l-0.41-0.35l-0.51-0.18h-0.54l-0.51,0.18L1449.56,392l0.39,0.71v0.58l0.37,0.45l0.58,0.1l0.5-0.29l0.2-0.55l-0.2-0.54l-0.5-0.29l-0.58,0.1l0.43,0.73"/>
<path style="&st30;" d="M1475.05,392l-0.27,0.47l-0.09,0.53l0.09,0.53l0.27,0.47l0.41,0.35l0.51,0.19h0.55l0.5-0.19l0.42-0.35l0.27-0.47l0.09-0.53l-0.09-0.53l-0.27-0.47l-0.42-0.35l-0.5-0.18h-0.55l-0.51,0.18L1475.05,392l0.39,0.71v0.58l0.38,0.45l0.57,0.1l0.51-0.29l0.19-0.55l-0.19-0.54l-0.51-0.29l-0.57,0.1l0.42,0.73"/>
<path style="&st30;" d="M1475.05,358l-0.27,0.48l-0.09,0.53l0.09,0.53l0.27,0.47l0.41,0.35l0.51,0.18h0.55l0.5-0.18l0.42-0.35l0.27-0.47l0.09-0.53l-0.09-0.53l-0.27-0.48l-0.42-0.34l-0.5-0.19h-0.55l-0.51,0.19L1475.05,358l0.39,0.72v0.58l0.38,0.44l0.57,0.1l0.51-0.29l0.19-0.54l-0.19-0.55l-0.51-0.29l-0.57,0.1l0.42,0.74"/>
<path style="&st30;" d="M1424.06,358l-0.27,0.48l-0.1,0.53l0.1,0.53l0.27,0.47l0.41,0.35l0.51,0.18h0.54l0.51-0.18l0.41-0.35l0.28-0.47l0.09-0.53l-0.09-0.53l-0.28-0.48l-0.41-0.34l-0.51-0.19h-0.54l-0.51,0.19L1424.06,358l0.39,0.72v0.58l0.38,0.44l0.57,0.1l0.5-0.29l0.2-0.54l-0.2-0.55l-0.5-0.29l-0.57,0.1l0.42,0.74"/>
<path style="&st30;" d="M1748.01,358.99l-0.01-80.76h33.98l0.02-12.75"/>
<path style="&st25;" d="M1263.74,290.99V308h254.99v-17.01H1263.74"/>
<path style="&st30;" d="M1340.27,359.01v-8.5l-2.84-1.42l5.67-2.83l-5.67-2.83l5.67-2.84l-5.67-2.83l5.67-2.83l-2.83-1.42v-8.5"/>
<path style="&st30;" d="M1340.27,325.01v-8.5"/>
<path style="&st30;" d="M1340.27,359.01V410h110.48v-17"/>
<path style="&st6;" d="M1340.27,384.5l-5.67-8.5h11.33L1340.27,384.5"/>
<path style="&st30;" d="M1352.99,374.84l-2.33,3.04l-1.47-2.54L1352.99,374.84l-1.28,0.74l-0.99,1.28l-0.62-1.07l1.61-0.21l-0.64,0.37l-0.31,0.4l-0.2-0.33l0.51-0.07"/>
<path style="&st30;" d="M1354.99,378.31l-2.33,3.04l-1.47-2.54L1354.99,378.31l-1.28,0.74l-0.98,1.28l-0.62-1.07l1.6-0.21l-0.64,0.37l-0.31,0.4l-0.19-0.33l0.5-0.07"/>
<path style="&st30;" d="M1238.26,265.48v34.02h33.99"/>
<path style="&st30;" d="M1273.45,298.5l0.27,0.47l0.09,0.53l-0.09,0.53l-0.27,0.47l-0.42,0.35l-0.5,0.19h-0.55l-0.51-0.19l-0.41-0.35l-0.27-0.47l-0.09-0.53l0.09-0.53l0.27-0.47l0.41-0.35l0.51-0.18h0.55l0.5,0.18L1273.45,298.5l-0.39,0.71v0.58l-0.37,0.45l-0.57,0.1l-0.51-0.29l-0.2-0.55l0.2-0.55l0.51-0.29l0.57,0.1l-0.43,0.74"/>
<path style="&st30;" d="M1358.68,353.34c0-0.78-0.63-1.41-1.42-1.41"/>
<path style="&st30;" d="M1357.26,351.93c-0.78,0-1.41,0.63-1.41,1.41"/>
<path style="&st30;" d="M1355.85,353.34c0,0.78,0.63,1.42,1.41,1.42"/>
<path style="&st30;" d="M1357.26,354.76c0.79,0,1.42-0.64,1.42-1.42"/>
<path style="&st30;" d="M1358.68,330.68c0-0.78-0.63-1.42-1.42-1.42"/>
<path style="&st30;" d="M1357.26,329.26c-0.78,0-1.41,0.64-1.41,1.42"/>
<path style="&st30;" d="M1355.85,330.68c0,0.78,0.63,1.42,1.41,1.42"/>
<path style="&st30;" d="M1357.26,332.1c0.79,0,1.42-0.64,1.42-1.42"/>
<path style="&st22;" d="M1221.26,448.26V265.48h586.24v182.78H1221.26z"/>
<text style='&st23; &st16;' ewd:textID='18' transform='matrix(1 0 0 1 1681.335 373.7266)'>Microphone</text>
<text style='&st23; &st16;' ewd:textID='16' transform='matrix(1 0 0 1 1370.2871 443.1553)'>Mayday Switch</text>
<text style='&st23; &st16;' ewd:textID='15' transform='matrix(1 0 0 1 1359.3848 464.3613)'>Map Light Assembly</text>
<text transform="matrix(1 0 0 1 1359.3848 456.7598)"><tspan x="0" y="0" style="&st23; &st16;">W7</tspan></text>
<text style='&st23; &st16;' ewd:textID='15' transform='matrix(1 0 0 1 1673.6055 464.3613)'>Map Light Assembly</text>
<text transform="matrix(1 0 0 1 1673.6055 456.7598)"><tspan x="0" y="0" style="&st23; &st16;">W7</tspan></text>
<text transform="matrix(1 0 0 1 1260.8262 261.7842)"><tspan x="0" y="0" style="&st23; &st16;">16</tspan></text>
<text transform="matrix(1 0 0 1 1276.5 273.1318)"><tspan x="0" y="0" style="&st23; &st16;">GND2</tspan></text>
<text transform="matrix(1 0 0 1 1226.8262 261.7842)"><tspan x="0" y="0" style="&st23; &st16;">15</tspan></text>
<text transform="matrix(1 0 0 1 1242.5 273.1318)"><tspan x="0" y="0" style="&st23; &st16;">GND1</tspan></text>
<text transform="matrix(1 0 0 1 1770.5547 261.7842)"><tspan x="0" y="0" style="&st23; &st16;">14</tspan></text>
<text transform="matrix(1 0 0 1 1786.2285 273.1318)"><tspan x="0" y="0" style="&st23; &st16;">SNS2</tspan></text>
<text transform="matrix(1 0 0 1 1413.8262 261.7842)"><tspan x="0" y="0" style="&st23; &st16;">18</tspan></text>
<text transform="matrix(1 0 0 1 1429.5 273.1318)"><tspan x="0" y="0" style="&st23; &st16;">IND2</tspan></text>
<text transform="matrix(1 0 0 1 1464.8262 261.7842)"><tspan x="0" y="0" style="&st23; &st16;">19</tspan></text>
<text transform="matrix(1 0 0 1 1480.5 273.1318)"><tspan x="0" y="0" style="&st23; &st16;">IND1</tspan></text>
<text transform="matrix(1 0 0 1 1328.8262 261.7842)"><tspan x="0" y="0" style="&st23; &st16;">17</tspan></text>
<text transform="matrix(1 0 0 1 1344.5 273.1318)"><tspan x="0" y="0" style="&st23; &st16;">RRID</tspan></text>
<text transform="matrix(1 0 0 1 1702.5547 261.7842)"><tspan x="0" y="0" style="&st23; &st16;">13</tspan></text>
<text transform="matrix(1 0 0 1 1718.2285 273.1318)"><tspan x="0" y="0" style="&st23; &st16;">MCO-</tspan></text>
<text transform="matrix(1 0 0 1 1668.5547 261.7842)"><tspan x="0" y="0" style="&st23; &st16;">12</tspan></text>
<text transform="matrix(1 0 0 1 1684.2285 273.1318)"><tspan x="0" y="0" style="&st23; &st16;">MCO+</tspan></text>
<text transform="matrix(1 0 0 1 1635.001 261.7842)"><tspan x="0" y="0" style="&st23; &st16;">11</tspan></text>
<text transform="matrix(1 0 0 1 1650.2295 273.1318)"><tspan x="0" y="0" style="&st23; &st16;">MACC</tspan></text>
<text transform="matrix(1 0 0 1 1362.8262 261.7842)"><tspan x="0" y="0" style="&st23; &st16;">20</tspan></text>
<text transform="matrix(1 0 0 1 1378.5 273.1318)"><tspan x="0" y="0" style="&st23; &st16;">SIG2</tspan></text>
<text transform="matrix(1 0 0 1 1298.1631 261.7842)"><tspan x="0" y="0" style="&st23; &st16;">3</tspan></text>
<text transform="matrix(1 0 0 1 1310.5 273.1318)"><tspan x="0" y="0" style="&st23; &st16;">GND</tspan></text>
</g>
<text transform="matrix(0 -1 1 0 1003.8037 262.8164)"><tspan x="0" y="0" style="&st23; &st16;">(*4)</tspan></text>
<text transform="matrix(0 -1 1 0 1302.5508 136.5488)"><tspan x="0" y="0" style="&st23; &st16;">LG</tspan></text>
<text transform="matrix(0 -1 1 0 1302.5508 230.1094)"><tspan x="0" y="0" style="&st23; &st16;">LG</tspan></text>
<text transform="matrix(0 -1 1 0 1370.5508 134.8804)"><tspan x="0" y="0" style="&st23; &st16;">G</tspan></text>
<text transform="matrix(0 -1 1 0 1370.5508 228.4409)"><tspan x="0" y="0" style="&st23; &st16;">G</tspan></text>
<text transform="matrix(0 -1 1 0 1336.5508 134.8804)"><tspan x="0" y="0" style="&st23; &st16;">G</tspan></text>
<text transform="matrix(0 -1 1 0 1336.5508 228.4409)"><tspan x="0" y="0" style="&st23; &st16;">G</tspan></text>
<text transform="matrix(0 -1 1 0 1472.5508 134.5479)"><tspan x="0" y="0" style="&st23; &st16;">P</tspan></text>
<text transform="matrix(0 -1 1 0 1472.5508 228.1084)"><tspan x="0" y="0" style="&st23; &st16;">P</tspan></text>
<text transform="matrix(0 -1 1 0 1421.5508 134.2153)"><tspan x="0" y="0" style="&st23; &st16;">L</tspan></text>
<text transform="matrix(0 -1 1 0 1421.5508 227.7759)"><tspan x="0" y="0" style="&st23; &st16;">L</tspan></text>
<text transform="matrix(0 -1 1 0 1234.5508 231.8848)"><tspan x="0" y="0" style="&st23; &st16;">W-B</tspan></text>
<text transform="matrix(0 -1 1 0 1268.5508 231.8848)"><tspan x="0" y="0" style="&st23; &st16;">W-B</tspan></text>
<text transform="matrix(0 -1 1 0 1170.8008 231.8848)"><tspan x="0" y="0" style="&st23; &st16;">W-B</tspan></text>
<text transform="matrix(0 -1 1 0 1170.8027 325.4453)"><tspan x="0" y="0" style="&st23; &st16;">W-B</tspan></text>
<text transform="matrix(0 -1 1 0 1170.8027 439.1963)"><tspan x="0" y="0" style="&st23; &st16;">W-B</tspan></text>
<text transform="matrix(0 -1 1 0 1085.8008 134.5479)"><tspan x="0" y="0" style="&st23; &st16;">V</tspan></text>
<text transform="matrix(0 -1 1 0 1085.7998 258.9229)"><tspan x="0" y="0" style="&st23; &st16;">V</tspan></text>
<text transform="matrix(0 -1 1 0 1003.8047 354.3164)"><tspan x="0" y="0" style="&st23; &st16;">(*4)</tspan></text>
<text transform="matrix(0 -1 1 0 1003.8047 426.627)"><tspan x="0" y="0" style="&st23; &st16;">(*4)</tspan></text>
<text transform="matrix(0 -1 1 0 1003.8047 498.9375)"><tspan x="0" y="0" style="&st23; &st16;">(*4)</tspan></text>
</svg>
