﻿<?xml version="1.0" encoding="UTF-8"?>
<!DOCTYPE svg PUBLIC "-//W3C//DTD SVG 1.0//EN" "http://www.w3.org/TR/2001/REC-SVG-20010904/DTD/svg10.dtd"[
<!ENTITY ns_flows "http://ns.adobe.com/Flows/1.0/">
<!ENTITY ns_svg "http://www.w3.org/2000/svg">
<!ENTITY ns_xlink "http://www.w3.org/1999/xlink">
	<!ENTITY st0 "fill:none;stroke:#F8E616;stroke-width:5.1;stroke-linejoin:round;">
	<!ENTITY st1 "fill:none;stroke:#FB0F0C;stroke-width:5.1;stroke-linejoin:round;">
	<!ENTITY st2 "fill:none;stroke:#9A9999;stroke-width:5.1;stroke-linejoin:round;">
	<!ENTITY st3 "fill:none;stroke:#99280B;stroke-width:5.1;stroke-linejoin:round;">
	<!ENTITY st4 "fill:none;stroke:#000000;stroke-width:5.1;stroke-linejoin:round;">
	<!ENTITY st5 "fill:none;stroke:#000000;stroke-linecap:round;stroke-linejoin:round;">
	<!ENTITY st6 "stroke:#000000;stroke-width:0.28;stroke-linecap:round;stroke-linejoin:round;">
	<!ENTITY st7 "enable-background:new    ;">
		<!ENTITY st8 "fill:none;stroke:#000000;stroke-width:1.42;stroke-linecap:round;stroke-linejoin:round;enable-background:new    ;">
	<!ENTITY st9 "fill:none;stroke:#090909;stroke-width:0.85;stroke-linecap:round;stroke-linejoin:round;">
	<!ENTITY st10 "fill:none;stroke:#EE67AA;stroke-width:5.1;stroke-linejoin:round;">
	<!ENTITY st11 "fill:none;stroke:#199DBF;stroke-width:5.1;stroke-linejoin:round;">
	<!ENTITY st12 "opacity:0.5;fill:none;stroke:#34ACCE;stroke-linejoin:round;stroke-dasharray:6;">
	<!ENTITY st13 "fill:none;stroke:#FFFFFF;stroke-width:4.53;stroke-linejoin:round;">
		<!ENTITY st14 "fill:none;stroke:#000000;stroke-width:0.85;stroke-linecap:round;stroke-linejoin:round;enable-background:new    ;">
	<!ENTITY st15 "fill:none;stroke:#56107C;stroke-width:5.1;stroke-linejoin:round;">
	<!ENTITY st16 "font-size:6px;">
	<!ENTITY st17 "fill:none;stroke:#168638;stroke-width:5.1;stroke-linejoin:round;">
	<!ENTITY st18 "fill:none;stroke:#000000;stroke-width:1.13;stroke-linejoin:round;">
	<!ENTITY st19 "fill:#CCCCCC;stroke:#CECECF;stroke-width:0.1;stroke-linecap:round;stroke-linejoin:round;">
	<!ENTITY st20 "fill:#FFFFFF;stroke:#000000;stroke-width:1.41;stroke-linecap:round;stroke-linejoin:round;">
	<!ENTITY st21 "fill:none;stroke:#3E65AC;stroke-width:3;">
	<!ENTITY st22 "fill:none;stroke:#000000;stroke-width:1.42;stroke-linejoin:round;">
	<!ENTITY st23 "font-family:'Arial';">
	<!ENTITY st24 "opacity:0.5;fill:none;stroke:#34ACCE;stroke-linejoin:round;">
	<!ENTITY st25 "fill:none;stroke:#000000;stroke-width:1.42;stroke-linecap:round;stroke-linejoin:round;">
	<!ENTITY st26 "fill:#CFE6E7;stroke:#000000;stroke-width:1.133;stroke-linecap:round;stroke-linejoin:round;">
	<!ENTITY st27 "fill:none;stroke:#090909;stroke-width:0.85;stroke-linecap:round;stroke-linejoin:round;stroke-dasharray:3 1.5;">
	<!ENTITY st28 "fill:none;stroke:#000000;stroke-width:0.85;stroke-linecap:round;stroke-linejoin:round;stroke-dasharray:3 1.5;">
	<!ENTITY st29 "fill:#CFE6E7;stroke:#000000;stroke-width:1.13;stroke-linejoin:round;">
	<!ENTITY st30 "fill:none;stroke:#000000;stroke-width:0.85;stroke-linecap:round;stroke-linejoin:round;">
	<!ENTITY st31 "fill:none;stroke:#7EC57E;stroke-width:5.1;stroke-linejoin:round;">
<!ATTLIST svg
xmlns:ewd CDATA #FIXED "http://shcl.co.jp/ewd"
xmlns:a CDATA #FIXED "http://ns.adobe.com/AdobeSVGViewerExtensions/3.0/"
ewd:ver CDATA #IMPLIED
>
<!ATTLIST a
ewd:lineID CDATA #IMPLIED
ewd:groupID CDATA #IMPLIED
ewd:figtype CDATA #IMPLIED
ewd:code CDATA #IMPLIED
ewd:figID CDATA #IMPLIED
ewd:pinNo CDATA #IMPLIED
ewd:comment CDATA #IMPLIED >
<!ATTLIST g
ewd:lineID CDATA #IMPLIED
ewd:groupID CDATA #IMPLIED
ewd:figtype CDATA #IMPLIED
ewd:code CDATA #IMPLIED
ewd:figID CDATA #IMPLIED
ewd:pinNo CDATA #IMPLIED
ewd:comment CDATA #IMPLIED >
<!ATTLIST text
ewd:textID CDATA #IMPLIED >
<!ATTLIST title
ewd:textID CDATA #IMPLIED >
]>
<svg 
viewBox='0 0 3631.87 729.44'
height='729.44'
width='3631.87'
xml:space="preserve"
xmlns="&ns_svg;"
xmlns:ewd="http://shcl.co.jp/ewd"
xmlns:xlink="&ns_xlink;" ewd:ver="L2.3">
<g ewd:code="GA2" ewd:figID="6001" ewd:figtype="w2w" ewd:pinNo="27">
<path style="&st20;" d="M167.25,182.54h8.5"/>
<path style="&st25;" d="M171.51,173.47l4.24,4.25l4.25-4.25"/>
<path style="&st25;" d="M180,176.88l-4.25,4.25l-4.24-4.25"/>
<text transform="matrix(1 0 0 1 157.2227 188.8115)"><tspan x="0" y="0" style="&st23; &st16;">27</tspan></text>
</g>
<g ewd:code="364001" ewd:figID="5001" ewd:figtype="sp">
<path style="&st25;" d="M120.5,179.01l-4.97-4.97"/>
<path style="&st25;" d="M103.5,186.07l4.97,4.97"/>
<path style="&st25;" d="M115.53,191.04l4.97-4.97"/>
<path style="&st25;" d="M108.47,174.04l-4.97,4.97"/>
</g>
<g ewd:code="FUSE120" ewd:figID="4001" ewd:figtype="rb">
<path style="&st25;" d="M175.75,70.71c2.74-1.61,3.65-5.14,2.04-7.88"/>
<path style="&st25;" d="M163,39.55v42.49h25.5V39.55H163"/>
<path style="&st30;" d="M175.75,73.54c0.78,0,1.42-0.63,1.42-1.41"/>
<path style="&st30;" d="M175.75,73.54v25.5"/>
<path style="&st6;" d="M175.75,94.14l-2.83-2.83v4.25l2.83,2.83l2.83-2.83v-4.25L175.75,94.14"/>
<path style="&st25;" d="M175.75,50.88c-2.74,1.61-3.65,5.14-2.03,7.88"/>
<path style="&st25;" d="M173.72,58.76c0.51,0.88,1.15,1.52,2.03,2.04"/>
<path style="&st25;" d="M177.79,62.83c-0.52-0.88-1.16-1.51-2.04-2.03"/>
<path style="&st30;" d="M177.17,49.46c0-0.78-0.64-1.41-1.42-1.41"/>
<path style="&st30;" d="M175.75,48.05c-0.78,0-1.41,0.63-1.41,1.41"/>
<path style="&st30;" d="M174.34,49.46c0,0.79,0.63,1.42,1.41,1.42"/>
<path style="&st30;" d="M175.75,50.88c0.78,0,1.42-0.63,1.42-1.42"/>
<path style="&st30;" d="M177.17,72.13c0-0.79-0.64-1.42-1.42-1.42"/>
<path style="&st30;" d="M175.75,70.71c-0.78,0-1.41,0.63-1.41,1.42"/>
<path style="&st30;" d="M174.34,72.13c0,0.78,0.63,1.41,1.41,1.41"/>
<path style="&st25;" d="M177.88,99.04h-4.25"/>
<path style="&st25;" d="M177.88,107.54h-4.25"/>
<path style="&st25;" d="M173.63,99.04c-2.35,0-4.25,1.9-4.25,4.25"/>
<path style="&st25;" d="M169.38,103.29c0,2.35,1.9,4.25,4.25,4.25"/>
<path style="&st25;" d="M177.88,107.54c2.34,0,4.25-1.9,4.25-4.25"/>
<path style="&st25;" d="M182.13,103.29c0-2.35-1.91-4.25-4.25-4.25"/>
<text transform="matrix(1 0 0 1 193.0605 59.9355)"><tspan x="0" y="0" style="&st23; &st16;">7.5A</tspan></text>
<text transform="matrix(1 0 0 1 193.0605 65.9355)"><tspan x="0" y="0" style="&st23; &st16;">MAYDAY</tspan></text>
<text transform="matrix(1 0 0 1 168.1401 35.8457)"><tspan x="0" y="0" style="&st23; &st16;">(BAT)</tspan></text>
<text transform="matrix(1 0 0 1 174.0815 105.2559)"><tspan x="0" y="0" style="&st23; &st16;">1</tspan></text>
<text transform="matrix(1 0 0 1 169.124 90.2363)"><tspan x="0" y="0" style="&st23; &st16;">2</tspan></text>
</g>
<g ewd:code="2" ewd:figID="3002" ewd:figtype="jb">
<path style="&st30;" d="M48.25,99.04v-17"/>
<path style="&st6;" d="M48.25,94.15l-2.83-2.84v4.25l2.83,2.84l2.83-2.84V91.3L48.25,94.15"/>
<path style="&st25;" d="M50.38,107.54h-4.25"/>
<path style="&st25;" d="M50.38,99.04h-4.25"/>
<path style="&st25;" d="M54.63,103.29c0-2.35-1.91-4.25-4.25-4.25"/>
<path style="&st25;" d="M50.38,107.54c2.34,0,4.25-1.9,4.25-4.25"/>
<path style="&st25;" d="M41.88,103.29c0,2.35,1.9,4.25,4.25,4.25"/>
<path style="&st25;" d="M46.13,99.04c-2.35,0-4.25,1.9-4.25,4.25"/>
<path style="&st25;" d="M35.5,39.55v42.49H61V39.55H35.5"/>
<path style="&st25;" d="M48.25,70.71c2.74-1.61,3.65-5.14,2.04-7.88"/>
<path style="&st30;" d="M48.25,73.54c0.78,0,1.42-0.63,1.42-1.41"/>
<path style="&st30;" d="M48.25,73.54v8.5"/>
<path style="&st25;" d="M48.25,50.88c-2.74,1.61-3.65,5.14-2.03,7.88"/>
<path style="&st25;" d="M46.22,58.76c0.51,0.88,1.15,1.52,2.03,2.04"/>
<path style="&st25;" d="M50.29,62.83c-0.52-0.88-1.16-1.51-2.04-2.03"/>
<path style="&st30;" d="M49.67,49.46c0-0.78-0.64-1.41-1.42-1.41"/>
<path style="&st30;" d="M48.25,48.05c-0.78,0-1.41,0.63-1.41,1.41"/>
<path style="&st30;" d="M46.84,49.46c0,0.79,0.63,1.42,1.41,1.42"/>
<path style="&st30;" d="M48.25,50.88c0.78,0,1.42-0.63,1.42-1.42"/>
<path style="&st30;" d="M49.67,72.13c0-0.79-0.64-1.42-1.42-1.42"/>
<path style="&st30;" d="M48.25,70.71c-0.78,0-1.41,0.63-1.41,1.42"/>
<path style="&st30;" d="M46.84,72.13c0,0.78,0.63,1.41,1.41,1.41"/>
<text transform="matrix(1 0 0 1 31.8633 105.2559)"><tspan x="0" y="0" style="&st23; &st16;">17</tspan></text>
<text transform="matrix(1 0 0 1 44.415 105.2559)"><tspan x="0" y="0" style="&st23; &st16;">2D</tspan></text>
<text transform="matrix(1 0 0 1 65.5605 59.9355)"><tspan x="0" y="0" style="&st23; &st16;">7.5A</tspan></text>
<text transform="matrix(1 0 0 1 65.5605 65.9355)"><tspan x="0" y="0" style="&st23; &st16;">ACC</tspan></text>
<text transform="matrix(1 0 0 1 39.918 35.8457)"><tspan x="0" y="0" style="&st23; &st16;">(ACC)</tspan></text>
<text transform="matrix(1 0 0 1 41.624 90.2363)"><tspan x="0" y="0" style="&st23; &st16;">2</tspan></text>
</g>
<g ewd:code="2" ewd:figID="3003" ewd:figtype="jb">
<path style="&st30;" d="M112,99.04v-17"/>
<path style="&st6;" d="M112,94.15l-2.83-2.84v4.25L112,98.4l2.83-2.84V91.3L112,94.15"/>
<path style="&st25;" d="M114.13,107.54h-4.25"/>
<path style="&st25;" d="M114.13,99.04h-4.25"/>
<path style="&st25;" d="M118.38,103.29c0-2.35-1.91-4.25-4.25-4.25"/>
<path style="&st25;" d="M114.13,107.54c2.34,0,4.25-1.9,4.25-4.25"/>
<path style="&st25;" d="M105.63,103.29c0,2.35,1.9,4.25,4.25,4.25"/>
<path style="&st25;" d="M109.88,99.04c-2.35,0-4.25,1.9-4.25,4.25"/>
<path style="&st25;" d="M99.25,39.55v42.49h25.5V39.55H99.25"/>
<path style="&st25;" d="M112,70.71c2.74-1.61,3.65-5.14,2.04-7.88"/>
<path style="&st30;" d="M112,73.54c0.78,0,1.42-0.63,1.42-1.41"/>
<path style="&st30;" d="M112,73.54v8.5"/>
<path style="&st25;" d="M112,50.88c-2.74,1.61-3.65,5.14-2.03,7.88"/>
<path style="&st25;" d="M109.97,58.76c0.51,0.88,1.15,1.52,2.03,2.04"/>
<path style="&st25;" d="M114.04,62.83c-0.52-0.88-1.16-1.51-2.04-2.03"/>
<path style="&st30;" d="M113.42,49.46c0-0.78-0.64-1.41-1.42-1.41"/>
<path style="&st30;" d="M112,48.05c-0.78,0-1.41,0.63-1.41,1.41"/>
<path style="&st30;" d="M110.59,49.46c0,0.79,0.63,1.42,1.41,1.42"/>
<path style="&st30;" d="M112,50.88c0.78,0,1.42-0.63,1.42-1.42"/>
<path style="&st30;" d="M113.42,72.13c0-0.79-0.64-1.42-1.42-1.42"/>
<path style="&st30;" d="M112,70.71c-0.78,0-1.41,0.63-1.41,1.42"/>
<path style="&st30;" d="M110.59,72.13c0,0.78,0.63,1.41,1.41,1.41"/>
<text transform="matrix(1 0 0 1 95.6133 105.2559)"><tspan x="0" y="0" style="&st23; &st16;">51</tspan></text>
<text transform="matrix(1 0 0 1 108.3306 105.2559)"><tspan x="0" y="0" style="&st23; &st16;">2A</tspan></text>
<text transform="matrix(1 0 0 1 129.3105 59.9355)"><tspan x="0" y="0" style="&st23; &st16;">10A</tspan></text>
<text transform="matrix(1 0 0 1 129.3105 65.9355)"><tspan x="0" y="0" style="&st23; &st16;">IGN</tspan></text>
<text transform="matrix(1 0 0 1 106.835 35.8457)"><tspan x="0" y="0" style="&st23; &st16;">(IG)</tspan></text>
<text transform="matrix(1 0 0 1 105.374 90.2363)"><tspan x="0" y="0" style="&st23; &st16;">2</tspan></text>
</g>
<g ewd:code="3JB" ewd:figID="3001" ewd:figtype="jb">
<path style="&st6;" d="M48.25,270.93l2.83,2.84v-4.25l-2.83-2.84l-2.83,2.84v4.25L48.25,270.93"/>
<path style="&st30;" d="M48.25,283.04v-17"/>
<path style="&st6;" d="M48.25,295.15l-2.83-2.84v4.25l2.83,2.84l2.83-2.84v-4.25L48.25,295.15"/>
<path style="&st30;" d="M48.25,300.04v-17"/>
<path style="&st25;" d="M50.38,308.54h-4.25"/>
<path style="&st25;" d="M50.38,300.04h-4.25"/>
<path style="&st25;" d="M54.63,304.29c0-2.35-1.91-4.25-4.25-4.25"/>
<path style="&st25;" d="M50.38,308.54c2.34,0,4.25-1.9,4.25-4.25"/>
<path style="&st25;" d="M41.88,304.29c0,2.35,1.9,4.25,4.25,4.25"/>
<path style="&st25;" d="M46.13,300.04c-2.35,0-4.25,1.9-4.25,4.25"/>
<path style="&st25;" d="M50.38,266.04h-4.25"/>
<path style="&st25;" d="M50.38,257.54h-4.25"/>
<path style="&st25;" d="M54.63,261.79c0-2.35-1.91-4.25-4.25-4.25"/>
<path style="&st25;" d="M50.38,266.04c2.34,0,4.25-1.9,4.25-4.25"/>
<path style="&st25;" d="M41.88,261.79c0,2.35,1.9,4.25,4.25,4.25"/>
<path style="&st25;" d="M46.13,257.54c-2.35,0-4.25,1.9-4.25,4.25"/>
<text transform="matrix(1 0 0 1 31.8633 306.2568)"><tspan x="0" y="0" style="&st23; &st16;">41</tspan></text>
<text transform="matrix(1 0 0 1 44.5806 306.2568)"><tspan x="0" y="0" style="&st23; &st16;">3A</tspan></text>
<text transform="matrix(1 0 0 1 31.8555 263.7559)"><tspan x="0" y="0" style="&st23; &st16;">32</tspan></text>
<text transform="matrix(1 0 0 1 44.5806 263.7559)"><tspan x="0" y="0" style="&st23; &st16;">3B</tspan></text>
</g>
<g ewd:code="3JB" ewd:figID="3004" ewd:figtype="jb">
<path style="&st6;" d="M112,270.93l2.83,2.84v-4.25l-2.83-2.84l-2.83,2.84v4.25L112,270.93"/>
<path style="&st30;" d="M112,283.04v-17"/>
<path style="&st6;" d="M112,295.15l-2.83-2.84v4.25l2.83,2.84l2.83-2.84v-4.25L112,295.15"/>
<path style="&st30;" d="M112,300.04v-17"/>
<path style="&st25;" d="M114.13,308.54h-4.25"/>
<path style="&st25;" d="M114.13,300.04h-4.25"/>
<path style="&st25;" d="M118.38,304.29c0-2.35-1.91-4.25-4.25-4.25"/>
<path style="&st25;" d="M114.13,308.54c2.34,0,4.25-1.9,4.25-4.25"/>
<path style="&st25;" d="M105.63,304.29c0,2.35,1.9,4.25,4.25,4.25"/>
<path style="&st25;" d="M109.88,300.04c-2.35,0-4.25,1.9-4.25,4.25"/>
<path style="&st25;" d="M114.13,266.04h-4.25"/>
<path style="&st25;" d="M114.13,257.54h-4.25"/>
<path style="&st25;" d="M118.38,261.79c0-2.35-1.91-4.25-4.25-4.25"/>
<path style="&st25;" d="M114.13,266.04c2.34,0,4.25-1.9,4.25-4.25"/>
<path style="&st25;" d="M105.63,261.79c0,2.35,1.9,4.25,4.25,4.25"/>
<path style="&st25;" d="M109.88,257.54c-2.35,0-4.25,1.9-4.25,4.25"/>
<text transform="matrix(1 0 0 1 95.6133 306.2559)"><tspan x="0" y="0" style="&st23; &st16;">42</tspan></text>
<text transform="matrix(1 0 0 1 108.3306 306.2559)"><tspan x="0" y="0" style="&st23; &st16;">3A</tspan></text>
<text transform="matrix(1 0 0 1 95.6055 263.7559)"><tspan x="0" y="0" style="&st23; &st16;">78</tspan></text>
<text transform="matrix(1 0 0 1 108.3306 263.7559)"><tspan x="0" y="0" style="&st23; &st16;">3A</tspan></text>
</g>
<g ewd:code="3JB" ewd:figID="3005" ewd:figtype="jb">
<path style="&st6;" d="M367,209.53l-2.83-2.84v4.25l2.83,2.84l2.83-2.84v-4.25L367,209.53"/>
<path style="&st30;" d="M367,214.42v-17"/>
<path style="&st6;" d="M367,185.31l2.83,2.84v-4.25l-2.83-2.84l-2.83,2.84v4.25L367,185.31"/>
<path style="&st30;" d="M367,197.42v-17"/>
<path style="&st25;" d="M369.13,180.42h-4.25"/>
<path style="&st25;" d="M369.13,171.92h-4.25"/>
<path style="&st25;" d="M373.38,176.17c0-2.35-1.91-4.25-4.25-4.25"/>
<path style="&st25;" d="M369.13,180.42c2.34,0,4.25-1.9,4.25-4.25"/>
<path style="&st25;" d="M360.63,176.17c0,2.35,1.9,4.25,4.25,4.25"/>
<path style="&st25;" d="M364.88,171.92c-2.35,0-4.25,1.9-4.25,4.25"/>
<path style="&st25;" d="M369.13,222.92h-4.25"/>
<path style="&st25;" d="M369.13,214.42h-4.25"/>
<path style="&st25;" d="M373.38,218.67c0-2.35-1.91-4.25-4.25-4.25"/>
<path style="&st25;" d="M369.13,222.92c2.34,0,4.25-1.9,4.25-4.25"/>
<path style="&st25;" d="M360.63,218.67c0,2.35,1.9,4.25,4.25,4.25"/>
<path style="&st25;" d="M364.88,214.42c-2.35,0-4.25,1.9-4.25,4.25"/>
<text transform="matrix(1 0 0 1 350.6055 178.1426)"><tspan x="0" y="0" style="&st23; &st16;">46</tspan></text>
<text transform="matrix(1 0 0 1 363.3306 178.1426)"><tspan x="0" y="0" style="&st23; &st16;">3A</tspan></text>
<text transform="matrix(1 0 0 1 350.6055 220.6426)"><tspan x="0" y="0" style="&st23; &st16;">96</tspan></text>
<text transform="matrix(1 0 0 1 363.3306 220.6426)"><tspan x="0" y="0" style="&st23; &st16;">3A</tspan></text>
</g>
<g ewd:code="2" ewd:figID="3006" ewd:figtype="jb">
<path style="&st6;" d="M430.75,209.53l-2.83-2.84v4.25l2.83,2.84l2.83-2.84v-4.25L430.75,209.53"/>
<path style="&st30;" d="M430.75,214.42v-17"/>
<path style="&st6;" d="M430.75,185.31l2.83,2.84v-4.25l-2.83-2.84l-2.83,2.84v4.25L430.75,185.31"/>
<path style="&st30;" d="M430.75,197.42v-17"/>
<path style="&st25;" d="M432.88,180.42h-4.25"/>
<path style="&st25;" d="M432.88,171.92h-4.25"/>
<path style="&st25;" d="M437.13,176.17c0-2.35-1.91-4.25-4.25-4.25"/>
<path style="&st25;" d="M432.88,180.42c2.34,0,4.25-1.9,4.25-4.25"/>
<path style="&st25;" d="M424.38,176.17c0,2.35,1.9,4.25,4.25,4.25"/>
<path style="&st25;" d="M428.63,171.92c-2.35,0-4.25,1.9-4.25,4.25"/>
<path style="&st25;" d="M432.88,222.92h-4.25"/>
<path style="&st25;" d="M432.88,214.42h-4.25"/>
<path style="&st25;" d="M437.13,218.67c0-2.35-1.91-4.25-4.25-4.25"/>
<path style="&st25;" d="M432.88,222.92c2.34,0,4.25-1.9,4.25-4.25"/>
<path style="&st25;" d="M424.38,218.67c0,2.35,1.9,4.25,4.25,4.25"/>
<path style="&st25;" d="M428.63,214.42c-2.35,0-4.25,1.9-4.25,4.25"/>
<text transform="matrix(1 0 0 1 414.3555 178.1426)"><tspan x="0" y="0" style="&st23; &st16;">50</tspan></text>
<text transform="matrix(1 0 0 1 427.0806 178.1426)"><tspan x="0" y="0" style="&st23; &st16;">2A</tspan></text>
<text transform="matrix(1 0 0 1 417.6924 220.6426)"><tspan x="0" y="0" style="&st23; &st16;">8</tspan></text>
<text transform="matrix(1 0 0 1 427.0806 220.6426)"><tspan x="0" y="0" style="&st23; &st16;">2A</tspan></text>
</g>
<g ewd:code="G3" ewd:figID="2001" ewd:figtype="gp">
<path style="&st30;" d="M365.58,713.77h2.83"/>
<path style="&st30;" d="M364.16,710.93h5.67"/>
<path style="&st30;" d="M362.75,708.09h8.5"/>
<path style="&st30;" d="M358.5,705.26h17"/>
<path style="&st30;" d="M367,701.01v4.25"/>
</g>
<g ewd:code="G166,G168" ewd:figID="1" ewd:figtype="conn">
<path style="&st25;" d="M39.75,174.04h17v17h-17V174.04"/>
<path style="&st30;" d="M48.25,174.04v17"/>
<path style="&st25;" d="M52.77,195.54c0-2.48-2.02-4.5-4.5-4.5"/>
<path style="&st25;" d="M48.24,191.04c-2.48,0-4.5,2.02-4.5,4.5"/>
<path style="&st25;" d="M43.74,195.54c0,2.48,2.02,4.5,4.5,4.5"/>
<path style="&st25;" d="M48.27,200.04c2.48,0,4.5-2.02,4.5-4.5"/>
<path style="&st25;" d="M52.77,169.54c0-2.48-2.02-4.5-4.5-4.5"/>
<path style="&st25;" d="M48.24,165.04c-2.48,0-4.5,2.02-4.5,4.5"/>
<path style="&st25;" d="M43.74,169.54c0,2.48,2.02,4.5,4.5,4.5"/>
<path style="&st25;" d="M48.27,174.04c2.48,0,4.5-2.02,4.5-4.5"/>
<text style='&st23; &st16;' ewd:textID='13' transform='matrix(0 -1 1 0 71.4004 193.5566)'>Junction Connector</text>
<text transform="matrix(0 -1 1 0 64.3594 193.5566)"><tspan x="0" y="0" style="&st23; &st16;">G166(E),G168(F)</tspan></text>
<text transform="matrix(1 0 0 1 34.8047 197.5059)"><tspan x="0" y="0" style="&st23; &st16;">12</tspan></text>
<text transform="matrix(1 0 0 1 46.4175 197.5059)"><tspan x="0" y="0" style="&st23; &st16;">F</tspan></text>
<text transform="matrix(1 0 0 1 38.1416 171.4746)"><tspan x="0" y="0" style="&st23; &st16;">7</tspan></text>
<text transform="matrix(1 0 0 1 46.249 171.4746)"><tspan x="0" y="0" style="&st23; &st16;">E</tspan></text>
</g>
<g ewd:code="G1-A" ewd:figID="3" ewd:figtype="conn">
<path style="&st22;" d="M413.75,349.92v-34h34v34H413.75z"/>
<path style="&st25;" d="M435.27,311.42c0-2.48-2.02-4.5-4.5-4.5"/>
<path style="&st25;" d="M430.73,306.92c-2.48,0-4.5,2.02-4.5,4.5"/>
<path style="&st25;" d="M426.23,311.42c0,2.48,2.02,4.5,4.5,4.5"/>
<path style="&st25;" d="M430.77,315.92c2.48,0,4.5-2.02,4.5-4.5"/>
<text style='&st23; &st16;' ewd:textID='6' transform='matrix(0 -1 1 0 461.7246 352.0469)'>Airbag Sensor Assembly</text>
<text transform="matrix(0 -1 1 0 454.123 352.0469)"><tspan x="0" y="0" style="&st23; &st16;">G1(A)</tspan></text>
<text transform="matrix(1 0 0 1 417.3047 313.3613)"><tspan x="0" y="0" style="&st23; &st16;">24</tspan></text>
<text transform="matrix(1 0 0 1 428.749 313.3613)"><tspan x="0" y="0" style="&st23; &st16;">A</tspan></text>
<text transform="matrix(1 0 0 1 421.9155 323.5713)"><tspan x="0" y="0" style="&st23; &st16;">GSW3</tspan></text>
</g>
<g ewd:code="G187,H82,H83" ewd:figID="2" ewd:figtype="conn">
<path style="&st22;" d="M222.5,84.17V39.55h2211.75v44.63H222.5z"/>
<path style="&st25;" d="M2120.03,88.67c0-2.48-2.02-4.5-4.5-4.5"/>
<path style="&st25;" d="M2115.5,84.17c-2.48,0-4.5,2.02-4.5,4.5"/>
<path style="&st25;" d="M2111,88.67c0,2.48,2.02,4.5,4.5,4.5"/>
<path style="&st25;" d="M2115.53,93.17c2.48,0,4.5-2.02,4.5-4.5"/>
<path style="&st25;" d="M2154.03,88.67c0-2.48-2.02-4.5-4.5-4.5"/>
<path style="&st25;" d="M2149.5,84.17c-2.48,0-4.5,2.02-4.5,4.5"/>
<path style="&st25;" d="M2145,88.67c0,2.48,2.02,4.5,4.5,4.5"/>
<path style="&st25;" d="M2149.53,93.17c2.48,0,4.5-2.02,4.5-4.5"/>
<path style="&st25;" d="M1718.49,88.67c0-2.48-2.02-4.5-4.5-4.5"/>
<path style="&st25;" d="M1713.96,84.17c-2.48,0-4.5,2.02-4.5,4.5"/>
<path style="&st25;" d="M1709.46,88.67c0,2.48,2.02,4.5,4.5,4.5"/>
<path style="&st25;" d="M1713.99,93.17c2.48,0,4.5-2.02,4.5-4.5"/>
<path style="&st25;" d="M1684.49,88.67c0-2.48-2.02-4.5-4.5-4.5"/>
<path style="&st25;" d="M1679.96,84.17c-2.48,0-4.5,2.02-4.5,4.5"/>
<path style="&st25;" d="M1675.46,88.67c0,2.48,2.02,4.5,4.5,4.5"/>
<path style="&st25;" d="M1679.99,93.17c2.48,0,4.5-2.02,4.5-4.5"/>
<path style="&st25;" d="M1650.5,88.67c0-2.48-2.02-4.5-4.5-4.5"/>
<path style="&st25;" d="M1645.96,84.17c-2.48,0-4.5,2.02-4.5,4.5"/>
<path style="&st25;" d="M1641.46,88.67c0,2.48,2.02,4.5,4.5,4.5"/>
<path style="&st25;" d="M1646,93.17c2.48,0,4.5-2.02,4.5-4.5"/>
<path style="&st25;" d="M1752.49,88.67c0-2.48-2.02-4.5-4.5-4.5"/>
<path style="&st25;" d="M1747.96,84.17c-2.48,0-4.5,2.02-4.5,4.5"/>
<path style="&st25;" d="M1743.46,88.67c0,2.48,2.02,4.5,4.5,4.5"/>
<path style="&st25;" d="M1747.99,93.17c2.48,0,4.5-2.02,4.5-4.5"/>
<path style="&st25;" d="M1378.77,88.67c0-2.48-2.02-4.5-4.5-4.5"/>
<path style="&st25;" d="M1374.24,84.17c-2.48,0-4.5,2.02-4.5,4.5"/>
<path style="&st25;" d="M1369.74,88.67c0,2.48,2.02,4.5,4.5,4.5"/>
<path style="&st25;" d="M1374.27,93.17c2.48,0,4.5-2.02,4.5-4.5"/>
<path style="&st25;" d="M1310.77,88.67c0-2.48-2.02-4.5-4.5-4.5"/>
<path style="&st25;" d="M1306.24,84.17c-2.48,0-4.5,2.02-4.5,4.5"/>
<path style="&st25;" d="M1301.74,88.67c0,2.48,2.02,4.5,4.5,4.5"/>
<path style="&st25;" d="M1306.27,93.17c2.48,0,4.5-2.02,4.5-4.5"/>
<path style="&st25;" d="M1956.5,88.67c0-2.48-2.02-4.5-4.5-4.5"/>
<path style="&st25;" d="M1951.97,84.17c-2.48,0-4.5,2.02-4.5,4.5"/>
<path style="&st25;" d="M1947.47,88.67c0,2.48,2.02,4.5,4.5,4.5"/>
<path style="&st25;" d="M1952,93.17c2.48,0,4.5-2.02,4.5-4.5"/>
<path style="&st25;" d="M1999,88.67c0-2.48-2.02-4.5-4.5-4.5"/>
<path style="&st25;" d="M1994.47,84.17c-2.48,0-4.5,2.02-4.5,4.5"/>
<path style="&st25;" d="M1989.97,88.67c0,2.48,2.02,4.5,4.5,4.5"/>
<path style="&st25;" d="M1994.5,93.17c2.48,0,4.5-2.02,4.5-4.5"/>
<path style="&st25;" d="M2421.78,88.67c0-2.48-2.02-4.5-4.5-4.5"/>
<path style="&st25;" d="M2417.25,84.17c-2.48,0-4.5,2.02-4.5,4.5"/>
<path style="&st25;" d="M2412.75,88.67c0,2.48,2.02,4.5,4.5,4.5"/>
<path style="&st25;" d="M2417.28,93.17c2.48,0,4.5-2.02,4.5-4.5"/>
<path style="&st25;" d="M2379.28,88.67c0-2.48-2.02-4.5-4.5-4.5"/>
<path style="&st25;" d="M2374.75,84.17c-2.48,0-4.5,2.02-4.5,4.5"/>
<path style="&st25;" d="M2370.25,88.67c0,2.48,2.02,4.5,4.5,4.5"/>
<path style="&st25;" d="M2374.78,93.17c2.48,0,4.5-2.02,4.5-4.5"/>
<path style="&st25;" d="M1429.77,88.67c0-2.48-2.02-4.5-4.5-4.5"/>
<path style="&st25;" d="M1425.24,84.17c-2.48,0-4.5,2.02-4.5,4.5"/>
<path style="&st25;" d="M1420.74,88.67c0,2.48,2.02,4.5,4.5,4.5"/>
<path style="&st25;" d="M1425.27,93.17c2.48,0,4.5-2.02,4.5-4.5"/>
<path style="&st25;" d="M1480.77,88.67c0-2.48-2.02-4.5-4.5-4.5"/>
<path style="&st25;" d="M1476.24,84.17c-2.48,0-4.5,2.02-4.5,4.5"/>
<path style="&st25;" d="M1471.74,88.67c0,2.48,2.02,4.5,4.5,4.5"/>
<path style="&st25;" d="M1476.27,93.17c2.48,0,4.5-2.02,4.5-4.5"/>
<path style="&st25;" d="M2315.53,88.67c0-2.48-2.02-4.5-4.5-4.5"/>
<path style="&st25;" d="M2311,84.17c-2.48,0-4.5,2.02-4.5,4.5"/>
<path style="&st25;" d="M2306.5,88.67c0,2.48,2.02,4.5,4.5,4.5"/>
<path style="&st25;" d="M2311.03,93.17c2.48,0,4.5-2.02,4.5-4.5"/>
<path style="&st25;" d="M1344.77,88.67c0-2.48-2.02-4.5-4.5-4.5"/>
<path style="&st25;" d="M1340.24,84.17c-2.48,0-4.5,2.02-4.5,4.5"/>
<path style="&st25;" d="M1335.74,88.67c0,2.48,2.02,4.5,4.5,4.5"/>
<path style="&st25;" d="M1340.27,93.17c2.48,0,4.5-2.02,4.5-4.5"/>
<path style="&st25;" d="M435.27,88.67c0-2.48-2.02-4.5-4.5-4.5"/>
<path style="&st25;" d="M430.73,84.17c-2.48,0-4.5,2.02-4.5,4.5"/>
<path style="&st25;" d="M426.23,88.67c0,2.48,2.02,4.5,4.5,4.5"/>
<path style="&st25;" d="M430.77,93.17c2.48,0,4.5-2.02,4.5-4.5"/>
<path style="&st25;" d="M1094.02,88.67c0-2.48-2.02-4.5-4.5-4.5"/>
<path style="&st25;" d="M1089.48,84.17c-2.48,0-4.5,2.02-4.5,4.5"/>
<path style="&st25;" d="M1084.98,88.67c0,2.48,2.02,4.5,4.5,4.5"/>
<path style="&st25;" d="M1089.52,93.17c2.48,0,4.5-2.02,4.5-4.5"/>
<path style="&st25;" d="M554.27,88.67c0-2.48-2.02-4.5-4.5-4.5"/>
<path style="&st25;" d="M549.74,84.17c-2.48,0-4.5,2.02-4.5,4.5"/>
<path style="&st25;" d="M545.24,88.67c0,2.48,2.02,4.5,4.5,4.5"/>
<path style="&st25;" d="M549.77,93.17c2.48,0,4.5-2.02,4.5-4.5"/>
<path style="&st25;" d="M329.02,88.67c0-2.48-2.02-4.5-4.5-4.5"/>
<path style="&st25;" d="M324.49,84.17c-2.48,0-4.5,2.02-4.5,4.5"/>
<path style="&st25;" d="M319.99,88.67c0,2.48,2.02,4.5,4.5,4.5"/>
<path style="&st25;" d="M324.52,93.17c2.48,0,4.5-2.02,4.5-4.5"/>
<path style="&st25;" d="M286.52,88.67c0-2.48-2.02-4.5-4.5-4.5"/>
<path style="&st25;" d="M281.99,84.17c-2.48,0-4.5,2.02-4.5,4.5"/>
<path style="&st25;" d="M277.49,88.67c0,2.48,2.02,4.5,4.5,4.5"/>
<path style="&st25;" d="M282.02,93.17c2.48,0,4.5-2.02,4.5-4.5"/>
<path style="&st25;" d="M894.27,88.67c0-2.48-2.02-4.5-4.5-4.5"/>
<path style="&st25;" d="M889.74,84.17c-2.48,0-4.5,2.02-4.5,4.5"/>
<path style="&st25;" d="M885.24,88.67c0,2.48,2.02,4.5,4.5,4.5"/>
<path style="&st25;" d="M889.77,93.17c2.48,0,4.5-2.02,4.5-4.5"/>
<path style="&st25;" d="M851.77,88.67c0-2.48-2.02-4.5-4.5-4.5"/>
<path style="&st25;" d="M847.24,84.17c-2.48,0-4.5,2.02-4.5,4.5"/>
<path style="&st25;" d="M842.74,88.67c0,2.48,2.02,4.5,4.5,4.5"/>
<path style="&st25;" d="M847.27,93.17c2.48,0,4.5-2.02,4.5-4.5"/>
<path style="&st25;" d="M371.52,88.67c0-2.48-2.02-4.5-4.5-4.5"/>
<path style="&st25;" d="M366.98,84.17c-2.48,0-4.5,2.02-4.5,4.5"/>
<path style="&st25;" d="M362.48,88.67c0,2.48,2.02,4.5,4.5,4.5"/>
<path style="&st25;" d="M367.02,93.17c2.48,0,4.5-2.02,4.5-4.5"/>
<path style="&st25;" d="M596.77,88.67c0-2.48-2.02-4.5-4.5-4.5"/>
<path style="&st25;" d="M592.24,84.17c-2.48,0-4.5,2.02-4.5,4.5"/>
<path style="&st25;" d="M587.74,88.67c0,2.48,2.02,4.5,4.5,4.5"/>
<path style="&st25;" d="M592.27,93.17c2.48,0,4.5-2.02,4.5-4.5"/>
<path style="&st25;" d="M639.27,88.67c0-2.48-2.02-4.5-4.5-4.5"/>
<path style="&st25;" d="M634.74,84.17c-2.48,0-4.5,2.02-4.5,4.5"/>
<path style="&st25;" d="M630.24,88.67c0,2.48,2.02,4.5,4.5,4.5"/>
<path style="&st25;" d="M634.77,93.17c2.48,0,4.5-2.02,4.5-4.5"/>
<path style="&st25;" d="M244.02,88.67c0-2.48-2.02-4.5-4.5-4.5"/>
<path style="&st25;" d="M239.49,84.17c-2.48,0-4.5,2.02-4.5,4.5"/>
<path style="&st25;" d="M234.99,88.67c0,2.48,2.02,4.5,4.5,4.5"/>
<path style="&st25;" d="M239.52,93.17c2.48,0,4.5-2.02,4.5-4.5"/>
<text style='&st23; &st16;' ewd:textID='24' transform='matrix(1 0 0 1 1822.3555 67.1719)'>Telematics Transceiver</text>
<text transform="matrix(1 0 0 1 1822.3555 59.5713)"><tspan x="0" y="0" style="&st23; &st16;">G187(A),H82(B),H83(C)</tspan></text>
<text style='&st23; &st16;' ewd:textID='24' transform='matrix(1 0 0 1 2228.1406 67.1719)'>Telematics Transceiver</text>
<text transform="matrix(1 0 0 1 2228.1406 59.5713)"><tspan x="0" y="0" style="&st23; &st16;">G187(A),H82(B),H83(C)</tspan></text>
<text style='&st23; &st16;' ewd:textID='24' transform='matrix(1 0 0 1 332.999 67.1719)'>Telematics Transceiver</text>
<text transform="matrix(1 0 0 1 332.999 59.5713)"><tspan x="0" y="0" style="&st23; &st16;">G187(A),H82(B),H83(C)</tspan></text>
<text style='&st23; &st16;' ewd:textID='24' transform='matrix(1 0 0 1 747.375 67.1719)'>Telematics Transceiver</text>
<text transform="matrix(1 0 0 1 747.375 59.5713)"><tspan x="0" y="0" style="&st23; &st16;">G187(A),H82(B),H83(C)</tspan></text>
<text style='&st23; &st16;' ewd:textID='24' transform='matrix(1 0 0 1 1265.875 67.1719)'>Telematics Transceiver</text>
<text transform="matrix(1 0 0 1 1265.875 59.5713)"><tspan x="0" y="0" style="&st23; &st16;">G187(A),H82(B),H83(C)</tspan></text>
<text transform="matrix(1 0 0 1 2105.4072 90.6426)"><tspan x="0" y="0" style="&st23; &st16;">1</tspan></text>
<text transform="matrix(1 0 0 1 2113.5146 90.6426)"><tspan x="0" y="0" style="&st23; &st16;">B</tspan></text>
<text transform="matrix(1 0 0 1 2107.5117 80.4736)"><tspan x="0" y="0" style="&st23; &st16;">GPS2</tspan></text>
<text transform="matrix(1 0 0 1 2139.4072 90.6426)"><tspan x="0" y="0" style="&st23; &st16;">1</tspan></text>
<text transform="matrix(1 0 0 1 2147.3486 90.6426)"><tspan x="0" y="0" style="&st23; &st16;">C</tspan></text>
<text transform="matrix(1 0 0 1 2142.3447 80.4736)"><tspan x="0" y="0" style="&st23; &st16;">TEL2</tspan></text>
<text transform="matrix(1 0 0 1 1700.5332 90.6426)"><tspan x="0" y="0" style="&st23; &st16;">35</tspan></text>
<text transform="matrix(1 0 0 1 1711.9775 90.6426)"><tspan x="0" y="0" style="&st23; &st16;">A</tspan></text>
<text transform="matrix(1 0 0 1 1707.4805 80.4736)"><tspan x="0" y="0" style="&st23; &st16;">MCI-</tspan></text>
<text transform="matrix(1 0 0 1 1666.5332 90.6426)"><tspan x="0" y="0" style="&st23; &st16;">34</tspan></text>
<text transform="matrix(1 0 0 1 1677.9775 90.6426)"><tspan x="0" y="0" style="&st23; &st16;">A</tspan></text>
<text transform="matrix(1 0 0 1 1672.7275 80.4736)"><tspan x="0" y="0" style="&st23; &st16;">MCI+</tspan></text>
<text transform="matrix(1 0 0 1 1632.5352 90.6426)"><tspan x="0" y="0" style="&st23; &st16;">33</tspan></text>
<text transform="matrix(1 0 0 1 1643.9795 90.6426)"><tspan x="0" y="0" style="&st23; &st16;">A</tspan></text>
<text transform="matrix(1 0 0 1 1637.1475 80.4736)"><tspan x="0" y="0" style="&st23; &st16;">MCVD</tspan></text>
<text transform="matrix(1 0 0 1 1734.5332 90.6426)"><tspan x="0" y="0" style="&st23; &st16;">32</tspan></text>
<text transform="matrix(1 0 0 1 1745.9775 90.6426)"><tspan x="0" y="0" style="&st23; &st16;">A</tspan></text>
<text transform="matrix(1 0 0 1 1739.3115 80.4736)"><tspan x="0" y="0" style="&st23; &st16;">SGND</tspan></text>
<text transform="matrix(1 0 0 1 1360.8057 90.6426)"><tspan x="0" y="0" style="&st23; &st16;">27</tspan></text>
<text transform="matrix(1 0 0 1 1372.25 90.6426)"><tspan x="0" y="0" style="&st23; &st16;">A</tspan></text>
<text transform="matrix(1 0 0 1 1367.415 80.4736)"><tspan x="0" y="0" style="&st23; &st16;">SIG1</tspan></text>
<text transform="matrix(1 0 0 1 1292.8057 90.6426)"><tspan x="0" y="0" style="&st23; &st16;">26</tspan></text>
<text transform="matrix(1 0 0 1 1304.25 90.6426)"><tspan x="0" y="0" style="&st23; &st16;">A</tspan></text>
<text transform="matrix(1 0 0 1 1300.084 80.4736)"><tspan x="0" y="0" style="&st23; &st16;">SIG-</tspan></text>
<text transform="matrix(1 0 0 1 1938.541 90.6426)"><tspan x="0" y="0" style="&st23; &st16;">19</tspan></text>
<text transform="matrix(1 0 0 1 1949.9854 90.6426)"><tspan x="0" y="0" style="&st23; &st16;">A</tspan></text>
<text transform="matrix(1 0 0 1 1943.9883 80.4736)"><tspan x="0" y="0" style="&st23; &st16;">MCO-</tspan></text>
<text transform="matrix(1 0 0 1 1981.041 90.6426)"><tspan x="0" y="0" style="&st23; &st16;">18</tspan></text>
<text transform="matrix(1 0 0 1 1992.4854 90.6426)"><tspan x="0" y="0" style="&st23; &st16;">A</tspan></text>
<text transform="matrix(1 0 0 1 1985.7354 80.4736)"><tspan x="0" y="0" style="&st23; &st16;">MCO+</tspan></text>
<text transform="matrix(1 0 0 1 2403.8223 90.6426)"><tspan x="0" y="0" style="&st23; &st16;">16</tspan></text>
<text transform="matrix(1 0 0 1 2415.2666 90.6426)"><tspan x="0" y="0" style="&st23; &st16;">A</tspan></text>
<text transform="matrix(1 0 0 1 2408.7666 80.4736)"><tspan x="0" y="0" style="&st23; &st16;">CANN</tspan></text>
<text transform="matrix(1 0 0 1 2361.3223 90.6426)"><tspan x="0" y="0" style="&st23; &st16;">15</tspan></text>
<text transform="matrix(1 0 0 1 2372.7666 90.6426)"><tspan x="0" y="0" style="&st23; &st16;">A</tspan></text>
<text transform="matrix(1 0 0 1 2366.4326 80.4736)"><tspan x="0" y="0" style="&st23; &st16;">CANP</tspan></text>
<text transform="matrix(1 0 0 1 1411.8057 90.6426)"><tspan x="0" y="0" style="&st23; &st16;">12</tspan></text>
<text transform="matrix(1 0 0 1 1423.25 90.6426)"><tspan x="0" y="0" style="&st23; &st16;">A</tspan></text>
<text transform="matrix(1 0 0 1 1418.416 80.4736)"><tspan x="0" y="0" style="&st23; &st16;">IND2</tspan></text>
<text transform="matrix(1 0 0 1 1463.251 90.6426)"><tspan x="0" y="0" style="&st23; &st16;">11</tspan></text>
<text transform="matrix(1 0 0 1 1474.25 90.6426)"><tspan x="0" y="0" style="&st23; &st16;">A</tspan></text>
<text transform="matrix(1 0 0 1 1469.416 80.4736)"><tspan x="0" y="0" style="&st23; &st16;">IND1</tspan></text>
<text transform="matrix(1 0 0 1 2297.5723 90.6426)"><tspan x="0" y="0" style="&st23; &st16;">10</tspan></text>
<text transform="matrix(1 0 0 1 2309.0166 90.6426)"><tspan x="0" y="0" style="&st23; &st16;">A</tspan></text>
<text transform="matrix(1 0 0 1 2302.8486 80.4736)"><tspan x="0" y="0" style="&st23; &st16;">SPDP</tspan></text>
<text transform="matrix(1 0 0 1 1330.1426 90.6426)"><tspan x="0" y="0" style="&st23; &st16;">9</tspan></text>
<text transform="matrix(1 0 0 1 1338.25 90.6426)"><tspan x="0" y="0" style="&st23; &st16;">A</tspan></text>
<text transform="matrix(1 0 0 1 1332.4141 80.4736)"><tspan x="0" y="0" style="&st23; &st16;">SLED</tspan></text>
<text transform="matrix(1 0 0 1 417.3047 90.6426)"><tspan x="0" y="0" style="&st23; &st16;">24</tspan></text>
<text transform="matrix(1 0 0 1 428.749 90.6426)"><tspan x="0" y="0" style="&st23; &st16;">A</tspan></text>
<text transform="matrix(1 0 0 1 423.584 80.4736)"><tspan x="0" y="0" style="&st23; &st16;">GSW</tspan></text>
<text transform="matrix(1 0 0 1 1076.0547 90.6426)"><tspan x="0" y="0" style="&st23; &st16;">23</tspan></text>
<text transform="matrix(1 0 0 1 1087.499 90.6426)"><tspan x="0" y="0" style="&st23; &st16;">A</tspan></text>
<text transform="matrix(1 0 0 1 1083.5771 80.4736)"><tspan x="0" y="0" style="&st23; &st16;">ILL+</tspan></text>
<text transform="matrix(1 0 0 1 536.3047 90.6426)"><tspan x="0" y="0" style="&st23; &st16;">17</tspan></text>
<text transform="matrix(1 0 0 1 547.749 90.6426)"><tspan x="0" y="0" style="&st23; &st16;">A</tspan></text>
<text transform="matrix(1 0 0 1 541.251 80.4736)"><tspan x="0" y="0" style="&st23; &st16;">MUTE</tspan></text>
<text transform="matrix(1 0 0 1 314.3916 90.6426)"><tspan x="0" y="0" style="&st23; &st16;">8</tspan></text>
<text transform="matrix(1 0 0 1 322.499 90.6426)"><tspan x="0" y="0" style="&st23; &st16;">A</tspan></text>
<text transform="matrix(1 0 0 1 318.166 80.4736)"><tspan x="0" y="0" style="&st23; &st16;">ACC</tspan></text>
<text transform="matrix(1 0 0 1 271.8916 90.6426)"><tspan x="0" y="0" style="&st23; &st16;">7</tspan></text>
<text transform="matrix(1 0 0 1 279.999 90.6426)"><tspan x="0" y="0" style="&st23; &st16;">A</tspan></text>
<text transform="matrix(1 0 0 1 277.1646 80.4736)"><tspan x="0" y="0" style="&st23; &st16;">IG2</tspan></text>
<text transform="matrix(1 0 0 1 879.6426 90.6426)"><tspan x="0" y="0" style="&st23; &st16;">6</tspan></text>
<text transform="matrix(1 0 0 1 887.75 90.6426)"><tspan x="0" y="0" style="&st23; &st16;">A</tspan></text>
<text transform="matrix(1 0 0 1 882.417 80.4736)"><tspan x="0" y="0" style="&st23; &st16;">SPO-</tspan></text>
<text transform="matrix(1 0 0 1 837.1426 90.6426)"><tspan x="0" y="0" style="&st23; &st16;">5</tspan></text>
<text transform="matrix(1 0 0 1 845.25 90.6426)"><tspan x="0" y="0" style="&st23; &st16;">A</tspan></text>
<text transform="matrix(1 0 0 1 839.1631 80.4736)"><tspan x="0" y="0" style="&st23; &st16;">SPO+</tspan></text>
<text transform="matrix(1 0 0 1 356.8916 90.6426)"><tspan x="0" y="0" style="&st23; &st16;">4</tspan></text>
<text transform="matrix(1 0 0 1 364.999 90.6426)"><tspan x="0" y="0" style="&st23; &st16;">A</tspan></text>
<text transform="matrix(1 0 0 1 364.999 80.4736)"><tspan x="0" y="0" style="&st23; &st16;">E</tspan></text>
<text transform="matrix(1 0 0 1 582.1416 90.6426)"><tspan x="0" y="0" style="&st23; &st16;">3</tspan></text>
<text transform="matrix(1 0 0 1 590.249 90.6426)"><tspan x="0" y="0" style="&st23; &st16;">A</tspan></text>
<text transform="matrix(1 0 0 1 586.415 80.4736)"><tspan x="0" y="0" style="&st23; &st16;">SPI-</tspan></text>
<text transform="matrix(1 0 0 1 624.6416 90.6426)"><tspan x="0" y="0" style="&st23; &st16;">2</tspan></text>
<text transform="matrix(1 0 0 1 632.749 90.6426)"><tspan x="0" y="0" style="&st23; &st16;">A</tspan></text>
<text transform="matrix(1 0 0 1 628.1631 80.4736)"><tspan x="0" y="0" style="&st23; &st16;">SPI+</tspan></text>
<text transform="matrix(1 0 0 1 229.3916 90.6426)"><tspan x="0" y="0" style="&st23; &st16;">1</tspan></text>
<text transform="matrix(1 0 0 1 237.499 90.6426)"><tspan x="0" y="0" style="&st23; &st16;">A</tspan></text>
<text transform="matrix(1 0 0 1 235.7471 80.4736)"><tspan x="0" y="0" style="&st23; &st16;">+B</tspan></text>
</g>
<g ewd:code="G104" ewd:figID="21" ewd:figtype="conn">
<path style="&st30;" d="M367,659.93v25.5"/>
<path style="&st30;" d="M367,659.93v17"/>
<path style="&st25;" d="M358.5,659.93h17v17h-17V659.93"/>
<text style='&st23; &st16;' ewd:textID='13' transform='matrix(1 0 0 1 377.625 673.3506)'>Junction Connector</text>
<text transform="matrix(1 0 0 1 377.625 666.3096)"><tspan x="0" y="0" style="&st23; &st16;">G104</tspan></text>
<text transform="matrix(1 0 0 1 358.8623 656.2451)"><tspan x="0" y="0" style="&st23; &st16;">3</tspan></text>
</g>
<path style="&st25;" d="M3437.11,635.94l-5.06-11.36"/>
<path style="&st25;" d="M3437.11,635.94l5.06-11.36"/>
<path style="&st30;" d="M3441.35,640.19l-4.24,4.25h-48.88l-2.12,4.25l-2.13-4.25h-48.87l-4.25-4.25"/>
<path style="&st25;" d="M3335.11,624.58l-5.06,11.36"/>
<path style="&st25;" d="M3335.11,624.58l5.06,11.36"/>
<path style="&st25;" d="M3369.11,635.94l-5.06-11.36"/>
<path style="&st25;" d="M3369.11,635.94l5.06-11.36"/>
<path style="&st25;" d="M3403.11,624.58l-5.06,11.36"/>
<path style="&st25;" d="M3403.11,624.58l5.06,11.36"/>
<path style="&st30;" d="M3330.84,446.69l4.24-4.25h59.51l2.12-4.25l2.13,4.25h59.49l4.25,4.25"/>
<path style="&st25;" d="M3458.33,450.94l5.06,11.36"/>
<path style="&st25;" d="M3458.33,450.94l-5.06,11.36"/>
<path style="&st25;" d="M3437.08,450.94l5.06,11.36"/>
<path style="&st25;" d="M3437.08,450.94l-5.06,11.36"/>
<path style="&st25;" d="M3403.08,462.3l5.06-11.36"/>
<path style="&st25;" d="M3403.08,462.3l-5.06-11.36"/>
<path style="&st25;" d="M3369.08,450.94l5.06,11.36"/>
<path style="&st25;" d="M3369.08,450.94l-5.06,11.36"/>
<path style="&st25;" d="M3335.08,462.3l5.06-11.36"/>
<path style="&st25;" d="M3335.08,462.3l-5.06-11.36"/>
<path style="&st28;" d="M1747.98,186.73l0,24.5"/>
<path style="&st9;" d="M1746.78,146.41l-0.27,0.47l-0.09,0.54l0.09,0.53l0.27,0.47l0.42,0.34l0.51,0.19h0.53l0.51-0.19l0.42-0.34l0.27-0.47l0.09-0.53l-0.09-0.54l-0.27-0.47l-0.42-0.34l-0.51-0.19h-0.53l-0.51,0.19L1746.78,146.41l0.4,0.71v0.59l0.37,0.44l0.57,0.1l0.51-0.29l0.19-0.54l-0.19-0.55l-0.51-0.29l-0.57,0.1l0.42,0.74"/>
<path style="&st9;" d="M1746.78,116.67l-0.27,0.47l-0.09,0.54l0.09,0.53l0.27,0.47l0.42,0.34l0.51,0.19h0.53l0.51-0.19l0.42-0.34l0.27-0.47l0.09-0.53l-0.09-0.54l-0.27-0.47l-0.42-0.34l-0.51-0.19h-0.53l-0.51,0.19L1746.78,116.67l0.4,0.71v0.59l0.37,0.44l0.57,0.1l0.51-0.29l0.19-0.54l-0.19-0.55l-0.51-0.29l-0.57,0.1l0.42,0.74"/>
<path style="&st27;" d="M1747.97,147.42h-118.99v-29.75h119L1747.97,147.42"/>
<path style="&st28;" d="M1747.98,93.17v24.5"/>
<path style="&st28;" d="M1747.98,147.42v24.5"/>
<path style="&st9;" d="M1746.78,210.23l-0.27,0.47l-0.09,0.54l0.09,0.53l0.27,0.47l0.42,0.34l0.51,0.19h0.53l0.51-0.19l0.42-0.34l0.27-0.47l0.09-0.53l-0.09-0.54l-0.27-0.47l-0.42-0.34l-0.51-0.19h-0.53l-0.51,0.19L1746.78,210.23l0.4,0.71v0.59l0.37,0.44l0.57,0.1l0.51-0.29l0.19-0.54l-0.19-0.55l-0.51-0.29l-0.57,0.1l0.42,0.74"/>
<path style="&st27;" d="M1747.97,240.98h-119v-29.75h119.01L1747.97,240.98"/>
<path style="&st9;" d="M1908.29,416.47l-0.27,0.47l-0.09,0.54l0.09,0.53l0.27,0.47l0.42,0.34l0.51,0.19h0.53l0.51-0.19l0.42-0.34l0.27-0.47l0.09-0.53l-0.09-0.54l-0.27-0.47l-0.42-0.34l-0.51-0.19h-0.53l-0.51,0.19L1908.29,416.47l0.4,0.71v0.59l0.37,0.44l0.57,0.1l0.51-0.29l0.19-0.54l-0.19-0.55l-0.51-0.29l-0.57,0.1l0.42,0.74"/>
<path style="&st9;" d="M1908.29,386.72l-0.27,0.47l-0.09,0.54l0.09,0.53l0.27,0.47l0.42,0.34l0.51,0.19h0.53l0.51-0.19l0.42-0.34l0.27-0.47l0.09-0.53l-0.09-0.54l-0.27-0.47l-0.42-0.34l-0.51-0.19h-0.53l-0.51,0.19L1908.29,386.72l0.4,0.71v0.59l0.37,0.44l0.57,0.1l0.51-0.29l0.19-0.54l-0.19-0.55l-0.51-0.29l-0.57,0.1l0.42,0.74"/>
<path style="&st27;" d="M1909.48,417.48h101.99v-29.75h-101.98L1909.48,417.48"/>
<path style="&st28;" d="M1909.49,337.79v-35.13"/>
<path style="&st9;" d="M1908.29,301.66l-0.27,0.47l-0.09,0.54l0.09,0.53l0.27,0.47l0.42,0.34l0.51,0.19h0.53l0.51-0.19l0.42-0.34l0.27-0.47l0.09-0.53l-0.09-0.54l-0.27-0.47l-0.42-0.34l-0.51-0.19h-0.53l-0.51,0.19L1908.29,301.66l0.4,0.71v0.59l0.37,0.44l0.57,0.1l0.51-0.29l0.19-0.54l-0.19-0.55l-0.51-0.29l-0.57,0.1l0.42,0.74"/>
<path style="&st27;" d="M1909.48,302.67h102.01v-29.75h-102L1909.48,302.67"/>
<path style="&st28;" d="M1909.49,352.6v35.13"/>
<path style="&st28;" d="M1909.49,417.48v35.13"/>
<path style="&st28;" d="M598.89,312.48h20.72"/>
<path style="&st28;" d="M598.89,303.48h20.72"/>
<path style="&st28;" d="M2487.67,286.61h20.72"/>
<path style="&st28;" d="M2487.67,277.61h20.72"/>
<path style="&st28;" d="M3409.73,564.94h12.22"/>
<path style="&st28;" d="M3409.73,573.94h12.22"/>
<path style="&st28;" d="M3375.73,564.94h12.22"/>
<path style="&st28;" d="M3375.73,573.94h12.22"/>
<path style="&st28;" d="M3341.73,564.94h12.22"/>
<path style="&st28;" d="M3341.73,573.94h12.22"/>
<path style="&st28;" d="M3409.73,512.94h12.22"/>
<path style="&st28;" d="M3409.73,521.94h12.22"/>
<path style="&st28;" d="M3375.73,512.94h12.22"/>
<path style="&st28;" d="M3375.73,521.94h12.22"/>
<path style="&st28;" d="M3341.73,512.94h12.22"/>
<path style="&st28;" d="M3341.73,521.94h12.22"/>
<path style="&st28;" d="M3307.73,512.94h12.22"/>
<path style="&st28;" d="M3307.73,521.94h12.22"/>
<text transform="matrix(0 -1 1 0 363.3008 138.3242)"><tspan x="0" y="0" style="&st23; &st16;">W-B</tspan></text>
<text transform="matrix(0 -1 1 0 363.3008 268.0742)"><tspan x="0" y="0" style="&st23; &st16;">W-B</tspan></text>
<text transform="matrix(0 -1 1 0 172.0508 230.9517)"><tspan x="0" y="0" style="&st23; &st16;">R</tspan></text>
<text transform="matrix(0 -1 1 0 235.8008 134.7134)"><tspan x="0" y="0" style="&st23; &st16;">R</tspan></text>
<text transform="matrix(0 -1 1 0 172.0508 138.4517)"><tspan x="0" y="0" style="&st23; &st16;">R</tspan></text>
<text transform="matrix(0 -1 1 0 108.3008 338.4917)"><tspan x="0" y="0" style="&st23; &st16;">W</tspan></text>
<text transform="matrix(0 -1 1 0 278.3008 135.3784)"><tspan x="0" y="0" style="&st23; &st16;">W</tspan></text>
<text transform="matrix(0 -1 1 0 108.3008 231.6167)"><tspan x="0" y="0" style="&st23; &st16;">W</tspan></text>
<text transform="matrix(0 -1 1 0 108.3008 139.1167)"><tspan x="0" y="0" style="&st23; &st16;">W</tspan></text>
<text transform="matrix(0 -1 1 0 44.5508 337.6621)"><tspan x="0" y="0" style="&st23; &st16;">P</tspan></text>
<text transform="matrix(0 -1 1 0 320.8008 134.5479)"><tspan x="0" y="0" style="&st23; &st16;">P</tspan></text>
<text transform="matrix(0 -1 1 0 44.5508 230.7861)"><tspan x="0" y="0" style="&st23; &st16;">P</tspan></text>
<text transform="matrix(0 -1 1 0 44.5508 138.2861)"><tspan x="0" y="0" style="&st23; &st16;">P</tspan></text>
<text transform="matrix(0 -1 1 0 427.0508 134.5479)"><tspan x="0" y="0" style="&st23; &st16;">B</tspan></text>
<text transform="matrix(0 -1 1 0 427.0508 264.2979)"><tspan x="0" y="0" style="&st23; &st16;">B</tspan></text>
</svg>
