﻿<?xml version="1.0" encoding="UTF-8"?>
<!DOCTYPE svg PUBLIC "-//W3C//DTD SVG 1.0//EN" "http://www.w3.org/TR/2001/REC-SVG-20010904/DTD/svg10.dtd"[
<!ENTITY ns_flows "http://ns.adobe.com/Flows/1.0/">
<!ENTITY ns_svg "http://www.w3.org/2000/svg">
<!ENTITY ns_xlink "http://www.w3.org/1999/xlink">
	<!ENTITY st0 "fill:none;stroke:#FB0F0C;stroke-width:5.1;stroke-linejoin:round;">
	<!ENTITY st1 "fill:none;stroke:#FF7F00;stroke-width:1.3072;stroke-linecap:round;stroke-linejoin:round;stroke-dasharray:6;">
	<!ENTITY st2 "fill:none;stroke:#7FC31C;stroke-width:1.42;stroke-linejoin:round;">
	<!ENTITY st3 "fill:none;stroke:#FF7F00;stroke-width:0.9123;stroke-linecap:round;stroke-linejoin:round;">
	<!ENTITY st4 "fill:none;stroke:#000000;stroke-width:5.1;stroke-linejoin:round;">
	<!ENTITY st5 "fill:none;stroke:#000000;stroke-linecap:round;stroke-linejoin:round;">
	<!ENTITY st6 "stroke:#000000;stroke-width:0.28;stroke-linecap:round;stroke-linejoin:round;">
	<!ENTITY st7 "fill:none;stroke:#FFFFFF;stroke-width:4.53;stroke-linejoin:round;">
	<!ENTITY st8 "fill:none;stroke:#56107C;stroke-width:5.1;stroke-linejoin:round;">
	<!ENTITY st9 "font-size:6px;">
	<!ENTITY st10 "fill:none;stroke:#168638;stroke-width:5.1;stroke-linejoin:round;">
	<!ENTITY st11 "fill:none;stroke:#000000;stroke-width:1.13;stroke-linejoin:round;">
	<!ENTITY st12 "fill:#CCCCCC;stroke:#CECECF;stroke-width:0.1;stroke-linecap:round;stroke-linejoin:round;">
	<!ENTITY st13 "fill:#FB0F0C;">
	<!ENTITY st14 "fill:#FF0000;">
	<!ENTITY st15 "fill:#FFFFFF;stroke:#000000;stroke-width:1.41;stroke-linecap:round;stroke-linejoin:round;">
	<!ENTITY st16 "fill:none;stroke:#000000;stroke-width:1.42;stroke-linejoin:round;">
	<!ENTITY st17 "font-family:'Arial';">
	<!ENTITY st18 "fill:none;stroke:#000000;stroke-width:1.42;stroke-linecap:round;stroke-linejoin:round;">
	<!ENTITY st19 "fill:#CFE6E7;stroke:#000000;stroke-width:1.133;stroke-linecap:round;stroke-linejoin:round;">
	<!ENTITY st20 "font-size:21px;">
	<!ENTITY st21 "fill:none;stroke:#0A50A1;stroke-width:1.3072;stroke-linecap:round;stroke-linejoin:round;stroke-dasharray:6;">
	<!ENTITY st22 "fill:#CFE6E7;stroke:#000000;stroke-width:1.13;stroke-linejoin:round;">
	<!ENTITY st23 "fill:none;stroke:#000000;stroke-width:0.85;stroke-linecap:round;stroke-linejoin:round;">
<!ATTLIST svg
xmlns:ewd CDATA #FIXED "http://shcl.co.jp/ewd"
xmlns:a CDATA #FIXED "http://ns.adobe.com/AdobeSVGViewerExtensions/3.0/"
ewd:ver CDATA #IMPLIED
>
<!ATTLIST a
ewd:lineID CDATA #IMPLIED
ewd:groupID CDATA #IMPLIED
ewd:figtype CDATA #IMPLIED
ewd:code CDATA #IMPLIED
ewd:figID CDATA #IMPLIED
ewd:pinNo CDATA #IMPLIED
ewd:comment CDATA #IMPLIED >
<!ATTLIST g
ewd:lineID CDATA #IMPLIED
ewd:groupID CDATA #IMPLIED
ewd:figtype CDATA #IMPLIED
ewd:code CDATA #IMPLIED
ewd:figID CDATA #IMPLIED
ewd:pinNo CDATA #IMPLIED
ewd:comment CDATA #IMPLIED >
<!ATTLIST text
ewd:textID CDATA #IMPLIED ><!ATTLIST title
ewd:textID CDATA #IMPLIED >]>
<svg onload="call_execInitLoadProc_svg('system')"
style="overflow:visible;  enable-background:new 0 0 1021.31 693.31"
viewBox="0 0 1021.31 693.31"
height='693.31'
width='1021.31'
xml:space="preserve"
xmlns="&ns_svg;"
xmlns:ewd="http://shcl.co.jp/ewd"
xmlns:a="http://ns.adobe.com/AdobeSVGViewerExtensions/3.0/"
xmlns:xlink="&ns_xlink;" ewd:ver="L2.3">
<g ewd:pinNo="47" ewd:code="GA1" ewd:figID="6003" ewd:figtype="w2w">
<path style="&st15;" d="M 442.65 , 403.7 L 451.15 , 403.7"/>
<path style="&st18;" d="M 446.91 , 394.64 L 451.15 , 398.89 L 455.4 , 394.64"/>
<path style="&st18;" d="M 455.4 , 398.04 L 451.15 , 402.29 L 446.91 , 398.04"/>
<text style="&st17; &st9;" transform="matrix(1 0 0 1 432.6279 409.978)">47</text><text style="&st17; &st9;" transform="matrix(1 0 0 1 461.7764 409.978)">(LHD)</text></g>
<g ewd:pinNo="6" ewd:code="GA2" ewd:figID="6002" ewd:figtype="w2w">
<path style="&st15;" d="M 259.97 , 493.52 L 268.47 , 493.52"/>
<path style="&st18;" d="M 255.73 , 502.58 L 259.97 , 498.33 L 264.22 , 502.58"/>
<path style="&st18;" d="M 264.22 , 499.18 L 259.97 , 494.93 L 255.73 , 499.18"/>
<text style="&st17; &st9;" transform="matrix(1 0 0 1 244.7778 491.2964)">6</text><text style="&st17; &st9;" transform="matrix(1 0 0 1 270.5894 491.2964)">(RHD)</text></g>
<g ewd:code="2" ewd:figID="3001" ewd:figtype="jb">
<path style="&st23;" d="M 259.9 , 77.14 L 259.9 , 60.14"/>
<path style="&st6;" d="M 259.9 , 72.25 L 257.07 , 69.41 L 257.07 , 73.66 L 259.9 , 76.5 L 262.73 , 73.66 L 262.73 , 69.41 L 259.9 , 72.25"/>
<path style="&st18;" d="M 262.03 , 85.64 L 257.78 , 85.64"/>
<path style="&st18;" d="M 262.03 , 77.14 L 257.78 , 77.14"/>
<path style="&st18;" d="M266.28,81.39c0-2.35-1.91-4.25-4.25-4.25"/>
<path style="&st18;" d="M262.03,85.64c2.34,0,4.25-1.9,4.25-4.25"/>
<path style="&st18;" d="M253.53,81.39c0,2.35,1.9,4.25,4.25,4.25"/>
<path style="&st18;" d="M257.78,77.14c-2.35,0-4.25,1.9-4.25,4.25"/>
<path style="&st18;" d="M259.9,48.81c2.74-1.61,3.65-5.14,2.04-7.88"/>
<path style="&st23;" d="M259.9,51.64c0.78,0,1.42-0.63,1.42-1.41"/>
<path style="&st5;" d="M 247.15 , 17.65 L 247.15 , 60.14 L 272.65 , 60.14 L 272.65 , 17.65 L 247.15 , 17.65"/>
<path style="&st23;" d="M 259.9 , 51.64 L 259.9 , 60.14"/>
<path style="&st18;" d="M259.9,28.98c-2.74,1.61-3.65,5.14-2.03,7.88"/>
<path style="&st18;" d="M257.87,36.86c0.51,0.88,1.15,1.52,2.03,2.04"/>
<path style="&st18;" d="M261.94,40.93c-0.52-0.88-1.16-1.51-2.04-2.03"/>
<path style="&st23;" d="M261.32,27.56c0-0.78-0.64-1.41-1.42-1.41"/>
<path style="&st23;" d="M259.9,26.15c-0.78,0-1.41,0.63-1.41,1.41"/>
<path style="&st23;" d="M258.49,27.56c0,0.79,0.63,1.42,1.41,1.42"/>
<path style="&st23;" d="M259.9,28.98c0.78,0,1.42-0.63,1.42-1.42"/>
<path style="&st23;" d="M261.32,50.23c0-0.79-0.64-1.42-1.42-1.42"/>
<path style="&st23;" d="M259.9,48.81c-0.78,0-1.41,0.63-1.41,1.42"/>
<path style="&st23;" d="M258.49,50.23c0,0.78,0.63,1.41,1.41,1.41"/>
<text style="&st17; &st9;" transform="matrix(1 0 0 1 243.5171 83.3628)">32</text><text style="&st17; &st9;" transform="matrix(1 0 0 1 256.0688 83.3628)">2N</text><text style="&st17; &st9;" transform="matrix(1 0 0 1 277.2144 38.0425)">10A</text><text style="&st17; &st9;" transform="matrix(1 0 0 1 277.2144 44.0425)">ECU-IG <tspan x="0" y="7">NO.1</tspan></text><text style="&st17; &st9;" transform="matrix(1 0 0 1 254.7388 13.9526)">(IG)</text></g>
<g ewd:code="FUSE18" ewd:figID="4001" ewd:figtype="rb">
<path style="&st18;" d="M408.64,48.81c2.74-1.61,3.65-5.14,2.04-7.88"/>
<path style="&st23;" d="M408.64,51.64c0.78,0,1.42-0.63,1.42-1.41"/>
<path style="&st18;" d="M 395.89 , 17.65 L 395.89 , 60.14 L 421.39 , 60.14 L 421.39 , 17.65 L 395.89 , 17.65"/>
<path style="&st23;" d="M 408.64 , 51.64 L 408.64 , 77.14"/>
<path style="&st6;" d="M 408.64 , 72.24 L 405.81 , 69.41 L 405.81 , 73.66 L 408.64 , 76.49 L 411.47 , 73.66 L 411.47 , 69.41 L 408.64 , 72.24"/>
<path style="&st18;" d="M408.64,28.98c-2.74,1.61-3.65,5.14-2.03,7.88"/>
<path style="&st18;" d="M406.61,36.86c0.51,0.88,1.15,1.52,2.03,2.04"/>
<path style="&st18;" d="M410.68,40.93c-0.52-0.88-1.16-1.51-2.04-2.03"/>
<path style="&st23;" d="M410.06,27.56c0-0.78-0.64-1.41-1.42-1.41"/>
<path style="&st23;" d="M408.64,26.15c-0.78,0-1.41,0.63-1.41,1.41"/>
<path style="&st23;" d="M407.23,27.56c0,0.79,0.63,1.42,1.41,1.42"/>
<path style="&st23;" d="M408.64,28.98c0.78,0,1.42-0.63,1.42-1.42"/>
<path style="&st23;" d="M410.06,50.23c0-0.79-0.64-1.42-1.42-1.42"/>
<path style="&st23;" d="M408.64,48.81c-0.78,0-1.41,0.63-1.41,1.42"/>
<path style="&st23;" d="M407.23,50.23c0,0.78,0.63,1.41,1.41,1.41"/>
<path style="&st18;" d="M 410.77 , 77.14 L 406.52 , 77.14"/>
<path style="&st18;" d="M 410.77 , 85.64 L 406.52 , 85.64"/>
<path style="&st18;" d="M406.52,77.14c-2.35,0-4.25,1.9-4.25,4.25"/>
<path style="&st18;" d="M402.27,81.39c0,2.35,1.9,4.25,4.25,4.25"/>
<path style="&st18;" d="M410.77,85.64c2.34,0,4.25-1.9,4.25-4.25"/>
<path style="&st18;" d="M415.02,81.39c0-2.35-1.91-4.25-4.25-4.25"/>
<text style="&st17; &st9;" transform="matrix(1 0 0 1 425.9482 38.0425)">10A</text><text style="&st17; &st9;" transform="matrix(1 0 0 1 425.9482 44.0425)">STOP</text><text style="&st17; &st9;" transform="matrix(1 0 0 1 401.0283 13.9526)">(BAT)</text><text style="&st17; &st9;" transform="matrix(1 0 0 1 406.9697 83.3628)">1</text><text style="&st17; &st9;" transform="matrix(1 0 0 1 402.0117 68.3433)">2</text></g>
<g ewd:code="G3" ewd:figID="2003" ewd:figtype="gp">
<path style="&st23;" d="M 152.23 , 692.65 L 155.06 , 692.65"/>
<path style="&st23;" d="M 150.81 , 689.82 L 156.48 , 689.82"/>
<path style="&st23;" d="M 149.4 , 686.98 L 157.9 , 686.98"/>
<path style="&st23;" d="M 145.15 , 684.15 L 162.15 , 684.15"/>
<path style="&st23;" d="M 153.65 , 679.9 L 153.65 , 684.15"/>
</g>
<g ewd:code="G5" ewd:figID="2002" ewd:figtype="gp">
<path style="&st23;" d="M 209.15 , 692.65 L 211.98 , 692.65"/>
<path style="&st23;" d="M 207.73 , 689.82 L 213.4 , 689.82"/>
<path style="&st23;" d="M 206.32 , 686.98 L 214.82 , 686.98"/>
<path style="&st23;" d="M 202.07 , 684.15 L 219.07 , 684.15"/>
<path style="&st23;" d="M 210.57 , 679.9 L 210.57 , 684.15"/>
</g>
<g ewd:code="G3" ewd:figID="2001" ewd:figtype="gp">
<path style="&st23;" d="M 449.8 , 692.65 L 452.63 , 692.65"/>
<path style="&st23;" d="M 448.38 , 689.82 L 454.05 , 689.82"/>
<path style="&st23;" d="M 446.97 , 686.98 L 455.47 , 686.98"/>
<path style="&st23;" d="M 442.72 , 684.15 L 459.72 , 684.15"/>
<path style="&st23;" d="M 451.22 , 679.9 L 451.22 , 684.15"/>
</g>
<g ewd:code="G104" ewd:figID="17" ewd:figtype="conn">
<path style="&st23;" d="M 153.65 , 638.82 L 153.65 , 664.32"/>
<path style="&st23;" d="M 153.65 , 638.82 L 153.65 , 655.82"/>
<path style="&st18;" d="M 145.15 , 638.82 L 162.15 , 638.82 L 162.15 , 655.82 L 145.15 , 655.82 L 145.15 , 638.82"/>
<text style="&st17; &st9;" transform="matrix(1 0 0 1 145.5161 635.1323)">3</text><g ewd:figtype="title">
<text style="&st17; &st9;" transform="matrix(0 -1 1 0 169.7632 658.3452)">G104</text><text ewd:textID="3" style="&st17; &st9;" transform="matrix(0 -1 1 0 176.8042 658.3452)">Junction Connector</text></g>
</g>
<g ewd:code="G106" ewd:figID="16" ewd:figtype="conn">
<path style="&st23;" d="M 210.57 , 638.82 L 210.57 , 664.32"/>
<path style="&st23;" d="M 210.57 , 638.82 L 210.57 , 655.82"/>
<path style="&st18;" d="M 202.07 , 638.82 L 219.07 , 638.82 L 219.07 , 655.82 L 202.07 , 655.82 L 202.07 , 638.82"/>
<text style="&st17; &st9;" transform="matrix(1 0 0 1 202.4316 635.1343)">3</text><g ewd:figtype="title">
<text style="&st17; &st9;" transform="matrix(0 -1 1 0 226.6787 658.3452)">G106</text><text ewd:textID="3" style="&st17; &st9;" transform="matrix(0 -1 1 0 233.7197 658.3452)">Junction Connector</text></g>
</g>
<g ewd:code="G279" ewd:figID="15" ewd:figtype="conn">
<path style="&st18;" d="M 306.4 , 128.14 L 323.4 , 128.14 L 323.4 , 145.14 L 306.4 , 145.14 L 306.4 , 128.14"/>
<path style="&st23;" d="M 314.9 , 128.14 L 314.9 , 145.14"/>
<text style="&st17; &st9;" transform="matrix(1 0 0 1 303.4785 153.3423)">17</text><text style="&st17; &st9;" transform="matrix(1 0 0 1 303.4785 124.4438)">15</text><g ewd:figtype="title">
<text style="&st17; &st9;" transform="matrix(0 -1 1 0 331.0117 147.6636)">G279</text><text ewd:textID="3" style="&st17; &st9;" transform="matrix(0 -1 1 0 338.0537 147.6636)">Junction Connector</text></g>
</g>
<g ewd:code="G267,G241" ewd:figID="14" ewd:figtype="conn">
<path style="&st18;" d="M 251.39 , 206.4 L 268.39 , 206.4 L 268.39 , 223.4 L 251.39 , 223.4 L 251.39 , 206.4"/>
<path style="&st23;" d="M 259.89 , 206.4 L 259.89 , 223.4"/>
<path style="&st18;" d="M264.4,227.9c0-2.48-2.02-4.5-4.5-4.5"/>
<path style="&st18;" d="M259.87,223.4c-2.48,0-4.5,2.02-4.5,4.5"/>
<path style="&st18;" d="M255.37,227.9c0,2.48,2.02,4.5,4.5,4.5"/>
<path style="&st18;" d="M259.9,232.4c2.48,0,4.5-2.02,4.5-4.5"/>
<path style="&st18;" d="M264.4,236.9c0-2.48-2.02-4.5-4.5-4.5"/>
<path style="&st18;" d="M259.87,232.4c-2.48,0-4.5,2.02-4.5,4.5"/>
<path style="&st18;" d="M255.37,236.9c0,2.48,2.02,4.5,4.5,4.5"/>
<path style="&st18;" d="M259.9,241.4c2.48,0,4.5-2.02,4.5-4.5"/>
<path style="&st18;" d="M264.4,201.9c0-2.48-2.02-4.5-4.5-4.5"/>
<path style="&st18;" d="M259.87,197.4c-2.48,0-4.5,2.02-4.5,4.5"/>
<path style="&st18;" d="M255.37,201.9c0,2.48,2.02,4.5,4.5,4.5"/>
<path style="&st18;" d="M259.9,206.4c2.48,0,4.5-2.02,4.5-4.5"/>
<path style="&st18;" d="M264.4,192.9c0-2.48-2.02-4.5-4.5-4.5"/>
<path style="&st18;" d="M259.87,188.4c-2.48,0-4.5,2.02-4.5,4.5"/>
<path style="&st18;" d="M255.37,192.9c0,2.48,2.02,4.5,4.5,4.5"/>
<path style="&st18;" d="M259.9,197.4c2.48,0,4.5-2.02,4.5-4.5"/>
<text style="&st17; &st9;" transform="matrix(1 0 0 1 266.2632 238.8696)">(RHD)</text><text style="&st17; &st9;" transform="matrix(1 0 0 1 266.2632 194.8384)">(RHD)</text><text style="&st17; &st9;" transform="matrix(1 0 0 1 266.2632 229.8696)">(LHD)</text><text style="&st17; &st9;" transform="matrix(1 0 0 1 266.2632 203.8384)">(LHD)</text><text style="&st17; &st9;" transform="matrix(1 0 0 1 249.7798 229.8696)">4</text><text style="&st17; &st9;" transform="matrix(1 0 0 1 257.8872 229.8696)">A</text><text style="&st17; &st9;" transform="matrix(1 0 0 1 249.7798 238.8696)">3</text><text style="&st17; &st9;" transform="matrix(1 0 0 1 257.8872 238.8696)">B</text><text style="&st17; &st9;" transform="matrix(1 0 0 1 249.7798 203.8384)">1</text><text style="&st17; &st9;" transform="matrix(1 0 0 1 257.8872 203.8384)">A</text><text style="&st17; &st9;" transform="matrix(1 0 0 1 249.7798 194.8384)">1</text><text style="&st17; &st9;" transform="matrix(1 0 0 1 257.8872 194.8384)">B</text><g ewd:figtype="title">
<text style="&st17; &st9;" transform="matrix(0 -1 1 0 237.9722 225.8989)">G267(A),G241(B)</text><text ewd:textID="3" style="&st17; &st9;" transform="matrix(0 -1 1 0 245.0132 225.8989)">Junction Connector</text></g>
</g>
<g ewd:code="G104" ewd:figID="13" ewd:figtype="conn">
<path style="&st23;" d="M 451.22 , 638.82 L 451.22 , 664.32"/>
<path style="&st23;" d="M 451.22 , 638.82 L 451.22 , 655.82"/>
<path style="&st18;" d="M 442.72 , 638.82 L 459.72 , 638.82 L 459.72 , 655.82 L 442.72 , 655.82 L 442.72 , 638.82"/>
<text style="&st17; &st9;" transform="matrix(1 0 0 1 443.0781 635.1343)">3</text><g ewd:figtype="title">
<text ewd:textID="3" style="&st17; &st9;" transform="matrix(0 -1 1 0 474.3662 654.9741)">Junction Connector</text><text style="&st17; &st9;" transform="matrix(0 -1 1 0 467.3252 658.3452)">G104</text></g>
</g>
<g ewd:code="G244,G275" ewd:figID="12" ewd:figtype="conn">
<path style="&st18;" d="M 442.67 , 474.95 L 459.67 , 474.95 L 459.67 , 491.95 L 442.67 , 491.95 L 442.67 , 474.95"/>
<path style="&st23;" d="M 451.17 , 474.95 L 451.17 , 491.95"/>
<path style="&st18;" d="M455.68,496.45c0-2.48-2.02-4.5-4.5-4.5"/>
<path style="&st18;" d="M451.15,491.95c-2.48,0-4.5,2.02-4.5,4.5"/>
<path style="&st18;" d="M446.65,496.45c0,2.48,2.02,4.5,4.5,4.5"/>
<path style="&st18;" d="M451.18,500.95c2.48,0,4.5-2.02,4.5-4.5"/>
<path style="&st18;" d="M455.68,505.45c0-2.48-2.02-4.5-4.5-4.5"/>
<path style="&st18;" d="M451.15,500.95c-2.48,0-4.5,2.02-4.5,4.5"/>
<path style="&st18;" d="M446.65,505.45c0,2.48,2.02,4.5,4.5,4.5"/>
<path style="&st18;" d="M451.18,509.95c2.48,0,4.5-2.02,4.5-4.5"/>
<path style="&st18;" d="M455.68,470.45c0-2.48-2.02-4.5-4.5-4.5"/>
<path style="&st18;" d="M451.15,465.95c-2.48,0-4.5,2.02-4.5,4.5"/>
<path style="&st18;" d="M446.65,470.45c0,2.48,2.02,4.5,4.5,4.5"/>
<path style="&st18;" d="M451.18,474.95c2.48,0,4.5-2.02,4.5-4.5"/>
<path style="&st18;" d="M455.68,461.45c0-2.48-2.02-4.5-4.5-4.5"/>
<path style="&st18;" d="M451.15,456.95c-2.48,0-4.5,2.02-4.5,4.5"/>
<path style="&st18;" d="M446.65,461.45c0,2.48,2.02,4.5,4.5,4.5"/>
<path style="&st18;" d="M451.18,465.95c2.48,0,4.5-2.02,4.5-4.5"/>
<text style="&st17; &st9;" transform="matrix(1 0 0 1 457.5439 507.4233)">(RHD)</text><text style="&st17; &st9;" transform="matrix(1 0 0 1 457.5439 463.3921)">(RHD)</text><text style="&st17; &st9;" transform="matrix(1 0 0 1 457.5439 498.4233)">(LHD)</text><text style="&st17; &st9;" transform="matrix(1 0 0 1 457.5439 472.3921)">(LHD)</text><text style="&st17; &st9;" transform="matrix(1 0 0 1 441.0615 498.4233)">1</text><text style="&st17; &st9;" transform="matrix(1 0 0 1 449.168 498.4233)">A</text><text style="&st17; &st9;" transform="matrix(1 0 0 1 441.0615 507.4233)">1</text><text style="&st17; &st9;" transform="matrix(1 0 0 1 449.168 507.4233)">B</text><text style="&st17; &st9;" transform="matrix(1 0 0 1 441.0615 472.3921)">2</text><text style="&st17; &st9;" transform="matrix(1 0 0 1 449.168 472.3921)">A</text><text style="&st17; &st9;" transform="matrix(1 0 0 1 441.0615 463.3921)">4</text><text style="&st17; &st9;" transform="matrix(1 0 0 1 449.168 463.3921)">B</text><g ewd:figtype="title">
<text style="&st17; &st9;" transform="matrix(0 -1 1 0 429.2529 494.4526)">G244(A),G275(B)</text><text ewd:textID="3" style="&st17; &st9;" transform="matrix(0 -1 1 0 436.2939 494.4526)">Junction Connector</text></g>
</g>
<g ewd:code="G263,G270" ewd:figID="11" ewd:figtype="conn">
<path style="&st18;" d="M 442.7 , 564.2 L 459.7 , 564.2 L 459.7 , 581.2 L 442.7 , 581.2 L 442.7 , 564.2"/>
<path style="&st23;" d="M 451.2 , 564.2 L 451.2 , 581.2"/>
<path style="&st18;" d="M455.72,585.7c0-2.48-2.02-4.5-4.5-4.5"/>
<path style="&st18;" d="M451.18,581.2c-2.48,0-4.5,2.02-4.5,4.5"/>
<path style="&st18;" d="M446.68,585.7c0,2.48,2.02,4.5,4.5,4.5"/>
<path style="&st18;" d="M451.22,590.2c2.48,0,4.5-2.02,4.5-4.5"/>
<path style="&st18;" d="M455.72,594.7c0-2.48-2.02-4.5-4.5-4.5"/>
<path style="&st18;" d="M451.18,590.2c-2.48,0-4.5,2.02-4.5,4.5"/>
<path style="&st18;" d="M446.68,594.7c0,2.48,2.02,4.5,4.5,4.5"/>
<path style="&st18;" d="M451.22,599.2c2.48,0,4.5-2.02,4.5-4.5"/>
<path style="&st18;" d="M455.72,559.7c0-2.48-2.02-4.5-4.5-4.5"/>
<path style="&st18;" d="M451.18,555.2c-2.48,0-4.5,2.02-4.5,4.5"/>
<path style="&st18;" d="M446.68,559.7c0,2.48,2.02,4.5,4.5,4.5"/>
<path style="&st18;" d="M451.22,564.2c2.48,0,4.5-2.02,4.5-4.5"/>
<path style="&st18;" d="M455.72,550.7c0-2.48-2.02-4.5-4.5-4.5"/>
<path style="&st18;" d="M451.18,546.2c-2.48,0-4.5,2.02-4.5,4.5"/>
<path style="&st18;" d="M446.68,550.7c0,2.48,2.02,4.5,4.5,4.5"/>
<path style="&st18;" d="M451.22,555.2c2.48,0,4.5-2.02,4.5-4.5"/>
<text style="&st17; &st9;" transform="matrix(1 0 0 1 457.5752 596.6733)">(RHD)</text><text style="&st17; &st9;" transform="matrix(1 0 0 1 457.5752 552.6421)">(RHD)</text><text style="&st17; &st9;" transform="matrix(1 0 0 1 457.5752 587.6733)">(LHD)</text><text style="&st17; &st9;" transform="matrix(1 0 0 1 457.5752 561.6421)">(LHD)</text><text style="&st17; &st9;" transform="matrix(1 0 0 1 437.7549 587.6733)">15</text><text style="&st17; &st9;" transform="matrix(1 0 0 1 449.1992 587.6733)">A</text><text style="&st17; &st9;" transform="matrix(1 0 0 1 437.7549 596.6733)">19</text><text style="&st17; &st9;" transform="matrix(1 0 0 1 449.1992 596.6733)">B</text><text style="&st17; &st9;" transform="matrix(1 0 0 1 437.7549 561.6421)">18</text><text style="&st17; &st9;" transform="matrix(1 0 0 1 449.1992 561.6421)">A</text><text style="&st17; &st9;" transform="matrix(1 0 0 1 437.7549 552.6421)">22</text><text style="&st17; &st9;" transform="matrix(1 0 0 1 449.1992 552.6421)">B</text><g ewd:figtype="title">
<text style="&st17; &st9;" transform="matrix(0 -1 1 0 429.2852 583.7026)">G263(A),G270(B)</text><text ewd:textID="3" style="&st17; &st9;" transform="matrix(0 -1 1 0 436.3252 583.7026)">Junction Connector</text></g>
</g>
<g ewd:code="A59" ewd:figID="10" ewd:figtype="conn">
<path style="&st6;" d="M 408.63 , 149.52 L 402.97 , 141.02 L 414.3 , 141.02 L 408.63 , 149.52"/>
<path style="&st18;" d="M 400.14 , 158.02 L 417.14 , 158.02 L 417.14 , 132.52 L 400.14 , 132.52 L 400.14 , 158.02"/>
<path style="&st23;" d="M 412.88 , 149.52 L 404.38 , 149.52"/>
<path style="&st23;" d="M 408.63 , 158.02 L 408.63 , 132.52"/>
<text style="&st17; &st9;" transform="matrix(1 0 0 1 400.5508 128.8276)">1</text><text style="&st17; &st9;" transform="matrix(1 0 0 1 400.5508 166.2183)">2</text><g ewd:figtype="title">
<text style="&st17; &st9;" transform="matrix(0 -1 1 0 424.748 160.5366)">A59</text><text ewd:textID="2" style="&st17; &st9;" transform="matrix(0 -1 1 0 432.3369 160.5171)">Diode (Stop Light)</text></g>
</g>
<g ewd:code="A115" ewd:figID="9" ewd:figtype="conn">
<path style="&st23;" d="M 408.64 , 213.45 L 408.64 , 222.01"/>
<path style="&st23;" d="M 408.64 , 213.45 L 408.64 , 204.89"/>
<path style="&st16;" d="M 400.14 , 222.01 L 400.14 , 204.89 L 417.14 , 204.89 L 417.14 , 222.01 L 400.14 , 222.01 L 400.14 , 222.01"/>
<text style="&st17; &st9;" transform="matrix(1 0 0 1 397.2139 230.0933)">16</text><text style="&st17; &st9;" transform="matrix(1 0 0 1 397.2139 201.1948)">17</text><g ewd:figtype="title">
<text style="&st17; &st9;" transform="matrix(0 -1 1 0 424.7373 224.5142)">A115</text><text ewd:textID="3" style="&st17; &st9;" transform="matrix(0 -1 1 0 432.3398 224.5142)">Junction <tspan x="0" y="7">Connector</tspan></text></g>
</g>
<g ewd:code="A99" ewd:figID="8" ewd:figtype="conn">
<path style="&st16;" d="M 398.03 , 316.02 L 398.03 , 299.02 L 419.28 , 299.02 L 419.28 , 316.02 L 398.03 , 316.02 L 398.03 , 316.02"/>
<path style="&st23;" d="M 408.65 , 299.02 L 408.65 , 290.52"/>
<path style="&st23;" d="M 408.65 , 290.52 L 408.65 , 277.77"/>
<path style="&st23;" d="M 408.65 , 330.89 L 408.65 , 316.01"/>
<path style="&st23;" d="M 451.15 , 330.89 L 451.15 , 307.51"/>
<path style="&st23;" d="M 419.28 , 307.52 L 451.16 , 307.52"/>
<path style="&st16;" d="M 391.65 , 330.89 L 391.65 , 277.76 L 472.4 , 277.76 L 472.4 , 330.89 L 391.65 , 330.89 L 391.65 , 330.89"/>
<path style="&st18;" d="M413.15,273.27c0-2.48-2.02-4.5-4.5-4.5"/>
<path style="&st18;" d="M408.62,268.77c-2.48,0-4.5,2.02-4.5,4.5"/>
<path style="&st18;" d="M404.12,273.27c0,2.48,2.02,4.5,4.5,4.5"/>
<path style="&st18;" d="M408.65,277.77c2.48,0,4.5-2.02,4.5-4.5"/>
<path style="&st18;" d="M413.17,335.39c0-2.48-2.02-4.5-4.5-4.5"/>
<path style="&st18;" d="M408.64,330.89c-2.48,0-4.5,2.02-4.5,4.5"/>
<path style="&st18;" d="M404.14,335.39c0,2.48,2.02,4.5,4.5,4.5"/>
<path style="&st18;" d="M408.67,339.89c2.48,0,4.5-2.02,4.5-4.5"/>
<path style="&st18;" d="M455.67,335.39c0-2.48-2.02-4.5-4.5-4.5"/>
<path style="&st18;" d="M451.14,330.89c-2.48,0-4.5,2.02-4.5,4.5"/>
<path style="&st18;" d="M446.64,335.39c0,2.48,2.02,4.5,4.5,4.5"/>
<path style="&st18;" d="M451.17,339.89c2.48,0,4.5-2.02,4.5-4.5"/>
<text style="&st17; &st9;" transform="matrix(1 0 0 1 403.9854 309.6851)">IC1</text><text style="&st17; &st9;" transform="matrix(1 0 0 1 398.5293 275.2065)">7</text><text style="&st17; &st9;" transform="matrix(1 0 0 1 406.4717 275.2065)">C</text><text style="&st17; &st9;" transform="matrix(1 0 0 1 412.8877 285.4175)">B</text><text style="&st17; &st9;" transform="matrix(1 0 0 1 398.5449 337.3628)">3</text><text style="&st17; &st9;" transform="matrix(1 0 0 1 406.4873 337.3628)">C</text><text style="&st17; &st9;" transform="matrix(1 0 0 1 412.9033 327.1948)">L</text><text style="&st17; &st9;" transform="matrix(1 0 0 1 441.0449 337.3628)">2</text><text style="&st17; &st9;" transform="matrix(1 0 0 1 448.9873 337.3628)">C</text><text style="&st17; &st9;" transform="matrix(1 0 0 1 455.4033 327.1948)">GND</text><g ewd:figtype="title">
<text style="&st17; &st9;" transform="matrix(0 -1 1 0 480.0029 333.3921)">A99(C)</text><text ewd:textID="8" style="&st17; &st9;" transform="matrix(0 -1 1 0 487.6045 333.3921)">Stop Light Switch Assembly</text></g>
</g>
<g ewd:code="G215" ewd:figID="7" ewd:figtype="conn">
<path style="&st16;" d="M 30.4 , 488.65 L 30.4 , 522.65 L 64.4 , 522.65 L 64.4 , 488.65 L 30.4 , 488.65 L 30.4 , 488.65"/>
<path style="&st18;" d="M51.92,484.15c0-2.48-2.02-4.5-4.5-4.5"/>
<path style="&st18;" d="M47.39,479.65c-2.48,0-4.5,2.02-4.5,4.5"/>
<path style="&st18;" d="M42.89,484.15c0,2.48,2.02,4.5,4.5,4.5"/>
<path style="&st18;" d="M47.42,488.65c2.48,0,4.5-2.02,4.5-4.5"/>
<text style="&st17; &st9;" transform="matrix(1 0 0 1 33.9585 486.0874)">22</text><text style="&st17; &st9;" transform="matrix(1 0 0 1 45.4028 486.0874)">E</text><text style="&st17; &st9;" transform="matrix(1 0 0 1 45.4028 496.2983)">P</text><g ewd:figtype="title">
<text style="&st17; &st9;" transform="matrix(0 -1 1 0 72.0039 525.1479)">G215(E)</text><text ewd:textID="1" style="&st17; &st9;" transform="matrix(0 -1 1 0 79.604 525.1479)">Certification ECU Assembly</text></g>
</g>
<g ewd:code="G301,G302" ewd:figID="6" ewd:figtype="conn">
<path style="&st18;" d="M 55.9 , 396.15 L 38.95 , 396.15 L 38.95 , 413.15 L 55.9 , 413.15 L 55.9 , 396.15"/>
<path style="&st18;" d="M 55.9 , 404.65 L 38.95 , 404.65"/>
<path style="&st18;" d="M51.92,391.65c0-2.48-2.02-4.5-4.5-4.5"/>
<path style="&st18;" d="M47.39,387.15c-2.48,0-4.5,2.02-4.5,4.5"/>
<path style="&st18;" d="M42.89,391.65c0,2.48,2.02,4.5,4.5,4.5"/>
<path style="&st18;" d="M47.42,396.15c2.48,0,4.5-2.02,4.5-4.5"/>
<path style="&st18;" d="M51.92,417.65c0-2.48-2.02-4.5-4.5-4.5"/>
<path style="&st18;" d="M47.39,413.15c-2.48,0-4.5,2.02-4.5,4.5"/>
<path style="&st18;" d="M42.89,417.65c0,2.48,2.02,4.5,4.5,4.5"/>
<path style="&st18;" d="M47.42,422.15c2.48,0,4.5-2.02,4.5-4.5"/>
<text style="&st17; &st9;" transform="matrix(1 0 0 1 33.9585 393.5874)">14</text><text style="&st17; &st9;" transform="matrix(1 0 0 1 45.4028 393.5874)">A</text><text style="&st17; &st9;" transform="matrix(1 0 0 1 33.9585 419.6187)">14</text><text style="&st17; &st9;" transform="matrix(1 0 0 1 45.4028 419.6187)">B</text><g ewd:figtype="title">
<text style="&st17; &st9;" transform="matrix(0 -1 1 0 63.5044 415.6479)">G301(A),G302(B)</text><text ewd:textID="7" style="&st17; &st9;" transform="matrix(0 -1 1 0 71.104 415.6479)">Short Connector</text></g>
</g>
<g ewd:code="G259,G235" ewd:figID="5" ewd:figtype="conn">
<path style="&st18;" d="M 145.17 , 405.15 L 162.17 , 405.15 L 162.17 , 422.15 L 145.17 , 422.15 L 145.17 , 405.15"/>
<path style="&st23;" d="M 153.67 , 405.15 L 153.67 , 422.15"/>
<path style="&st18;" d="M158.19,426.65c0-2.48-2.02-4.5-4.5-4.5"/>
<path style="&st18;" d="M153.65,422.15c-2.48,0-4.5,2.02-4.5,4.5"/>
<path style="&st18;" d="M149.15,426.65c0,2.48,2.02,4.5,4.5,4.5"/>
<path style="&st18;" d="M153.69,431.15c2.48,0,4.5-2.02,4.5-4.5"/>
<path style="&st18;" d="M158.19,435.65c0-2.48-2.02-4.5-4.5-4.5"/>
<path style="&st18;" d="M153.65,431.15c-2.48,0-4.5,2.02-4.5,4.5"/>
<path style="&st18;" d="M149.15,435.65c0,2.48,2.02,4.5,4.5,4.5"/>
<path style="&st18;" d="M153.69,440.15c2.48,0,4.5-2.02,4.5-4.5"/>
<path style="&st18;" d="M158.19,400.65c0-2.48-2.02-4.5-4.5-4.5"/>
<path style="&st18;" d="M153.65,396.15c-2.48,0-4.5,2.02-4.5,4.5"/>
<path style="&st18;" d="M149.15,400.65c0,2.48,2.02,4.5,4.5,4.5"/>
<path style="&st18;" d="M153.69,405.15c2.48,0,4.5-2.02,4.5-4.5"/>
<path style="&st18;" d="M158.19,391.65c0-2.48-2.02-4.5-4.5-4.5"/>
<path style="&st18;" d="M153.65,387.15c-2.48,0-4.5,2.02-4.5,4.5"/>
<path style="&st18;" d="M149.15,391.65c0,2.48,2.02,4.5,4.5,4.5"/>
<path style="&st18;" d="M153.69,396.15c2.48,0,4.5-2.02,4.5-4.5"/>
<text style="&st17; &st9;" transform="matrix(1 0 0 1 160.0444 437.6187)">(RHD)</text><text style="&st17; &st9;" transform="matrix(1 0 0 1 160.0444 393.5874)">(RHD)</text><text style="&st17; &st9;" transform="matrix(1 0 0 1 160.0444 428.6187)">(LHD)</text><text style="&st17; &st9;" transform="matrix(1 0 0 1 160.0444 402.5874)">(LHD)</text><text style="&st17; &st9;" transform="matrix(1 0 0 1 140.2241 428.6187)">15</text><text style="&st17; &st9;" transform="matrix(1 0 0 1 151.6685 428.6187)">A</text><text style="&st17; &st9;" transform="matrix(1 0 0 1 143.561 437.6187)">1</text><text style="&st17; &st9;" transform="matrix(1 0 0 1 151.6685 437.6187)">B</text><text style="&st17; &st9;" transform="matrix(1 0 0 1 140.2241 402.5874)">19</text><text style="&st17; &st9;" transform="matrix(1 0 0 1 151.6685 402.5874)">A</text><text style="&st17; &st9;" transform="matrix(1 0 0 1 143.561 393.5874)">7</text><text style="&st17; &st9;" transform="matrix(1 0 0 1 151.6685 393.5874)">B</text><g ewd:figtype="title">
<text style="&st17; &st9;" transform="matrix(0 -1 1 0 131.7534 424.6479)">G259(A),G235(B)</text><text ewd:textID="3" style="&st17; &st9;" transform="matrix(0 -1 1 0 138.7944 424.6479)">Junction Connector</text></g>
</g>
<g ewd:code="G263,G237" ewd:figID="4" ewd:figtype="conn">
<path style="&st18;" d="M 145.17 , 515.65 L 162.17 , 515.65 L 162.17 , 532.65 L 145.17 , 532.65 L 145.17 , 515.65"/>
<path style="&st23;" d="M 153.67 , 515.65 L 153.67 , 532.65"/>
<path style="&st18;" d="M158.19,537.15c0-2.48-2.02-4.5-4.5-4.5"/>
<path style="&st18;" d="M153.65,532.65c-2.48,0-4.5,2.02-4.5,4.5"/>
<path style="&st18;" d="M149.15,537.15c0,2.48,2.02,4.5,4.5,4.5"/>
<path style="&st18;" d="M153.69,541.65c2.48,0,4.5-2.02,4.5-4.5"/>
<path style="&st18;" d="M158.19,546.15c0-2.48-2.02-4.5-4.5-4.5"/>
<path style="&st18;" d="M153.65,541.65c-2.48,0-4.5,2.02-4.5,4.5"/>
<path style="&st18;" d="M149.15,546.15c0,2.48,2.02,4.5,4.5,4.5"/>
<path style="&st18;" d="M153.69,550.65c2.48,0,4.5-2.02,4.5-4.5"/>
<path style="&st18;" d="M158.19,511.15c0-2.48-2.02-4.5-4.5-4.5"/>
<path style="&st18;" d="M153.65,506.65c-2.48,0-4.5,2.02-4.5,4.5"/>
<path style="&st18;" d="M149.15,511.15c0,2.48,2.02,4.5,4.5,4.5"/>
<path style="&st18;" d="M153.69,515.65c2.48,0,4.5-2.02,4.5-4.5"/>
<path style="&st18;" d="M158.19,502.15c0-2.48-2.02-4.5-4.5-4.5"/>
<path style="&st18;" d="M153.65,497.65c-2.48,0-4.5,2.02-4.5,4.5"/>
<path style="&st18;" d="M149.15,502.15c0,2.48,2.02,4.5,4.5,4.5"/>
<path style="&st18;" d="M153.69,506.65c2.48,0,4.5-2.02,4.5-4.5"/>
<text style="&st17; &st9;" transform="matrix(1 0 0 1 160.0444 548.1187)">(RHD)</text><text style="&st17; &st9;" transform="matrix(1 0 0 1 160.0444 504.0874)">(RHD)</text><text style="&st17; &st9;" transform="matrix(1 0 0 1 160.0444 539.1187)">(LHD)</text><text style="&st17; &st9;" transform="matrix(1 0 0 1 160.0444 513.0874)">(LHD)</text><text style="&st17; &st9;" transform="matrix(1 0 0 1 140.2241 539.1187)">15</text><text style="&st17; &st9;" transform="matrix(1 0 0 1 151.6685 539.1187)">A</text><text style="&st17; &st9;" transform="matrix(1 0 0 1 143.561 548.1187)">1</text><text style="&st17; &st9;" transform="matrix(1 0 0 1 151.6685 548.1187)">B</text><text style="&st17; &st9;" transform="matrix(1 0 0 1 140.2241 513.0874)">19</text><text style="&st17; &st9;" transform="matrix(1 0 0 1 151.6685 513.0874)">A</text><text style="&st17; &st9;" transform="matrix(1 0 0 1 143.561 504.0874)">4</text><text style="&st17; &st9;" transform="matrix(1 0 0 1 151.6685 504.0874)">B</text><g ewd:figtype="title">
<text style="&st17; &st9;" transform="matrix(0 -1 1 0 131.7534 535.1479)">G263(A),G237(B)</text><text ewd:textID="3" style="&st17; &st9;" transform="matrix(0 -1 1 0 138.7944 535.1479)">Junction Connector</text></g>
</g>
<g ewd:code="A115" ewd:figID="3" ewd:figtype="conn">
<path style="&st23;" d="M 259.97 , 544.64 L 259.97 , 553.2"/>
<path style="&st23;" d="M 259.97 , 544.64 L 259.97 , 536.08"/>
<path style="&st16;" d="M 251.47 , 553.2 L 251.47 , 536.08 L 268.47 , 536.08 L 268.47 , 553.2 L 251.47 , 553.2 L 251.47 , 553.2"/>
<text style="&st17; &st9;" transform="matrix(1 0 0 1 248.5464 561.2808)">19</text><text style="&st17; &st9;" transform="matrix(1 0 0 1 248.5464 532.3823)">21</text><g ewd:figtype="title">
<text style="&st17; &st9;" transform="matrix(0 -1 1 0 276.0703 555.7026)">A115</text><text ewd:textID="3" style="&st17; &st9;" transform="matrix(0 -1 1 0 283.6709 555.7026)">Junction Connector</text></g>
</g>
<g ewd:code="G251,G247" ewd:figID="2" ewd:figtype="conn">
<path style="&st23;" d="M 259.94 , 422.27 L 259.94 , 413.77 L 259.94 , 405.15"/>
<path style="&st16;" d="M 251.42 , 422.27 L 251.42 , 405.15 L 268.44 , 405.15 L 268.44 , 422.27 L 251.42 , 422.27 L 251.42 , 422.27"/>
<path style="&st18;" d="M264.47,426.77c0-2.48-2.02-4.5-4.5-4.5"/>
<path style="&st18;" d="M259.94,422.27c-2.48,0-4.5,2.02-4.5,4.5"/>
<path style="&st18;" d="M255.44,426.77c0,2.48,2.02,4.5,4.5,4.5"/>
<path style="&st18;" d="M259.97,431.27c2.48,0,4.5-2.02,4.5-4.5"/>
<path style="&st18;" d="M264.47,435.77c0-2.48-2.02-4.5-4.5-4.5"/>
<path style="&st18;" d="M259.94,431.27c-2.48,0-4.5,2.02-4.5,4.5"/>
<path style="&st18;" d="M255.44,435.77c0,2.48,2.02,4.5,4.5,4.5"/>
<path style="&st18;" d="M259.97,440.27c2.48,0,4.5-2.02,4.5-4.5"/>
<path style="&st18;" d="M264.44,400.65c0-2.48-2.02-4.5-4.5-4.5"/>
<path style="&st18;" d="M259.9,396.15c-2.48,0-4.5,2.02-4.5,4.5"/>
<path style="&st18;" d="M255.4,400.65c0,2.48,2.02,4.5,4.5,4.5"/>
<path style="&st18;" d="M259.94,405.15c2.48,0,4.5-2.02,4.5-4.5"/>
<path style="&st18;" d="M264.44,391.65c0-2.48-2.02-4.5-4.5-4.5"/>
<path style="&st18;" d="M259.9,387.15c-2.48,0-4.5,2.02-4.5,4.5"/>
<path style="&st18;" d="M255.4,391.65c0,2.48,2.02,4.5,4.5,4.5"/>
<path style="&st18;" d="M259.94,396.15c2.48,0,4.5-2.02,4.5-4.5"/>
<text style="&st17; &st9;" transform="matrix(1 0 0 1 266.3257 428.7397)">(LHD)</text><text style="&st17; &st9;" transform="matrix(1 0 0 1 266.2944 402.5874)">(LHD)</text><text style="&st17; &st9;" transform="matrix(1 0 0 1 266.3257 437.7397)">(RHD)</text><text style="&st17; &st9;" transform="matrix(1 0 0 1 266.2944 393.5874)">(RHD)</text><text style="&st17; &st9;" transform="matrix(1 0 0 1 246.5054 428.7397)">12</text><text style="&st17; &st9;" transform="matrix(1 0 0 1 257.9497 428.7397)">A</text><text style="&st17; &st9;" transform="matrix(1 0 0 1 249.8423 437.7397)">1</text><text style="&st17; &st9;" transform="matrix(1 0 0 1 257.9497 437.7397)">B</text><text style="&st17; &st9;" transform="matrix(1 0 0 1 246.4741 402.5874)">13</text><text style="&st17; &st9;" transform="matrix(1 0 0 1 257.9185 402.5874)">A</text><text style="&st17; &st9;" transform="matrix(1 0 0 1 249.811 393.5874)">3</text><text style="&st17; &st9;" transform="matrix(1 0 0 1 257.9185 393.5874)">B</text><g ewd:figtype="title">
<text style="&st17; &st9;" transform="matrix(0 -1 1 0 237.0518 424.771)">G251(A),G247(B)</text><text ewd:textID="3" style="&st17; &st9;" transform="matrix(0 -1 1 0 244.6523 424.771)">Junction Connector</text></g>
</g>
<g ewd:code="G45" ewd:figID="1" ewd:figtype="conn">
<path style="&st23;" d="M 55.88 , 244.16 L 64.38 , 244.16"/>
<path style="&st23;" d="M 81.38 , 244.16 L 89.88 , 244.16"/>
<path style="&st18;" d="M 123.87 , 254.07 L 129.54 , 231.41"/>
<path style="&st23;" d="M 123.87 , 261.15 L 123.87 , 256.9"/>
<path style="&st23;" d="M 123.87 , 231.41 L 123.87 , 227.16"/>
<path style="&st18;" d="M 55.88 , 252.66 L 89.88 , 252.66 L 89.88 , 235.66 L 55.88 , 235.66 L 55.88 , 252.66"/>
<path style="&st18;" d="M 30.39 , 210.16 L 30.39 , 320.64 L 276.9 , 320.64 L 276.9 , 286.65 L 166.37 , 286.65 L 166.37 , 210.16 L 30.39 , 210.16"/>
<path style="&st18;" d="M 30.39 , 286.65 L 166.37 , 286.65"/>
<path style="&st23;" d="M 89.88 , 244.16 L 98.38 , 244.16 L 98.38 , 286.65"/>
<path style="&st23;" d="M 55.88 , 244.16 L 47.39 , 244.16 L 47.39 , 286.65"/>
<path style="&st23;" d="M 123.87 , 261.15 L 123.87 , 286.65"/>
<path style="&st23;" d="M 123.87 , 227.16 L 123.87 , 218.66 L 149.37 , 218.66 L 149.37 , 286.65"/>
<path style="&st23;" d="M70.4,246.69c1.4-1.37,1.42-3.61,0.05-5.01"/>
<path style="&st23;" d="M70.45,241.68c-1.37-1.4-3.61-1.42-5-0.05"/>
<path style="&st23;" d="M65.45,241.63c-0.71,0.69-1.07,1.54-1.07,2.53"/>
<path style="&st23;" d="M75.36,246.69c1.4-1.37,1.42-3.61,0.05-5.01"/>
<path style="&st23;" d="M75.41,241.68c-1.37-1.4-3.61-1.42-5.01-0.05"/>
<path style="&st23;" d="M70.4,241.63c-1.39,1.37-1.42,3.61-0.05,5.01"/>
<path style="&st23;" d="M70.35,246.64c0.02,0.01,0.03,0.03,0.05,0.05"/>
<path style="&st23;" d="M81.38,244.16c0-1.96-1.59-3.54-3.54-3.54"/>
<path style="&st23;" d="M77.84,240.62c-1.96,0-3.54,1.58-3.54,3.54"/>
<path style="&st23;" d="M74.3,244.16c0,0.99,0.35,1.83,1.06,2.53"/>
<path style="&st23;" d="M125.29,255.49c0-0.78-0.63-1.42-1.42-1.42"/>
<path style="&st23;" d="M123.87,254.07c-0.78,0-1.41,0.64-1.41,1.42"/>
<path style="&st23;" d="M122.46,255.49c0,0.78,0.63,1.41,1.41,1.41"/>
<path style="&st23;" d="M123.87,256.9c0.79,0,1.42-0.63,1.42-1.41"/>
<path style="&st23;" d="M125.29,232.83c0-0.79-0.63-1.42-1.42-1.42"/>
<path style="&st23;" d="M123.87,231.41c-0.78,0-1.41,0.63-1.41,1.42"/>
<path style="&st23;" d="M122.46,232.83c0,0.78,0.63,1.41,1.41,1.41"/>
<path style="&st23;" d="M123.87,234.24c0.79,0,1.42-0.63,1.42-1.41"/>
<path style="&st18;" d="M264.42,282.15c0-2.48-2.02-4.5-4.5-4.5"/>
<path style="&st18;" d="M259.89,277.65c-2.48,0-4.5,2.02-4.5,4.5"/>
<path style="&st18;" d="M255.39,282.15c0,2.48,2.02,4.5,4.5,4.5"/>
<path style="&st18;" d="M259.92,286.65c2.48,0,4.5-2.02,4.5-4.5"/>
<path style="&st18;" d="M51.92,325.15c0-2.48-2.02-4.5-4.5-4.5"/>
<path style="&st18;" d="M47.39,320.65c-2.48,0-4.5,2.02-4.5,4.5"/>
<path style="&st18;" d="M42.89,325.15c0,2.48,2.02,4.5,4.5,4.5"/>
<path style="&st18;" d="M47.42,329.65c2.48,0,4.5-2.02,4.5-4.5"/>
<path style="&st18;" d="M158.17,325.15c0-2.48-2.02-4.5-4.5-4.5"/>
<path style="&st18;" d="M153.64,320.65c-2.48,0-4.5,2.02-4.5,4.5"/>
<path style="&st18;" d="M149.14,325.15c0,2.48,2.02,4.5,4.5,4.5"/>
<path style="&st18;" d="M153.67,329.65c2.48,0,4.5-2.02,4.5-4.5"/>
<path style="&st18;" d="M264.42,325.15c0-2.48-2.02-4.5-4.5-4.5"/>
<path style="&st18;" d="M259.89,320.65c-2.48,0-4.5,2.02-4.5,4.5"/>
<path style="&st18;" d="M255.39,325.15c0,2.48,2.02,4.5,4.5,4.5"/>
<path style="&st18;" d="M259.92,329.65c2.48,0,4.5-2.02,4.5-4.5"/>
<text style="&st17; &st9;" transform="matrix(1 0 0 1 39.9658 294.2798)">SLS+</text><text style="&st17; &st9;" transform="matrix(1 0 0 1 91.709 294.2798)">SLS-</text><text ewd:textID="6" style="&st17; &st9;" transform="matrix(1 0 0 1 57.1597 226.0288)">Shift Lock <tspan x="0" y="7">Solenoid</tspan></text><text style="&st17; &st9;" transform="matrix(1 0 0 1 121.6626 294.2798)">P</text><text style="&st17; &st9;" transform="matrix(1 0 0 1 145.6992 294.2798)">E2</text><text ewd:textID="4" style="&st17; &st9;" transform="matrix(0 -1 1 0 120.1792 262.5581)">P Detection</text><text style="&st17; &st9;" transform="matrix(1 0 0 1 246.4585 284.0884)">12</text><text style="&st17; &st9;" transform="matrix(1 0 0 1 257.9028 284.0884)">A</text><text style="&st17; &st9;" transform="matrix(1 0 0 1 256.7368 294.2983)">IG</text><text style="&st17; &st9;" transform="matrix(1 0 0 1 34.4038 327.1187)">11</text><text style="&st17; &st9;" transform="matrix(1 0 0 1 45.4028 327.1187)">A</text><text style="&st17; &st9;" transform="matrix(1 0 0 1 43.7344 316.9517)">P2</text><text style="&st17; &st9;" transform="matrix(1 0 0 1 143.5454 327.1187)">3</text><text style="&st17; &st9;" transform="matrix(1 0 0 1 151.6528 327.1187)">A</text><text style="&st17; &st9;" transform="matrix(1 0 0 1 151.6528 316.9517)">E</text><text style="&st17; &st9;" transform="matrix(1 0 0 1 249.7954 327.1187)">6</text><text style="&st17; &st9;" transform="matrix(1 0 0 1 257.9028 327.1187)">A</text><text style="&st17; &st9;" transform="matrix(1 0 0 1 254.0693 316.9517)">STP</text><g ewd:figtype="title">
<text style="&st17; &st9;" transform="matrix(0 -1 1 0 284.5039 323.1479)">G45(A)</text><text ewd:textID="5" style="&st17; &st9;" transform="matrix(0 -1 1 0 292.104 323.1479)">Shift Lock Control ECU <tspan x="0" y="7">Sub-Assembly</tspan></text></g>
</g>
<g ewd:pinNo="57" ewd:code="GA6" ewd:figID="6004" ewd:figtype="w2w">
<text style="&st17; &st9;" transform="matrix(1 0 0 1 432.6279 418.478)">57</text><text style="&st17; &st9;" transform="matrix(1 0 0 1 461.7764 418.478)">(RHD)</text></g>
<g ewd:pinNo="39" ewd:code="GA2" ewd:figID="6001" ewd:figtype="w2w">
<text style="&st17; &st9;" transform="matrix(1 0 0 1 241.4409 482.7964)">39</text><text style="&st17; &st9;" transform="matrix(1 0 0 1 270.5894 482.7964)">(LHD)</text></g>
<text style="&st17; &st9;" transform="matrix(0 -1 1 0 206.8696 614.4175)">W-B</text><text style="&st17; &st9;" transform="matrix(0 -1 1 0 218.3696 617.1382)">(RHD)</text><text style="&st17; &st9;" transform="matrix(1 0 0 1 288.9146 107.4419)">G</text><text style="&st17; &st9;" transform="matrix(1 0 0 1 282.7505 118.9419)">(RHD)</text><text style="&st17; &st9;" transform="matrix(1 0 0 1 288.9146 158.4419)">G</text><text style="&st17; &st9;" transform="matrix(1 0 0 1 282.7505 169.9419)">(RHD)</text><text style="&st17; &st9;" transform="matrix(0 -1 1 0 149.9541 613.2612)">W-B</text><text style="&st17; &st9;" transform="matrix(0 -1 1 0 161.4541 615.4839)">(LHD)</text><text style="&st17; &st9;" transform="matrix(0 -1 1 0 256.2041 140.7324)">G</text><text style="&st17; &st9;" transform="matrix(0 -1 1 0 267.7041 146.3984)">(LHD)</text><text style="&st17; &st9;" transform="matrix(0 -1 1 0 404.9541 370.2114)">V</text><text style="&st17; &st9;" transform="matrix(0 -1 1 0 256.269 580.5376)">V</text><text style="&st17; &st9;" transform="matrix(0 -1 1 0 447.4541 373.2944)">W-B</text><text style="&st17; &st9;" transform="matrix(0 -1 1 0 447.4541 444.605)">W-B</text><text style="&st17; &st9;" transform="matrix(0 -1 1 0 447.4863 533.855)">W-B</text><text style="&st17; &st9;" transform="matrix(0 -1 1 0 447.5166 624.3511)">W-B</text><text style="&st17; &st9;" transform="matrix(0 -1 1 0 404.9395 249.2104)">R</text><text style="&st17; &st9;" transform="matrix(0 -1 1 0 404.9365 182.5073)">R</text><text style="&st17; &st9;" transform="matrix(0 -1 1 0 404.9365 110.5313)">R</text><text style="&st17; &st9;" transform="matrix(0 -1 1 0 256.2041 360.3989)">V</text><text style="&st17; &st9;" transform="matrix(0 -1 1 0 149.9541 364.1753)">W-B</text><text style="&st17; &st9;" transform="matrix(0 -1 1 0 43.7041 360.3989)">V</text><text style="&st17; &st9;" transform="matrix(0 -1 1 0 149.9541 474.8003)">W-B</text><text style="&st17; &st9;" transform="matrix(0 -1 1 0 43.7041 452.8989)">V</text><text style="&st17; &st9;" transform="matrix(0 -1 1 0 256.271 519.6313)">V</text><text style="&st17; &st9;" transform="matrix(0 -1 1 0 256.2651 460.395)">V</text><text style="&st17; &st9;" transform="matrix(0 -1 1 0 256.2041 261.8569)">G</text></svg>
