﻿<?xml version="1.0" encoding="UTF-8"?>
<!DOCTYPE svg PUBLIC "-//W3C//DTD SVG 1.0//EN" "http://www.w3.org/TR/2001/REC-SVG-20010904/DTD/svg10.dtd"[
<!ENTITY ns_flows "http://ns.adobe.com/Flows/1.0/">
<!ENTITY ns_svg "http://www.w3.org/2000/svg">
<!ENTITY ns_xlink "http://www.w3.org/1999/xlink">
	<!ENTITY st0 "fill:none;stroke:#FB0F0C;stroke-width:5.1;stroke-linejoin:round;">
	<!ENTITY st1 "fill:none;stroke:#FF7F00;stroke-width:1.3072;stroke-linecap:round;stroke-linejoin:round;stroke-dasharray:6;">
	<!ENTITY st2 "fill:none;stroke:#7FC31C;stroke-width:1.42;stroke-linejoin:round;">
	<!ENTITY st3 "fill:none;stroke:#FF7F00;stroke-width:0.9123;stroke-linecap:round;stroke-linejoin:round;">
	<!ENTITY st4 "fill:none;stroke:#000000;stroke-width:5.1;stroke-linejoin:round;">
	<!ENTITY st5 "stroke:#000000;stroke-width:0.28;stroke-linecap:round;stroke-linejoin:round;">
	<!ENTITY st6 "fill:none;stroke:#199DBF;stroke-width:5.1;stroke-linejoin:round;">
	<!ENTITY st7 "fill:none;stroke:#FFFFFF;stroke-width:4.53;stroke-linejoin:round;">
	<!ENTITY st8 "fill:none;stroke:#56107C;stroke-width:5.1;stroke-linejoin:round;">
	<!ENTITY st9 "font-size:6px;">
	<!ENTITY st10 "fill:none;stroke:#000000;stroke-width:1.13;stroke-linejoin:round;">
	<!ENTITY st11 "fill:#FF0000;">
	<!ENTITY st12 "fill:#FFFFFF;stroke:#000000;stroke-width:1.41;stroke-linecap:round;stroke-linejoin:round;">
	<!ENTITY st13 "fill:none;stroke:#000000;stroke-width:1.42;stroke-linejoin:round;">
	<!ENTITY st14 "font-family:'Arial';">
	<!ENTITY st15 "fill:none;stroke:#000000;stroke-width:1.42;stroke-linecap:round;stroke-linejoin:round;">
	<!ENTITY st16 "fill:#CFE6E7;stroke:#000000;stroke-width:1.133;stroke-linecap:round;stroke-linejoin:round;">
	<!ENTITY st17 "font-size:21px;">
	<!ENTITY st18 "fill:none;stroke:#000000;stroke-width:0.85;stroke-linecap:round;stroke-linejoin:round;stroke-dasharray:3 1.5;">
	<!ENTITY st19 "fill:none;stroke:#0A50A1;stroke-width:1.3072;stroke-linecap:round;stroke-linejoin:round;stroke-dasharray:6;">
	<!ENTITY st20 "fill:#CFE6E7;stroke:#000000;stroke-width:1.13;stroke-linejoin:round;">
	<!ENTITY st21 "fill:none;stroke:#000000;stroke-width:0.85;stroke-linecap:round;stroke-linejoin:round;">
	<!ENTITY st22 "fill:none;stroke:#7EC57E;stroke-width:5.1;stroke-linejoin:round;">
<!ATTLIST svg
xmlns:ewd CDATA #FIXED "http://shcl.co.jp/ewd"
xmlns:a CDATA #FIXED "http://ns.adobe.com/AdobeSVGViewerExtensions/3.0/"
ewd:ver CDATA #IMPLIED
>
<!ATTLIST a
ewd:lineID CDATA #IMPLIED
ewd:groupID CDATA #IMPLIED
ewd:figtype CDATA #IMPLIED
ewd:code CDATA #IMPLIED
ewd:figID CDATA #IMPLIED
ewd:pinNo CDATA #IMPLIED
ewd:comment CDATA #IMPLIED >
<!ATTLIST g
ewd:lineID CDATA #IMPLIED
ewd:groupID CDATA #IMPLIED
ewd:figtype CDATA #IMPLIED
ewd:code CDATA #IMPLIED
ewd:figID CDATA #IMPLIED
ewd:pinNo CDATA #IMPLIED
ewd:comment CDATA #IMPLIED >
<!ATTLIST text
ewd:textID CDATA #IMPLIED ><!ATTLIST title
ewd:textID CDATA #IMPLIED >]>
<svg onload="call_execInitLoadProc_svg('system')"
style="overflow:visible;  enable-background:new 0 0 1021.31 693.31"
viewBox="0 0 1021.31 693.31"
height='693.31'
width='1021.31'
xml:space="preserve"
xmlns="&ns_svg;"
xmlns:ewd="http://shcl.co.jp/ewd"
xmlns:a="http://ns.adobe.com/AdobeSVGViewerExtensions/3.0/"
xmlns:xlink="&ns_xlink;" ewd:ver="L2.3">
<style type="text/css"></style>
<script type="text/javascript" xlink:href="../../../../../system/js/ewd/fig/svgfig.js"/><defs>
<font horiz-adv-x="1229">
<font-face font-family="Svg Symbol" units-per-em="2048" panose-1="5 5 1 2 1 7 6 2 5 7" ascent="2059" descent="450" alphabetic="0"/>
<missing-glyph d="M 103,0 l 0,1280 1024,0 0,-1280 -1024,0 z m 32,32 l 960,0 0,1216 -960,0 0,-1216 z"/>
<glyph unicode="&#xF057;" horiz-adv-x="1573" d="M 1517,0 l -567,0 24,279 q 141,59 207.5,168 66.5,109 66.5,306    0,272 -132.5,417.5 -132.5,145.5 -333.5,145.5 -194,0 -328,-147.5 -134,-147.5 -134,-401.5 0,-200 68.5,-319 68.5,-119     206.5,-169 l 25,-279 -564,0 0,279 35,0 q 3,-61 32,-83 45,-35 137,-35 l 270,0 0,70 q -210,61 -324.5,209 -114.5,148     -114.5,349 0,252 186.5,425 186.5,173 504.5,173 195,0 358.5,-73.5 163.5,-73.5 252,-214.5 88.5,-141 88.5,-310 0,-207     -121.5,-360.5 -121.5,-153.5 -317.5,-197.5 l -8,-70 275,0 q 92,0 128,28 36,28 42,90 l 38,0 0,-279 z"/>
</font>
</defs>
<g id="ewd_top">
<a ewd:lineID="36" style="cursor:pointer;">
	<path style="&st8;" d="M 918.66 , 350.52 L 918.66 , 422.02 L 738.03 , 422.02 L 738.03 , 289.6"/></a>
<a ewd:lineID="35" style="cursor:pointer;">
	<path style="&st6;" d="M 854.91 , 350.52 L 854.91 , 464.35 L 610.53 , 464.35 L 610.53 , 385.6"/></a>
<a ewd:lineID="34" style="cursor:pointer;" ewd:comment="5">
	<path style="&st6;" d="M 451.16 , 274.91 L 451.16 , 266.41 L 434.16 , 249.41 L 419.28 , 249.41 L 419.28 , 147.99"/></a>
<a ewd:lineID="33" style="cursor:pointer;" ewd:comment="5">
	<path style="&st6;" d="M 334.28 , 265.55 L 334.28 , 257.05 L 351.28 , 240.05 L 376.78 , 240.05 L 376.78 , 147.99"/></a>
<a ewd:lineID="32" style="cursor:pointer;" ewd:comment="6">
	<path style="&st4;" d="M 238.66 , 548.85 L 238.66 , 540.35 L 221.66 , 523.35 L 143.03 , 523.35 L 143.03 , 470.1"/>
	<path style="&st7;" d="M 238.66 , 548.85 L 238.66 , 540.35 L 221.66 , 523.35 L 143.03 , 523.35 L 143.03 , 470.1"/>
	<path style="&st10;" d="M 238.66 , 548.85 L 238.66 , 540.35 L 221.66 , 523.35 L 143.03 , 523.35 L 143.03 , 470.1"/></a>
<a ewd:lineID="31" style="cursor:pointer;">
	<path style="&st0;" d="M 918.64 , 279.39 L 918.64 , 243.14"/></a>
<a ewd:lineID="30" style="cursor:pointer;" ewd:comment="1,3,4,2,10,7,11">
	<path style="&st22;" d="M 886.78 , 350.52 L 886.78 , 528.1 L 695.53 , 528.1 L 695.53 , 213.97"/></a>
<a ewd:lineID="29" style="cursor:pointer;">
	<path style="&st4;" d="M 950.53 , 350.52 L 950.53 , 402.27"/>
	<path style="&st7;" d="M 950.53 , 350.52 L 950.53 , 402.27"/>
	<path style="&st10;" d="M 950.53 , 350.52 L 950.53 , 402.27"/></a>
<a ewd:lineID="28" style="cursor:pointer;">
	<path style="&st0;" d="M 918.64 , 226.14 L 918.64 , 168.64"/></a>
<a ewd:lineID="27" style="cursor:pointer;">
	<path style="&st0;" d="M 918.64 , 143.14 L 918.64 , 85.64"/></a>
<a ewd:lineID="26" style="cursor:pointer;">
	<path style="&st8;" d="M 738.03 , 272.6 L 738.03 , 213.97"/></a>
<a ewd:lineID="25" style="cursor:pointer;">
	<path style="&st6;" d="M 610.53 , 368.47 L 610.53 , 289.72"/></a>
<a ewd:lineID="24" style="cursor:pointer;">
	<path style="&st6;" d="M 652.86 , 272.6 L 652.86 , 213.97"/></a>
<a ewd:lineID="23" style="cursor:pointer;">
	<path style="&st6;" d="M 451.16 , 289.72 L 451.16 , 464.34 L 557.41 , 464.34 L 557.41 , 385.59"/></a>
<a ewd:lineID="22" style="cursor:pointer;">
	<path style="&st4;" d="M 950.53 , 424.07 L 950.53 , 460.32"/>
	<path style="&st7;" d="M 950.53 , 424.07 L 950.53 , 460.32"/>
	<path style="&st10;" d="M 950.53 , 424.07 L 950.53 , 460.32"/></a>
<a ewd:lineID="21" style="cursor:pointer;">
	<path style="&st4;" d="M 950.56 , 513.32 L 950.56 , 549.57"/>
	<path style="&st7;" d="M 950.56 , 513.32 L 950.56 , 549.57"/>
	<path style="&st10;" d="M 950.56 , 513.32 L 950.56 , 549.57"/></a>
<a ewd:lineID="20" style="cursor:pointer;">
	<path style="&st4;" d="M 950.6 , 602.57 L 950.6 , 638.82"/>
	<path style="&st7;" d="M 950.6 , 602.57 L 950.6 , 638.82"/>
	<path style="&st10;" d="M 950.6 , 602.57 L 950.6 , 638.82"/></a>
<a ewd:lineID="19" style="cursor:pointer;">
	<path style="&st6;" d="M 47.4 , 164.21 L 47.4 , 69.44 L 610.53 , 69.44 L 610.53 , 272.6"/></a>
<a ewd:lineID="18" style="cursor:pointer;" ewd:comment="6">
	<path style="&st6;" d="M 451.16 , 274.91 L 451.16 , 147.99"/></a>
<a ewd:lineID="17" style="cursor:pointer;" ewd:comment="6">
	<path style="&st6;" d="M 334.28 , 147.99 L 334.28 , 265.55"/></a>
<a ewd:lineID="16" style="cursor:pointer;" ewd:comment="5">
	<path style="&st4;" d="M 238.66 , 386.67 L 238.66 , 548.85"/>
	<path style="&st7;" d="M 238.66 , 386.67 L 238.66 , 548.85"/>
	<path style="&st10;" d="M 238.66 , 386.67 L 238.66 , 548.85"/></a>
<a ewd:lineID="15" style="cursor:pointer;">
	<path style="&st6;" d="M 47.41 , 179.02 L 47.41 , 215.27"/></a>
<a ewd:lineID="14" style="cursor:pointer;">
	<path style="&st4;" d="M 47.41 , 230.08 L 47.41 , 266.33"/></a>
<a ewd:lineID="13" style="cursor:pointer;">
	<path style="&st6;" d="M 47.41 , 289.64 L 47.41 , 325.89"/></a>
<a ewd:lineID="12" style="cursor:pointer;">
	<path style="&st6;" d="M 47.41 , 340.7 L 47.41 , 376.95"/></a>
<a ewd:lineID="11" style="cursor:pointer;">
	<path style="&st4;" d="M 47.41 , 402.44 L 47.41 , 438.69"/>
	<path style="&st7;" d="M 47.41 , 402.44 L 47.41 , 438.69"/>
	<path style="&st10;" d="M 47.41 , 402.44 L 47.41 , 438.69"/></a>
<a ewd:lineID="10" style="cursor:pointer;">
	<path style="&st4;" d="M 47.41 , 453.5 L 47.41 , 489.75"/>
	<path style="&st7;" d="M 47.41 , 453.5 L 47.41 , 489.75"/>
	<path style="&st10;" d="M 47.41 , 453.5 L 47.41 , 489.75"/></a>
<a ewd:lineID="9" style="cursor:pointer;">
	<path style="&st4;" d="M 47.41 , 506.75 L 47.41 , 543"/>
	<path style="&st7;" d="M 47.41 , 506.75 L 47.41 , 543"/>
	<path style="&st10;" d="M 47.41 , 506.75 L 47.41 , 543"/></a>
<a ewd:lineID="8" style="cursor:pointer;">
	<path style="&st4;" d="M 47.41 , 566.31 L 47.41 , 602.56"/>
	<path style="&st7;" d="M 47.41 , 566.31 L 47.41 , 602.56"/>
	<path style="&st10;" d="M 47.41 , 566.31 L 47.41 , 602.56"/></a>
<a ewd:lineID="7" style="cursor:pointer;">
	<path style="&st4;" d="M 47.41 , 619.56 L 47.41 , 664.32"/>
	<path style="&st7;" d="M 47.41 , 619.56 L 47.41 , 664.32"/>
	<path style="&st10;" d="M 47.41 , 619.56 L 47.41 , 664.32"/></a>
<a ewd:lineID="6" style="cursor:pointer;" ewd:comment="6">
	<path style="&st4;" d="M 334.28 , 386.67 L 334.28 , 548.85"/>
	<path style="&st7;" d="M 334.28 , 386.67 L 334.28 , 548.85"/>
	<path style="&st10;" d="M 334.28 , 386.67 L 334.28 , 548.85"/></a>
<a ewd:lineID="5" style="cursor:pointer;">
	<path style="&st4;" d="M 334.28 , 583.97 L 334.28 , 638.83"/>
	<path style="&st7;" d="M 334.28 , 583.97 L 334.28 , 638.83"/>
	<path style="&st10;" d="M 334.28 , 583.97 L 334.28 , 638.83"/></a>
<a ewd:lineID="4" style="cursor:pointer;" ewd:comment="5">
	<path style="&st6;" d="M 238.66 , 147.99 L 238.66 , 265.55"/></a>
<a ewd:lineID="3" style="cursor:pointer;" ewd:comment="6">
	<path style="&st6;" d="M 143.03 , 147.99 L 143.03 , 205.49"/></a>
<a ewd:lineID="2" style="cursor:pointer;" ewd:comment="6">
	<path style="&st6;" d="M 143.03 , 220.3 L 143.03 , 256.55"/></a>
<a ewd:lineID="1" style="cursor:pointer;" ewd:comment="6">
	<path style="&st4;" d="M 143.03 , 395.67 L 143.03 , 455.29"/>
	<path style="&st7;" d="M 143.03 , 395.67 L 143.03 , 455.29"/>
	<path style="&st10;" d="M 143.03 , 395.67 L 143.03 , 455.29"/></a>
<a ewd:code="A7,A6" ewd:figtype="conn" style="cursor:pointer;" ewd:figID="1">
	<path style="&st20;" d="M 635.87 , 195.97 L 635.87 , 161.97 L 755.07 , 161.97 L 755.07 , 195.97 L 635.87 , 195.97 L 635.87 , 195.97"/>
	<title ewd:textID="9">Brake Actuator Assembly</title></a>
<a ewd:code="A68" ewd:figtype="conn" style="cursor:pointer;" ewd:figID="2">
	<path style="&st20;" d="M 548.91 , 385.59 L 548.91 , 368.47 L 619.04 , 368.47 L 619.04 , 385.59 L 548.91 , 385.59 L 548.91 , 385.59"/>
	<title ewd:textID="12">Junction Connector</title></a>
<a ewd:code="A115" ewd:figtype="conn" style="cursor:pointer;" ewd:figID="3">
	<path style="&st20;" d="M 729.53 , 289.72 L 729.53 , 272.6 L 746.53 , 272.6 L 746.53 , 289.72 L 729.53 , 289.72 L 729.53 , 289.72"/>
	<title ewd:textID="12">Junction Connector</title></a>
<a ewd:code="R22" ewd:figtype="conn" style="cursor:pointer;" ewd:figID="4">
	<path style="&st20;" d="M 304.52 , 386.67 L 304.52 , 265.55 L 364.02 , 265.55 L 364.02 , 386.67 L 304.52 , 386.67 L 304.52 , 386.67"/>
	<title ewd:textID="13">Rear Combination Light Assembly LH</title></a>
<a ewd:code="R21" ewd:figtype="conn" style="cursor:pointer;" ewd:figID="5">
	<path style="&st20;" d="M 208.89 , 386.67 L 208.89 , 265.55 L 268.39 , 265.55 L 268.39 , 386.67 L 208.89 , 386.67 L 208.89 , 386.67"/>
	<title ewd:textID="14">Rear Combination Light Assembly RH</title></a>
<a ewd:code="Q31" ewd:figtype="conn" style="cursor:pointer;" ewd:figID="6">
	<path style="&st20;" d="M 113.28 , 386.67 L 113.28 , 265.55 L 172.78 , 265.55 L 172.78 , 386.67 L 113.28 , 386.67 L 113.28 , 386.67"/>
	<title ewd:textID="14">Rear Combination Light Assembly RH</title></a>
<a ewd:code="Z1" ewd:figtype="conn" style="cursor:pointer;" ewd:figID="7">
	<path style="&st20;" d="M 30.41 , 402.44 L 30.41 , 376.95 L 64.41 , 376.95 L 64.41 , 402.44 L 30.41 , 402.44 L 30.41 , 402.44"/>
	<title ewd:textID="10">Center Stop Light Assembly</title></a>
<a ewd:code="R28" ewd:figtype="conn" style="cursor:pointer;" ewd:figID="8">
	<path style="&st20;" d="M 230.16 , 574.97 L 230.16 , 557.85 L 342.79 , 557.85 L 342.79 , 574.97 L 230.16 , 574.97 L 230.16 , 574.97"/>
	<title ewd:textID="12">Junction Connector</title></a>
<a ewd:code="R27" ewd:figtype="conn" style="cursor:pointer;" ewd:figID="9">
	<path style="&st20;" d="M 134.53 , 138.99 L 134.53 , 113.31 L 459.66 , 113.31 L 459.66 , 138.99 L 134.53 , 138.99 L 134.53 , 138.99"/>
	<title ewd:textID="12">Junction Connector</title></a>
<a ewd:code="R31" ewd:figtype="conn" style="cursor:pointer;" ewd:figID="10">
	<path style="&st16;" d="M 325.78 , 638.82 L 342.78 , 638.82 L 342.78 , 655.82 L 325.78 , 655.82 L 325.78 , 638.82"/>
	<title ewd:textID="12">Junction Connector</title></a>
<a ewd:code="G263,G270" ewd:figtype="conn" style="cursor:pointer;" ewd:figID="11">
	<path style="&st16;" d="M 942.08 , 567.57 L 959.08 , 567.57 L 959.08 , 584.57 L 942.08 , 584.57 L 942.08 , 567.57"/>
	<title ewd:textID="12">Junction Connector</title></a>
<a ewd:code="G244,G275" ewd:figtype="conn" style="cursor:pointer;" ewd:figID="12">
	<path style="&st16;" d="M 942.05 , 478.32 L 959.05 , 478.32 L 959.05 , 495.32 L 942.05 , 495.32 L 942.05 , 478.32"/>
	<title ewd:textID="12">Junction Connector</title></a>
<a ewd:code="G104" ewd:figtype="conn" style="cursor:pointer;" ewd:figID="13">
	<path style="&st16;" d="M 942.1 , 638.82 L 959.1 , 638.82 L 959.1 , 655.82 L 942.1 , 655.82 L 942.1 , 638.82"/>
	<title ewd:textID="12">Junction Connector</title></a>
<a ewd:code="A99" ewd:figtype="conn" style="cursor:pointer;" ewd:figID="14">
	<path style="&st20;" d="M 835.78 , 341.52 L 835.78 , 288.39 L 971.78 , 288.39 L 971.78 , 341.52 L 835.78 , 341.52 L 835.78 , 341.52"/>
	<title ewd:textID="15">Stop Light Switch Assembly</title></a>
<a ewd:code="A115" ewd:figtype="conn" style="cursor:pointer;" ewd:figID="15">
	<path style="&st20;" d="M 910.14 , 243.26 L 910.14 , 226.14 L 927.14 , 226.14 L 927.14 , 243.26 L 910.14 , 243.26 L 910.14 , 243.26"/>
	<title ewd:textID="12">Junction Connector</title></a>
<a ewd:code="A116" ewd:figtype="conn" style="cursor:pointer;" ewd:figID="16">
	<path style="&st20;" d="M 602.03 , 289.72 L 602.03 , 272.6 L 661.36 , 272.6 L 661.36 , 289.72 L 602.03 , 289.72 L 602.03 , 289.72"/>
	<title ewd:textID="12">Junction Connector</title></a>
<a ewd:code="A59" ewd:figtype="conn" style="cursor:pointer;" ewd:figID="17">
	<path style="&st16;" d="M 910.14 , 168.64 L 927.14 , 168.64 L 927.14 , 143.14 L 910.14 , 143.14 L 910.14 , 168.64"/>
	<title ewd:textID="11">Diode (Stop Light)</title></a>
<a ewd:code="R2" ewd:figtype="gp" style="cursor:pointer;" ewd:figID="2001">
	<path style="&st12;" d="M 323.66 , 664.32 L 344.9 , 664.32 L 334.28 , 679.9 L 323.66 , 664.32"/>
	<text style="&st14; &st9;" transform="matrix(1 0 0 1 330.4478 671.3062)">R2</text></a>
<a ewd:code="X1" ewd:figtype="gp" style="cursor:pointer;" ewd:figID="2002">
	<path style="&st12;" d="M 36.79 , 664.32 L 58.03 , 664.32 L 47.41 , 679.9 L 36.79 , 664.32"/>
	<text style="&st14; &st9;" transform="matrix(1 0 0 1 43.7412 671.3062)">X1</text></a>
<a ewd:code="G3" ewd:figtype="gp" style="cursor:pointer;" ewd:figID="2003">
	<path style="&st12;" d="M 939.97 , 664.32 L 961.21 , 664.32 L 950.6 , 679.9 L 939.97 , 664.32"/>
	<text style="&st14; &st9;" transform="matrix(1 0 0 1 946.5918 671.3062)">G3</text></a>
<a ewd:code="FUSE18" ewd:figtype="rb" style="cursor:pointer;" ewd:figID="4001">
	<path style="&st16;" d="M 905.89 , 17.65 L 905.89 , 60.14 L 931.39 , 60.14 L 931.39 , 17.65 L 905.89 , 17.65"/>
</a>
<a ewd:code="540001" ewd:figtype="sp" style="cursor:pointer;" ewd:figID="5001">
	<path style="&st12;" d="M 43.16 , 602.56 L 51.66 , 602.56 L 55.91 , 606.81 L 55.91 , 615.31 L 51.66 , 619.56 L 43.16 , 619.56 L 38.91 , 615.31 L 38.91 , 606.81 L 43.16 , 602.56"/>
</a>
<a ewd:code="540002" ewd:figtype="sp" style="cursor:pointer;" ewd:figID="5002">
	<path style="&st12;" d="M 43.16 , 489.75 L 51.66 , 489.75 L 55.91 , 494 L 55.91 , 502.5 L 51.66 , 506.75 L 43.16 , 506.75 L 38.91 , 502.5 L 38.91 , 494 L 43.16 , 489.75"/>
</a>
<a ewd:code="YX1" ewd:figtype="w2w" style="cursor:pointer;" ewd:figID="6001" ewd:pinNo="12">
	<path style="&st12;" d="M 55.9 , 272.64 L 38.9 , 272.64 L 38.9 , 281.14 L 55.9 , 281.14 L 55.9 , 272.64"/>
	<text style="&st14; &st9;" transform="matrix(1 0 0 1 41.7334 278.9185)">YX1</text></a>
<a ewd:code="YX2" ewd:figtype="w2w" style="cursor:pointer;" ewd:figID="6002" ewd:pinNo="8">
	<path style="&st12;" d="M 55.9 , 281.14 L 38.9 , 281.14 L 38.9 , 289.64 L 55.9 , 289.64 L 55.9 , 281.14"/>
	<text style="&st14; &st9;" transform="matrix(1 0 0 1 41.7334 287.4185)">YX2</text></a>
<a ewd:code="YX2" ewd:figtype="w2w" style="cursor:pointer;" ewd:figID="6003" ewd:pinNo="1">
	<path style="&st12;" d="M 55.91 , 543 L 38.91 , 543 L 38.91 , 551.5 L 55.91 , 551.5 L 55.91 , 543"/>
	<text style="&st14; &st9;" transform="matrix(1 0 0 1 41.7363 549.2788)">YX2</text></a>
<a ewd:code="YX1" ewd:figtype="w2w" style="cursor:pointer;" ewd:figID="6004" ewd:pinNo="7">
	<path style="&st12;" d="M 55.91 , 551.5 L 38.91 , 551.5 L 38.91 , 560 L 55.91 , 560 L 55.91 , 551.5"/>
	<text style="&st14; &st9;" transform="matrix(1 0 0 1 41.7363 557.7788)">YX1</text></a>
<a ewd:code="RQ3" ewd:figtype="w2w" style="cursor:pointer;" ewd:figID="6005" ewd:pinNo="7">
	<path style="&st12;" d="M 151.53 , 461.6 L 134.53 , 461.6 L 134.53 , 470.1 L 151.53 , 470.1 L 151.53 , 461.6"/>
	<text style="&st14; &st9;" transform="matrix(1 0 0 1 136.8633 467.8726)">RQ3</text></a>
<a ewd:code="RQ2" ewd:figtype="w2w" style="cursor:pointer;" ewd:figID="6006" ewd:pinNo="10">
	<path style="&st12;" d="M 151.53 , 205.49 L 134.53 , 205.49 L 134.53 , 213.99 L 151.53 , 213.99 L 151.53 , 205.49"/>
	<text style="&st14; &st9;" transform="matrix(1 0 0 1 136.8604 211.77)">RQ2</text></a>
<a ewd:code="YZ1" ewd:figtype="w2w" style="cursor:pointer;" ewd:figID="6007" ewd:pinNo="2">
	<path style="&st12;" d="M 55.91 , 445 L 38.91 , 445 L 38.91 , 453.5 L 55.91 , 453.5 L 55.91 , 445"/>
	<text style="&st14; &st9;" transform="matrix(1 0 0 1 41.9048 451.2788)">YZ1</text></a>
<a ewd:code="YZ1" ewd:figtype="w2w" style="cursor:pointer;" ewd:figID="6008" ewd:pinNo="1">
	<path style="&st12;" d="M 55.9 , 325.89 L 38.9 , 325.89 L 38.9 , 334.39 L 55.9 , 334.39 L 55.9 , 325.89"/>
	<text style="&st14; &st9;" transform="matrix(1 0 0 1 41.9019 332.1685)">YZ1</text></a>
<a ewd:code="XQ1" ewd:figtype="w2w" style="cursor:pointer;" ewd:figID="6009" ewd:pinNo="17">
	<path style="&st12;" d="M 55.9 , 221.58 L 38.9 , 221.58 L 38.9 , 230.08 L 55.9 , 230.08 L 55.9 , 221.58"/>
	<text style="&st14; &st9;" transform="matrix(1 0 0 1 41.4009 227.8579)">XQ1</text></a>
<a ewd:code="AQ1" ewd:figtype="w2w" style="cursor:pointer;" ewd:figID="6010" ewd:pinNo="3">
	<path style="&st12;" d="M 55.9 , 164.21 L 38.9 , 164.21 L 38.9 , 172.71 L 55.9 , 172.71 L 55.9 , 164.21"/>
	<text style="&st14; &st9;" transform="matrix(1 0 0 1 41.3979 170.4868)">AQ1</text></a>
<a ewd:code="GA1" ewd:figtype="w2w" style="cursor:pointer;" ewd:figID="6011" ewd:pinNo="47">
	<path style="&st12;" d="M 959.03 , 407.07 L 942.03 , 407.07 L 942.03 , 415.57 L 959.03 , 415.57 L 959.03 , 407.07"/>
	<text style="&st14; &st9;" transform="matrix(1 0 0 1 944.5264 413.3491)">GA1</text></a>
<a ewd:code="GA6" ewd:figtype="w2w" style="cursor:pointer;" ewd:figID="6012" ewd:pinNo="57">
	<path style="&st12;" d="M 959.03 , 415.57 L 942.03 , 415.57 L 942.03 , 424.07 L 959.03 , 424.07 L 959.03 , 415.57"/>
	<text style="&st14; &st9;" transform="matrix(1 0 0 1 944.5264 421.8491)">GA6</text></a>
<a ewd:code="AR1" ewd:figtype="w2w" style="cursor:pointer;" ewd:figID="6013" ewd:pinNo="2">
	<path style="&st12;" d="M 459.65 , 281.22 L 442.65 , 281.22 L 442.65 , 289.72 L 459.65 , 289.72 L 459.65 , 281.22"/>
	<text style="&st14; &st9;" transform="matrix(1 0 0 1 445.3188 287.4976)">AR1</text></a>
<a ewd:code="FUSE18" ewd:figtype="fuse" style="cursor:pointer;" ewd:figID="1001">
	<path style="&st15;" d="M 905.89 , 17.65 L 905.89 , 60.14 L 931.39 , 60.14 L 931.39 , 17.65 L 905.89 , 17.65"/>
</a>
</g></svg>
