﻿<?xml version="1.0" encoding="UTF-8"?>
<!DOCTYPE svg PUBLIC "-//W3C//DTD SVG 1.0//EN" "http://www.w3.org/TR/2001/REC-SVG-20010904/DTD/svg10.dtd"[
<!ENTITY ns_flows "http://ns.adobe.com/Flows/1.0/">
<!ENTITY ns_svg "http://www.w3.org/2000/svg">
<!ENTITY ns_xlink "http://www.w3.org/1999/xlink">
	<!ENTITY st0 "fill:none;stroke:#000000;stroke-width:0.977;stroke-linecap:round;stroke-linejoin:round;">
	<!ENTITY st1 "fill:none;stroke:#FFFFFF;stroke-width:1.2;stroke-linejoin:round;">
	<!ENTITY st2 "fill:none;stroke:#F8E616;stroke-width:5.1;stroke-linejoin:round;">
	<!ENTITY st3 "fill:none;stroke:#FB0F0C;stroke-width:5.1;stroke-linejoin:round;">
	<!ENTITY st4 "fill:none;stroke:#9A9999;stroke-width:5.1;stroke-linejoin:round;">
	<!ENTITY st5 "fill:none;stroke:#FF7F00;stroke-width:1.3072;stroke-linecap:round;stroke-linejoin:round;stroke-dasharray:6;">
	<!ENTITY st6 "fill:none;stroke:#99280B;stroke-width:5.1;stroke-linejoin:round;">
	<!ENTITY st7 "fill:none;stroke:#7FC31C;stroke-width:1.42;stroke-linejoin:round;">
	<!ENTITY st8 "fill:none;stroke:#FF7F00;stroke-width:0.9123;stroke-linecap:round;stroke-linejoin:round;">
	<!ENTITY st9 "fill:none;stroke:#000000;stroke-width:5.1;stroke-linejoin:round;">
	<!ENTITY st10 "fill:none;stroke:#000000;stroke-linecap:round;stroke-linejoin:round;">
	<!ENTITY st11 "stroke:#000000;stroke-width:0.28;stroke-linecap:round;stroke-linejoin:round;">
	<!ENTITY st12 "fill:none;stroke:#EE67AA;stroke-width:5.1;stroke-linejoin:round;">
	<!ENTITY st13 "fill:none;stroke:#199DBF;stroke-width:5.1;stroke-linejoin:round;">
	<!ENTITY st14 "fill:none;stroke:#FFFFFF;stroke-width:4.53;stroke-linejoin:round;">
	<!ENTITY st15 "fill:none;stroke:#56107C;stroke-width:5.1;stroke-linejoin:round;">
	<!ENTITY st16 "font-size:6px;">
	<!ENTITY st17 "fill:none;stroke:#168638;stroke-width:5.1;stroke-linejoin:round;">
	<!ENTITY st18 "fill:none;stroke:#000000;stroke-width:1.13;stroke-linejoin:round;">
	<!ENTITY st19 "fill:#CCCCCC;stroke:#CECECF;stroke-width:0.1;stroke-linecap:round;stroke-linejoin:round;">
	<!ENTITY st20 "fill:#FF0000;">
	<!ENTITY st21 "fill:#FFFFFF;stroke:#000000;stroke-width:1.41;stroke-linecap:round;stroke-linejoin:round;">
	<!ENTITY st22 "font-family:'MS-Gothic';adobe-font-script:japanese;">
	<!ENTITY st23 "fill:none;">
	<!ENTITY st24 "fill:none;stroke:#000000;stroke-width:1.42;stroke-linejoin:round;">
	<!ENTITY st25 "font-family:'Arial';">
	<!ENTITY st26 "fill:none;stroke:#000000;stroke-width:1.42;stroke-linecap:round;stroke-linejoin:round;">
	<!ENTITY st27 "fill:#CFE6E7;stroke:#000000;stroke-width:1.133;stroke-linecap:round;stroke-linejoin:round;">
	<!ENTITY st28 "font-size:21px;">
	<!ENTITY st29 "fill:none;stroke:#0A50A1;stroke-width:1.3072;stroke-linecap:round;stroke-linejoin:round;stroke-dasharray:6;">
	<!ENTITY st30 "fill:#CFE6E7;stroke:#000000;stroke-width:1.13;stroke-linejoin:round;">
	<!ENTITY st31 "fill:none;stroke:#000000;stroke-width:0.85;stroke-linecap:round;stroke-linejoin:round;">
	<!ENTITY st32 "fill:none;stroke:#7EC57E;stroke-width:5.1;stroke-linejoin:round;">
	<!ENTITY st33 "font-size:6px;alignment-baseline:alphabetic;">
<!ATTLIST svg
xmlns:ewd CDATA #FIXED "http://shcl.co.jp/ewd"
xmlns:a CDATA #FIXED "http://ns.adobe.com/AdobeSVGViewerExtensions/3.0/"
ewd:ver CDATA #IMPLIED
>
<!ATTLIST a
ewd:lineID CDATA #IMPLIED
ewd:groupID CDATA #IMPLIED
ewd:figtype CDATA #IMPLIED
ewd:code CDATA #IMPLIED
ewd:figID CDATA #IMPLIED
ewd:pinNo CDATA #IMPLIED
ewd:comment CDATA #IMPLIED >
<!ATTLIST g
ewd:lineID CDATA #IMPLIED
ewd:groupID CDATA #IMPLIED
ewd:figtype CDATA #IMPLIED
ewd:code CDATA #IMPLIED
ewd:figID CDATA #IMPLIED
ewd:pinNo CDATA #IMPLIED
ewd:comment CDATA #IMPLIED >
<!ATTLIST text
ewd:textID CDATA #IMPLIED ><!ATTLIST title
ewd:textID CDATA #IMPLIED >]>
<svg onload="call_execInitLoadProc_svg('system')"
style="overflow:visible;  enable-background:new 0 0 3061.3 693.31"
viewBox="0 0 3061.3 693.31"
height='693.31'
width='3061.3'
xml:space="preserve"
xmlns="&ns_svg;"
xmlns:ewd="http://shcl.co.jp/ewd"
xmlns:a="http://ns.adobe.com/AdobeSVGViewerExtensions/3.0/"
xmlns:xlink="&ns_xlink;" ewd:ver="L2.3">
<g ewd:code="" ewd:figID="8001" ewd:figtype="annex">
<path style="&st26;" d="M 1802.66 , 422.64 L 1806.91 , 412.01 L 1811.16 , 422.64"/>
<path style="&st23;" d="M 1802.66 , 422.64 L 1806.91 , 426.89 L 1811.16 , 422.64"/>
<path style="&st26;" d="M 1760.16 , 422.64 L 1764.41 , 412.01 L 1768.66 , 422.64"/>
<path style="&st23;" d="M 1760.16 , 422.64 L 1764.41 , 426.89 L 1768.66 , 422.64"/>
<path style="&st31;" d="M 1811.16 , 431.14 L 1806.91 , 435.39 L 1764.41 , 435.39 L 1760.16 , 431.14"/>
<path style="&st1;" d="M 1787.85 , 435.39 L 1783.48 , 435.39"/>
<path style="&st31;" d="M 1787.85 , 435.39 L 1785.67 , 439.64 L 1783.49 , 435.39"/>
<text style="&st25; &st16;" transform="matrix(1 0 0 1 1778.998 450.2651)">ECM</text></g>
<g ewd:pinNo="57" ewd:code="GA1" ewd:figID="6012" ewd:figtype="w2w">
<path style="&st21;" d="M 1594.4 , 414.14 L 1602.9 , 414.14"/>
<path style="&st26;" d="M 1590.17 , 423.2 L 1594.41 , 418.95 L 1598.66 , 423.2"/>
<path style="&st26;" d="M 1598.65 , 419.8 L 1594.4 , 415.55 L 1590.16 , 419.8"/>
<text style="&st25; &st16;" transform="matrix(1 0 0 1 1575.877 411.9175)">57</text></g>
<g ewd:pinNo="5" ewd:code="CG1" ewd:figID="6011" ewd:figtype="w2w">
<path style="&st21;" d="M 1840.9 , 411.95 L 1849.4 , 411.95"/>
<path style="&st26;" d="M 1845.16 , 402.89 L 1849.4 , 407.14 L 1853.65 , 402.89"/>
<path style="&st26;" d="M 1853.65 , 406.29 L 1849.4 , 410.54 L 1845.16 , 406.29"/>
<text style="&st25; &st16;" transform="matrix(1 0 0 1 1834.2139 418.228)">5</text></g>
<g ewd:pinNo="4" ewd:code="GA6" ewd:figID="6010" ewd:figtype="w2w">
<path style="&st21;" d="M 1658.15 , 414.14 L 1666.65 , 414.14"/>
<path style="&st26;" d="M 1653.92 , 423.2 L 1658.16 , 418.95 L 1662.41 , 423.2"/>
<path style="&st26;" d="M 1662.4 , 419.8 L 1658.15 , 415.55 L 1653.91 , 419.8"/>
<text style="&st25; &st16;" transform="matrix(1 0 0 1 1642.9639 411.9175)">4</text></g>
<g ewd:pinNo="5" ewd:code="GA6" ewd:figID="6009" ewd:figtype="w2w">
<path style="&st21;" d="M 1721.9 , 414.14 L 1730.4 , 414.14"/>
<path style="&st26;" d="M 1717.67 , 423.2 L 1721.91 , 418.95 L 1726.16 , 423.2"/>
<path style="&st26;" d="M 1726.15 , 419.8 L 1721.9 , 415.55 L 1717.66 , 419.8"/>
<text style="&st25; &st16;" transform="matrix(1 0 0 1 1706.7139 411.9175)">5</text></g>
<g ewd:pinNo="26" ewd:code="GR1" ewd:figID="6002" ewd:figtype="w2w">
<path style="&st21;" d="M 1934.4 , 152.25 L 1942.9 , 152.25"/>
<path style="&st26;" d="M 1930.16 , 161.31 L 1934.4 , 157.06 L 1938.65 , 161.31"/>
<path style="&st26;" d="M 1938.65 , 157.91 L 1934.4 , 153.66 L 1930.16 , 157.91"/>
<text style="&st25; &st16;" transform="matrix(1 0 0 1 1915.875 150.0264)">26</text></g>
<g ewd:code="A2" ewd:figID="2004" ewd:figtype="gp">
<path style="&st31;" d="M 1656.74 , 692.65 L 1659.57 , 692.65"/>
<path style="&st31;" d="M 1655.32 , 689.82 L 1660.99 , 689.82"/>
<path style="&st31;" d="M 1653.91 , 686.98 L 1662.41 , 686.98"/>
<path style="&st31;" d="M 1649.66 , 684.15 L 1666.66 , 684.15"/>
<path style="&st31;" d="M 1658.16 , 679.9 L 1658.16 , 684.15"/>
</g>
<g ewd:code="R2" ewd:figID="2001" ewd:figtype="gp">
<path style="&st31;" d="M 1932.98 , 692.65 L 1935.81 , 692.65"/>
<path style="&st31;" d="M 1931.56 , 689.82 L 1937.23 , 689.82"/>
<path style="&st31;" d="M 1930.15 , 686.98 L 1938.65 , 686.98"/>
<path style="&st31;" d="M 1925.9 , 684.15 L 1942.9 , 684.15"/>
<path style="&st31;" d="M 1934.4 , 679.9 L 1934.4 , 684.15"/>
</g>
<g ewd:code="A74" ewd:figID="26" ewd:figtype="conn">
<path style="&st31;" d="M 1721.91 , 490.69 L 1721.91 , 486.44"/>
<path style="&st31;" d="M 1721.91 , 460.95 L 1721.91 , 456.7"/>
<path style="&st26;" d="M 1721.91 , 483.61 L 1720.22 , 459.49"/>
<path style="&st31;" d="M 1720.5 , 507.69 L 1723.33 , 507.69"/>
<path style="&st31;" d="M 1719.08 , 504.86 L 1724.75 , 504.86"/>
<path style="&st31;" d="M 1717.67 , 502.02 L 1726.16 , 502.02"/>
<path style="&st31;" d="M 1713.42 , 499.19 L 1730.41 , 499.19"/>
<path style="&st31;" d="M 1721.91 , 490.69 L 1721.91 , 499.19"/>
<path style="&st26;" d="M 1730.41 , 490.69 L 1730.41 , 456.7 L 1713.42 , 456.7 L 1713.42 , 490.69 L 1730.41 , 490.69"/>
<path style="&st31;" d="M1723.33,485.03c0-0.79-0.63-1.42-1.42-1.42"/>
<path style="&st31;" d="M1721.91,483.61c-0.78,0-1.41,0.63-1.41,1.42"/>
<path style="&st31;" d="M1720.5,485.03c0,0.78,0.63,1.41,1.41,1.41"/>
<path style="&st31;" d="M1721.91,486.44c0.79,0,1.42-0.63,1.42-1.41"/>
<path style="&st31;" d="M1723.33,462.36c0-0.78-0.63-1.41-1.42-1.41"/>
<path style="&st31;" d="M1721.91,460.95c-0.78,0-1.41,0.63-1.41,1.41"/>
<path style="&st31;" d="M1720.5,462.36c0,0.78,0.63,1.42,1.41,1.42"/>
<path style="&st31;" d="M1721.91,463.78c0.79,0,1.42-0.64,1.42-1.42"/>
<text style="&st25; &st16;" transform="matrix(1 0 0 1 1713.8193 453.0034)">1</text><g ewd:figtype="title">
<text style="&st25; &st16;" transform="matrix(0 -1 1 0 1738.0156 493.2222)">A74</text><text ewd:textID="45" style="&st25; &st16;" transform="matrix(0 -1 1 0 1745.125 493.2222)">Vacuum Warning Switch Assembly</text></g>
</g>
<g ewd:code="R28" ewd:figID="15" ewd:figtype="conn">
<path style="&st26;" d="M 1925.9 , 503.54 L 1942.9 , 503.54 L 1942.9 , 520.54 L 1925.9 , 520.54 L 1925.9 , 503.54"/>
<path style="&st31;" d="M 1934.4 , 503.54 L 1934.4 , 520.54"/>
<path style="&st26;" d="M1938.92,525.04c0-2.48-2.02-4.5-4.5-4.5"/>
<path style="&st26;" d="M1934.39,520.54c-2.48,0-4.5,2.02-4.5,4.5"/>
<path style="&st26;" d="M1929.89,525.04c0,2.48,2.02,4.5,4.5,4.5"/>
<path style="&st26;" d="M1934.42,529.54c2.48,0,4.5-2.02,4.5-4.5"/>
<path style="&st26;" d="M1938.92,499.04c0-2.48-2.02-4.5-4.5-4.5"/>
<path style="&st26;" d="M1934.39,494.54c-2.48,0-4.5,2.02-4.5,4.5"/>
<path style="&st26;" d="M1929.89,499.04c0,2.48,2.02,4.5,4.5,4.5"/>
<path style="&st26;" d="M1934.42,503.54c2.48,0,4.5-2.02,4.5-4.5"/>
<text style="&st25; &st16;" transform="matrix(1 0 0 1 1920.959 527.0093)">19</text><text style="&st25; &st16;" transform="matrix(1 0 0 1 1932.4033 527.0093)">B</text><text style="&st25; &st16;" transform="matrix(1 0 0 1 1920.959 500.98)">17</text><text style="&st25; &st16;" transform="matrix(1 0 0 1 1932.4033 500.98)">B</text><g ewd:figtype="title">
<text style="&st25; &st16;" transform="matrix(0 -1 1 0 1950.5137 523.0601)">R28(B)</text><text ewd:textID="28" style="&st25; &st16;" transform="matrix(0 -1 1 0 1957.5547 523.0601)">Junction Connector</text></g>
</g>
<g ewd:code="R31" ewd:figID="14" ewd:figtype="conn">
<path style="&st31;" d="M 1934.4 , 638.82 L 1934.4 , 664.32"/>
<path style="&st31;" d="M 1934.4 , 638.82 L 1934.4 , 655.82"/>
<path style="&st26;" d="M 1925.9 , 638.82 L 1942.9 , 638.82 L 1942.9 , 655.82 L 1925.9 , 655.82 L 1925.9 , 638.82"/>
<text style="&st25; &st16;" transform="matrix(1 0 0 1 1926.2666 635.1343)">5</text><g ewd:figtype="title">
<text style="&st25; &st16;" transform="matrix(1 0 0 1 1947.1543 645.1987)">R31</text><text ewd:textID="28" style="&st25; &st16;" transform="matrix(1 0 0 1 1947.1543 652.2397)">Junction Connector</text></g>
</g>
<g ewd:code="R34" ewd:figID="8" ewd:figtype="conn">
<path style="&st31;" d="M 1934.42 , 386.54 L 1934.42 , 373.79"/>
<path style="&st31;" d="M 1934.43 , 280.31 L 1934.43 , 267.56"/>
<path style="&st26;" d="M 1976.93 , 358.21 L 1984.72 , 335.55"/>
<path style="&st31;" d="M 1976.93 , 373.79 L 1976.93 , 361.04"/>
<path style="&st31;" d="M 1976.93 , 335.55 L 1976.93 , 322.8"/>
<path style="&st26;" d="M 1934.43 , 302.97 L 1932.73 , 278.86"/>
<path style="&st31;" d="M 1934.43 , 305.8 L 1934.43 , 322.8 L 1976.93 , 322.8"/>
<path style="&st31;" d="M 1934.43 , 373.79 L 1976.93 , 373.79"/>
<path style="&st26;" d="M 1951.42 , 267.56 L 1951.42 , 386.54"/>
<path style="&st26;" d="M 1908.93 , 267.56 L 1908.93 , 386.54 L 1993.91 , 386.54 L 1993.91 , 267.56 L 1908.93 , 267.56"/>
<path style="&st31;" d="M1935.84,304.39c0-0.78-0.63-1.42-1.41-1.42"/>
<path style="&st31;" d="M1934.43,302.97c-0.79,0-1.42,0.64-1.42,1.42"/>
<path style="&st31;" d="M1933.01,304.39c0,0.78,0.63,1.41,1.42,1.41"/>
<path style="&st31;" d="M1934.43,305.8c0.78,0,1.41-0.63,1.41-1.41"/>
<path style="&st31;" d="M1935.84,281.73c0-0.79-0.63-1.42-1.41-1.42"/>
<path style="&st31;" d="M1934.43,280.31c-0.79,0-1.42,0.63-1.42,1.42"/>
<path style="&st31;" d="M1933.01,281.73c0,0.78,0.63,1.41,1.42,1.41"/>
<path style="&st31;" d="M1934.43,283.14c0.78,0,1.41-0.63,1.41-1.41"/>
<path style="&st31;" d="M1978.35,359.63c0-0.79-0.64-1.42-1.42-1.42"/>
<path style="&st31;" d="M1976.93,358.21c-0.78,0-1.42,0.63-1.42,1.42"/>
<path style="&st31;" d="M1975.51,359.63c0,0.78,0.64,1.41,1.42,1.41"/>
<path style="&st31;" d="M1976.93,361.04c0.78,0,1.42-0.63,1.42-1.41"/>
<path style="&st31;" d="M1978.35,336.96c0-0.78-0.64-1.41-1.42-1.41"/>
<path style="&st31;" d="M1976.93,335.55c-0.78,0-1.42,0.63-1.42,1.41"/>
<path style="&st31;" d="M1975.51,336.96c0,0.79,0.64,1.42,1.42,1.42"/>
<path style="&st31;" d="M1976.93,338.38c0.78,0,1.42-0.63,1.42-1.42"/>
<path style="&st24;" d="M 1908.93 , 386.54 L 1908.93 , 267.56 L 1993.91 , 267.56 L 1993.91 , 386.54 L 1908.93 , 386.54 L 1908.93 , 386.54"/>
<path style="&st26;" d="M1938.92,263.06c0-2.48-2.02-4.5-4.5-4.5"/>
<path style="&st26;" d="M1934.39,258.56c-2.48,0-4.5,2.02-4.5,4.5"/>
<path style="&st26;" d="M1929.89,263.06c0,2.48,2.02,4.5,4.5,4.5"/>
<path style="&st26;" d="M1934.42,267.56c2.48,0,4.5-2.02,4.5-4.5"/>
<path style="&st26;" d="M1938.92,391.04c0-2.48-2.02-4.5-4.5-4.5"/>
<path style="&st26;" d="M1934.39,386.54c-2.48,0-4.5,2.02-4.5,4.5"/>
<path style="&st26;" d="M1929.89,391.04c0,2.48,2.02,4.5,4.5,4.5"/>
<path style="&st26;" d="M1934.42,395.54c2.48,0,4.5-2.02,4.5-4.5"/>
<text ewd:textID="31" style="&st25; &st16;" transform="matrix(0 -1 1 0 1958.5 363.5503)">Occupant <tspan x="0" y="7">Detection </tspan><tspan x="0" y="14" style="&st25; &st16;">Sensor</tspan></text><text ewd:textID="10" style="&st25; &st16;" transform="matrix(0 -1 1 0 1921.9492 303.6201)">Buckle <tspan x="0" y="7">Switch</tspan></text><text style="&st25; &st16;" transform="matrix(1 0 0 1 1924.2959 265)">3</text><text style="&st25; &st16;" transform="matrix(1 0 0 1 1932.4033 265)">B</text><text style="&st25; &st16;" transform="matrix(1 0 0 1 1938.6543 275.2109)">+</text><text style="&st25; &st16;" transform="matrix(1 0 0 1 1924.2959 393.0112)">2</text><text style="&st25; &st16;" transform="matrix(1 0 0 1 1932.4033 393.0112)">B</text><text style="&st25; &st16;" transform="matrix(1 0 0 1 1938.6543 382.8413)">E</text><g ewd:figtype="title">
<text style="&st25; &st16;" transform="matrix(0 -1 1 0 2001.5098 389.0405)">R34(B)</text><text ewd:textID="20" style="&st25; &st16;" transform="matrix(0 -1 1 0 2009.1104 389.0405)">Front Seat Inner Belt Assembly LH</text></g>
</g>
<g ewd:code="C112-D" ewd:figID="2" ewd:figtype="conn">
<path style="&st24;" d="M 1832.4 , 486.95 L 1832.4 , 520.95 L 1866.4 , 520.95 L 1866.4 , 486.95 L 1832.4 , 486.95 L 1832.4 , 486.95"/>
<path style="&st26;" d="M1853.92,482.45c0-2.48-2.02-4.5-4.5-4.5"/>
<path style="&st26;" d="M1849.39,477.95c-2.48,0-4.5,2.02-4.5,4.5"/>
<path style="&st26;" d="M1844.89,482.45c0,2.48,2.02,4.5,4.5,4.5"/>
<path style="&st26;" d="M1849.42,486.95c2.48,0,4.5-2.02,4.5-4.5"/>
<text style="&st25; &st16;" transform="matrix(1 0 0 1 1839.2959 484.3901)">1</text><text style="&st25; &st16;" transform="matrix(1 0 0 1 1847.2383 484.3901)">D</text><text style="&st25; &st16;" transform="matrix(1 0 0 1 1847.7363 494.6011)">L</text><g ewd:figtype="title">
<text style="&st25; &st16;" transform="matrix(0 -1 1 0 1874.9043 523.0757)">C112(D)</text><text ewd:textID="26" style="&st25; &st16;" transform="matrix(0 -1 1 0 1882.5039 523.0757)">Generator Assembly</text></g>
</g>
<g ewd:code="A75" ewd:figID="25" ewd:figtype="conn">
<g ewd:figtype="title">
<text style="&st25; &st16;" transform="matrix(0 -1 1 0 1619.0059 493.2007)">A75</text><text ewd:textID="29" style="&st25; &st16;" transform="matrix(0 -1 1 0 1626.6074 493.2007)">Level Warning Switch (Fuel Filter Assembly)</text></g>
<g ewd:lineID="45">
<text style="&st25; &st16;" transform="matrix(1 0 0 1 1586.3193 453.0112)">1</text><text style="&st25; &st16;" transform="matrix(1 0 0 1 1592.6543 464.3511)">+</text></g>
<g ewd:lineID="30">
<text style="&st25; &st16;" transform="matrix(1 0 0 1 1586.3193 498.9019)">2</text><text style="&st25; &st16;" transform="matrix(1 0 0 1 1592.4053 487.0034)">E</text></g>
</g>
<g ewd:code="A44" ewd:figID="24" ewd:figtype="conn">
<g ewd:figtype="title">
<text style="&st25; &st16;" transform="matrix(0 -1 1 0 1682.7559 493.2007)">A44</text><text ewd:textID="9" style="&st25; &st16;" transform="matrix(0 -1 1 0 1690.3574 493.2007)">Brake Fluid Level Warning Switch <tspan x="0" y="7">(Brake Master Cylinder Reservoir Assembly)</tspan></text></g>
<g ewd:lineID="39">
<text style="&st25; &st16;" transform="matrix(1 0 0 1 1650.0693 453.0112)">1</text><text style="&st25; &st16;" transform="matrix(1 0 0 1 1656.4043 464.3511)">+</text></g>
<g ewd:lineID="28">
<text style="&st25; &st16;" transform="matrix(1 0 0 1 1650.0693 498.9019)">2</text><text style="&st25; &st16;" transform="matrix(1 0 0 1 1656.1553 487.0034)">E</text></g>
</g>
<path style="&st24;" d="M 1577.41 , 490.7 L 1577.41 , 456.7 L 1611.41 , 456.7 L 1611.41 , 490.7 L 1577.41 , 490.7 L 1577.41 , 490.7"/>
<path style="&st24;" d="M 1641.16 , 490.7 L 1641.16 , 456.7 L 1675.16 , 456.7 L 1675.16 , 490.7 L 1641.16 , 490.7 L 1641.16 , 490.7"/>
<text style="&st25; &st16;" transform="matrix(1 0 0 1 1502.3223 601.1235)">W</text><text style="&st25; &st16;" transform="matrix(1 0 0 1 1553.3203 601.1235)">W</text><text style="&st25; &st16;" transform="matrix(1 0 0 1 1553.9863 618.1235)">R</text><text style="&st25; &st16;" transform="matrix(1 0 0 1 1502.9863 618.1235)">R</text><text style="&st25; &st16;" transform="matrix(0 -1 1 0 1590.7031 389.6812)">R</text><text style="&st25; &st16;" transform="matrix(0 -1 1 0 1590.707 440.7417)">R</text><text style="&st25; &st16;" transform="matrix(0 -1 1 0 1845.7031 389.5161)">P</text><text style="&st25; &st16;" transform="matrix(0 -1 1 0 1845.7031 451.2017)">P</text><text style="&st25; &st16;" transform="matrix(0 -1 1 0 1654.4531 389.5161)">P</text><text style="&st25; &st16;" transform="matrix(0 -1 1 0 1654.457 440.5767)">P</text><text style="&st25; &st16;" transform="matrix(0 -1 1 0 1718.2031 389.8491)">G</text><text style="&st25; &st16;" transform="matrix(0 -1 1 0 1718.207 440.5767)">P</text><text style="&st25; &st16;" transform="matrix(0 -1 1 0 1760.7129 400.1411)">V</text><text style="&st25; &st16;" transform="matrix(0 -1 1 0 1803.2129 400.3062)">R</text><text style="&st25; &st16;" transform="matrix(0 -1 1 0 1590.707 525.228)">W-B</text><text style="&st25; &st16;" transform="matrix(0 -1 1 0 1654.457 597.603)">W-B</text><text style="&st25; &st16;" transform="matrix(0 -1 1 0 1654.457 525.228)">W-B</text><text style="&st25; &st16;" transform="matrix(0 -1 1 0 1930.7041 210.229)">L</text><text style="&st25; &st16;" transform="matrix(0 -1 1 0 1930.7002 95.4185)">L</text><text style="&st25; &st16;" transform="matrix(0 -1 1 0 1569.5537 158.562)">L</text><text style="&st25; &st16;" transform="matrix(0 -1 1 0 1930.7051 450.4429)">W-B</text><text style="&st25; &st16;" transform="matrix(0 -1 1 0 1930.7051 562.1909)">W-B</text></svg>
