﻿<?xml version="1.0" encoding="UTF-8"?>
<!DOCTYPE svg PUBLIC "-//W3C//DTD SVG 1.0//EN" "http://www.w3.org/TR/2001/REC-SVG-20010904/DTD/svg10.dtd"[
<!ENTITY ns_flows "http://ns.adobe.com/Flows/1.0/">
<!ENTITY ns_svg "http://www.w3.org/2000/svg">
<!ENTITY ns_xlink "http://www.w3.org/1999/xlink">
	<!ENTITY st0 "fill:none;stroke:#FB0F0C;stroke-width:5.1;stroke-linejoin:round;">
	<!ENTITY st1 "fill:none;stroke:#FF7F00;stroke-width:1.3072;stroke-linecap:round;stroke-linejoin:round;stroke-dasharray:6;">
	<!ENTITY st2 "fill:none;stroke:#7FC31C;stroke-width:1.42;stroke-linejoin:round;">
	<!ENTITY st3 "fill:#CFE6E7;stroke:#000000;stroke-width:1.42;stroke-linejoin:round;">
	<!ENTITY st4 "fill:none;stroke:#FF7F00;stroke-width:0.9123;stroke-linecap:round;stroke-linejoin:round;">
	<!ENTITY st5 "fill:none;stroke:#000000;stroke-width:5.1;stroke-linejoin:round;">
	<!ENTITY st6 "fill:none;stroke:#000000;stroke-linecap:round;stroke-linejoin:round;">
	<!ENTITY st7 "stroke:#000000;stroke-width:0.28;stroke-linecap:round;stroke-linejoin:round;">
	<!ENTITY st8 "fill:none;stroke:#199DBF;stroke-width:5.1;stroke-linejoin:round;">
	<!ENTITY st9 "fill:none;stroke:#FFFFFF;stroke-width:4.53;stroke-linejoin:round;">
	<!ENTITY st10 "fill:none;stroke:#56107C;stroke-width:5.1;stroke-linejoin:round;">
	<!ENTITY st11 "font-size:6px;">
	<!ENTITY st12 "font-size:8px;">
	<!ENTITY st13 "fill:none;stroke:#FFFFFF;stroke-width:2.27;stroke-linejoin:round;">
	<!ENTITY st14 "fill:none;stroke:#FB0F0C;stroke-width:1.13;stroke-linejoin:round;">
	<!ENTITY st15 "fill:none;stroke:#000000;stroke-width:1.13;stroke-linejoin:round;">
	<!ENTITY st16 "fill:#CCCCCC;stroke:#CECECF;stroke-width:0.1;stroke-linecap:round;stroke-linejoin:round;">
	<!ENTITY st17 "fill:#FF0000;">
	<!ENTITY st18 "fill:#FFFFFF;stroke:#000000;stroke-width:1.41;stroke-linecap:round;stroke-linejoin:round;">
	<!ENTITY st19 "font-family:'MS-Gothic';adobe-font-script:japanese;">
	<!ENTITY st20 "fill:none;stroke:#000000;stroke-width:1.42;stroke-linejoin:round;">
	<!ENTITY st21 "font-family:'Arial';">
	<!ENTITY st22 "font-size:8px;alignment-baseline:alphabetic;">
	<!ENTITY st23 "fill:none;stroke:#000000;stroke-width:1.42;stroke-linecap:round;stroke-linejoin:round;">
	<!ENTITY st24 "fill:#CFE6E7;stroke:#000000;stroke-width:1.133;stroke-linecap:round;stroke-linejoin:round;">
	<!ENTITY st25 "font-size:21px;">
	<!ENTITY st26 "fill:none;stroke:#99D5E0;stroke-width:5.1;stroke-linejoin:round;">
	<!ENTITY st27 "fill:none;stroke:#000000;stroke-width:0.85;stroke-linecap:round;stroke-linejoin:round;stroke-dasharray:3 1.5;">
	<!ENTITY st28 "fill:none;stroke:#0A50A1;stroke-width:1.3072;stroke-linecap:round;stroke-linejoin:round;stroke-dasharray:6;">
	<!ENTITY st29 "fill:#CFE6E7;stroke:#000000;stroke-width:1.13;stroke-linejoin:round;">
	<!ENTITY st30 "fill:none;stroke:#000000;stroke-width:0.85;stroke-linecap:round;stroke-linejoin:round;">
	<!ENTITY st31 "fill:none;stroke:#7EC57E;stroke-width:5.1;stroke-linejoin:round;">
	<!ENTITY st32 "font-size:6px;alignment-baseline:alphabetic;">
<!ATTLIST svg
xmlns:ewd CDATA #FIXED "http://shcl.co.jp/ewd"
xmlns:a CDATA #FIXED "http://ns.adobe.com/AdobeSVGViewerExtensions/3.0/"
ewd:ver CDATA #IMPLIED
>
<!ATTLIST a
ewd:lineID CDATA #IMPLIED
ewd:groupID CDATA #IMPLIED
ewd:figtype CDATA #IMPLIED
ewd:code CDATA #IMPLIED
ewd:figID CDATA #IMPLIED
ewd:pinNo CDATA #IMPLIED
ewd:comment CDATA #IMPLIED >
<!ATTLIST g
ewd:lineID CDATA #IMPLIED
ewd:groupID CDATA #IMPLIED
ewd:figtype CDATA #IMPLIED
ewd:code CDATA #IMPLIED
ewd:figID CDATA #IMPLIED
ewd:pinNo CDATA #IMPLIED
ewd:comment CDATA #IMPLIED >
<!ATTLIST text
ewd:textID CDATA #IMPLIED ><!ATTLIST title
ewd:textID CDATA #IMPLIED >]>
<svg onload="call_execInitLoadProc_svg('system')"
style="overflow:visible;  enable-background:new 0 0 2041.31 693.31"
viewBox="0 0 2041.31 693.31"
height='693.31'
width='2041.31'
xml:space="preserve"
xmlns="&ns_svg;"
xmlns:ewd="http://shcl.co.jp/ewd"
xmlns:a="http://ns.adobe.com/AdobeSVGViewerExtensions/3.0/"
xmlns:xlink="&ns_xlink;" ewd:ver="L2.3">
<style type="text/css"></style>
<script type="text/javascript" xlink:href="../../../../../system/js/ewd/fig/svgfig.js"/><defs>
<font horiz-adv-x="1229">
<font-face font-family="Svg Symbol" units-per-em="2048" panose-1="5 5 1 2 1 7 6 2 5 7" ascent="2059" descent="450" alphabetic="0"/>
<missing-glyph d="M 103,0 l 0,1280 1024,0 0,-1280 -1024,0 z m 32,32 l 960,0 0,1216 -960,0 0,-1216 z"/>
<glyph unicode="&#xF057;" horiz-adv-x="1573" d="M 1517,0 l -567,0 24,279 q 141,59 207.5,168 66.5,109 66.5,306    0,272 -132.5,417.5 -132.5,145.5 -333.5,145.5 -194,0 -328,-147.5 -134,-147.5 -134,-401.5 0,-200 68.5,-319 68.5,-119     206.5,-169 l 25,-279 -564,0 0,279 35,0 q 3,-61 32,-83 45,-35 137,-35 l 270,0 0,70 q -210,61 -324.5,209 -114.5,148     -114.5,349 0,252 186.5,425 186.5,173 504.5,173 195,0 358.5,-73.5 163.5,-73.5 252,-214.5 88.5,-141 88.5,-310 0,-207     -121.5,-360.5 -121.5,-153.5 -317.5,-197.5 l -8,-70 275,0 q 92,0 128,28 36,28 42,90 l 38,0 0,-279 z"/>
</font>
</defs>
<g id="ewd_top">
<a ewd:lineID="45" style="cursor:pointer;">
	<path style="&st10;" d="M 281.15 , 267.8 L 281.15 , 311.43 L 111.15 , 311.43 L 111.15 , 261.55"/></a>
<a ewd:lineID="44" style="cursor:pointer;">
	<path style="&st0;" d="M 370.4 , 267.8 L 370.4 , 382.24"/></a>
<a ewd:lineID="43" style="cursor:pointer;">
	<path style="&st5;" d="M 404.4 , 267.8 L 404.4 , 382.24"/></a>
<a ewd:lineID="42" style="cursor:pointer;">
	<path style="&st10;" d="M 336.4 , 382.24 L 336.4 , 328.43 L 68.65 , 328.43 L 68.65 , 261.55"/></a>
<a ewd:lineID="41" style="cursor:pointer;">
	<path style="&st5;" d="M 259.9 , 543.93 L 259.9 , 443.93 L 194.02 , 443.93"/>
	<path style="&st9;" d="M 259.9 , 543.93 L 259.9 , 443.93 L 194.02 , 443.93"/>
	<path style="&st15;" d="M 259.9 , 543.93 L 259.9 , 443.93 L 194.02 , 443.93"/></a>
<a ewd:lineID="40" style="cursor:pointer;" ewd:comment="8,9">
	<path style="&st5;" d="M 1449.9 , 123.9 L 1449.9 , 132.4 L 1432.9 , 149.4 L 1418.02 , 149.4 L 1418.02 , 613.32 L 1432.9 , 613.32 L 1449.9 , 630.32 L 1449.9 , 638.82"/>
	<path style="&st9;" d="M 1449.9 , 123.9 L 1449.9 , 132.4 L 1432.9 , 149.4 L 1418.02 , 149.4 L 1418.02 , 613.32 L 1432.9 , 613.32 L 1449.9 , 630.32 L 1449.9 , 638.82"/>
	<path style="&st15;" d="M 1449.9 , 123.9 L 1449.9 , 132.4 L 1432.9 , 149.4 L 1418.02 , 149.4 L 1418.02 , 613.32 L 1432.9 , 613.32 L 1449.9 , 630.32 L 1449.9 , 638.82"/></a>
<a ewd:lineID="39" style="cursor:pointer;" ewd:comment="7,8,10">
	<path style="&st5;" d="M 1449.9 , 123.9 L 1449.9 , 223.9"/>
	<path style="&st9;" d="M 1449.9 , 123.9 L 1449.9 , 223.9"/>
	<path style="&st15;" d="M 1449.9 , 123.9 L 1449.9 , 223.9"/></a>
<a ewd:lineID="38" style="cursor:pointer;" ewd:comment="7,8,10">
	<path style="&st5;" d="M 1449.9 , 240.9 L 1449.9 , 638.82"/>
	<path style="&st9;" d="M 1449.9 , 240.9 L 1449.9 , 638.82"/>
	<path style="&st15;" d="M 1449.9 , 240.9 L 1449.9 , 638.82"/></a>
<a ewd:lineID="37" style="cursor:pointer;">
	<path style="&st5;" d="M 1492.4 , 60.65 L 1492.4 , 160.65"/>
	<path style="&st9;" d="M 1492.4 , 60.65 L 1492.4 , 160.65"/>
	<path style="&st15;" d="M 1492.4 , 60.65 L 1492.4 , 160.65"/></a>
<a ewd:lineID="36" style="cursor:pointer;">
	<path style="&st5;" d="M 1492.4 , 195.65 L 1492.4 , 638.82"/>
	<path style="&st9;" d="M 1492.4 , 195.65 L 1492.4 , 638.82"/>
	<path style="&st15;" d="M 1492.4 , 195.65 L 1492.4 , 638.82"/></a>
<a ewd:lineID="35" style="cursor:pointer;" ewd:comment="3">
	<path style="&st5;" d="M 1375.53 , 413.09 L 1375.53 , 488.38"/></a>
<a ewd:lineID="34" style="cursor:pointer;" ewd:comment="3">
	<path style="&st10;" d="M 1375.53 , 175.46 L 1375.53 , 398.27"/></a>
<a ewd:lineID="33" style="cursor:pointer;" ewd:comment="3">
	<path style="&st10;" d="M 1375.53 , 160.65 L 1375.53 , 60.65"/></a>
<a ewd:lineID="32" style="cursor:pointer;" ewd:comment="3">
	<path style="&st5;" d="M 1375.53 , 543.62 L 1375.53 , 601.12"/>
	<path style="&st9;" d="M 1375.53 , 543.62 L 1375.53 , 601.12"/>
	<path style="&st15;" d="M 1375.53 , 543.62 L 1375.53 , 601.12"/></a>
<a ewd:lineID="31" style="cursor:pointer;" ewd:comment="3">
	<path style="&st5;" d="M 1375.53 , 618.12 L 1375.53 , 664.32"/>
	<path style="&st9;" d="M 1375.53 , 618.12 L 1375.53 , 664.32"/>
	<path style="&st15;" d="M 1375.53 , 618.12 L 1375.53 , 664.32"/></a>
<a ewd:lineID="30" style="cursor:pointer;">
	<path style="&st5;" d="M 717.35 , 482.47 L 717.35 , 510.91 L 1333.03 , 510.91 L 1333.03 , 60.65"/></a>
<a ewd:lineID="29" style="cursor:pointer;">
	<path style="&st8;" d="M 1290.53 , 123.9 L 1290.53 , 279.9 L 1046.19 , 279.9 L 1046.19 , 220.64"/></a>
<a ewd:lineID="28" style="cursor:pointer;">
	<path style="&st8;" d="M 1046.15 , 203.64 L 1046.15 , 85.64"/></a>
<a ewd:lineID="27" style="cursor:pointer;">
	<path style="&st31;" d="M 691.85 , 257.16 L 691.85 , 85.64"/></a>
<a ewd:lineID="26" style="cursor:pointer;">
	<path style="&st8;" d="M 772.6 , 85.64 L 772.6 , 235.56 L 717.35 , 235.56 L 717.35 , 257.15"/></a>
<a ewd:lineID="25" style="cursor:pointer;">
	<path style="&st5;" d="M 564.35 , 198.06 L 564.35 , 276.81"/></a>
<a ewd:lineID="24" style="cursor:pointer;">
	<path style="&st5;" d="M 628.1 , 198.06 L 628.1 , 276.81"/></a>
<a ewd:lineID="23" style="cursor:pointer;">
	<path style="&st5;" d="M 691.85 , 359.16 L 691.85 , 510.91 L 628.1 , 510.91 L 628.1 , 293.93"/></a>
<a ewd:lineID="22" style="cursor:pointer;">
	<path style="&st0;" d="M 370.4 , 397.05 L 370.4 , 433.3"/></a>
<a ewd:lineID="21" style="cursor:pointer;">
	<path style="&st5;" d="M 370.4 , 448.11 L 370.4 , 484.36"/></a>
<a ewd:lineID="20" style="cursor:pointer;">
	<path style="&st0;" d="M 370.4 , 507.68 L 370.4 , 543.93"/></a>
<a ewd:lineID="19" style="cursor:pointer;">
	<path style="&st5;" d="M 404.4 , 397.05 L 404.4 , 433.3"/></a>
<a ewd:lineID="18" style="cursor:pointer;">
	<path style="&st5;" d="M 404.4 , 448.11 L 404.4 , 484.36"/></a>
<a ewd:lineID="17" style="cursor:pointer;">
	<path style="&st5;" d="M 404.4 , 507.68 L 404.4 , 543.93"/></a>
<a ewd:lineID="16" style="cursor:pointer;">
	<path style="&st5;" d="M 459.65 , 267.8 L 459.65 , 638.82"/>
	<path style="&st9;" d="M 459.65 , 267.8 L 459.65 , 638.82"/>
	<path style="&st15;" d="M 459.65 , 267.8 L 459.65 , 638.82"/></a>
<a ewd:lineID="15" style="cursor:pointer;">
	<path style="&st10;" d="M 336.4 , 543.93 L 336.4 , 507.68"/></a>
<a ewd:lineID="14" style="cursor:pointer;">
	<path style="&st5;" d="M 336.4 , 484.36 L 336.4 , 448.11"/></a>
<a ewd:lineID="13" style="cursor:pointer;">
	<path style="&st10;" d="M 336.4 , 433.3 L 336.4 , 397.05"/></a>
<a ewd:lineID="12" style="cursor:pointer;">
	<path style="&st26;" d="M 293.9 , 543.93 L 293.9 , 507.68"/></a>
<a ewd:lineID="11" style="cursor:pointer;">
	<path style="&st5;" d="M 293.9 , 484.36 L 293.9 , 448.11"/></a>
<a ewd:lineID="10" style="cursor:pointer;">
	<path style="&st26;" d="M 293.9 , 433.3 L 293.9 , 397.05"/></a>
<a ewd:lineID="9" style="cursor:pointer;">
	<path style="&st5;" d="M 26.15 , 490.8 L 26.15 , 443.92 L 177.03 , 443.92"/>
	<path style="&st9;" d="M 26.15 , 490.8 L 26.15 , 443.92 L 177.03 , 443.92"/>
	<path style="&st15;" d="M 26.15 , 490.8 L 26.15 , 443.92 L 177.03 , 443.92"/></a>
<a ewd:lineID="8" style="cursor:pointer;">
	<path style="&st5;" d="M 26.16 , 514.11 L 26.16 , 560.99"/>
	<path style="&st9;" d="M 26.16 , 514.11 L 26.16 , 560.99"/>
	<path style="&st15;" d="M 26.16 , 514.11 L 26.16 , 560.99"/></a>
<a ewd:lineID="7" style="cursor:pointer;">
	<path style="&st5;" d="M 26.16 , 577.99 L 26.16 , 664.33"/>
	<path style="&st9;" d="M 26.16 , 577.99 L 26.16 , 664.33"/>
	<path style="&st15;" d="M 26.16 , 577.99 L 26.16 , 664.33"/></a>
<a ewd:lineID="6" style="cursor:pointer;">
	<path style="&st10;" d="M 68.65 , 127.37 L 68.65 , 174.25"/></a>
<a ewd:lineID="5" style="cursor:pointer;">
	<path style="&st10;" d="M 68.65 , 197.56 L 68.65 , 244.44"/></a>
<a ewd:lineID="4" style="cursor:pointer;">
	<path style="&st8;" d="M 293.9 , 382.24 L 293.9 , 345.43 L 26.15 , 345.43 L 26.15 , 17.65 L 628.1 , 17.65 L 628.1 , 104.57"/></a>
<a ewd:lineID="3" style="cursor:pointer;">
	<path style="&st8;" d="M 68.65 , 93.37 L 68.65 , 38.9 L 564.35 , 38.9 L 564.35 , 104.57"/></a>
<a ewd:lineID="2" style="cursor:pointer;" ewd:comment="6">
	<path style="&st5;" d="M 717.35 , 359.16 L 717.35 , 367.66 L 734.35 , 384.66 L 755.6 , 384.66 L 755.6 , 433.66 L 734.35 , 433.66 L 717.35 , 450.66 L 717.35 , 459.16"/></a>
<a ewd:lineID="1" style="cursor:pointer;" ewd:comment="5">
	<path style="&st5;" d="M 717.35 , 359.16 L 717.35 , 459.16"/>
	<path style="&st13;" d="M 717.35 , 359.16 L 717.35 , 459.16"/>
	<path style="&st14;" d="M 717.35 , 359.16 L 717.35 , 459.16"/></a>
<a ewd:code="Y1" ewd:figtype="conn" style="cursor:pointer;" ewd:figID="1">
	<path style="&st29;" d="M 72.9 , 675.68 L 72.9 , 543.93 L 421.4 , 543.93 L 421.4 , 675.68 L 72.9 , 675.68 L 72.9 , 675.68"/>
	<title ewd:textID="15">Rear Wiper Motor Assembly</title></a>
<a ewd:code="G105" ewd:figtype="conn" style="cursor:pointer;" ewd:figID="2">
	<path style="&st24;" d="M 451.15 , 638.82 L 468.15 , 638.82 L 468.15 , 655.82 L 451.15 , 655.82 L 451.15 , 638.82"/>
	<title ewd:textID="11">Junction Connector</title></a>
<a ewd:code="A122" ewd:figtype="conn" style="cursor:pointer;" ewd:figID="3">
	<path style="&st29;" d="M 555.85 , 293.93 L 555.85 , 276.81 L 636.6 , 276.81 L 636.6 , 293.93 L 555.85 , 293.93 L 555.85 , 293.93"/>
	<title ewd:textID="11">Junction Connector</title></a>
<a ewd:code="A122" ewd:figtype="conn" style="cursor:pointer;" ewd:figID="4">
	<path style="&st24;" d="M 1037.67 , 203.64 L 1054.67 , 203.64 L 1054.67 , 220.64 L 1037.67 , 220.64 L 1037.67 , 203.64"/>
	<title ewd:textID="11">Junction Connector</title></a>
<a ewd:code="X4" ewd:figtype="conn" style="cursor:pointer;" ewd:figID="5">
	<path style="&st29;" d="M 1358.53 , 543.62 L 1358.53 , 488.37 L 1392.53 , 488.37 L 1392.53 , 543.62 L 1358.53 , 543.62 L 1358.53 , 543.62"/>
	<title ewd:textID="9">Back Window Lock Assembly</title></a>
<a ewd:code="G301,G302" ewd:figtype="conn" style="cursor:pointer;" ewd:figID="6">
	<path style="&st24;" d="M 1500.9 , 169.65 L 1483.95 , 169.65 L 1483.95 , 186.65 L 1500.9 , 186.65 L 1500.9 , 169.65"/>
	<title ewd:textID="18">Short Connector</title></a>
<a ewd:code="G106" ewd:figtype="conn" style="cursor:pointer;" ewd:figID="7">
	<path style="&st24;" d="M 1483.9 , 638.82 L 1500.9 , 638.82 L 1500.9 , 655.82 L 1483.9 , 655.82 L 1483.9 , 638.82"/>
	<title ewd:textID="11">Junction Connector</title></a>
<a ewd:code="G63-A,G64-B" ewd:figtype="conn" style="cursor:pointer;" ewd:figID="8">
	<path style="&st29;" d="M 1209.78 , 51.65 L 1209.78 , 17.65 L 1509.39 , 17.65 L 1509.39 , 51.65 L 1209.78 , 51.65 L 1209.78 , 51.65"/>
	<title ewd:textID="12">Main Body ECU</title></a>
<a ewd:code="G104" ewd:figtype="conn" style="cursor:pointer;" ewd:figID="9">
	<path style="&st24;" d="M 1441.4 , 638.82 L 1458.4 , 638.82 L 1458.4 , 655.82 L 1441.4 , 655.82 L 1441.4 , 638.82"/>
	<title ewd:textID="11">Junction Connector</title></a>
<a ewd:code="G42,G43" ewd:figtype="conn" style="cursor:pointer;" ewd:figID="10">
	<path style="&st29;" d="M 153.63 , 249.8 L 153.63 , 132.94 L 476.64 , 132.94 L 476.64 , 249.8 L 153.63 , 249.8 L 153.63 , 249.8"/>
	<title ewd:textID="23">Windshield Wiper Switch Assembly</title></a>
<a ewd:code="A23" ewd:figtype="conn" style="cursor:pointer;" ewd:figID="11">
	<path style="&st3;" d="M 43.15 , 127.37 L 43.15 , 93.37 L 85.65 , 93.37 L 85.65 , 127.37 L 43.15 , 127.37 L 43.15 , 127.37"/>
	<title ewd:textID="22">Windshield Washer Motor and Pump Assembly</title></a>
<a ewd:code="G285" ewd:figtype="conn" style="cursor:pointer;" ewd:figID="12">
	<path style="&st29;" d="M 60.15 , 261.55 L 60.15 , 244.43 L 119.65 , 244.43 L 119.65 , 261.55 L 60.15 , 261.55 L 60.15 , 261.55"/>
	<title ewd:textID="11">Junction Connector</title></a>
<a ewd:code="X1" ewd:figtype="gp" style="cursor:pointer;" ewd:figID="2001">
	<path style="&st18;" d="M 15.54 , 664.32 L 36.78 , 664.32 L 26.16 , 679.9 L 15.54 , 664.32"/>
	<text style="&st21; &st11;" transform="matrix(1 0 0 1 22.4854 671.3062)">X1</text></a>
<a ewd:code="G4" ewd:figtype="gp" style="cursor:pointer;" ewd:figID="2002">
	<path style="&st18;" d="M 449.03 , 664.32 L 470.27 , 664.32 L 459.65 , 679.9 L 449.03 , 664.32"/>
	<text style="&st21; &st11;" transform="matrix(1 0 0 1 455.647 671.3062)">G4</text></a>
<a ewd:code="X1" ewd:figtype="gp" style="cursor:pointer;" ewd:figID="2003">
	<path style="&st18;" d="M 1364.91 , 664.32 L 1386.15 , 664.32 L 1375.53 , 679.9 L 1364.91 , 664.32"/>
	<text style="&st21; &st11;" transform="matrix(1 0 0 1 1371.8564 671.3071)">X1</text></a>
<a ewd:code="G5" ewd:figtype="gp" style="cursor:pointer;" ewd:figID="2004">
	<path style="&st18;" d="M 1481.78 , 664.32 L 1503.02 , 664.32 L 1492.4 , 679.9 L 1481.78 , 664.32"/>
	<text style="&st21; &st11;" transform="matrix(1 0 0 1 1488.3994 671.3062)">G5</text></a>
<a ewd:code="G3" ewd:figtype="gp" style="cursor:pointer;" ewd:figID="2005">
	<path style="&st18;" d="M 1439.28 , 664.32 L 1460.52 , 664.32 L 1449.9 , 679.9 L 1439.28 , 664.32"/>
	<text style="&st21; &st11;" transform="matrix(1 0 0 1 1445.8994 671.3062)">G3</text></a>
<a ewd:code="2" ewd:figtype="jb" style="cursor:pointer;" ewd:figID="3001">
	<path style="&st16;" d="M 755.6 , 17.65 L 755.6 , 85.64 L 819.35 , 85.64 L 819.35 , 17.65 L 755.6 , 17.65 L 755.6 , 17.65"/>
</a>
<a ewd:code="2" ewd:figtype="jb" style="cursor:pointer;" ewd:figID="3002">
	<path style="&st16;" d="M 1428.65 , 51.65 L 1428.65 , 123.9 L 1458.4 , 123.9 L 1458.4 , 51.65 L 1428.65 , 51.65 L 1428.65 , 51.65"/>
</a>
<a ewd:code="2" ewd:figtype="jb" style="cursor:pointer;" ewd:figID="3003">
	<path style="&st16;" d="M 1209.78 , 51.65 L 1209.78 , 17.65 L 1093.08 , 17.65 L 1093.08 , 123.9 L 1299.03 , 123.9 L 1299.03 , 51.65 L 1209.78 , 51.65 L 1209.78 , 51.65"/>
</a>
<a ewd:code="FUSE10" ewd:figtype="rb" style="cursor:pointer;" ewd:figID="4001">
	<path style="&st24;" d="M 1033.4 , 17.65 L 1033.4 , 60.14 L 1058.9 , 60.14 L 1058.9 , 17.65 L 1033.4 , 17.65"/>
</a>
<a ewd:code="FUSE29" ewd:figtype="rb" style="cursor:pointer;" ewd:figID="4002">
	<path style="&st24;" d="M 615.35 , 130.07 L 615.35 , 172.56 L 640.85 , 172.56 L 640.85 , 130.07 L 615.35 , 130.07"/>
</a>
<a ewd:code="FUSE30" ewd:figtype="rb" style="cursor:pointer;" ewd:figID="4003">
	<path style="&st24;" d="M 551.6 , 130.07 L 551.6 , 172.56 L 577.1 , 172.56 L 577.1 , 130.07 L 551.6 , 130.07"/>
</a>
<a ewd:code="FUSE53" ewd:figtype="rb" style="cursor:pointer;" ewd:figID="4004">
	<path style="&st24;" d="M 679.1 , 17.65 L 679.1 , 60.14 L 704.6 , 60.14 L 704.6 , 17.65 L 679.1 , 17.65"/>
</a>
<a ewd:code="1" ewd:figtype="rb" style="cursor:pointer;" ewd:figID="4005">
	<path style="&st24;" d="M 725.85 , 291.16 L 683.35 , 291.16 L 683.35 , 325.16 L 725.85 , 325.16 L 725.85 , 291.16"/>
</a>
<a ewd:code="579001" ewd:figtype="sp" style="cursor:pointer;" ewd:figID="5001">
	<path style="&st18;" d="M 21.91 , 560.99 L 30.41 , 560.99 L 34.66 , 565.24 L 34.66 , 573.74 L 30.41 , 577.99 L 21.91 , 577.99 L 17.66 , 573.74 L 17.66 , 565.24 L 21.91 , 560.99"/>
</a>
<a ewd:code="579002" ewd:figtype="sp" style="cursor:pointer;" ewd:figID="5002">
	<path style="&st18;" d="M 1371.28 , 601.12 L 1379.78 , 601.12 L 1384.03 , 605.37 L 1384.03 , 613.87 L 1379.78 , 618.12 L 1371.28 , 618.12 L 1367.03 , 613.87 L 1367.03 , 605.37 L 1371.28 , 601.12"/>
</a>
<a ewd:code="579003" ewd:figtype="sp" style="cursor:pointer;" ewd:figID="5003">
	<path style="&st18;" d="M 1445.65 , 223.9 L 1454.15 , 223.9 L 1458.4 , 228.15 L 1458.4 , 236.65 L 1454.15 , 240.9 L 1445.65 , 240.9 L 1441.4 , 236.65 L 1441.4 , 228.15 L 1445.65 , 223.9"/>
</a>
<a ewd:code="579004" ewd:figtype="sp" style="cursor:pointer;" ewd:figID="5004">
	<path style="&st18;" d="M 181.28 , 435.43 L 189.78 , 435.43 L 194.03 , 439.68 L 194.03 , 448.18 L 189.78 , 452.43 L 181.28 , 452.43 L 177.03 , 448.18 L 177.03 , 439.68 L 181.28 , 435.43"/>
</a>
<a ewd:code="GA1" ewd:figtype="w2w" style="cursor:pointer;" ewd:figID="6001" ewd:pinNo="15">
	<path style="&st18;" d="M 77.15 , 180.56 L 60.15 , 180.56 L 60.15 , 189.06 L 77.15 , 189.06 L 77.15 , 180.56"/>
	<text style="&st21; &st11;" transform="matrix(1 0 0 1 62.645 186.832)">GA1</text></a>
<a ewd:code="GA1" ewd:figtype="w2w" style="cursor:pointer;" ewd:figID="6002" ewd:pinNo="8">
	<path style="&st18;" d="M 77.15 , 189.06 L 60.15 , 189.06 L 60.15 , 197.56 L 77.15 , 197.56 L 77.15 , 189.06"/>
	<text style="&st21; &st11;" transform="matrix(1 0 0 1 62.645 195.332)">GA1</text></a>
<a ewd:code="YX2" ewd:figtype="w2w" style="cursor:pointer;" ewd:figID="6003" ewd:pinNo="1">
	<path style="&st18;" d="M 34.65 , 490.8 L 17.65 , 490.8 L 17.65 , 499.3 L 34.65 , 499.3 L 34.65 , 490.8"/>
	<text style="&st21; &st11;" transform="matrix(1 0 0 1 20.4805 497.0776)">YX2</text></a>
<a ewd:code="YX1" ewd:figtype="w2w" style="cursor:pointer;" ewd:figID="6004" ewd:pinNo="7">
	<path style="&st18;" d="M 34.65 , 499.3 L 17.65 , 499.3 L 17.65 , 507.8 L 34.65 , 507.8 L 34.65 , 499.3"/>
	<text style="&st21; &st11;" transform="matrix(1 0 0 1 20.4805 505.5776)">YX1</text></a>
<a ewd:code="XQ1" ewd:figtype="w2w" style="cursor:pointer;" ewd:figID="6005" ewd:pinNo="1">
	<path style="&st18;" d="M 302.4 , 439.61 L 285.4 , 439.61 L 285.4 , 448.11 L 302.4 , 448.11 L 302.4 , 439.61"/>
	<text style="&st21; &st11;" transform="matrix(1 0 0 1 287.8979 445.8901)">XQ1</text></a>
<a ewd:code="XQ1" ewd:figtype="w2w" style="cursor:pointer;" ewd:figID="6006" ewd:pinNo="7">
	<path style="&st18;" d="M 344.9 , 439.61 L 327.9 , 439.61 L 327.9 , 448.11 L 344.9 , 448.11 L 344.9 , 439.61"/>
	<text style="&st21; &st11;" transform="matrix(1 0 0 1 330.3979 445.8921)">XQ1</text></a>
<a ewd:code="XQ1" ewd:figtype="w2w" style="cursor:pointer;" ewd:figID="6007" ewd:pinNo="4">
	<path style="&st18;" d="M 412.9 , 439.61 L 395.9 , 439.61 L 395.9 , 448.11 L 412.9 , 448.11 L 412.9 , 439.61"/>
	<text style="&st21; &st11;" transform="matrix(1 0 0 1 398.3979 445.8921)">XQ1</text></a>
<a ewd:code="XQ1" ewd:figtype="w2w" style="cursor:pointer;" ewd:figID="6008" ewd:pinNo="2">
	<path style="&st18;" d="M 378.9 , 439.61 L 361.9 , 439.61 L 361.9 , 448.11 L 378.9 , 448.11 L 378.9 , 439.61"/>
	<text style="&st21; &st11;" transform="matrix(1 0 0 1 364.3979 445.8921)">XQ1</text></a>
<a ewd:code="YX1" ewd:figtype="w2w" style="cursor:pointer;" ewd:figID="6009" ewd:pinNo="10">
	<path style="&st18;" d="M 412.9 , 490.68 L 395.9 , 490.68 L 395.9 , 499.18 L 412.9 , 499.18 L 412.9 , 490.68"/>
	<text style="&st21; &st11;" transform="matrix(1 0 0 1 398.7305 496.9526)">YX1</text></a>
<a ewd:code="YX2" ewd:figtype="w2w" style="cursor:pointer;" ewd:figID="6010" ewd:pinNo="6">
	<path style="&st18;" d="M 412.9 , 499.18 L 395.9 , 499.18 L 395.9 , 507.68 L 412.9 , 507.68 L 412.9 , 499.18"/>
	<text style="&st21; &st11;" transform="matrix(1 0 0 1 398.7305 505.4526)">YX2</text></a>
<a ewd:code="YX1" ewd:figtype="w2w" style="cursor:pointer;" ewd:figID="6011" ewd:pinNo="11">
	<path style="&st18;" d="M 378.9 , 490.68 L 361.9 , 490.68 L 361.9 , 499.18 L 378.9 , 499.18 L 378.9 , 490.68"/>
	<text style="&st21; &st11;" transform="matrix(1 0 0 1 364.7305 496.9526)">YX1</text></a>
<a ewd:code="YX2" ewd:figtype="w2w" style="cursor:pointer;" ewd:figID="6012" ewd:pinNo="7">
	<path style="&st18;" d="M 378.9 , 499.18 L 361.9 , 499.18 L 361.9 , 507.68 L 378.9 , 507.68 L 378.9 , 499.18"/>
	<text style="&st21; &st11;" transform="matrix(1 0 0 1 364.7305 505.4526)">YX2</text></a>
<a ewd:code="YX1" ewd:figtype="w2w" style="cursor:pointer;" ewd:figID="6013" ewd:pinNo="4">
	<path style="&st18;" d="M 344.9 , 490.68 L 327.9 , 490.68 L 327.9 , 499.18 L 344.9 , 499.18 L 344.9 , 490.68"/>
	<text style="&st21; &st11;" transform="matrix(1 0 0 1 330.7305 496.9526)">YX1</text></a>
<a ewd:code="YX2" ewd:figtype="w2w" style="cursor:pointer;" ewd:figID="6014" ewd:pinNo="2">
	<path style="&st18;" d="M 344.9 , 499.18 L 327.9 , 499.18 L 327.9 , 507.68 L 344.9 , 507.68 L 344.9 , 499.18"/>
	<text style="&st21; &st11;" transform="matrix(1 0 0 1 330.7305 505.4526)">YX2</text></a>
<a ewd:code="YX1" ewd:figtype="w2w" style="cursor:pointer;" ewd:figID="6015" ewd:pinNo="9">
	<path style="&st18;" d="M 302.4 , 490.68 L 285.4 , 490.68 L 285.4 , 499.18 L 302.4 , 499.18 L 302.4 , 490.68"/>
	<text style="&st21; &st11;" transform="matrix(1 0 0 1 288.2305 496.9526)">YX1</text></a>
<a ewd:code="YX2" ewd:figtype="w2w" style="cursor:pointer;" ewd:figID="6016" ewd:pinNo="5">
	<path style="&st18;" d="M 302.4 , 499.18 L 285.4 , 499.18 L 285.4 , 507.68 L 302.4 , 507.68 L 302.4 , 499.18"/>
	<text style="&st21; &st11;" transform="matrix(1 0 0 1 288.2305 505.4526)">YX2</text></a>
<a ewd:code="GQ1" ewd:figtype="w2w" style="cursor:pointer;" ewd:figID="6017" ewd:pinNo="22">
	<path style="&st18;" d="M 1384.02 , 160.65 L 1367.02 , 160.65 L 1367.02 , 169.15 L 1384.02 , 169.15 L 1384.02 , 160.65"/>
	<text style="&st21; &st11;" transform="matrix(1 0 0 1 1369.1865 166.9302)">GQ1</text></a>
<a ewd:code="XQ1" ewd:figtype="w2w" style="cursor:pointer;" ewd:figID="6018" ewd:pinNo="12">
	<path style="&st18;" d="M 1384.03 , 404.59 L 1367.03 , 404.59 L 1367.03 , 413.09 L 1384.03 , 413.09 L 1384.03 , 404.59"/>
	<text style="&st21; &st11;" transform="matrix(1 0 0 1 1369.5234 410.8647)">XQ1</text></a>
<a ewd:code="GA2" ewd:figtype="w2w" style="cursor:pointer;" ewd:figID="6019" ewd:pinNo="43">
	<path style="&st18;" d="M 725.85 , 465.47 L 708.85 , 465.47 L 708.85 , 473.97 L 725.85 , 473.97 L 725.85 , 465.47"/>
	<text style="&st21; &st11;" transform="matrix(1 0 0 1 711.3467 471.7446)">GA2</text></a>
<a ewd:code="GA2" ewd:figtype="w2w" style="cursor:pointer;" ewd:figID="6020" ewd:pinNo="24">
	<path style="&st18;" d="M 725.85 , 473.97 L 708.85 , 473.97 L 708.85 , 482.47 L 725.85 , 482.47 L 725.85 , 473.97"/>
	<text style="&st21; &st11;" transform="matrix(1 0 0 1 711.3467 480.2446)">GA2</text></a>
<a ewd:code="AQ1" ewd:figtype="w2w" style="cursor:pointer;" ewd:figID="6021" ewd:pinNo="4">
	<path style="&st18;" d="M 302.4 , 382.24 L 285.4 , 382.24 L 285.4 , 390.74 L 302.4 , 390.74 L 302.4 , 382.24"/>
	<text style="&st21; &st11;" transform="matrix(1 0 0 1 287.895 388.519)">AQ1</text></a>
<a ewd:code="GQ2" ewd:figtype="w2w" style="cursor:pointer;" ewd:figID="6022" ewd:pinNo="13">
	<path style="&st18;" d="M 344.9 , 382.24 L 327.9 , 382.24 L 327.9 , 390.74 L 344.9 , 390.74 L 344.9 , 382.24"/>
	<text style="&st21; &st11;" transform="matrix(1 0 0 1 330.0625 388.521)">GQ2</text></a>
<a ewd:code="GQ2" ewd:figtype="w2w" style="cursor:pointer;" ewd:figID="6023" ewd:pinNo="17">
	<path style="&st18;" d="M 412.9 , 382.24 L 395.9 , 382.24 L 395.9 , 390.74 L 412.9 , 390.74 L 412.9 , 382.24"/>
	<text style="&st21; &st11;" transform="matrix(1 0 0 1 398.0635 388.521)">GQ2</text></a>
<a ewd:code="GQ2" ewd:figtype="w2w" style="cursor:pointer;" ewd:figID="6024" ewd:pinNo="16">
	<path style="&st18;" d="M 378.9 , 382.24 L 361.9 , 382.24 L 361.9 , 390.74 L 378.9 , 390.74 L 378.9 , 382.24"/>
	<text style="&st21; &st11;" transform="matrix(1 0 0 1 364.0625 388.521)">GQ2</text></a>
<a ewd:code="FUSE86" ewd:figtype="fuse" style="cursor:pointer;" ewd:figID="1001">
	<path style="&st23;" d="M 759.85 , 17.65 L 759.85 , 60.14 L 785.35 , 60.14 L 785.35 , 17.65 L 759.85 , 17.65"/>
</a>
<a ewd:code="FUSE75" ewd:figtype="fuse" style="cursor:pointer;" ewd:figID="1002">
	<path style="&st23;" d="M 1097.15 , 17.65 L 1097.15 , 60.14 L 1122.65 , 60.14 L 1122.65 , 17.65 L 1097.15 , 17.65"/>
</a>
<a ewd:code="FUSE65" ewd:figtype="fuse" style="cursor:pointer;" ewd:figID="1003">
	<path style="&st23;" d="M 1160.9 , 17.65 L 1160.9 , 60.14 L 1186.4 , 60.14 L 1186.4 , 17.65 L 1160.9 , 17.65"/>
</a>
<a ewd:code="FUSE10" ewd:figtype="fuse" style="cursor:pointer;" ewd:figID="1004">
	<path style="&st23;" d="M 1033.4 , 17.65 L 1033.4 , 60.14 L 1058.9 , 60.14 L 1058.9 , 17.65 L 1033.4 , 17.65"/>
</a>
<a ewd:code="FUSE29" ewd:figtype="fuse" style="cursor:pointer;" ewd:figID="1005">
	<path style="&st23;" d="M 615.35 , 130.07 L 615.35 , 172.56 L 640.85 , 172.56 L 640.85 , 130.07 L 615.35 , 130.07"/>
</a>
<a ewd:code="FUSE30" ewd:figtype="fuse" style="cursor:pointer;" ewd:figID="1006">
	<path style="&st23;" d="M 551.6 , 130.07 L 551.6 , 172.56 L 577.1 , 172.56 L 577.1 , 130.07 L 551.6 , 130.07"/>
</a>
<a ewd:code="FUSE53" ewd:figtype="fuse" style="cursor:pointer;" ewd:figID="1007">
	<path style="&st23;" d="M 679.1 , 17.65 L 679.1 , 60.14 L 704.6 , 60.14 L 704.6 , 17.65 L 679.1 , 17.65"/>
</a>
</g></svg>
