﻿<?xml version="1.0" encoding="UTF-8"?>
<!DOCTYPE svg PUBLIC "-//W3C//DTD SVG 1.0//EN" "http://www.w3.org/TR/2001/REC-SVG-20010904/DTD/svg10.dtd"[
<!ENTITY ns_flows "http://ns.adobe.com/Flows/1.0/">
<!ENTITY ns_svg "http://www.w3.org/2000/svg">
<!ENTITY ns_xlink "http://www.w3.org/1999/xlink">
	<!ENTITY st0 "fill:none;stroke:#F8E616;stroke-width:5.1;stroke-linejoin:round;">
	<!ENTITY st1 "fill:none;stroke:#FB0F0C;stroke-width:5.1;stroke-linejoin:round;">
	<!ENTITY st2 "fill:none;stroke:#9A9999;stroke-width:5.1;stroke-linejoin:round;">
	<!ENTITY st3 "fill:none;stroke:#FF7F00;stroke-width:1.3072;stroke-linecap:round;stroke-linejoin:round;stroke-dasharray:6;">
	<!ENTITY st4 "fill:none;stroke:#7FC31C;stroke-width:1.42;stroke-linejoin:round;">
	<!ENTITY st5 "fill:none;stroke:#FF7F00;stroke-width:0.9123;stroke-linecap:round;stroke-linejoin:round;">
	<!ENTITY st6 "fill:none;stroke:#000000;stroke-width:5.1;stroke-linejoin:round;">
	<!ENTITY st7 "fill:none;stroke:#000000;stroke-linecap:round;stroke-linejoin:round;">
	<!ENTITY st8 "stroke:#000000;stroke-width:0.28;stroke-linecap:round;stroke-linejoin:round;">
	<!ENTITY st9 "fill:none;stroke:#199DBF;stroke-width:1.3;stroke-linejoin:round;">
	<!ENTITY st10 "fill:none;stroke:#090909;stroke-width:0.85;stroke-linecap:round;stroke-linejoin:round;">
	<!ENTITY st11 "fill:none;stroke:#EE67AA;stroke-width:5.1;stroke-linejoin:round;">
	<!ENTITY st12 "fill:none;stroke:#199DBF;stroke-width:5.1;stroke-linejoin:round;">
	<!ENTITY st13 "fill:none;stroke:#FFFFFF;stroke-width:4.53;stroke-linejoin:round;">
	<!ENTITY st14 "fill:none;stroke:#56107C;stroke-width:5.1;stroke-linejoin:round;">
	<!ENTITY st15 "font-size:6px;">
	<!ENTITY st16 "fill:none;stroke:#FFFFFF;stroke-width:1.13;stroke-linejoin:round;">
	<!ENTITY st17 "fill:none;stroke:#168638;stroke-width:5.1;stroke-linejoin:round;">
	<!ENTITY st18 "fill:none;stroke:#000000;stroke-width:1.13;stroke-linejoin:round;">
	<!ENTITY st19 "fill:#CCCCCC;stroke:#CECECF;stroke-width:0.1;stroke-linecap:round;stroke-linejoin:round;">
	<!ENTITY st20 "fill:#FF0000;">
	<!ENTITY st21 "fill:#FFFFFF;stroke:#000000;stroke-width:1.41;stroke-linecap:round;stroke-linejoin:round;">
	<!ENTITY st22 "fill:none;stroke:#7FBE1F;stroke-linecap:round;stroke-linejoin:round;">
	<!ENTITY st23 "fill:none;stroke:#000000;stroke-width:1.42;stroke-linejoin:round;">
	<!ENTITY st24 "font-family:'Arial';">
	<!ENTITY st25 "fill:none;stroke:#FFFFFF;stroke-width:4;stroke-linejoin:round;">
	<!ENTITY st26 "fill:none;stroke:#000000;stroke-width:1.42;stroke-linecap:round;stroke-linejoin:round;">
	<!ENTITY st27 "fill:#CFE6E7;stroke:#000000;stroke-width:1.133;stroke-linecap:round;stroke-linejoin:round;">
	<!ENTITY st28 "font-size:21px;">
	<!ENTITY st29 "fill:none;stroke:#090909;stroke-width:0.85;stroke-linecap:round;stroke-linejoin:round;stroke-dasharray:3 1.5;">
	<!ENTITY st30 "fill:none;stroke:#99D5E0;stroke-width:5.1;stroke-linejoin:round;">
	<!ENTITY st31 "fill:none;stroke:#000000;stroke-width:0.85;stroke-linecap:round;stroke-linejoin:round;stroke-dasharray:3 1.5;">
	<!ENTITY st32 "fill:none;stroke:#0A50A1;stroke-width:1.3072;stroke-linecap:round;stroke-linejoin:round;stroke-dasharray:6;">
	<!ENTITY st33 "fill:#CFE6E7;stroke:#000000;stroke-width:1.13;stroke-linejoin:round;">
	<!ENTITY st34 "fill:none;stroke:#000000;stroke-width:0.85;stroke-linecap:round;stroke-linejoin:round;">
	<!ENTITY st35 "fill:none;stroke:#7EC57E;stroke-width:5.1;stroke-linejoin:round;">
<!ATTLIST svg
xmlns:ewd CDATA #FIXED "http://shcl.co.jp/ewd"
xmlns:a CDATA #FIXED "http://ns.adobe.com/AdobeSVGViewerExtensions/3.0/"
ewd:ver CDATA #IMPLIED
>
<!ATTLIST a
ewd:lineID CDATA #IMPLIED
ewd:groupID CDATA #IMPLIED
ewd:figtype CDATA #IMPLIED
ewd:code CDATA #IMPLIED
ewd:figID CDATA #IMPLIED
ewd:pinNo CDATA #IMPLIED
ewd:comment CDATA #IMPLIED >
<!ATTLIST g
ewd:lineID CDATA #IMPLIED
ewd:groupID CDATA #IMPLIED
ewd:figtype CDATA #IMPLIED
ewd:code CDATA #IMPLIED
ewd:figID CDATA #IMPLIED
ewd:pinNo CDATA #IMPLIED
ewd:comment CDATA #IMPLIED >
<!ATTLIST text
ewd:textID CDATA #IMPLIED ><!ATTLIST title
ewd:textID CDATA #IMPLIED >]>
<svg onload="call_execInitLoadProc_svg('system')"
style="overflow:visible;  enable-background:new 0 0 2041.31 693.31"
viewBox="0 0 2041.31 693.31"
height='693.31'
width='2041.31'
xml:space="preserve"
xmlns="&ns_svg;"
xmlns:ewd="http://shcl.co.jp/ewd"
xmlns:a="http://ns.adobe.com/AdobeSVGViewerExtensions/3.0/"
xmlns:xlink="&ns_xlink;" ewd:ver="L2.3">
<g ewd:code="" ewd:figID="7001" ewd:figtype="sh">
<path style="&st10;" d="M 386.21 , 437.06 L 385.94 , 437.53 L 385.85 , 438.07 L 385.94 , 438.6 L 386.21 , 439.07 L 386.63 , 439.41 L 387.14 , 439.6 L 387.67 , 439.6 L 388.18 , 439.41 L 388.6 , 439.07 L 388.87 , 438.6 L 388.96 , 438.07 L 388.87 , 437.53 L 388.6 , 437.06 L 388.18 , 436.72 L 387.67 , 436.53 L 387.14 , 436.53 L 386.63 , 436.72 L 386.21 , 437.06 L 386.61 , 437.77 L 386.61 , 438.36 L 386.98 , 438.8 L 387.55 , 438.9 L 388.06 , 438.61 L 388.25 , 438.07 L 388.06 , 437.52 L 387.55 , 437.23 L 386.98 , 437.33 L 387.4 , 438.07"/>
<path style="&st29;" d="M 387.4 , 438.07 L 298.17 , 438.07 L 298.17 , 406.2 L 387.41 , 406.2 L 387.4 , 438.07"/>
<g ewd:figtype="comment">
<text ewd:textID="1" style="&st24; &st15;" transform="matrix(0 -1 1 0 294.478 436.8735)">(Shielded)</text></g>
</g>
<g ewd:pinNo="37" ewd:code="GA1" ewd:figID="6044" ewd:figtype="w2w">
<path style="&st21;" d="M 230.15 , 225.48 L 238.65 , 225.48"/>
<path style="&st26;" d="M 234.42 , 216.42 L 238.66 , 220.67 L 242.91 , 216.42"/>
<path style="&st26;" d="M 242.9 , 219.82 L 238.65 , 224.07 L 234.41 , 219.82"/>
<text style="&st24; &st15;" transform="matrix(1 0 0 1 220.1304 231.7554)">37</text></g>
<g ewd:pinNo="25" ewd:code="GR1" ewd:figID="6043" ewd:figtype="w2w">
<path style="&st21;" d="M 408.66 , 176.07 L 417.16 , 176.07"/>
<path style="&st26;" d="M 404.42 , 185.13 L 408.66 , 180.88 L 412.91 , 185.13"/>
<path style="&st26;" d="M 412.91 , 181.73 L 408.66 , 177.48 L 404.42 , 181.73"/>
<text style="&st24; &st15;" transform="matrix(1 0 0 1 390.1304 173.8496)">25</text></g>
<g ewd:pinNo="2" ewd:code="Rd1" ewd:figID="6042" ewd:figtype="w2w">
<path style="&st21;" d="M 408.66 , 298.38 L 417.16 , 298.38"/>
<path style="&st26;" d="M 404.42 , 307.44 L 408.66 , 303.19 L 412.91 , 307.44"/>
<path style="&st26;" d="M 412.91 , 304.04 L 408.66 , 299.79 L 404.42 , 304.04"/>
<text style="&st24; &st15;" transform="matrix(1 0 0 1 393.4702 296.1602)">2</text></g>
<g ewd:pinNo="10" ewd:code="Rd1" ewd:figID="6041" ewd:figtype="w2w">
<path style="&st21;" d="M 89.91 , 298.38 L 98.41 , 298.38"/>
<path style="&st26;" d="M 85.67 , 307.44 L 89.91 , 303.19 L 94.16 , 307.44"/>
<path style="&st26;" d="M 94.16 , 304.04 L 89.91 , 299.79 L 85.67 , 304.04"/>
<text style="&st24; &st15;" transform="matrix(1 0 0 1 71.3804 296.1602)">10</text></g>
<g ewd:pinNo="1" ewd:code="Rd1" ewd:figID="6040" ewd:figtype="w2w">
<path style="&st21;" d="M 26.16 , 298.38 L 34.66 , 298.38"/>
<path style="&st26;" d="M 21.92 , 307.44 L 26.16 , 303.19 L 30.41 , 307.44"/>
<path style="&st26;" d="M 30.41 , 304.04 L 26.16 , 299.79 L 21.92 , 304.04"/>
<text style="&st24; &st15;" transform="matrix(1 0 0 1 10.9673 296.1602)">1</text></g>
<g ewd:pinNo="17" ewd:code="AR1" ewd:figID="6039" ewd:figtype="w2w">
<path style="&st21;" d="M 26.15 , 227.57 L 34.65 , 227.57"/>
<path style="&st26;" d="M 21.92 , 236.63 L 26.16 , 232.38 L 30.41 , 236.63"/>
<path style="&st26;" d="M 30.4 , 233.23 L 26.15 , 228.98 L 21.91 , 233.23"/>
<text style="&st24; &st15;" transform="matrix(1 0 0 1 7.6274 225.3496)">17</text></g>
<g ewd:code="2" ewd:figID="3002" ewd:figtype="jb">
<path style="&st34;" d="M 89.91 , 95.75 L 89.91 , 60.14"/>
<path style="&st8;" d="M 89.91 , 90.86 L 87.08 , 88.02 L 87.08 , 92.27 L 89.91 , 95.11 L 92.74 , 92.27 L 92.74 , 88.02 L 89.91 , 90.86"/>
<path style="&st34;" d="M 132.41 , 95.75 L 132.41 , 78.75"/>
<path style="&st34;" d="M 89.91 , 78.75 L 132.41 , 78.75"/>
<path style="&st8;" d="M 132.41 , 90.86 L 129.58 , 88.02 L 129.58 , 92.27 L 132.41 , 95.11 L 135.24 , 92.27 L 135.24 , 88.02 L 132.41 , 90.86"/>
<path style="&st34;" d="M 88.72 , 77.75 L 88.45 , 78.22 L 88.36 , 78.75 L 88.45 , 79.29 L 88.72 , 79.76 L 89.14 , 80.1 L 89.64 , 80.29 L 90.19 , 80.29 L 90.69 , 80.1 L 91.11 , 79.76 L 91.38 , 79.29 L 91.47 , 78.75 L 91.38 , 78.22 L 91.11 , 77.75 L 90.69 , 77.41 L 90.19 , 77.22 L 89.64 , 77.22 L 89.14 , 77.41 L 88.72 , 77.75 L 89.12 , 78.46 L 89.12 , 79.05 L 89.49 , 79.49 L 90.06 , 79.59 L 90.57 , 79.3 L 90.76 , 78.75 L 90.57 , 78.21 L 90.06 , 77.92 L 89.49 , 78.02 L 89.91 , 78.75"/>
<path style="&st26;" d="M 92.04 , 104.25 L 87.79 , 104.25"/>
<path style="&st26;" d="M 92.04 , 95.75 L 87.79 , 95.75"/>
<path style="&st26;" d="M96.29,100c0-2.35-1.91-4.25-4.25-4.25"/>
<path style="&st26;" d="M92.04,104.25c2.34,0,4.25-1.9,4.25-4.25"/>
<path style="&st26;" d="M83.54,100c0,2.35,1.9,4.25,4.25,4.25"/>
<path style="&st26;" d="M87.79,95.75c-2.35,0-4.25,1.9-4.25,4.25"/>
<path style="&st26;" d="M 134.54 , 104.25 L 130.29 , 104.25"/>
<path style="&st26;" d="M 134.54 , 95.75 L 130.29 , 95.75"/>
<path style="&st26;" d="M138.79,100c0-2.35-1.91-4.25-4.25-4.25"/>
<path style="&st26;" d="M134.54,104.25c2.34,0,4.25-1.9,4.25-4.25"/>
<path style="&st26;" d="M126.04,100c0,2.35,1.9,4.25,4.25,4.25"/>
<path style="&st26;" d="M130.29,95.75c-2.35,0-4.25,1.9-4.25,4.25"/>
<path style="&st26;" d="M89.91,48.81c2.74-1.61,3.65-5.14,2.04-7.88"/>
<path style="&st34;" d="M89.91,51.64c0.78,0,1.42-0.63,1.42-1.41"/>
<path style="&st7;" d="M 77.16 , 17.65 L 77.16 , 60.14 L 102.66 , 60.14 L 102.66 , 17.65 L 77.16 , 17.65"/>
<path style="&st34;" d="M 89.91 , 51.64 L 89.91 , 60.14"/>
<path style="&st26;" d="M89.91,28.98c-2.74,1.61-3.65,5.14-2.03,7.88"/>
<path style="&st26;" d="M87.88,36.86c0.51,0.88,1.15,1.52,2.03,2.04"/>
<path style="&st26;" d="M91.95,40.93c-0.52-0.88-1.16-1.51-2.04-2.03"/>
<path style="&st34;" d="M91.33,27.56c0-0.78-0.64-1.41-1.42-1.41"/>
<path style="&st34;" d="M89.91,26.15c-0.78,0-1.41,0.63-1.41,1.41"/>
<path style="&st34;" d="M88.5,27.56c0,0.79,0.63,1.42,1.41,1.42"/>
<path style="&st34;" d="M89.91,28.98c0.78,0,1.42-0.63,1.42-1.42"/>
<path style="&st34;" d="M91.33,50.23c0-0.79-0.64-1.42-1.42-1.42"/>
<path style="&st34;" d="M89.91,48.81c-0.78,0-1.41,0.63-1.41,1.42"/>
<path style="&st34;" d="M88.5,50.23c0,0.78,0.63,1.41,1.41,1.41"/>
<text style="&st24; &st15;" transform="matrix(1 0 0 1 73.52 101.9692)">36</text><text style="&st24; &st15;" transform="matrix(1 0 0 1 85.9048 101.9692)">2Q</text><text style="&st24; &st15;" transform="matrix(1 0 0 1 116.02 101.9692)">53</text><text style="&st24; &st15;" transform="matrix(1 0 0 1 128.4048 101.9692)">2O</text><text style="&st24; &st15;" transform="matrix(1 0 0 1 107.2173 38.0425)">10A</text><text style="&st24; &st15;" transform="matrix(1 0 0 1 107.2173 44.0425)">ECU-IG NO.2</text><text style="&st24; &st15;" transform="matrix(1 0 0 1 84.7417 13.9526)">(IG)</text></g>
<g ewd:code="FUSE10" ewd:figID="4003" ewd:figtype="rb">
<path style="&st26;" d="M238.66,70.06c2.74-1.61,3.65-5.14,2.04-7.88"/>
<path style="&st34;" d="M238.66,72.89c0.78,0,1.42-0.63,1.42-1.41"/>
<path style="&st26;" d="M 225.91 , 38.9 L 225.91 , 81.39 L 251.41 , 81.39 L 251.41 , 38.9 L 225.91 , 38.9"/>
<path style="&st34;" d="M 238.66 , 72.89 L 238.66 , 98.39"/>
<path style="&st8;" d="M 238.66 , 93.49 L 235.83 , 90.66 L 235.83 , 94.91 L 238.66 , 97.74 L 241.49 , 94.91 L 241.49 , 90.66 L 238.66 , 93.49"/>
<path style="&st26;" d="M238.66,50.23c-2.74,1.61-3.65,5.14-2.03,7.88"/>
<path style="&st26;" d="M236.63,58.11c0.51,0.88,1.15,1.52,2.03,2.04"/>
<path style="&st26;" d="M240.7,62.18c-0.52-0.88-1.16-1.51-2.04-2.03"/>
<path style="&st34;" d="M240.08,48.81c0-0.78-0.64-1.41-1.42-1.41"/>
<path style="&st34;" d="M238.66,47.4c-0.78,0-1.41,0.63-1.41,1.41"/>
<path style="&st34;" d="M237.25,48.81c0,0.79,0.63,1.42,1.41,1.42"/>
<path style="&st34;" d="M238.66,50.23c0.78,0,1.42-0.63,1.42-1.42"/>
<path style="&st34;" d="M240.08,71.48c0-0.79-0.64-1.42-1.42-1.42"/>
<path style="&st34;" d="M238.66,70.06c-0.78,0-1.41,0.63-1.41,1.42"/>
<path style="&st34;" d="M237.25,71.48c0,0.78,0.63,1.41,1.41,1.41"/>
<path style="&st26;" d="M 240.79 , 98.39 L 236.54 , 98.39"/>
<path style="&st26;" d="M 240.79 , 106.89 L 236.54 , 106.89"/>
<path style="&st26;" d="M236.54,98.39c-2.35,0-4.25,1.9-4.25,4.25"/>
<path style="&st26;" d="M232.29,102.64c0,2.35,1.9,4.25,4.25,4.25"/>
<path style="&st26;" d="M240.79,106.89c2.34,0,4.25-1.9,4.25-4.25"/>
<path style="&st26;" d="M245.04,102.64c0-2.35-1.91-4.25-4.25-4.25"/>
<text style="&st24; &st15;" transform="matrix(1 0 0 1 255.9663 59.2925)">10A</text><text style="&st24; &st15;" transform="matrix(1 0 0 1 255.9663 65.2925)">ECU-B</text><text style="&st24; &st15;" transform="matrix(1 0 0 1 231.0469 35.2026)">(BAT)</text><text style="&st24; &st15;" transform="matrix(1 0 0 1 236.9883 104.6128)">1</text><text style="&st24; &st15;" transform="matrix(1 0 0 1 232.0308 89.5933)">2</text></g>
<g ewd:code="FUSE150" ewd:figID="4002" ewd:figtype="rb">
<path style="&st26;" d="M26.15,48.81c2.74-1.61,3.65-5.14,2.04-7.88"/>
<path style="&st34;" d="M26.15,51.64c0.78,0,1.42-0.63,1.42-1.41"/>
<path style="&st26;" d="M 13.4 , 17.65 L 13.4 , 60.14 L 38.9 , 60.14 L 38.9 , 17.65 L 13.4 , 17.65"/>
<path style="&st34;" d="M 26.15 , 51.64 L 26.15 , 77.14"/>
<path style="&st8;" d="M 26.15 , 72.24 L 23.32 , 69.41 L 23.32 , 73.66 L 26.15 , 76.49 L 28.98 , 73.66 L 28.98 , 69.41 L 26.15 , 72.24"/>
<path style="&st26;" d="M26.15,28.98c-2.74,1.61-3.65,5.14-2.03,7.88"/>
<path style="&st26;" d="M24.12,36.86c0.51,0.88,1.15,1.52,2.03,2.04"/>
<path style="&st26;" d="M28.19,40.93c-0.52-0.88-1.16-1.51-2.04-2.03"/>
<path style="&st34;" d="M27.57,27.56c0-0.78-0.64-1.41-1.42-1.41"/>
<path style="&st34;" d="M26.15,26.15c-0.78,0-1.41,0.63-1.41,1.41"/>
<path style="&st34;" d="M24.74,27.56c0,0.79,0.63,1.42,1.41,1.42"/>
<path style="&st34;" d="M26.15,28.98c0.78,0,1.42-0.63,1.42-1.42"/>
<path style="&st34;" d="M27.57,50.23c0-0.79-0.64-1.42-1.42-1.42"/>
<path style="&st34;" d="M26.15,48.81c-0.78,0-1.41,0.63-1.41,1.42"/>
<path style="&st34;" d="M24.74,50.23c0,0.78,0.63,1.41,1.41,1.41"/>
<path style="&st26;" d="M 28.28 , 77.14 L 24.03 , 77.14"/>
<path style="&st26;" d="M 28.28 , 85.64 L 24.03 , 85.64"/>
<path style="&st26;" d="M24.03,77.14c-2.35,0-4.25,1.9-4.25,4.25"/>
<path style="&st26;" d="M19.78,81.39c0,2.35,1.9,4.25,4.25,4.25"/>
<path style="&st26;" d="M28.28,85.64c2.34,0,4.25-1.9,4.25-4.25"/>
<path style="&st26;" d="M32.53,81.39c0-2.35-1.91-4.25-4.25-4.25"/>
<text style="&st24; &st15;" transform="matrix(1 0 0 1 43.4644 38.0405)">30A</text><text style="&st24; &st15;" transform="matrix(1 0 0 1 43.4644 44.0405)">PFS LH</text><text style="&st24; &st15;" transform="matrix(1 0 0 1 18.5439 13.9507)">(BAT)</text><text style="&st24; &st15;" transform="matrix(1 0 0 1 24.4854 83.3608)">1</text><text style="&st24; &st15;" transform="matrix(1 0 0 1 19.5278 68.3413)">2</text></g>
<g ewd:code="A118" ewd:figID="27" ewd:figtype="conn">
<path style="&st26;" d="M 230.16 , 161.75 L 247.16 , 161.75 L 247.16 , 178.75 L 230.16 , 178.75 L 230.16 , 161.75"/>
<path style="&st34;" d="M 238.66 , 161.75 L 238.66 , 178.75"/>
<text style="&st24; &st15;" transform="matrix(1 0 0 1 230.5698 186.9487)">9</text><text style="&st24; &st15;" transform="matrix(1 0 0 1 230.5698 158.0503)">7</text><g ewd:figtype="title">
<text style="&st24; &st15;" transform="matrix(0 -1 1 0 254.7651 181.27)">A118</text><text ewd:textID="8" style="&st24; &st15;" transform="matrix(0 -1 1 0 261.8062 181.27)">Junction Connector</text></g>
</g>
<g ewd:code="d7" ewd:figID="25" ewd:figtype="conn">
<path style="&st34;" d="M 387.4 , 533.35 L 429.9 , 533.35 L 429.9 , 524.79"/>
<path style="&st34;" d="M 387.4 , 533.35 L 387.4 , 541.91"/>
<path style="&st34;" d="M 386.21 , 532.34 L 385.94 , 532.81 L 385.85 , 533.34 L 385.94 , 533.88 L 386.21 , 534.35 L 386.63 , 534.69 L 387.13 , 534.88 L 387.68 , 534.88 L 388.18 , 534.69 L 388.6 , 534.35 L 388.87 , 533.88 L 388.96 , 533.34 L 388.87 , 532.81 L 388.6 , 532.34 L 388.18 , 532 L 387.68 , 531.81 L 387.13 , 531.81 L 386.63 , 532 L 386.21 , 532.34 L 386.61 , 533.05 L 386.61 , 533.64 L 386.98 , 534.08 L 387.55 , 534.18 L 388.06 , 533.89 L 388.25 , 533.34 L 388.06 , 532.8 L 387.55 , 532.51 L 386.98 , 532.61 L 387.4 , 533.34"/>
<path style="&st34;" d="M 387.4 , 533.35 L 387.4 , 524.79"/>
<path style="&st23;" d="M 378.9 , 541.91 L 378.9 , 524.79 L 438.4 , 524.79 L 438.4 , 541.91 L 378.9 , 541.91 L 378.9 , 541.91"/>
<text style="&st24; &st15;" transform="matrix(1 0 0 1 421.8159 521.0913)">3</text><text style="&st24; &st15;" transform="matrix(1 0 0 1 379.3159 550.1108)">2</text><text style="&st24; &st15;" transform="matrix(1 0 0 1 379.3159 521.0913)">1</text><g ewd:figtype="title">
<text style="&st24; &st15;" transform="matrix(0 -1 1 0 446.0024 543.9116)">d7</text><text ewd:textID="8" style="&st24; &st15;" transform="matrix(0 -1 1 0 453.603 543.9116)">Junction Connector</text></g>
</g>
<g ewd:code="G281" ewd:figID="20" ewd:figtype="conn">
<path style="&st26;" d="M 166.41 , 178.75 L 183.41 , 178.75 L 183.41 , 161.75 L 166.41 , 161.75 L 166.41 , 178.75"/>
<path style="&st34;" d="M 174.91 , 178.75 L 174.91 , 161.75"/>
<text style="&st24; &st15;" transform="matrix(1 0 0 1 166.8198 157.6206)">6</text><text style="&st24; &st15;" transform="matrix(1 0 0 1 166.8198 186.519)">1</text><g ewd:figtype="title">
<text style="&st24; &st15;" transform="matrix(0 -1 1 0 191.0161 179.2583)">G281</text><text ewd:textID="8" style="&st24; &st15;" transform="matrix(0 -1 1 0 198.0571 179.2583)">Junction Connector</text></g>
</g>
<g ewd:code="G253" ewd:figID="19" ewd:figtype="conn">
<path style="&st26;" d="M 123.91 , 161.75 L 140.91 , 161.75 L 140.91 , 178.75 L 123.91 , 178.75 L 123.91 , 161.75"/>
<path style="&st34;" d="M 132.41 , 161.75 L 132.41 , 178.75"/>
<text style="&st24; &st15;" transform="matrix(1 0 0 1 120.9829 186.9487)">22</text><text style="&st24; &st15;" transform="matrix(1 0 0 1 120.9829 158.0503)">19</text><g ewd:figtype="title">
<text style="&st24; &st15;" transform="matrix(0 -1 1 0 148.5161 181.27)">G253</text><text ewd:textID="8" style="&st24; &st15;" transform="matrix(0 -1 1 0 155.5571 181.27)">Junction Connector</text></g>
</g>
<g ewd:code="d4,d6" ewd:figID="16" ewd:figtype="conn">
<path style="&st26;" d="M 308.79 , 496.26 L 317.29 , 496.26"/>
<path style="&st26;" d="M 308.79 , 492.3 L 308.79 , 496.26"/>
<path style="&st26;" d="M 317.29 , 496.26 L 317.29 , 492.3"/>
<path style="&st26;" d="M 308.79 , 473.6 L 317.29 , 473.6"/>
<path style="&st26;" d="M 308.79 , 477.57 L 308.79 , 473.6"/>
<path style="&st26;" d="M 317.29 , 473.6 L 317.29 , 477.57"/>
<path style="&st26;" d="M 208.92 , 501.93 L 289.67 , 501.93 L 289.67 , 476.43 L 208.92 , 476.43 L 208.92 , 501.93"/>
<path style="&st34;" d="M 217.42 , 459.44 L 217.42 , 476.43"/>
<path style="&st34;" d="M 249.29 , 459.44 L 249.29 , 476.43"/>
<path style="&st34;" d="M 281.17 , 459.44 L 281.17 , 476.43"/>
<path style="&st34;" d="M 313.04 , 459.44 L 313.04 , 473.6"/>
<path style="&st34;" d="M 313.04 , 496.26 L 313.04 , 510.43 L 344.92 , 510.43 L 344.92 , 459.44"/>
<path style="&st26;" d="M304.54,484.93c0,4.7,3.81,8.5,8.5,8.5"/>
<path style="&st26;" d="M313.04,493.43c4.69,0,8.5-3.8,8.5-8.5"/>
<path style="&st26;" d="M321.54,484.93c0-4.69-3.81-8.5-8.5-8.5"/>
<path style="&st26;" d="M313.04,476.43c-4.69,0-8.5,3.81-8.5,8.5"/>
<path style="&st23;" d="M 200.4 , 518.93 L 200.4 , 459.44 L 353.4 , 459.44 L 353.4 , 518.93 L 200.4 , 518.93 L 200.4 , 518.93"/>
<path style="&st26;" d="M349.42,523.43c0-2.48-2.02-4.5-4.5-4.5"/>
<path style="&st26;" d="M344.89,518.93c-2.48,0-4.5,2.02-4.5,4.5"/>
<path style="&st26;" d="M340.39,523.43c0,2.48,2.02,4.5,4.5,4.5"/>
<path style="&st26;" d="M344.92,527.93c2.48,0,4.5-2.02,4.5-4.5"/>
<path style="&st26;" d="M221.92,454.94c0-2.48-2.02-4.5-4.5-4.5"/>
<path style="&st26;" d="M217.39,450.44c-2.48,0-4.5,2.02-4.5,4.5"/>
<path style="&st26;" d="M212.89,454.94c0,2.48,2.02,4.5,4.5,4.5"/>
<path style="&st26;" d="M217.42,459.44c2.48,0,4.5-2.02,4.5-4.5"/>
<path style="&st26;" d="M253.79,454.94c0-2.48-2.02-4.5-4.5-4.5"/>
<path style="&st26;" d="M249.26,450.44c-2.48,0-4.5,2.02-4.5,4.5"/>
<path style="&st26;" d="M244.76,454.94c0,2.48,2.02,4.5,4.5,4.5"/>
<path style="&st26;" d="M249.29,459.44c2.48,0,4.5-2.02,4.5-4.5"/>
<path style="&st26;" d="M285.67,454.94c0-2.48-2.02-4.5-4.5-4.5"/>
<path style="&st26;" d="M281.14,450.44c-2.48,0-4.5,2.02-4.5,4.5"/>
<path style="&st26;" d="M276.64,454.94c0,2.48,2.02,4.5,4.5,4.5"/>
<path style="&st26;" d="M281.17,459.44c2.48,0,4.5-2.02,4.5-4.5"/>
<path style="&st26;" d="M317.54,454.94c0-2.48-2.02-4.5-4.5-4.5"/>
<path style="&st26;" d="M313.01,450.44c-2.48,0-4.5,2.02-4.5,4.5"/>
<path style="&st26;" d="M308.51,454.94c0,2.48,2.02,4.5,4.5,4.5"/>
<path style="&st26;" d="M313.04,459.44c2.48,0,4.5-2.02,4.5-4.5"/>
<path style="&st26;" d="M349.42,454.94c0-2.48-2.02-4.5-4.5-4.5"/>
<path style="&st26;" d="M344.89,450.44c-2.48,0-4.5,2.02-4.5,4.5"/>
<path style="&st26;" d="M340.39,454.94c0,2.48,2.02,4.5,4.5,4.5"/>
<path style="&st26;" d="M344.92,459.44c2.48,0,4.5-2.02,4.5-4.5"/>
<text style="&st24; &st15;" transform="matrix(1 0 0 1 310.1426 486.9028)">M</text><text ewd:textID="7" style="&st24; &st15;" transform="matrix(1 0 0 1 229.9526 509.563)">Hall IC Sensor</text><text ewd:textID="6" style="&st24; &st15;" transform="matrix(0 -1 1 0 329.6523 496.4126)">Folding <tspan x="0" y="7">Motor</tspan></text><text style="&st24; &st15;" transform="matrix(1 0 0 1 334.7944 525.4048)">1</text><text style="&st24; &st15;" transform="matrix(1 0 0 1 342.9019 525.4048)">B</text><text style="&st24; &st15;" transform="matrix(1 0 0 1 207.2944 456.8833)">6</text><text style="&st24; &st15;" transform="matrix(1 0 0 1 215.4019 456.8833)">A</text><text style="&st24; &st15;" transform="matrix(1 0 0 1 239.1694 456.8833)">5</text><text style="&st24; &st15;" transform="matrix(1 0 0 1 247.2769 456.8833)">A</text><text style="&st24; &st15;" transform="matrix(1 0 0 1 271.0444 456.8833)">2</text><text style="&st24; &st15;" transform="matrix(1 0 0 1 279.1519 456.8833)">A</text><text style="&st24; &st15;" transform="matrix(1 0 0 1 302.9194 456.8833)">3</text><text style="&st24; &st15;" transform="matrix(1 0 0 1 311.0269 456.8833)">A</text><text style="&st24; &st15;" transform="matrix(1 0 0 1 334.7944 456.8833)">4</text><text style="&st24; &st15;" transform="matrix(1 0 0 1 342.9019 456.8833)">A</text><g ewd:figtype="title">
<text style="&st24; &st15;" transform="matrix(1 0 0 1 200.4028 527.4341)">d4(A),d6(B)</text><text ewd:textID="11" style="&st24; &st15;" transform="matrix(1 0 0 1 200.4028 535.0337)">No. 2 Seat Cushion Frame Sub-Assembly LH</text></g>
</g>
<g ewd:code="d3" ewd:figID="15" ewd:figtype="conn">
<path style="&st26;" d="M 117.54 , 496.26 L 126.04 , 496.26"/>
<path style="&st26;" d="M 117.54 , 492.3 L 117.54 , 496.26"/>
<path style="&st26;" d="M 126.04 , 496.26 L 126.04 , 492.3"/>
<path style="&st26;" d="M 117.54 , 473.6 L 126.04 , 473.6"/>
<path style="&st26;" d="M 117.54 , 477.57 L 117.54 , 473.6"/>
<path style="&st26;" d="M 126.04 , 473.6 L 126.04 , 477.57"/>
<path style="&st26;" d="M 17.67 , 501.93 L 98.42 , 501.93 L 98.42 , 476.43 L 17.67 , 476.43 L 17.67 , 501.93"/>
<path style="&st34;" d="M 26.17 , 459.44 L 26.17 , 476.43"/>
<path style="&st34;" d="M 58.04 , 459.44 L 58.04 , 476.43"/>
<path style="&st34;" d="M 89.92 , 459.44 L 89.92 , 476.43"/>
<path style="&st34;" d="M 121.79 , 459.44 L 121.79 , 473.6"/>
<path style="&st34;" d="M 121.79 , 496.26 L 121.79 , 510.43 L 153.67 , 510.43 L 153.67 , 459.44"/>
<path style="&st26;" d="M113.29,484.93c0,4.7,3.81,8.5,8.5,8.5"/>
<path style="&st26;" d="M121.79,493.43c4.69,0,8.5-3.8,8.5-8.5"/>
<path style="&st26;" d="M130.29,484.93c0-4.69-3.81-8.5-8.5-8.5"/>
<path style="&st26;" d="M121.79,476.43c-4.69,0-8.5,3.81-8.5,8.5"/>
<path style="&st23;" d="M 9.15 , 518.93 L 9.15 , 459.44 L 162.15 , 459.44 L 162.15 , 518.93 L 9.15 , 518.93 L 9.15 , 518.93"/>
<text style="&st24; &st15;" transform="matrix(1 0 0 1 118.8921 486.9028)">M</text><text ewd:textID="7" style="&st24; &st15;" transform="matrix(1 0 0 1 38.7031 509.563)">Hall IC Sensor</text><text ewd:textID="19" style="&st24; &st15;" transform="matrix(0 -1 1 0 138.4019 496.4126)">Reclining <tspan x="0" y="7">Motor</tspan></text><text style="&st24; &st15;" transform="matrix(1 0 0 1 16.0454 456.8833)">6</text><text style="&st24; &st15;" transform="matrix(1 0 0 1 47.9204 456.8833)">5</text><text style="&st24; &st15;" transform="matrix(1 0 0 1 79.7954 456.8833)">2</text><text style="&st24; &st15;" transform="matrix(1 0 0 1 111.6704 456.8833)">3</text><text style="&st24; &st15;" transform="matrix(1 0 0 1 143.5454 456.8833)">4</text><g ewd:figtype="title">
<text style="&st24; &st15;" transform="matrix(1 0 0 1 9.1538 527.4341)">d3</text><text ewd:textID="13" style="&st24; &st15;" transform="matrix(1 0 0 1 9.1538 535.0337)">No. 3 Seat Back Frame Sub-Assembly LH</text></g>
</g>
<g ewd:code="R29" ewd:figID="4" ewd:figtype="conn">
<path style="&st26;" d="M 400.16 , 227.63 L 417.16 , 227.63 L 417.16 , 244.63 L 400.16 , 244.63 L 400.16 , 227.63"/>
<path style="&st34;" d="M 408.66 , 227.63 L 408.66 , 244.63"/>
<path style="&st26;" d="M413.17,249.13c0-2.48-2.02-4.5-4.5-4.5"/>
<path style="&st26;" d="M408.64,244.63c-2.48,0-4.5,2.02-4.5,4.5"/>
<path style="&st26;" d="M404.14,249.13c0,2.48,2.02,4.5,4.5,4.5"/>
<path style="&st26;" d="M408.67,253.63c2.48,0,4.5-2.02,4.5-4.5"/>
<path style="&st26;" d="M413.17,223.13c0-2.48-2.02-4.5-4.5-4.5"/>
<path style="&st26;" d="M408.64,218.63c-2.48,0-4.5,2.02-4.5,4.5"/>
<path style="&st26;" d="M404.14,223.13c0,2.48,2.02,4.5,4.5,4.5"/>
<path style="&st26;" d="M408.67,227.63c2.48,0,4.5-2.02,4.5-4.5"/>
<text style="&st24; &st15;" transform="matrix(1 0 0 1 398.5513 251.1045)">5</text><text style="&st24; &st15;" transform="matrix(1 0 0 1 406.6587 251.1045)">A</text><text style="&st24; &st15;" transform="matrix(1 0 0 1 398.5513 225.0732)">6</text><text style="&st24; &st15;" transform="matrix(1 0 0 1 406.6587 225.0732)">A</text><g ewd:figtype="title">
<text style="&st24; &st15;" transform="matrix(0 -1 1 0 424.769 247.1553)">R29(A)</text><text ewd:textID="8" style="&st24; &st15;" transform="matrix(0 -1 1 0 431.8101 247.1553)">Junction Connector</text></g>
</g>
<g ewd:code="G234,G308" ewd:figID="3" ewd:figtype="conn" ewd:comment="1,2">
<path style="&st34;" d="M 344.91 , 170.31 L 302.41 , 170.31 L 302.41 , 161.75"/>
<path style="&st34;" d="M 302.41 , 170.31 L 302.41 , 178.87"/>
<path style="&st34;" d="M 303.6 , 169.3 L 303.87 , 169.77 L 303.96 , 170.3 L 303.87 , 170.84 L 303.6 , 171.31 L 303.18 , 171.65 L 302.68 , 171.84 L 302.13 , 171.84 L 301.63 , 171.65 L 301.21 , 171.31 L 300.94 , 170.84 L 300.85 , 170.3 L 300.94 , 169.77 L 301.21 , 169.3 L 301.63 , 168.96 L 302.13 , 168.77 L 302.68 , 168.77 L 303.18 , 168.96 L 303.6 , 169.3 L 303.2 , 170.01 L 303.2 , 170.6 L 302.83 , 171.04 L 302.26 , 171.14 L 301.75 , 170.85 L 301.56 , 170.3 L 301.75 , 169.76 L 302.26 , 169.47 L 302.83 , 169.57 L 302.41 , 170.3"/>
<path style="&st34;" d="M 344.91 , 170.31 L 344.91 , 161.75"/>
<path style="&st23;" d="M 353.41 , 178.87 L 353.41 , 161.75 L 293.91 , 161.75 L 293.91 , 178.87 L 353.41 , 178.87 L 353.41 , 178.87"/>
<path style="&st31;" d="M 329.75 , 157.25 L 309.03 , 157.25"/>
<path style="&st31;" d="M 329.75 , 148.25 L 309.03 , 148.25"/>
<path style="&st26;" d="M306.91,148.25c0-2.48-2.02-4.5-4.5-4.5"/>
<path style="&st26;" d="M302.38,143.75c-2.48,0-4.5,2.02-4.5,4.5"/>
<path style="&st26;" d="M297.88,148.25c0,2.48,2.02,4.5,4.5,4.5"/>
<path style="&st26;" d="M302.41,152.75c2.48,0,4.5-2.02,4.5-4.5"/>
<path style="&st26;" d="M306.91,157.25c0-2.48-2.02-4.5-4.5-4.5"/>
<path style="&st26;" d="M302.38,152.75c-2.48,0-4.5,2.02-4.5,4.5"/>
<path style="&st26;" d="M297.88,157.25c0,2.48,2.02,4.5,4.5,4.5"/>
<path style="&st26;" d="M302.41,161.75c2.48,0,4.5-2.02,4.5-4.5"/>
<path style="&st26;" d="M306.91,183.37c0-2.48-2.02-4.5-4.5-4.5"/>
<path style="&st26;" d="M302.38,178.87c-2.48,0-4.5,2.02-4.5,4.5"/>
<path style="&st26;" d="M297.88,183.37c0,2.48,2.02,4.5,4.5,4.5"/>
<path style="&st26;" d="M302.41,187.87c2.48,0,4.5-2.02,4.5-4.5"/>
<path style="&st26;" d="M306.91,192.37c0-2.48-2.02-4.5-4.5-4.5"/>
<path style="&st26;" d="M302.38,187.87c-2.48,0-4.5,2.02-4.5,4.5"/>
<path style="&st26;" d="M297.88,192.37c0,2.48,2.02,4.5,4.5,4.5"/>
<path style="&st26;" d="M302.41,196.87c2.48,0,4.5-2.02,4.5-4.5"/>
<path style="&st26;" d="M349.41,148.25c0-2.48-2.02-4.5-4.5-4.5"/>
<path style="&st26;" d="M344.88,143.75c-2.48,0-4.5,2.02-4.5,4.5"/>
<path style="&st26;" d="M340.38,148.25c0,2.48,2.02,4.5,4.5,4.5"/>
<path style="&st26;" d="M344.91,152.75c2.48,0,4.5-2.02,4.5-4.5"/>
<path style="&st26;" d="M349.41,157.25c0-2.48-2.02-4.5-4.5-4.5"/>
<path style="&st26;" d="M344.88,152.75c-2.48,0-4.5,2.02-4.5,4.5"/>
<path style="&st26;" d="M340.38,157.25c0,2.48,2.02,4.5,4.5,4.5"/>
<path style="&st26;" d="M344.91,161.75c2.48,0,4.5-2.02,4.5-4.5"/>
<text style="&st24; &st15;" transform="matrix(1 0 0 1 308.7666 185.3413)">(*1)</text><text style="&st24; &st15;" transform="matrix(1 0 0 1 351.2661 159.2192)">(*1)</text><text style="&st24; &st15;" transform="matrix(1 0 0 1 308.7666 194.3413)">(*2)</text><text style="&st24; &st15;" transform="matrix(1 0 0 1 351.2661 150.2192)">(*2)</text><text style="&st24; &st15;" transform="matrix(1 0 0 1 288.9463 150.2192)">20</text><text style="&st24; &st15;" transform="matrix(1 0 0 1 300.3901 150.2192)">B</text><text style="&st24; &st15;" transform="matrix(1 0 0 1 288.9463 159.2192)">20</text><text style="&st24; &st15;" transform="matrix(1 0 0 1 300.3901 159.2192)">A</text><text style="&st24; &st15;" transform="matrix(1 0 0 1 288.9463 185.3413)">19</text><text style="&st24; &st15;" transform="matrix(1 0 0 1 300.3906 185.3413)">A</text><text style="&st24; &st15;" transform="matrix(1 0 0 1 288.9463 194.3413)">19</text><text style="&st24; &st15;" transform="matrix(1 0 0 1 300.3906 194.3413)">B</text><text style="&st24; &st15;" transform="matrix(1 0 0 1 331.4458 150.2192)">21</text><text style="&st24; &st15;" transform="matrix(1 0 0 1 342.8901 150.2192)">B</text><text style="&st24; &st15;" transform="matrix(1 0 0 1 331.4458 159.2192)">21</text><text style="&st24; &st15;" transform="matrix(1 0 0 1 342.8901 159.2192)">A</text><g ewd:figtype="title">
<text style="&st24; &st15;" transform="matrix(0 -1 1 0 279.9321 178.8706)">G234(A),G308(B)</text><text ewd:textID="8" style="&st24; &st15;" transform="matrix(0 -1 1 0 287.5317 178.8706)">Junction Connector</text></g>
</g>
<g ewd:code="G234,G308" ewd:figID="2" ewd:figtype="conn" ewd:comment="1,2">
<path style="&st26;" d="M 400.16 , 93.07 L 417.16 , 93.07 L 417.16 , 110.07 L 400.16 , 110.07 L 400.16 , 93.07"/>
<path style="&st34;" d="M 408.66 , 93.07 L 408.66 , 110.07"/>
<path style="&st26;" d="M413.17,114.57c0-2.48-2.02-4.5-4.5-4.5"/>
<path style="&st26;" d="M408.64,110.07c-2.48,0-4.5,2.02-4.5,4.5"/>
<path style="&st26;" d="M404.14,114.57c0,2.48,2.02,4.5,4.5,4.5"/>
<path style="&st26;" d="M408.67,119.07c2.48,0,4.5-2.02,4.5-4.5"/>
<path style="&st26;" d="M413.17,123.57c0-2.48-2.02-4.5-4.5-4.5"/>
<path style="&st26;" d="M408.64,119.07c-2.48,0-4.5,2.02-4.5,4.5"/>
<path style="&st26;" d="M404.14,123.57c0,2.48,2.02,4.5,4.5,4.5"/>
<path style="&st26;" d="M408.67,128.07c2.48,0,4.5-2.02,4.5-4.5"/>
<path style="&st26;" d="M413.17,88.57c0-2.48-2.02-4.5-4.5-4.5"/>
<path style="&st26;" d="M408.64,84.07c-2.48,0-4.5,2.02-4.5,4.5"/>
<path style="&st26;" d="M404.14,88.57c0,2.48,2.02,4.5,4.5,4.5"/>
<path style="&st26;" d="M408.67,93.07c2.48,0,4.5-2.02,4.5-4.5"/>
<path style="&st26;" d="M413.17,79.57c0-2.48-2.02-4.5-4.5-4.5"/>
<path style="&st26;" d="M408.64,75.07c-2.48,0-4.5,2.02-4.5,4.5"/>
<path style="&st26;" d="M404.14,79.57c0,2.48,2.02,4.5,4.5,4.5"/>
<path style="&st26;" d="M408.67,84.07c2.48,0,4.5-2.02,4.5-4.5"/>
<text style="&st24; &st15;" transform="matrix(1 0 0 1 415.0317 116.5439)">(*1)</text><text style="&st24; &st15;" transform="matrix(1 0 0 1 415.0317 90.5127)">(*1)</text><text style="&st24; &st15;" transform="matrix(1 0 0 1 415.0317 125.5439)">(*2)</text><text style="&st24; &st15;" transform="matrix(1 0 0 1 415.0317 81.5127)">(*2)</text><text style="&st24; &st15;" transform="matrix(1 0 0 1 398.5483 116.5439)">2</text><text style="&st24; &st15;" transform="matrix(1 0 0 1 406.6558 116.5439)">A</text><text style="&st24; &st15;" transform="matrix(1 0 0 1 398.5483 125.5439)">2</text><text style="&st24; &st15;" transform="matrix(1 0 0 1 406.6558 125.5439)">B</text><text style="&st24; &st15;" transform="matrix(1 0 0 1 398.5483 90.5127)">1</text><text style="&st24; &st15;" transform="matrix(1 0 0 1 406.6558 90.5127)">A</text><text style="&st24; &st15;" transform="matrix(1 0 0 1 398.5483 81.5127)">1</text><text style="&st24; &st15;" transform="matrix(1 0 0 1 406.6558 81.5127)">B</text><g ewd:figtype="title">
<text style="&st24; &st15;" transform="matrix(0 -1 1 0 386.7407 112.5732)">G234(A),G308(B)</text><text ewd:textID="8" style="&st24; &st15;" transform="matrix(0 -1 1 0 393.7817 112.5732)">Junction Connector</text></g>
</g>
<g ewd:code="d1-A,d2-B" ewd:figID="22" ewd:figtype="conn">
<g ewd:figtype="title">
<text style="&st24; &st15;" transform="matrix(1 0 0 1 216.8911 338.6426)">d1(A),d2(B)</text><text ewd:textID="4" style="&st24; &st15;" transform="matrix(1 0 0 1 216.8911 346.2441)">Fold Seat Control ECU LH</text></g>
<g ewd:figtype="title">
<text style="&st24; &st15;" transform="matrix(1 0 0 1 536.1533 338.6426)">d1(A),d2(B)</text><text ewd:textID="4" style="&st24; &st15;" transform="matrix(1 0 0 1 536.1533 346.2441)">Fold Seat Control ECU LH</text></g>
<g ewd:lineID="3">
<text style="&st24; &st15;" transform="matrix(1 0 0 1 111.6694 390.4146)">1</text><text style="&st24; &st15;" transform="matrix(1 0 0 1 119.7769 390.4146)">B</text><text style="&st24; &st15;" transform="matrix(1 0 0 1 114.0244 380.2466)">RCL+</text><path style="&st26;" d="M126.29,388.44c0-2.48-2.02-4.5-4.5-4.5"/>
<path style="&st26;" d="M121.76,383.94c-2.48,0-4.5,2.02-4.5,4.5"/>
<path style="&st26;" d="M117.26,388.44c0,2.48,2.02,4.5,4.5,4.5"/>
<path style="&st26;" d="M121.79,392.94c2.48,0,4.5-2.02,4.5-4.5"/>
</g>
<g ewd:lineID="15">
<text style="&st24; &st15;" transform="matrix(1 0 0 1 398.5542 347.3838)">1</text><text style="&st24; &st15;" transform="matrix(1 0 0 1 406.6616 347.3838)">A</text><text style="&st24; &st15;" transform="matrix(1 0 0 1 400.3276 357.5942)">ECUB</text><path style="&st26;" d="M413.18,345.44c0-2.48-2.02-4.5-4.5-4.5"/>
<path style="&st26;" d="M408.65,340.94c-2.48,0-4.5,2.02-4.5,4.5"/>
<path style="&st26;" d="M404.15,345.44c0,2.48,2.02,4.5,4.5,4.5"/>
<path style="&st26;" d="M408.68,349.94c2.48,0,4.5-2.02,4.5-4.5"/>
</g>
<g ewd:lineID="90">
<text style="&st24; &st15;" transform="matrix(1 0 0 1 715.041 390.4146)">10</text><text style="&st24; &st15;" transform="matrix(1 0 0 1 726.4854 390.4146)">B</text><text style="&st24; &st15;" transform="matrix(1 0 0 1 721.8193 380.2466)">GND</text><path style="&st26;" d="M733,388.44c0-2.48-2.02-4.5-4.5-4.5"/>
<path style="&st26;" d="M728.47,383.94c-2.48,0-4.5,2.02-4.5,4.5"/>
<path style="&st26;" d="M723.97,388.44c0,2.48,2.02,4.5,4.5,4.5"/>
<path style="&st26;" d="M728.5,392.94c2.48,0,4.5-2.02,4.5-4.5"/>
</g>
<g ewd:lineID="87">
<text style="&st24; &st15;" transform="matrix(1 0 0 1 735.2139 347.3838)">10</text><text style="&st24; &st15;" transform="matrix(1 0 0 1 746.6582 347.3838)">A</text><text style="&st24; &st15;" transform="matrix(1 0 0 1 741.3232 357.5942)">FLD2</text><path style="&st26;" d="M753.17,345.44c0-2.48-2.02-4.5-4.5-4.5"/>
<path style="&st26;" d="M748.64,340.94c-2.48,0-4.5,2.02-4.5,4.5"/>
<path style="&st26;" d="M744.14,345.44c0,2.48,2.02,4.5,4.5,4.5"/>
<path style="&st26;" d="M748.67,349.94c2.48,0,4.5-2.02,4.5-4.5"/>
</g>
<g ewd:lineID="98">
<text style="&st24; &st15;" transform="matrix(1 0 0 1 798.0225 390.4146)">12</text><text style="&st24; &st15;" transform="matrix(1 0 0 1 809.4668 390.4146)">A</text><text style="&st24; &st15;" transform="matrix(1 0 0 1 803.6338 380.2466)">RCLF</text><path style="&st26;" d="M815.98,388.44c0-2.48-2.02-4.5-4.5-4.5"/>
<path style="&st26;" d="M811.45,383.94c-2.48,0-4.5,2.02-4.5,4.5"/>
<path style="&st26;" d="M806.95,388.44c0,2.48,2.02,4.5,4.5,4.5"/>
<path style="&st26;" d="M811.48,392.94c2.48,0,4.5-2.02,4.5-4.5"/>
</g>
<g ewd:lineID="96">
<text style="&st24; &st15;" transform="matrix(1 0 0 1 840.5225 390.4146)">13</text><text style="&st24; &st15;" transform="matrix(1 0 0 1 851.9668 390.4146)">A</text><text style="&st24; &st15;" transform="matrix(1 0 0 1 845.7998 380.2466)">RCLR</text><path style="&st26;" d="M858.48,388.44c0-2.48-2.02-4.5-4.5-4.5"/>
<path style="&st26;" d="M853.95,383.94c-2.48,0-4.5,2.02-4.5,4.5"/>
<path style="&st26;" d="M849.45,388.44c0,2.48,2.02,4.5,4.5,4.5"/>
<path style="&st26;" d="M853.98,392.94c2.48,0,4.5-2.02,4.5-4.5"/>
</g>
<g ewd:lineID="83">
<text style="&st24; &st15;" transform="matrix(1 0 0 1 777.7139 347.3838)">14</text><text style="&st24; &st15;" transform="matrix(1 0 0 1 789.1582 347.3838)">A</text><text style="&st24; &st15;" transform="matrix(1 0 0 1 783.3799 357.5942)">RTN2</text><path style="&st26;" d="M795.67,345.44c0-2.48-2.02-4.5-4.5-4.5"/>
<path style="&st26;" d="M791.14,340.94c-2.48,0-4.5,2.02-4.5,4.5"/>
<path style="&st26;" d="M786.64,345.44c0,2.48,2.02,4.5,4.5,4.5"/>
<path style="&st26;" d="M791.17,349.94c2.48,0,4.5-2.02,4.5-4.5"/>
</g>
<g ewd:lineID="75">
<text style="&st24; &st15;" transform="matrix(1 0 0 1 840.5068 347.3838)">15</text><text style="&st24; &st15;" transform="matrix(1 0 0 1 851.9512 347.3838)">A</text><text style="&st24; &st15;" transform="matrix(1 0 0 1 845.6748 357.5942)">RTRN</text><path style="&st26;" d="M858.47,345.44c0-2.48-2.02-4.5-4.5-4.5"/>
<path style="&st26;" d="M853.94,340.94c-2.48,0-4.5,2.02-4.5,4.5"/>
<path style="&st26;" d="M849.44,345.44c0,2.48,2.02,4.5,4.5,4.5"/>
<path style="&st26;" d="M853.97,349.94c2.48,0,4.5-2.02,4.5-4.5"/>
</g>
<g ewd:lineID="73">
<text style="&st24; &st15;" transform="matrix(1 0 0 1 883.0068 347.3838)">16</text><text style="&st24; &st15;" transform="matrix(1 0 0 1 894.4512 347.3838)">A</text><text style="&st24; &st15;" transform="matrix(1 0 0 1 888.4512 357.5942)">FOLD</text><path style="&st26;" d="M900.97,345.44c0-2.48-2.02-4.5-4.5-4.5"/>
<path style="&st26;" d="M896.44,340.94c-2.48,0-4.5,2.02-4.5,4.5"/>
<path style="&st26;" d="M891.94,345.44c0,2.48,2.02,4.5,4.5,4.5"/>
<path style="&st26;" d="M896.47,349.94c2.48,0,4.5-2.02,4.5-4.5"/>
</g>
<g ewd:lineID="8">
<text style="&st24; &st15;" transform="matrix(1 0 0 1 235.8325 390.4146)">17</text><text style="&st24; &st15;" transform="matrix(1 0 0 1 247.2769 390.4146)">A</text><text style="&st24; &st15;" transform="matrix(1 0 0 1 243.6074 380.2466)">SV1</text><path style="&st26;" d="M253.79,388.44c0-2.48-2.02-4.5-4.5-4.5"/>
<path style="&st26;" d="M249.26,383.94c-2.48,0-4.5,2.02-4.5,4.5"/>
<path style="&st26;" d="M244.76,388.44c0,2.48,2.02,4.5,4.5,4.5"/>
<path style="&st26;" d="M249.29,392.94c2.48,0,4.5-2.02,4.5-4.5"/>
</g>
<g ewd:lineID="7">
<text style="&st24; &st15;" transform="matrix(1 0 0 1 267.7075 390.4146)">18</text><text style="&st24; &st15;" transform="matrix(1 0 0 1 279.1519 390.4146)">A</text><text style="&st24; &st15;" transform="matrix(1 0 0 1 273.4844 380.2466)">SFLD</text><path style="&st26;" d="M285.67,388.44c0-2.48-2.02-4.5-4.5-4.5"/>
<path style="&st26;" d="M281.14,383.94c-2.48,0-4.5,2.02-4.5,4.5"/>
<path style="&st26;" d="M276.64,388.44c0,2.48,2.02,4.5,4.5,4.5"/>
<path style="&st26;" d="M281.17,392.94c2.48,0,4.5-2.02,4.5-4.5"/>
</g>
<g ewd:lineID="4">
<text style="&st24; &st15;" transform="matrix(1 0 0 1 76.4575 390.4146)">19</text><text style="&st24; &st15;" transform="matrix(1 0 0 1 87.9019 390.4146)">A</text><text style="&st24; &st15;" transform="matrix(1 0 0 1 81.9004 380.2466)">SRCL</text><path style="&st26;" d="M94.42,388.44c0-2.48-2.02-4.5-4.5-4.5"/>
<path style="&st26;" d="M89.89,383.94c-2.48,0-4.5,2.02-4.5,4.5"/>
<path style="&st26;" d="M85.39,388.44c0,2.48,2.02,4.5,4.5,4.5"/>
<path style="&st26;" d="M89.92,392.94c2.48,0,4.5-2.02,4.5-4.5"/>
</g>
<g ewd:lineID="12">
<text style="&st24; &st15;" transform="matrix(1 0 0 1 16.0513 347.3838)">2</text><text style="&st24; &st15;" transform="matrix(1 0 0 1 24.1587 347.3838)">B</text><text style="&st24; &st15;" transform="matrix(1 0 0 1 22.4067 357.5942)">+B</text><path style="&st26;" d="M30.67,345.44c0-2.48-2.02-4.5-4.5-4.5"/>
<path style="&st26;" d="M26.14,340.94c-2.48,0-4.5,2.02-4.5,4.5"/>
<path style="&st26;" d="M21.64,345.44c0,2.48,2.02,4.5,4.5,4.5"/>
<path style="&st26;" d="M26.17,349.94c2.48,0,4.5-2.02,4.5-4.5"/>
</g>
<g ewd:lineID="6">
<text style="&st24; &st15;" transform="matrix(1 0 0 1 12.7085 390.4146)">24</text><text style="&st24; &st15;" transform="matrix(1 0 0 1 24.1528 390.4146)">A</text><text style="&st24; &st15;" transform="matrix(1 0 0 1 20.1509 380.2466)">SG2</text><path style="&st26;" d="M30.67,388.44c0-2.48-2.02-4.5-4.5-4.5"/>
<path style="&st26;" d="M26.14,383.94c-2.48,0-4.5,2.02-4.5,4.5"/>
<path style="&st26;" d="M21.64,388.44c0,2.48,2.02,4.5,4.5,4.5"/>
<path style="&st26;" d="M26.17,392.94c2.48,0,4.5-2.02,4.5-4.5"/>
</g>
<g ewd:lineID="9">
<text style="&st24; &st15;" transform="matrix(1 0 0 1 203.9575 390.4146)">25</text><text style="&st24; &st15;" transform="matrix(1 0 0 1 215.4019 390.4146)">A</text><text style="&st24; &st15;" transform="matrix(1 0 0 1 211.3999 380.2466)">SG1</text><path style="&st26;" d="M221.92,388.44c0-2.48-2.02-4.5-4.5-4.5"/>
<path style="&st26;" d="M217.39,383.94c-2.48,0-4.5,2.02-4.5,4.5"/>
<path style="&st26;" d="M212.89,388.44c0,2.48,2.02,4.5,4.5,4.5"/>
<path style="&st26;" d="M217.42,392.94c2.48,0,4.5-2.02,4.5-4.5"/>
</g>
<g ewd:lineID="14">
<text style="&st24; &st15;" transform="matrix(1 0 0 1 79.8013 347.3838)">3</text><text style="&st24; &st15;" transform="matrix(1 0 0 1 87.9087 347.3838)">A</text><text style="&st24; &st15;" transform="matrix(1 0 0 1 86.7427 357.5942)">IG</text><path style="&st26;" d="M94.42,345.44c0-2.48-2.02-4.5-4.5-4.5"/>
<path style="&st26;" d="M89.89,340.94c-2.48,0-4.5,2.02-4.5,4.5"/>
<path style="&st26;" d="M85.39,345.44c0,2.48,2.02,4.5,4.5,4.5"/>
<path style="&st26;" d="M89.92,349.94c2.48,0,4.5-2.02,4.5-4.5"/>
</g>
<g ewd:lineID="5">
<text style="&st24; &st15;" transform="matrix(1 0 0 1 44.5835 390.4146)">37</text><text style="&st24; &st15;" transform="matrix(1 0 0 1 56.0278 390.4146)">A</text><text style="&st24; &st15;" transform="matrix(1 0 0 1 52.3584 380.2466)">SV2</text><path style="&st26;" d="M62.54,388.44c0-2.48-2.02-4.5-4.5-4.5"/>
<path style="&st26;" d="M58.01,383.94c-2.48,0-4.5,2.02-4.5,4.5"/>
<path style="&st26;" d="M53.51,388.44c0,2.48,2.02,4.5,4.5,4.5"/>
<path style="&st26;" d="M58.04,392.94c2.48,0,4.5-2.02,4.5-4.5"/>
</g>
<g ewd:lineID="110">
<text style="&st24; &st15;" transform="matrix(1 0 0 1 628.9639 347.3838)">40</text><text style="&st24; &st15;" transform="matrix(1 0 0 1 640.4082 347.3838)">A</text><text style="&st24; &st15;" transform="matrix(1 0 0 1 634.7373 357.5942)">PKB1</text><path style="&st26;" d="M646.92,345.44c0-2.48-2.02-4.5-4.5-4.5"/>
<path style="&st26;" d="M642.39,340.94c-2.48,0-4.5,2.02-4.5,4.5"/>
<path style="&st26;" d="M637.89,345.44c0,2.48,2.02,4.5,4.5,4.5"/>
<path style="&st26;" d="M642.42,349.94c2.48,0,4.5-2.02,4.5-4.5"/>
</g>
<g ewd:lineID="2">
<text style="&st24; &st15;" transform="matrix(1 0 0 1 143.5444 390.4146)">5</text><text style="&st24; &st15;" transform="matrix(1 0 0 1 151.6519 390.4146)">B</text><text style="&st24; &st15;" transform="matrix(1 0 0 1 146.6523 380.2466)">RCL-</text><path style="&st26;" d="M158.17,388.44c0-2.48-2.02-4.5-4.5-4.5"/>
<path style="&st26;" d="M153.64,383.94c-2.48,0-4.5,2.02-4.5,4.5"/>
<path style="&st26;" d="M149.14,388.44c0,2.48,2.02,4.5,4.5,4.5"/>
<path style="&st26;" d="M153.67,392.94c2.48,0,4.5-2.02,4.5-4.5"/>
</g>
<g ewd:lineID="107">
<text style="&st24; &st15;" transform="matrix(1 0 0 1 674.8008 347.3838)">6</text><text style="&st24; &st15;" transform="matrix(1 0 0 1 682.9082 347.3838)">A</text><text style="&st24; &st15;" transform="matrix(1 0 0 1 682.9082 357.5942)">P</text><path style="&st26;" d="M689.42,345.44c0-2.48-2.02-4.5-4.5-4.5"/>
<path style="&st26;" d="M684.89,340.94c-2.48,0-4.5,2.02-4.5,4.5"/>
<path style="&st26;" d="M680.39,345.44c0,2.48,2.02,4.5,4.5,4.5"/>
<path style="&st26;" d="M684.92,349.94c2.48,0,4.5-2.02,4.5-4.5"/>
</g>
<g ewd:lineID="102">
<text style="&st24; &st15;" transform="matrix(1 0 0 1 334.7944 390.4146)">7</text><text style="&st24; &st15;" transform="matrix(1 0 0 1 342.9019 390.4146)">B</text><text style="&st24; &st15;" transform="matrix(1 0 0 1 338.2363 380.2466)">FLD-</text><path style="&st26;" d="M349.42,388.44c0-2.48-2.02-4.5-4.5-4.5"/>
<path style="&st26;" d="M344.89,383.94c-2.48,0-4.5,2.02-4.5,4.5"/>
<path style="&st26;" d="M340.39,388.44c0,2.48,2.02,4.5,4.5,4.5"/>
<path style="&st26;" d="M344.92,392.94c2.48,0,4.5-2.02,4.5-4.5"/>
</g>
<g ewd:lineID="103">
<text style="&st24; &st15;" transform="matrix(1 0 0 1 302.9194 390.4146)">8</text><text style="&st24; &st15;" transform="matrix(1 0 0 1 311.0269 390.4146)">B</text><text style="&st24; &st15;" transform="matrix(1 0 0 1 305.6084 380.2466)">FLD+</text><path style="&st26;" d="M317.54,388.44c0-2.48-2.02-4.5-4.5-4.5"/>
<path style="&st26;" d="M313.01,383.94c-2.48,0-4.5,2.02-4.5,4.5"/>
<path style="&st26;" d="M308.51,388.44c0,2.48,2.02,4.5,4.5,4.5"/>
<path style="&st26;" d="M313.04,392.94c2.48,0,4.5-2.02,4.5-4.5"/>
</g>
<g ewd:lineID="92">
<text style="&st24; &st15;" transform="matrix(1 0 0 1 675.8779 390.4146)">9</text><text style="&st24; &st15;" transform="matrix(1 0 0 1 683.9854 390.4146)">B</text><text style="&st24; &st15;" transform="matrix(1 0 0 1 677.6514 380.2466)">GND2</text><path style="&st26;" d="M690.5,388.44c0-2.48-2.02-4.5-4.5-4.5"/>
<path style="&st26;" d="M685.97,383.94c-2.48,0-4.5,2.02-4.5,4.5"/>
<path style="&st26;" d="M681.47,388.44c0,2.48,2.02,4.5,4.5,4.5"/>
<path style="&st26;" d="M686,392.94c2.48,0,4.5-2.02,4.5-4.5"/>
</g>
</g>
<path style="&st31;" d="M 387.4 , 524.79 L 387.4 , 438.07"/>
<path style="&st23;" d="M 9.15 , 383.94 L 9.15 , 349.94 L 913.45 , 349.94 L 913.45 , 383.94 L 9.15 , 383.94 L 9.15 , 383.94"/>
<text style="&st24; &st15;" transform="matrix(0 -1 1 0 298.7065 220.1772)">L</text><text style="&st24; &st15;" transform="matrix(0 -1 1 0 341.2065 116.1724)">L</text><text style="&st24; &st15;" transform="matrix(0 -1 1 0 309.3281 424.5259)">W</text><text style="&st24; &st15;" transform="matrix(0 -1 1 0 341.2031 423.6948)">B</text><text style="&st24; &st15;" transform="matrix(0 -1 1 0 341.2031 566.2534)">W-B</text><text style="&st24; &st15;" transform="matrix(0 -1 1 0 426.2031 504.3257)">W-B</text><text style="&st24; &st15;" transform="matrix(1 0 0 1 479.377 404.2437)">W-B</text><text style="&st24; &st15;" transform="matrix(1 0 0 1 483.4849 31.0537)">L</text><text style="&st24; &st15;" transform="matrix(0 -1 1 0 298.8071 116.1724)">L</text><text style="&st24; &st15;" transform="matrix(0 -1 1 0 171.3066 134.1724)">L</text><text style="&st24; &st15;" transform="matrix(1 0 0 1 483.4854 13.9536)">L</text><text style="&st24; &st15;" transform="matrix(0 -1 1 0 128.7065 202.1772)">L</text><text style="&st24; &st15;" transform="matrix(0 -1 1 0 234.9565 134.1724)">L</text><text style="&st24; &st15;" transform="matrix(0 -1 1 0 234.9565 202.1772)">L</text><text style="&st24; &st15;" transform="matrix(0 -1 1 0 404.957 152.1724)">L</text><text style="&st24; &st15;" transform="matrix(0 -1 1 0 404.96 202.1772)">L</text><text style="&st24; &st15;" transform="matrix(0 -1 1 0 404.96 273.4272)">L</text><text style="&st24; &st15;" transform="matrix(0 -1 1 0 404.9629 327.3193)">GR</text><text style="&st24; &st15;" transform="matrix(0 -1 1 0 86.21 324.8203)">B</text><text style="&st24; &st15;" transform="matrix(0 -1 1 0 86.207 134.1724)">L</text><text style="&st24; &st15;" transform="matrix(0 -1 1 0 22.46 324.9858)">R</text><text style="&st24; &st15;" transform="matrix(0 -1 1 0 22.457 265.4653)">W</text><text style="&st24; &st15;" transform="matrix(0 -1 1 0 22.4541 137.9487)">W-L</text><text style="&st24; &st15;" transform="matrix(0 -1 1 0 213.7031 423.8599)">R</text><text style="&st24; &st15;" transform="matrix(0 -1 1 0 245.5781 423.6948)">P</text><text style="&st24; &st15;" transform="matrix(0 -1 1 0 277.4531 424.0278)">G</text><text style="&st24; &st15;" transform="matrix(0 -1 1 0 22.4546 424.5259)">W</text><text style="&st24; &st15;" transform="matrix(0 -1 1 0 54.3296 426.1938)">GR</text><text style="&st24; &st15;" transform="matrix(0 -1 1 0 86.2036 425.6958)">LG</text><text style="&st24; &st15;" transform="matrix(0 -1 1 0 118.0786 423.6948)">B</text><text style="&st24; &st15;" transform="matrix(0 -1 1 0 149.9536 423.3618)">L</text><text style="&st24; &st15;" transform="matrix(0 -1 1 0 128.7065 134.1724)">L</text></svg>
