﻿<?xml version="1.0" encoding="UTF-8"?>
<!DOCTYPE svg PUBLIC "-//W3C//DTD SVG 1.0//EN" "http://www.w3.org/TR/2001/REC-SVG-20010904/DTD/svg10.dtd"[
<!ENTITY ns_flows "http://ns.adobe.com/Flows/1.0/">
<!ENTITY ns_svg "http://www.w3.org/2000/svg">
<!ENTITY ns_xlink "http://www.w3.org/1999/xlink">
	<!ENTITY st0 "fill:none;stroke:#F8E616;stroke-width:5.1;stroke-linejoin:round;">
	<!ENTITY st1 "fill:none;stroke:#FB0F0C;stroke-width:5.1;stroke-linejoin:round;">
	<!ENTITY st2 "fill:none;stroke:#9A9999;stroke-width:5.1;stroke-linejoin:round;">
	<!ENTITY st3 "fill:none;stroke:#FF7F00;stroke-width:1.3072;stroke-linecap:round;stroke-linejoin:round;stroke-dasharray:6;">
	<!ENTITY st4 "fill:none;stroke:#99280B;stroke-width:5.1;stroke-linejoin:round;">
	<!ENTITY st5 "fill:none;stroke:#7FC31C;stroke-width:1.42;stroke-linejoin:round;">
	<!ENTITY st6 "fill:none;stroke:#FF7F00;stroke-width:0.9123;stroke-linecap:round;stroke-linejoin:round;">
	<!ENTITY st7 "font-family:'MS-PGothic','MS PGothic','ＭＳ Ｐゴシック';adobe-font-script:japanese;">
	<!ENTITY st8 "fill:none;stroke:#000000;stroke-width:5.1;stroke-linejoin:round;">
	<!ENTITY st9 "fill:none;stroke:#000000;stroke-linecap:round;stroke-linejoin:round;">
	<!ENTITY st10 "stroke:#000000;stroke-width:0.28;stroke-linecap:round;stroke-linejoin:round;">
	<!ENTITY st11 "fill:none;stroke:#000000;stroke-width:1.7;stroke-linejoin:round;">
	<!ENTITY st12 "fill:none;stroke:#090909;stroke-width:0.85;stroke-linecap:round;stroke-linejoin:round;">
	<!ENTITY st13 "fill:none;stroke:#EE67AA;stroke-width:5.1;stroke-linejoin:round;">
	<!ENTITY st14 "fill:none;stroke:#199DBF;stroke-width:5.1;stroke-linejoin:round;">
	<!ENTITY st15 "fill:none;stroke:#FFFFFF;stroke-width:4.53;stroke-linejoin:round;">
	<!ENTITY st16 "fill:none;stroke:#FF0000;stroke-width:0.85;stroke-linecap:round;stroke-linejoin:round;stroke-dasharray:3 1.5;">
	<!ENTITY st17 "fill:none;stroke:#56107C;stroke-width:5.1;stroke-linejoin:round;">
	<!ENTITY st18 "font-size:6px;">
	<!ENTITY st19 "fill:none;stroke:#168638;stroke-width:5.1;stroke-linejoin:round;">
	<!ENTITY st20 "fill:none;stroke:#000000;stroke-width:1.13;stroke-linejoin:round;">
	<!ENTITY st21 "fill:#CCCCCC;stroke:#CECECF;stroke-width:0.1;stroke-linecap:round;stroke-linejoin:round;">
	<!ENTITY st22 "fill:#FF0000;">
	<!ENTITY st23 "fill:#FFFFFF;stroke:#000000;stroke-width:1.41;stroke-linecap:round;stroke-linejoin:round;">
	<!ENTITY st24 "fill:none;stroke:#7FBE1F;stroke-linecap:round;stroke-linejoin:round;">
	<!ENTITY st25 "fill:none;stroke:#000000;stroke-width:1.42;stroke-linejoin:round;">
	<!ENTITY st26 "font-family:'Arial';">
	<!ENTITY st27 "fill:none;stroke:#000000;stroke-width:1.42;stroke-linecap:round;stroke-linejoin:round;">
	<!ENTITY st28 "fill:#CFE6E7;stroke:#000000;stroke-width:1.133;stroke-linecap:round;stroke-linejoin:round;">
	<!ENTITY st29 "font-size:14px;">
	<!ENTITY st30 "font-size:21px;">
	<!ENTITY st31 "fill:none;stroke:#090909;stroke-width:0.85;stroke-linecap:round;stroke-linejoin:round;stroke-dasharray:3 1.5;">
	<!ENTITY st32 "fill:none;stroke:#99D5E0;stroke-width:5.1;stroke-linejoin:round;">
	<!ENTITY st33 "fill:none;stroke:#000000;stroke-width:0.85;stroke-linecap:round;stroke-linejoin:round;stroke-dasharray:3 1.5;">
	<!ENTITY st34 "fill:none;stroke:#0A50A1;stroke-width:1.3072;stroke-linecap:round;stroke-linejoin:round;stroke-dasharray:6;">
	<!ENTITY st35 "fill:#CFE6E7;stroke:#000000;stroke-width:1.13;stroke-linejoin:round;">
	<!ENTITY st36 "fill:none;stroke:#000000;stroke-width:0.85;stroke-linecap:round;stroke-linejoin:round;">
	<!ENTITY st37 "fill:none;stroke:#7EC57E;stroke-width:5.1;stroke-linejoin:round;">
	<!ENTITY st38 "font-size:6px;alignment-baseline:alphabetic;">
<!ATTLIST svg
xmlns:ewd CDATA #FIXED "http://shcl.co.jp/ewd"
xmlns:a CDATA #FIXED "http://ns.adobe.com/AdobeSVGViewerExtensions/3.0/"
ewd:ver CDATA #IMPLIED
>
<!ATTLIST a
ewd:lineID CDATA #IMPLIED
ewd:groupID CDATA #IMPLIED
ewd:figtype CDATA #IMPLIED
ewd:code CDATA #IMPLIED
ewd:figID CDATA #IMPLIED
ewd:pinNo CDATA #IMPLIED
ewd:comment CDATA #IMPLIED >
<!ATTLIST g
ewd:lineID CDATA #IMPLIED
ewd:groupID CDATA #IMPLIED
ewd:figtype CDATA #IMPLIED
ewd:code CDATA #IMPLIED
ewd:figID CDATA #IMPLIED
ewd:pinNo CDATA #IMPLIED
ewd:comment CDATA #IMPLIED >
<!ATTLIST text
ewd:textID CDATA #IMPLIED ><!ATTLIST title
ewd:textID CDATA #IMPLIED >]>
<svg onload="call_execInitLoadProc_svg('system')"
style="overflow:visible;  enable-background:new 0 0 9181.31 693.31"
viewBox="0 0 9181.31 693.31"
height='693.31'
width='9181.31'
xml:space="preserve"
xmlns="&ns_svg;"
xmlns:ewd="http://shcl.co.jp/ewd"
xmlns:a="http://ns.adobe.com/AdobeSVGViewerExtensions/3.0/"
xmlns:xlink="&ns_xlink;" ewd:ver="L2.3">
<g ewd:code="" ewd:figID="7018" ewd:figtype="sh">
<path style="&st12;" d="M 4889.06 , 383.11 L 4888.79 , 383.58 L 4888.7 , 384.12 L 4888.79 , 384.65 L 4889.06 , 385.12 L 4889.48 , 385.46 L 4889.99 , 385.65 L 4890.52 , 385.65 L 4891.03 , 385.46 L 4891.45 , 385.12 L 4891.72 , 384.65 L 4891.81 , 384.12 L 4891.72 , 383.58 L 4891.45 , 383.11 L 4891.03 , 382.77 L 4890.52 , 382.58 L 4889.99 , 382.58 L 4889.48 , 382.77 L 4889.06 , 383.11 L 4889.46 , 383.82 L 4889.46 , 384.41 L 4889.83 , 384.85 L 4890.4 , 384.95 L 4890.91 , 384.66 L 4891.1 , 384.12 L 4890.91 , 383.57 L 4890.4 , 383.28 L 4889.83 , 383.38 L 4890.25 , 384.12"/>
<path style="&st31;" d="M 4890.25 , 424.49 L 4692.64 , 424.49 L 4692.64 , 384.11 L 4890.26 , 384.11 L 4890.25 , 424.49"/>
<g ewd:figtype="comment">
<text ewd:textID="2" style="&st26; &st18;" transform="matrix(0 -1 1 0 4688.959 419.0376)">(Shielded)</text></g>
</g>
<g ewd:code="" ewd:figID="7017" ewd:figtype="sh">
<path style="&st12;" d="M 4889.05 , 321.42 L 4888.78 , 321.89 L 4888.69 , 322.43 L 4888.78 , 322.96 L 4889.05 , 323.43 L 4889.47 , 323.77 L 4889.98 , 323.96 L 4890.51 , 323.96 L 4891.02 , 323.77 L 4891.44 , 323.43 L 4891.71 , 322.96 L 4891.8 , 322.43 L 4891.71 , 321.89 L 4891.44 , 321.42 L 4891.02 , 321.08 L 4890.51 , 320.89 L 4889.98 , 320.89 L 4889.47 , 321.08 L 4889.05 , 321.42 L 4889.45 , 322.13 L 4889.45 , 322.72 L 4889.82 , 323.16 L 4890.39 , 323.26 L 4890.9 , 322.97 L 4891.09 , 322.43 L 4890.9 , 321.88 L 4890.39 , 321.59 L 4889.82 , 321.69 L 4890.24 , 322.43"/>
<path style="&st12;" d="M 4889.05 , 278.92 L 4888.78 , 279.39 L 4888.69 , 279.93 L 4888.78 , 280.46 L 4889.05 , 280.93 L 4889.47 , 281.27 L 4889.98 , 281.46 L 4890.51 , 281.46 L 4891.02 , 281.27 L 4891.44 , 280.93 L 4891.71 , 280.46 L 4891.8 , 279.93 L 4891.71 , 279.39 L 4891.44 , 278.92 L 4891.02 , 278.58 L 4890.51 , 278.39 L 4889.98 , 278.39 L 4889.47 , 278.58 L 4889.05 , 278.92 L 4889.45 , 279.63 L 4889.45 , 280.22 L 4889.82 , 280.66 L 4890.39 , 280.76 L 4890.9 , 280.47 L 4891.09 , 279.93 L 4890.9 , 279.38 L 4890.39 , 279.09 L 4889.82 , 279.19 L 4890.24 , 279.93"/>
<path style="&st31;" d="M 4890.24 , 322.43 L 4688.38 , 322.43 L 4688.38 , 279.93 L 4890.25 , 279.93 L 4890.24 , 322.43"/>
<g ewd:figtype="comment">
<text ewd:textID="2" style="&st26; &st18;" transform="matrix(0 -1 1 0 4684.6846 314.853)">(Shielded)</text></g>
</g>
<g ewd:code="" ewd:figID="7016" ewd:figtype="sh">
<path style="&st12;" d="M 4889.05 , 129.11 L 4888.78 , 129.58 L 4888.69 , 130.12 L 4888.78 , 130.65 L 4889.05 , 131.12 L 4889.47 , 131.46 L 4889.98 , 131.65 L 4890.51 , 131.65 L 4891.02 , 131.46 L 4891.44 , 131.12 L 4891.71 , 130.65 L 4891.8 , 130.12 L 4891.71 , 129.58 L 4891.44 , 129.11 L 4891.02 , 128.77 L 4890.51 , 128.58 L 4889.98 , 128.58 L 4889.47 , 128.77 L 4889.05 , 129.11 L 4889.45 , 129.82 L 4889.45 , 130.41 L 4889.82 , 130.85 L 4890.39 , 130.95 L 4890.9 , 130.66 L 4891.09 , 130.12 L 4890.9 , 129.57 L 4890.39 , 129.28 L 4889.82 , 129.38 L 4890.24 , 130.12"/>
<path style="&st12;" d="M 4889.05 , 86.61 L 4888.78 , 87.08 L 4888.69 , 87.62 L 4888.78 , 88.15 L 4889.05 , 88.62 L 4889.47 , 88.96 L 4889.98 , 89.15 L 4890.51 , 89.15 L 4891.02 , 88.96 L 4891.44 , 88.62 L 4891.71 , 88.15 L 4891.8 , 87.62 L 4891.71 , 87.08 L 4891.44 , 86.61 L 4891.02 , 86.27 L 4890.51 , 86.08 L 4889.98 , 86.08 L 4889.47 , 86.27 L 4889.05 , 86.61 L 4889.45 , 87.32 L 4889.45 , 87.91 L 4889.82 , 88.35 L 4890.39 , 88.45 L 4890.9 , 88.16 L 4891.09 , 87.62 L 4890.9 , 87.07 L 4890.39 , 86.78 L 4889.82 , 86.88 L 4890.24 , 87.62"/>
<path style="&st31;" d="M 4890.24 , 130.12 L 4692.63 , 130.12 L 4692.63 , 87.62 L 4890.25 , 87.62 L 4890.24 , 130.12"/>
<g ewd:figtype="comment">
<text ewd:textID="2" style="&st26; &st18;" transform="matrix(0 -1 1 0 4688.9346 122.542)">(Shielded)</text></g>
</g>
<g ewd:code="" ewd:figID="7001" ewd:figtype="sh">
<path style="&st12;" d="M 5037.8 , 287.42 L 5037.53 , 287.89 L 5037.44 , 288.43 L 5037.53 , 288.96 L 5037.8 , 289.43 L 5038.22 , 289.77 L 5038.73 , 289.96 L 5039.26 , 289.96 L 5039.77 , 289.77 L 5040.19 , 289.43 L 5040.46 , 288.96 L 5040.55 , 288.43 L 5040.46 , 287.89 L 5040.19 , 287.42 L 5039.77 , 287.08 L 5039.26 , 286.89 L 5038.73 , 286.89 L 5038.22 , 287.08 L 5037.8 , 287.42 L 5038.2 , 288.13 L 5038.2 , 288.72 L 5038.57 , 289.16 L 5039.14 , 289.26 L 5039.65 , 288.97 L 5039.84 , 288.43 L 5039.65 , 287.88 L 5039.14 , 287.59 L 5038.57 , 287.69 L 5038.99 , 288.43"/>
<path style="&st31;" d="M 5038.99 , 330.93 L 4958.26 , 330.93 L 4958.26 , 288.43 L 5039 , 288.43 L 5038.99 , 330.93"/>
<g ewd:figtype="comment">
<text ewd:textID="2" style="&st26; &st18;" transform="matrix(0 -1 1 0 4954.5693 323.3525)">(Shielded)</text></g>
</g>
<g ewd:pinNo="9" ewd:code="GH3" ewd:figID="6135" ewd:figtype="w2w" ewd:comment="15">
<path style="&st23;" d="M 4754.39 , 173.68 L 4762.89 , 173.68"/>
<path style="&st27;" d="M 4758.65 , 164.62 L 4762.89 , 168.87 L 4767.14 , 164.62"/>
<path style="&st27;" d="M 4767.14 , 168.02 L 4762.89 , 172.27 L 4758.65 , 168.02"/>
<text style="&st26; &st18;" transform="matrix(1 0 0 1 4747.6992 179.9546)">9</text><text style="&st26; &st18;" transform="matrix(1 0 0 1 4773.5107 179.9546)">(*15)</text></g>
<g ewd:pinNo="8" ewd:code="GH3" ewd:figID="6133" ewd:figtype="w2w" ewd:comment="15">
<path style="&st23;" d="M 4818.14 , 173.68 L 4826.64 , 173.68"/>
<path style="&st27;" d="M 4822.4 , 164.62 L 4826.64 , 168.87 L 4830.89 , 164.62"/>
<path style="&st27;" d="M 4830.89 , 168.02 L 4826.64 , 172.27 L 4822.4 , 168.02"/>
<text style="&st26; &st18;" transform="matrix(1 0 0 1 4811.4492 179.9546)">8</text><text style="&st26; &st18;" transform="matrix(1 0 0 1 4837.2607 179.9546)">(*15)</text></g>
<g ewd:pinNo="7" ewd:code="GH3" ewd:figID="6131" ewd:figtype="w2w" ewd:comment="15">
<path style="&st23;" d="M 4881.76 , 173.68 L 4890.26 , 173.68"/>
<path style="&st27;" d="M 4886.02 , 164.62 L 4890.26 , 168.87 L 4894.51 , 164.62"/>
<path style="&st27;" d="M 4894.51 , 168.02 L 4890.26 , 172.27 L 4886.02 , 168.02"/>
<text style="&st26; &st18;" transform="matrix(1 0 0 1 4875.0742 179.9546)">7</text><text style="&st26; &st18;" transform="matrix(1 0 0 1 4900.8857 179.9546)">(*15)</text></g>
<g ewd:pinNo="10" ewd:code="GH3" ewd:figID="6108" ewd:figtype="w2w">
<path style="&st23;" d="M 4701.13 , 173.68 L 4709.63 , 173.68"/>
<path style="&st27;" d="M 4705.39 , 164.62 L 4709.63 , 168.87 L 4713.88 , 164.62"/>
<path style="&st27;" d="M 4713.88 , 168.02 L 4709.63 , 172.27 L 4705.39 , 168.02"/>
<text style="&st26; &st18;" transform="matrix(1 0 0 1 4691.1074 179.9546)">10</text></g>
<g ewd:pinNo="21" ewd:code="GH1" ewd:figID="6081" ewd:figtype="w2w">
<path style="&st23;" d="M 4658.63 , 173.68 L 4667.13 , 173.68"/>
<path style="&st27;" d="M 4662.89 , 164.62 L 4667.13 , 168.87 L 4671.38 , 164.62"/>
<path style="&st27;" d="M 4671.38 , 168.02 L 4667.13 , 172.27 L 4662.89 , 168.02"/>
<text style="&st26; &st18;" transform="matrix(1 0 0 1 4648.6074 179.9546)">21</text></g>
<g ewd:pinNo="16" ewd:code="WG1" ewd:figID="6080" ewd:figtype="w2w">
<path style="&st23;" d="M 4658.63 , 358.49 L 4667.13 , 358.49"/>
<path style="&st27;" d="M 4662.89 , 349.43 L 4667.13 , 353.68 L 4671.38 , 349.43"/>
<path style="&st27;" d="M 4671.38 , 352.83 L 4667.13 , 357.08 L 4662.89 , 352.83"/>
<text style="&st26; &st18;" transform="matrix(1 0 0 1 4648.6074 364.7642)">16</text></g>
<g ewd:pinNo="2" ewd:code="WG2" ewd:figID="6079" ewd:figtype="w2w">
<path style="&st23;" d="M 4701.13 , 358.49 L 4709.63 , 358.49"/>
<path style="&st27;" d="M 4705.39 , 349.43 L 4709.63 , 353.68 L 4713.88 , 349.43"/>
<path style="&st27;" d="M 4713.88 , 352.83 L 4709.63 , 357.08 L 4705.39 , 352.83"/>
<text style="&st26; &st18;" transform="matrix(1 0 0 1 4694.4443 364.7642)">2</text></g>
<g ewd:pinNo="1" ewd:code="WG2" ewd:figID="6078" ewd:figtype="w2w">
<path style="&st23;" d="M 4754.26 , 358.49 L 4762.76 , 358.49"/>
<path style="&st27;" d="M 4758.52 , 349.43 L 4762.76 , 353.68 L 4767.01 , 349.43"/>
<path style="&st27;" d="M 4767.01 , 352.83 L 4762.76 , 357.08 L 4758.52 , 352.83"/>
<text style="&st26; &st18;" transform="matrix(1 0 0 1 4747.5693 364.7642)">1</text></g>
<g ewd:pinNo="12" ewd:code="WG2" ewd:figID="6077" ewd:figtype="w2w">
<path style="&st23;" d="M 4818.01 , 358.49 L 4826.51 , 358.49"/>
<path style="&st27;" d="M 4822.27 , 349.43 L 4826.51 , 353.68 L 4830.76 , 349.43"/>
<path style="&st27;" d="M 4830.76 , 352.83 L 4826.51 , 357.08 L 4822.27 , 352.83"/>
<text style="&st26; &st18;" transform="matrix(1 0 0 1 4807.9824 364.7642)">12</text></g>
<g ewd:pinNo="11" ewd:code="WG2" ewd:figID="6076" ewd:figtype="w2w">
<path style="&st23;" d="M 4881.76 , 358.49 L 4890.26 , 358.49"/>
<path style="&st27;" d="M 4886.02 , 349.43 L 4890.26 , 353.68 L 4894.51 , 349.43"/>
<path style="&st27;" d="M 4894.51 , 352.83 L 4890.26 , 357.08 L 4886.02 , 352.83"/>
<text style="&st26; &st18;" transform="matrix(1 0 0 1 4872.1777 364.7642)">11</text></g>
<g ewd:code="W7" ewd:figID="61" ewd:figtype="conn">
<path style="&st36;" d="M 4667.13 , 439.36 L 4667.13 , 477.62"/>
<path style="&st36;" d="M 4709.65 , 439.36 L 4709.65 , 477.62"/>
<path style="&st36;" d="M 4762.79 , 439.36 L 4762.79 , 477.62"/>
<path style="&st36;" d="M 4826.55 , 439.36 L 4826.55 , 477.62"/>
<path style="&st27;" d="M 4835.05 , 469.12 L 4658.63 , 469.12 L 4658.63 , 452.11 L 4835.05 , 452.11 L 4835.05 , 469.12 L 4835.05 , 469.12"/>
<path style="&st27;" d="M 4835.05 , 494.63 L 4658.63 , 494.63 L 4658.63 , 477.62 L 4835.05 , 477.62 L 4835.05 , 494.63 L 4835.05 , 494.63"/>
<path style="&st25;" d="M 4650.13 , 503.11 L 4650.13 , 439.36 L 4852.01 , 439.36 L 4852.01 , 503.11 L 4650.13 , 503.11 L 4650.13 , 503.11"/>
<text ewd:textID="46" style="&st26; &st18;" transform="matrix(1 0 0 1 4731.167 487.7583)">Microphone</text><text style="&st26; &st18;" transform="matrix(1 0 0 1 4815.085 435.6646)">13</text><text style="&st26; &st18;" transform="matrix(1 0 0 1 4830.7588 447.0122)">MCO-</text><text style="&st26; &st18;" transform="matrix(1 0 0 1 4751.335 435.6646)">12</text><text style="&st26; &st18;" transform="matrix(1 0 0 1 4767.0088 447.0122)">MCO+</text><text style="&st26; &st18;" transform="matrix(1 0 0 1 4698.6553 435.6646)">11</text><text style="&st26; &st18;" transform="matrix(1 0 0 1 4713.8838 447.0122)">MACC</text><text style="&st26; &st18;" transform="matrix(1 0 0 1 4655.71 435.6646)">14</text><text style="&st26; &st18;" transform="matrix(1 0 0 1 4671.3838 447.0122)">SNS2</text><g ewd:figtype="title">
<text style="&st26; &st18;" transform="matrix(0 -1 1 0 4859.6094 505.6138)">W7</text><text ewd:textID="44" style="&st26; &st18;" transform="matrix(0 -1 1 0 4867.209 505.6138)">Map Light Assembly</text></g>
</g>
<g ewd:pinNo="23" ewd:code="GH1" ewd:figID="6136" ewd:figtype="w2w" ewd:comment="14">
<text style="&st26; &st18;" transform="matrix(1 0 0 1 4744.3623 188.4546)">23</text><text style="&st26; &st18;" transform="matrix(1 0 0 1 4773.5107 188.4546)">(*14)</text></g>
<g ewd:pinNo="24" ewd:code="GH1" ewd:figID="6134" ewd:figtype="w2w" ewd:comment="14">
<text style="&st26; &st18;" transform="matrix(1 0 0 1 4808.1123 188.4546)">24</text><text style="&st26; &st18;" transform="matrix(1 0 0 1 4837.2607 188.4546)">(*14)</text></g>
<g ewd:pinNo="25" ewd:code="GH1" ewd:figID="6132" ewd:figtype="w2w" ewd:comment="14">
<text style="&st26; &st18;" transform="matrix(1 0 0 1 4871.7373 188.4546)">25</text><text style="&st26; &st18;" transform="matrix(1 0 0 1 4900.8857 188.4546)">(*14)</text></g>
<g ewd:code="#" ewd:figID="9071" ewd:figtype="comment">
<text ewd:textID="1" style="&st26; &st18;" transform="matrix(1 0 0 1 4958.1943 555.1655)"># :There is no wire color information.</text></g>
<g ewd:code="10" ewd:figID="9030" ewd:figtype="comment">
<text ewd:textID="10" style="&st26; &st18;" transform="matrix(1 0 0 1 4958.1943 495.6655)">*10 :w/ Telematics System</text></g>
<g ewd:code="11" ewd:figID="9029" ewd:figtype="comment">
<text ewd:textID="11" style="&st26; &st18;" transform="matrix(1 0 0 1 4958.1943 504.1655)">*11 :w/o Telematics System</text></g>
<g ewd:code="13" ewd:figID="9028" ewd:figtype="comment">
<text ewd:textID="13" style="&st26; &st18;" transform="matrix(1 0 0 1 4958.1943 512.6655)">*13 :w/o Stop and Start System</text></g>
<g ewd:code="14" ewd:figID="9027" ewd:figtype="comment">
<text ewd:textID="14" style="&st26; &st18;" transform="matrix(1 0 0 1 4958.1943 521.1655)">*14 :Before Jun. 2021 Production</text></g>
<g ewd:code="15" ewd:figID="9026" ewd:figtype="comment">
<text ewd:textID="15" style="&st26; &st18;" transform="matrix(1 0 0 1 4958.1943 529.6655)">*15 :From Jun. 2021 Production</text></g>
<g ewd:code="16" ewd:figID="9025" ewd:figtype="comment">
<text ewd:textID="16" style="&st26; &st18;" transform="matrix(1 0 0 1 4958.1943 538.1655)">*16 :w/ Navigation System</text></g>
<g ewd:code="18" ewd:figID="9024" ewd:figtype="comment">
<text ewd:textID="18" style="&st26; &st18;" transform="matrix(1 0 0 1 4958.1943 546.6655)">*18 :w/ Digital Audio Broadcast</text></g>
<g ewd:code="G187" ewd:figID="1" ewd:figtype="conn">
<g ewd:figtype="title">
<text style="&st26; &st18;" transform="matrix(0 -1 1 0 5042.3291 425.0376)">G187(A)</text><text ewd:textID="78" style="&st26; &st18;" transform="matrix(0 -1 1 0 5049.9307 425.0376)">Telematics Transceiver</text></g>
<g ewd:lineID="4">
<text style="&st26; &st18;" transform="matrix(1 0 0 1 4961.7998 385.9771)">18</text><text style="&st26; &st18;" transform="matrix(1 0 0 1 4973.2441 385.9771)">A</text><text style="&st26; &st18;" transform="matrix(1 0 0 1 4966.4941 396.188)">MCO+</text><path style="&st27;" d="M4979.76,384.04c0-2.48-2.02-4.5-4.5-4.5"/>
<path style="&st27;" d="M4975.23,379.54c-2.48,0-4.5,2.02-4.5,4.5"/>
<path style="&st27;" d="M4970.73,384.04c0,2.48,2.02,4.5,4.5,4.5"/>
<path style="&st27;" d="M4975.26,388.54c2.48,0,4.5-2.02,4.5-4.5"/>
</g>
<g ewd:lineID="3">
<text style="&st26; &st18;" transform="matrix(1 0 0 1 5004.2998 385.9771)">19</text><text style="&st26; &st18;" transform="matrix(1 0 0 1 5015.7441 385.9771)">A</text><text style="&st26; &st18;" transform="matrix(1 0 0 1 5009.7471 396.188)">MCO-</text><path style="&st27;" d="M5022.26,384.04c0-2.48-2.02-4.5-4.5-4.5"/>
<path style="&st27;" d="M5017.73,379.54c-2.48,0-4.5,2.02-4.5,4.5"/>
<path style="&st27;" d="M5013.23,384.04c0,2.48,2.02,4.5,4.5,4.5"/>
<path style="&st27;" d="M5017.76,388.54c2.48,0,4.5-2.02,4.5-4.5"/>
</g>
</g>
<path style="&st33;" d="M 4890.25 , 352.18 L 4890.25 , 318.17"/>
<path style="&st33;" d="M 4890.26 , 279.93 L 4890.26 , 190.67"/>
<path style="&st33;" d="M 4890.26 , 129.74 L 4890.26 , 167.36"/>
<path style="&st33;" d="M 4890.25 , 71.62 L 4890.25 , 87.62"/>
<path style="&st33;" d="M 4890.26 , 384.11 L 4890.26 , 366.98"/>
<path style="&st33;" d="M 4890.26 , 190.68 L 4890.26 , 199.18 L 4907.26 , 216.18 L 5039 , 216.18 L 5039 , 288.07"/>
<path style="&st25;" d="M 4958.23 , 422.54 L 4958.23 , 388.54 L 5034.73 , 388.54 L 5034.73 , 422.54 L 4958.23 , 422.54 L 4958.23 , 422.54"/>
<text style="&st26; &st18;" transform="matrix(1 0 0 1 4562.9873 618.1235)">R</text><text style="&st26; &st18;" transform="matrix(1 0 0 1 4613.9873 618.1235)">R</text><text style="&st26; &st18;" transform="matrix(0 -1 1 0 4663.4346 104.8677)">GR</text><text style="&st26; &st18;" transform="matrix(0 -1 1 0 4663.4346 305.6787)">GR</text><text style="&st26; &st18;" transform="matrix(0 -1 1 0 4663.4346 408.7388)">GR</text><text style="&st26; &st18;" transform="matrix(0 -1 1 0 4705.9346 406.4048)">R</text><text style="&st26; &st18;" transform="matrix(0 -1 1 0 4759.0596 406.2397)">B</text><text style="&st26; &st18;" transform="matrix(0 -1 1 0 4770.5596 421.2493)">(*11 *14,*15)</text><text style="&st26; &st18;" transform="matrix(0 -1 1 0 4822.8096 407.0708)">W</text><text style="&st26; &st18;" transform="matrix(0 -1 1 0 4834.3096 421.2493)">(*11 *14,*15)</text><text style="&st26; &st18;" transform="matrix(1 0 0 1 4563.4854 568.4653)">L</text><text style="&st26; &st18;" transform="matrix(1 0 0 1 4553.2818 579.9653)">(*16 *13)</text><text style="&st26; &st18;" transform="matrix(1 0 0 1 4614.4854 568.4653)">L</text><text style="&st26; &st18;" transform="matrix(1 0 0 1 4604.2818 579.9653)">(*16 *13)</text><text style="&st26; &st18;" transform="matrix(0 -1 1 0 4705.9346 111.0342)">R</text><text style="&st26; &st18;" transform="matrix(0 -1 1 0 4705.9346 303.3452)">R</text><text style="&st26; &st18;" transform="matrix(0 -1 1 0 4759.0596 110.8687)">B</text><text style="&st26; &st18;" transform="matrix(0 -1 1 0 4822.8096 111.6992)">W</text><text style="&st26; &st18;" transform="matrix(0 -1 1 0 4971.5449 310.6831)">B</text><text style="&st26; &st18;" transform="matrix(0 -1 1 0 4983.0449 320.5536)">(*10 *14)</text><text style="&st26; &st18;" transform="matrix(0 -1 1 0 4759.0596 303.1797)">B</text><text style="&st26; &st18;" transform="matrix(0 -1 1 0 4770.5596 318.1893)">(*11 *14,*15)</text><text style="&st26; &st18;" transform="matrix(0 -1 1 0 4822.8096 304.0103)">W</text><text style="&st26; &st18;" transform="matrix(0 -1 1 0 4834.3096 318.1893)">(*11 *14,*15)</text></svg>
