﻿<?xml version="1.0" encoding="UTF-8"?>
<!DOCTYPE svg PUBLIC "-//W3C//DTD SVG 1.0//EN" "http://www.w3.org/TR/2001/REC-SVG-20010904/DTD/svg10.dtd"[
<!ENTITY ns_flows "http://ns.adobe.com/Flows/1.0/">
<!ENTITY ns_svg "http://www.w3.org/2000/svg">
<!ENTITY ns_xlink "http://www.w3.org/1999/xlink">
	<!ENTITY st0 "fill:none;stroke:#FB0F0C;stroke-width:5.1;stroke-linejoin:round;">
	<!ENTITY st1 "fill:none;stroke:#9A9999;stroke-width:5.1;stroke-linejoin:round;">
	<!ENTITY st2 "fill:none;stroke:#FF7F00;stroke-width:1.3072;stroke-linecap:round;stroke-linejoin:round;stroke-dasharray:6;">
	<!ENTITY st3 "fill:none;stroke:#99280B;stroke-width:5.1;stroke-linejoin:round;">
	<!ENTITY st4 "fill:none;stroke:#7FC31C;stroke-width:1.42;stroke-linejoin:round;">
	<!ENTITY st5 "fill:none;stroke:#FF7F00;stroke-width:0.9123;stroke-linecap:round;stroke-linejoin:round;">
	<!ENTITY st6 "fill:none;stroke:#000000;stroke-width:5.1;stroke-linejoin:round;">
	<!ENTITY st7 "fill:none;stroke:#000000;stroke-linecap:round;stroke-linejoin:round;">
	<!ENTITY st8 "stroke:#000000;stroke-width:0.28;stroke-linecap:round;stroke-linejoin:round;">
	<!ENTITY st9 "fill:none;stroke:#EE67AA;stroke-width:5.1;stroke-linejoin:round;">
	<!ENTITY st10 "fill:none;stroke:#199DBF;stroke-width:5.1;stroke-linejoin:round;">
	<!ENTITY st11 "fill:none;stroke:#FFFFFF;stroke-width:4.53;stroke-linejoin:round;">
	<!ENTITY st12 "fill:none;stroke:#56107C;stroke-width:5.1;stroke-linejoin:round;">
	<!ENTITY st13 "font-size:6px;">
	<!ENTITY st14 "fill:none;stroke:#FFFFFF;stroke-width:2.27;stroke-linejoin:round;">
	<!ENTITY st15 "fill:none;stroke:#000000;stroke-width:1.13;stroke-linecap:round;stroke-linejoin:round;stroke-dasharray:3 1.5;">
	<!ENTITY st16 "fill:none;stroke:#168638;stroke-width:5.1;stroke-linejoin:round;">
	<!ENTITY st17 "fill:none;stroke:#000000;stroke-width:1.13;stroke-linejoin:round;">
	<!ENTITY st18 "fill:#CCCCCC;stroke:#CECECF;stroke-width:0.1;stroke-linecap:round;stroke-linejoin:round;">
	<!ENTITY st19 "font-size:12px;alignment-baseline:alphabetic;">
	<!ENTITY st20 "fill:#FF0000;">
	<!ENTITY st21 "fill:#FFFFFF;stroke:#000000;stroke-width:1.41;stroke-linecap:round;stroke-linejoin:round;">
	<!ENTITY st22 "font-family:'MS-Gothic';adobe-font-script:japanese;">
	<!ENTITY st23 "fill:none;stroke:#000000;stroke-width:1.42;stroke-linejoin:round;">
	<!ENTITY st24 "font-family:'Arial';">
	<!ENTITY st25 "fill:none;stroke:#000000;stroke-width:1.42;stroke-linecap:round;stroke-linejoin:round;">
	<!ENTITY st26 "fill:#CFE6E7;stroke:#000000;stroke-width:1.133;stroke-linecap:round;stroke-linejoin:round;">
	<!ENTITY st27 "font-size:12px;">
	<!ENTITY st28 "font-size:21px;">
	<!ENTITY st29 "fill:none;stroke:#99D5E0;stroke-width:5.1;stroke-linejoin:round;">
	<!ENTITY st30 "fill:none;stroke:#000000;stroke-width:0.85;stroke-linecap:round;stroke-linejoin:round;stroke-dasharray:3 1.5;">
	<!ENTITY st31 "fill:none;stroke:#0A50A1;stroke-width:1.3072;stroke-linecap:round;stroke-linejoin:round;stroke-dasharray:6;">
	<!ENTITY st32 "fill:#CFE6E7;stroke:#000000;stroke-width:1.13;stroke-linejoin:round;">
	<!ENTITY st33 "fill:none;stroke:#000000;stroke-width:0.85;stroke-linecap:round;stroke-linejoin:round;">
	<!ENTITY st34 "fill:none;stroke:#7EC57E;stroke-width:5.1;stroke-linejoin:round;">
	<!ENTITY st35 "font-size:6px;alignment-baseline:alphabetic;">
<!ATTLIST svg
xmlns:ewd CDATA #FIXED "http://shcl.co.jp/ewd"
xmlns:a CDATA #FIXED "http://ns.adobe.com/AdobeSVGViewerExtensions/3.0/"
ewd:ver CDATA #IMPLIED
>
<!ATTLIST a
ewd:lineID CDATA #IMPLIED
ewd:groupID CDATA #IMPLIED
ewd:figtype CDATA #IMPLIED
ewd:code CDATA #IMPLIED
ewd:figID CDATA #IMPLIED
ewd:pinNo CDATA #IMPLIED
ewd:comment CDATA #IMPLIED >
<!ATTLIST g
ewd:lineID CDATA #IMPLIED
ewd:groupID CDATA #IMPLIED
ewd:figtype CDATA #IMPLIED
ewd:code CDATA #IMPLIED
ewd:figID CDATA #IMPLIED
ewd:pinNo CDATA #IMPLIED
ewd:comment CDATA #IMPLIED >
<!ATTLIST text
ewd:textID CDATA #IMPLIED ><!ATTLIST title
ewd:textID CDATA #IMPLIED >]>
<svg onload="call_execInitLoadProc_svg('system')"
style="overflow:visible;  enable-background:new 0 0 4081.31 693.31"
viewBox="0 0 4081.31 693.31"
height='693.31'
width='4081.31'
xml:space="preserve"
xmlns="&ns_svg;"
xmlns:ewd="http://shcl.co.jp/ewd"
xmlns:a="http://ns.adobe.com/AdobeSVGViewerExtensions/3.0/"
xmlns:xlink="&ns_xlink;" ewd:ver="L2.3">
<g ewd:pinNo="37" ewd:code="GA1" ewd:figID="6004" ewd:figtype="w2w">
<path style="&st21;" d="M 3795.9 , 132.58 L 3804.4 , 132.58"/>
<path style="&st25;" d="M 3791.66 , 141.64 L 3795.9 , 137.39 L 3800.15 , 141.64"/>
<path style="&st25;" d="M 3800.15 , 138.24 L 3795.9 , 133.99 L 3791.66 , 138.24"/>
<text style="&st24; &st13;" transform="matrix(1 0 0 1 3777.376 130.3594)">37</text></g>
<g ewd:pinNo="19" ewd:code="CG2" ewd:figID="6003" ewd:figtype="w2w">
<path style="&st21;" d="M 3821.39 , 501.2 L 3829.89 , 501.2"/>
<path style="&st25;" d="M 3825.65 , 492.14 L 3829.89 , 496.39 L 3834.14 , 492.14"/>
<path style="&st25;" d="M 3834.14 , 495.54 L 3829.89 , 499.79 L 3825.65 , 495.54"/>
<text style="&st24; &st13;" transform="matrix(1 0 0 1 3811.3672 507.478)">19</text></g>
<g ewd:code="2" ewd:figID="3001" ewd:figtype="jb">
<path style="&st33;" d="M 3681.15 , 77.14 L 3681.15 , 60.14"/>
<path style="&st8;" d="M 3681.15 , 72.25 L 3678.32 , 69.41 L 3678.32 , 73.66 L 3681.15 , 76.5 L 3683.98 , 73.66 L 3683.98 , 69.41 L 3681.15 , 72.25"/>
<path style="&st25;" d="M 3683.28 , 85.64 L 3679.03 , 85.64"/>
<path style="&st25;" d="M 3683.28 , 77.14 L 3679.03 , 77.14"/>
<path style="&st25;" d="M3687.53,81.39c0-2.35-1.91-4.25-4.25-4.25"/>
<path style="&st25;" d="M3683.28,85.64c2.34,0,4.25-1.9,4.25-4.25"/>
<path style="&st25;" d="M3674.78,81.39c0,2.35,1.9,4.25,4.25,4.25"/>
<path style="&st25;" d="M3679.03,77.14c-2.35,0-4.25,1.9-4.25,4.25"/>
<path style="&st25;" d="M3681.15,48.81c2.74-1.61,3.65-5.14,2.04-7.88"/>
<path style="&st33;" d="M3681.15,51.64c0.78,0,1.42-0.63,1.42-1.41"/>
<path style="&st7;" d="M 3668.4 , 17.65 L 3668.4 , 60.14 L 3693.9 , 60.14 L 3693.9 , 17.65 L 3668.4 , 17.65"/>
<path style="&st33;" d="M 3681.15 , 51.64 L 3681.15 , 60.14"/>
<path style="&st25;" d="M3681.15,28.98c-2.74,1.61-3.65,5.14-2.03,7.88"/>
<path style="&st25;" d="M3679.12,36.86c0.51,0.88,1.15,1.52,2.03,2.04"/>
<path style="&st25;" d="M3683.19,40.93c-0.52-0.88-1.16-1.51-2.04-2.03"/>
<path style="&st33;" d="M3682.57,27.56c0-0.78-0.64-1.41-1.42-1.41"/>
<path style="&st33;" d="M3681.15,26.15c-0.78,0-1.41,0.63-1.41,1.41"/>
<path style="&st33;" d="M3679.74,27.56c0,0.79,0.63,1.42,1.41,1.42"/>
<path style="&st33;" d="M3681.15,28.98c0.78,0,1.42-0.63,1.42-1.42"/>
<path style="&st33;" d="M3682.57,50.23c0-0.79-0.64-1.42-1.42-1.42"/>
<path style="&st33;" d="M3681.15,48.81c-0.78,0-1.41,0.63-1.41,1.42"/>
<path style="&st33;" d="M3679.74,50.23c0,0.78,0.63,1.41,1.41,1.41"/>
<text style="&st24; &st13;" transform="matrix(1 0 0 1 3664.7656 83.3638)">35</text><text style="&st24; &st13;" transform="matrix(1 0 0 1 3677.1504 83.3638)">2O</text><text style="&st24; &st13;" transform="matrix(1 0 0 1 3698.4629 38.0435)">7.5A</text><text style="&st24; &st13;" transform="matrix(1 0 0 1 3698.4629 44.0435)">METER</text><text style="&st24; &st13;" transform="matrix(1 0 0 1 3675.9873 13.9536)">(IG)</text></g>
<g ewd:code="FUSE10" ewd:figID="4003" ewd:figtype="rb">
<path style="&st25;" d="M3840.53,48.81c2.74-1.61,3.65-5.14,2.04-7.88"/>
<path style="&st33;" d="M3840.53,51.64c0.78,0,1.42-0.63,1.42-1.41"/>
<path style="&st25;" d="M 3827.78 , 17.65 L 3827.78 , 60.14 L 3853.28 , 60.14 L 3853.28 , 17.65 L 3827.78 , 17.65"/>
<path style="&st33;" d="M 3840.53 , 51.64 L 3840.53 , 77.14"/>
<path style="&st8;" d="M 3840.53 , 72.25 L 3837.7 , 69.42 L 3837.7 , 73.67 L 3840.53 , 76.5 L 3843.36 , 73.67 L 3843.36 , 69.42 L 3840.53 , 72.25"/>
<path style="&st25;" d="M3840.53,28.98c-2.74,1.61-3.65,5.14-2.03,7.88"/>
<path style="&st25;" d="M3838.5,36.86c0.51,0.88,1.15,1.52,2.03,2.04"/>
<path style="&st25;" d="M3842.57,40.93c-0.52-0.88-1.16-1.51-2.04-2.03"/>
<path style="&st33;" d="M3841.95,27.56c0-0.78-0.64-1.41-1.42-1.41"/>
<path style="&st33;" d="M3840.53,26.15c-0.78,0-1.41,0.63-1.41,1.41"/>
<path style="&st33;" d="M3839.12,27.56c0,0.79,0.63,1.42,1.41,1.42"/>
<path style="&st33;" d="M3840.53,28.98c0.78,0,1.42-0.63,1.42-1.42"/>
<path style="&st33;" d="M3841.95,50.23c0-0.79-0.64-1.42-1.42-1.42"/>
<path style="&st33;" d="M3840.53,48.81c-0.78,0-1.41,0.63-1.41,1.42"/>
<path style="&st33;" d="M3839.12,50.23c0,0.78,0.63,1.41,1.41,1.41"/>
<path style="&st25;" d="M 3842.66 , 77.14 L 3838.41 , 77.14"/>
<path style="&st25;" d="M 3842.66 , 85.64 L 3838.41 , 85.64"/>
<path style="&st25;" d="M3838.41,77.14c-2.35,0-4.25,1.9-4.25,4.25"/>
<path style="&st25;" d="M3834.16,81.39c0,2.35,1.9,4.25,4.25,4.25"/>
<path style="&st25;" d="M3842.66,85.64c2.34,0,4.25-1.9,4.25-4.25"/>
<path style="&st25;" d="M3846.91,81.39c0-2.35-1.91-4.25-4.25-4.25"/>
<text style="&st24; &st13;" transform="matrix(1 0 0 1 3857.8408 38.0435)">10A</text><text style="&st24; &st13;" transform="matrix(1 0 0 1 3857.8408 44.0435)">ECU-B</text><text style="&st24; &st13;" transform="matrix(1 0 0 1 3832.9209 13.9536)">(BAT)</text><text style="&st24; &st13;" transform="matrix(1 0 0 1 3838.8623 83.3643)">1</text><text style="&st24; &st13;" transform="matrix(1 0 0 1 3833.9043 68.3447)">2</text></g>
<g ewd:code="C2" ewd:figID="2004" ewd:figtype="gp">
<path style="&st33;" d="M 3828.47 , 692.65 L 3831.3 , 692.65"/>
<path style="&st33;" d="M 3827.05 , 689.82 L 3832.72 , 689.82"/>
<path style="&st33;" d="M 3825.64 , 686.98 L 3834.14 , 686.98"/>
<path style="&st33;" d="M 3821.39 , 684.15 L 3838.39 , 684.15"/>
<path style="&st33;" d="M 3829.89 , 679.9 L 3829.89 , 684.15"/>
</g>
<g ewd:code="C4" ewd:figID="2003" ewd:figtype="gp">
<path style="&st33;" d="M 3794.47 , 692.65 L 3797.3 , 692.65"/>
<path style="&st33;" d="M 3793.05 , 689.82 L 3798.72 , 689.82"/>
<path style="&st33;" d="M 3791.64 , 686.98 L 3800.14 , 686.98"/>
<path style="&st33;" d="M 3787.39 , 684.15 L 3804.39 , 684.15"/>
<path style="&st33;" d="M 3795.89 , 679.9 L 3795.89 , 684.15"/>
</g>
<g ewd:code="C1" ewd:figID="2002" ewd:figtype="gp">
<path style="&st33;" d="M 3862.47 , 692.65 L 3865.3 , 692.65"/>
<path style="&st33;" d="M 3861.05 , 689.82 L 3866.72 , 689.82"/>
<path style="&st33;" d="M 3859.64 , 686.98 L 3868.14 , 686.98"/>
<path style="&st33;" d="M 3855.39 , 684.15 L 3872.39 , 684.15"/>
<path style="&st33;" d="M 3863.89 , 679.9 L 3863.89 , 684.15"/>
</g>
<g ewd:code="G304" ewd:figID="12" ewd:figtype="conn" ewd:comment="11">
<path style="&st33;" d="M 3794.78 , 256.43 L 3802.14 , 252.18"/>
<path style="&st33;" d="M 3791.65 , 258.38 L 3783.16 , 258.38"/>
<path style="&st33;" d="M 3800.14 , 248.71 L 3792.78 , 252.96"/>
<path style="&st33;" d="M 3787.4 , 224.38 L 3787.4 , 288.12"/>
<path style="&st33;" d="M 3778.9 , 215.88 L 3795.9 , 215.88"/>
<path style="&st33;" d="M 3787.4 , 215.88 L 3787.4 , 224.38"/>
<path style="&st25;" d="M 3672.65 , 288.12 L 3672.65 , 305.12 L 3838.4 , 305.12 L 3838.4 , 288.12 L 3672.65 , 288.12"/>
<path style="&st33;" d="M 3744.9 , 194.64 L 3744.9 , 237.13"/>
<path style="&st33;" d="M 3681.15 , 194.64 L 3681.15 , 237.13"/>
<path style="&st25;" d="M 3672.65 , 237.13 L 3753.4 , 237.13 L 3753.4 , 254.13 L 3672.65 , 254.13 L 3672.65 , 237.13"/>
<path style="&st33;" d="M 3681.15 , 305.12 L 3681.15 , 360.39"/>
<path style="&st33;" d="M 3723.64 , 305.12 L 3723.64 , 360.39"/>
<path style="&st33;" d="M 3829.89 , 305.12 L 3829.89 , 360.36"/>
<path style="&st33;" d="M 3802.14 , 252.18 L 3799.81 , 255.22 L 3798.34 , 252.68 L 3802.14 , 252.18 L 3800.86 , 252.92 L 3799.87 , 254.2 L 3799.25 , 253.13 L 3800.86 , 252.92 L 3800.22 , 253.29 L 3799.9 , 253.7 L 3799.71 , 253.36 L 3800.22 , 253.29"/>
<path style="&st33;" d="M 3800.14 , 248.71 L 3797.8 , 251.75 L 3796.34 , 249.21 L 3800.14 , 248.71 L 3798.85 , 249.45 L 3797.87 , 250.74 L 3797.25 , 249.66 L 3798.85 , 249.45 L 3798.21 , 249.82 L 3797.9 , 250.23 L 3797.71 , 249.89 L 3798.21 , 249.82"/>
<path style="&st8;" d="M 3787.4 , 258.38 L 3781.74 , 249.88 L 3793.07 , 249.88 L 3787.4 , 258.38"/>
<path style="&st33;" d="M 3837.28 , 256.43 L 3844.64 , 252.18"/>
<path style="&st33;" d="M 3834.15 , 258.38 L 3825.66 , 258.38"/>
<path style="&st33;" d="M 3842.64 , 248.71 L 3835.28 , 252.96"/>
<path style="&st33;" d="M 3829.9 , 224.38 L 3829.9 , 288.12"/>
<path style="&st33;" d="M 3821.4 , 215.88 L 3838.4 , 215.88"/>
<path style="&st33;" d="M 3829.9 , 215.88 L 3829.9 , 224.38"/>
<path style="&st33;" d="M 3844.64 , 252.18 L 3842.31 , 255.22 L 3840.84 , 252.68 L 3844.64 , 252.18 L 3843.36 , 252.92 L 3842.37 , 254.2 L 3841.75 , 253.13 L 3843.36 , 252.92 L 3842.72 , 253.29 L 3842.4 , 253.7 L 3842.21 , 253.36 L 3842.72 , 253.29"/>
<path style="&st33;" d="M 3842.64 , 248.71 L 3840.3 , 251.75 L 3838.84 , 249.21 L 3842.64 , 248.71 L 3841.35 , 249.45 L 3840.37 , 250.74 L 3839.75 , 249.66 L 3841.35 , 249.45 L 3840.71 , 249.82 L 3840.4 , 250.23 L 3840.21 , 249.89 L 3840.71 , 249.82"/>
<path style="&st8;" d="M 3829.9 , 258.38 L 3824.24 , 249.88 L 3835.57 , 249.88 L 3829.9 , 258.38"/>
<path style="&st23;" d="M 3659.9 , 360.39 L 3659.9 , 194.64 L 3855.4 , 194.64 L 3855.4 , 360.39 L 3659.9 , 360.39 L 3659.9 , 360.39"/>
<path style="&st25;" d="M3685.67,190.14c0-2.48-2.02-4.5-4.5-4.5"/>
<path style="&st25;" d="M3681.14,185.64c-2.48,0-4.5,2.02-4.5,4.5"/>
<path style="&st25;" d="M3676.64,190.14c0,2.48,2.02,4.5,4.5,4.5"/>
<path style="&st25;" d="M3681.17,194.64c2.48,0,4.5-2.02,4.5-4.5"/>
<path style="&st25;" d="M3749.42,190.14c0-2.48-2.02-4.5-4.5-4.5"/>
<path style="&st25;" d="M3744.89,185.64c-2.48,0-4.5,2.02-4.5,4.5"/>
<path style="&st25;" d="M3740.39,190.14c0,2.48,2.02,4.5,4.5,4.5"/>
<path style="&st25;" d="M3744.92,194.64c2.48,0,4.5-2.02,4.5-4.5"/>
<path style="&st25;" d="M3834.41,364.89c0-2.48-2.02-4.5-4.5-4.5"/>
<path style="&st25;" d="M3829.88,360.39c-2.48,0-4.5,2.02-4.5,4.5"/>
<path style="&st25;" d="M3825.38,364.89c0,2.48,2.02,4.5,4.5,4.5"/>
<path style="&st25;" d="M3829.91,369.39c2.48,0,4.5-2.02,4.5-4.5"/>
<path style="&st25;" d="M3728.16,364.89c0-2.48-2.02-4.5-4.5-4.5"/>
<path style="&st25;" d="M3723.63,360.39c-2.48,0-4.5,2.02-4.5,4.5"/>
<path style="&st25;" d="M3719.13,364.89c0,2.48,2.02,4.5,4.5,4.5"/>
<path style="&st25;" d="M3723.66,369.39c2.48,0,4.5-2.02,4.5-4.5"/>
<path style="&st25;" d="M3685.66,364.89c0-2.48-2.02-4.5-4.5-4.5"/>
<path style="&st25;" d="M3681.13,360.39c-2.48,0-4.5,2.02-4.5,4.5"/>
<path style="&st25;" d="M3676.63,364.89c0,2.48,2.02,4.5,4.5,4.5"/>
<path style="&st25;" d="M3681.16,369.39c2.48,0,4.5-2.02,4.5-4.5"/>
<text ewd:textID="39" style="&st24; &st13;" transform="matrix(1 0 0 1 3685.1836 247.7583)">Power Supply Circuit</text><text style="&st24; &st13;" transform="matrix(1 0 0 1 3776.7773 205.2583)">ECU-B<tspan x="0" y="7">+B</tspan></text><text ewd:textID="14" style="&st24; &st13;" transform="matrix(0 -1 1 0 3778.9023 261.9702)">Beam</text><text style="&st24; &st13;" transform="matrix(1 0 0 1 3825.0674 211.6333)">IG2</text><text ewd:textID="37" style="&st24; &st13;" transform="matrix(1 0 0 1 3734.3506 298.5923)">Micro Computer</text><text style="&st24; &st13;" transform="matrix(0 -1 1 0 3821.4023 239.2583)">(*11)</text><text ewd:textID="12" style="&st24; &st13;" transform="matrix(0 -1 1 0 3821.4023 283.8833)">Auto High Beam</text><text style="&st24; &st13;" transform="matrix(1 0 0 1 3667.707 192.0825)">22</text><text style="&st24; &st13;" transform="matrix(1 0 0 1 3678.9854 192.0825)">D</text><text style="&st24; &st13;" transform="matrix(1 0 0 1 3685.4023 202.2915)">IG+</text><text style="&st24; &st13;" transform="matrix(1 0 0 1 3731.457 192.0825)">21</text><text style="&st24; &st13;" transform="matrix(1 0 0 1 3742.7354 192.0825)">D</text><text style="&st24; &st13;" transform="matrix(1 0 0 1 3749.1523 202.2915)">B</text><text style="&st24; &st13;" transform="matrix(1 0 0 1 3816.4473 366.8618)">20</text><text style="&st24; &st13;" transform="matrix(1 0 0 1 3827.7275 366.8618)">D</text><text style="&st24; &st13;" transform="matrix(1 0 0 1 3834.1436 356.6938)">E2</text><text style="&st24; &st13;" transform="matrix(1 0 0 1 3710.1982 366.8618)">39</text><text style="&st24; &st13;" transform="matrix(1 0 0 1 3721.4775 366.8618)">D</text><text style="&st24; &st13;" transform="matrix(1 0 0 1 3727.8936 356.6938)">CANL</text><text style="&st24; &st13;" transform="matrix(1 0 0 1 3667.6973 366.8618)">40</text><text style="&st24; &st13;" transform="matrix(1 0 0 1 3678.9756 366.8618)">D</text><text style="&st24; &st13;" transform="matrix(1 0 0 1 3685.3926 356.6938)">CANH</text><g ewd:figtype="title">
<text style="&st24; &st13;" transform="matrix(0 -1 1 0 3863.9023 362.5161)">G304(D)</text><text ewd:textID="15" style="&st24; &st13;" transform="matrix(0 -1 1 0 3871.5039 362.5161)">Combination Meter Assembly</text></g>
</g>
<g ewd:code="A118" ewd:figID="9" ewd:figtype="conn">
<path style="&st25;" d="M 3832.03 , 121.89 L 3849.03 , 121.89 L 3849.03 , 138.89 L 3832.03 , 138.89 L 3832.03 , 121.89"/>
<path style="&st33;" d="M 3840.53 , 121.89 L 3840.53 , 138.89"/>
<text style="&st24; &st13;" transform="matrix(1 0 0 1 3832.4434 147.0942)">9</text><text style="&st24; &st13;" transform="matrix(1 0 0 1 3832.4434 118.1943)">7</text><g ewd:figtype="title">
<text style="&st24; &st13;" transform="matrix(0 -1 1 0 3856.6396 141.4141)">A118</text><text ewd:textID="33" style="&st24; &st13;" transform="matrix(0 -1 1 0 3863.6807 141.4141)">Junction Connector</text></g>
</g>
<g ewd:code="G265,G243" ewd:figID="8" ewd:figtype="conn">
<path style="&st25;" d="M 3736.39 , 114.39 L 3753.39 , 114.39 L 3753.39 , 131.39 L 3736.39 , 131.39 L 3736.39 , 114.39"/>
<path style="&st33;" d="M 3744.89 , 114.39 L 3744.89 , 131.39"/>
<path style="&st25;" d="M3749.4,135.89c0-2.48-2.02-4.5-4.5-4.5"/>
<path style="&st25;" d="M3744.87,131.39c-2.48,0-4.5,2.02-4.5,4.5"/>
<path style="&st25;" d="M3740.37,135.89c0,2.48,2.02,4.5,4.5,4.5"/>
<path style="&st25;" d="M3744.9,140.39c2.48,0,4.5-2.02,4.5-4.5"/>
<path style="&st25;" d="M3749.4,144.89c0-2.48-2.02-4.5-4.5-4.5"/>
<path style="&st25;" d="M3744.87,140.39c-2.48,0-4.5,2.02-4.5,4.5"/>
<path style="&st25;" d="M3740.37,144.89c0,2.48,2.02,4.5,4.5,4.5"/>
<path style="&st25;" d="M3744.9,149.39c2.48,0,4.5-2.02,4.5-4.5"/>
<path style="&st25;" d="M3749.4,109.89c0-2.48-2.02-4.5-4.5-4.5"/>
<path style="&st25;" d="M3744.87,105.39c-2.48,0-4.5,2.02-4.5,4.5"/>
<path style="&st25;" d="M3740.37,109.89c0,2.48,2.02,4.5,4.5,4.5"/>
<path style="&st25;" d="M3744.9,114.39c2.48,0,4.5-2.02,4.5-4.5"/>
<path style="&st25;" d="M3749.4,100.89c0-2.48-2.02-4.5-4.5-4.5"/>
<path style="&st25;" d="M3744.87,96.39c-2.48,0-4.5,2.02-4.5,4.5"/>
<path style="&st25;" d="M3740.37,100.89c0,2.48,2.02,4.5,4.5,4.5"/>
<path style="&st25;" d="M3744.9,105.39c2.48,0,4.5-2.02,4.5-4.5"/>
<text style="&st24; &st13;" transform="matrix(1 0 0 1 3751.2617 146.8638)">(RHD)</text><text style="&st24; &st13;" transform="matrix(1 0 0 1 3751.2617 102.832)">(RHD)</text><text style="&st24; &st13;" transform="matrix(1 0 0 1 3751.2617 137.8633)">(LHD)</text><text style="&st24; &st13;" transform="matrix(1 0 0 1 3751.2617 111.832)">(LHD)</text><text style="&st24; &st13;" transform="matrix(1 0 0 1 3731.4414 137.8633)">17</text><text style="&st24; &st13;" transform="matrix(1 0 0 1 3742.8857 137.8633)">A</text><text style="&st24; &st13;" transform="matrix(1 0 0 1 3734.7783 146.8638)">3</text><text style="&st24; &st13;" transform="matrix(1 0 0 1 3742.8857 146.8638)">B</text><text style="&st24; &st13;" transform="matrix(1 0 0 1 3731.4414 111.832)">15</text><text style="&st24; &st13;" transform="matrix(1 0 0 1 3742.8857 111.832)">A</text><text style="&st24; &st13;" transform="matrix(1 0 0 1 3734.7783 102.832)">1</text><text style="&st24; &st13;" transform="matrix(1 0 0 1 3742.8857 102.832)">B</text><g ewd:figtype="title">
<text style="&st24; &st13;" transform="matrix(0 -1 1 0 3722.9707 133.8926)">G265(A),G243(B)</text><text ewd:textID="33" style="&st24; &st13;" transform="matrix(0 -1 1 0 3730.0117 133.8926)">Junction Connector</text></g>
</g>
<g ewd:code="G308,G247" ewd:figID="7" ewd:figtype="conn">
<path style="&st25;" d="M 3787.39 , 50.64 L 3804.39 , 50.64 L 3804.39 , 67.64 L 3787.39 , 67.64 L 3787.39 , 50.64"/>
<path style="&st33;" d="M 3795.89 , 50.64 L 3795.89 , 67.64"/>
<path style="&st25;" d="M3800.4,72.14c0-2.48-2.02-4.5-4.5-4.5"/>
<path style="&st25;" d="M3795.87,67.64c-2.48,0-4.5,2.02-4.5,4.5"/>
<path style="&st25;" d="M3791.37,72.14c0,2.48,2.02,4.5,4.5,4.5"/>
<path style="&st25;" d="M3795.9,76.64c2.48,0,4.5-2.02,4.5-4.5"/>
<path style="&st25;" d="M3800.4,81.14c0-2.48-2.02-4.5-4.5-4.5"/>
<path style="&st25;" d="M3795.87,76.64c-2.48,0-4.5,2.02-4.5,4.5"/>
<path style="&st25;" d="M3791.37,81.14c0,2.48,2.02,4.5,4.5,4.5"/>
<path style="&st25;" d="M3795.9,85.64c2.48,0,4.5-2.02,4.5-4.5"/>
<path style="&st25;" d="M3800.4,46.14c0-2.48-2.02-4.5-4.5-4.5"/>
<path style="&st25;" d="M3795.87,41.64c-2.48,0-4.5,2.02-4.5,4.5"/>
<path style="&st25;" d="M3791.37,46.14c0,2.48,2.02,4.5,4.5,4.5"/>
<path style="&st25;" d="M3795.9,50.64c2.48,0,4.5-2.02,4.5-4.5"/>
<path style="&st25;" d="M3800.4,37.14c0-2.48-2.02-4.5-4.5-4.5"/>
<path style="&st25;" d="M3795.87,32.64c-2.48,0-4.5,2.02-4.5,4.5"/>
<path style="&st25;" d="M3791.37,37.14c0,2.48,2.02,4.5,4.5,4.5"/>
<path style="&st25;" d="M3795.9,41.64c2.48,0,4.5-2.02,4.5-4.5"/>
<text style="&st24; &st13;" transform="matrix(1 0 0 1 3802.2617 83.1143)">(RHD)</text><text style="&st24; &st13;" transform="matrix(1 0 0 1 3802.2617 39.082)">(RHD)</text><text style="&st24; &st13;" transform="matrix(1 0 0 1 3802.2617 74.1143)">(LHD)</text><text style="&st24; &st13;" transform="matrix(1 0 0 1 3802.2617 48.082)">(LHD)</text><text style="&st24; &st13;" transform="matrix(1 0 0 1 3782.4414 74.1143)">19</text><text style="&st24; &st13;" transform="matrix(1 0 0 1 3793.8857 74.1143)">A</text><text style="&st24; &st13;" transform="matrix(1 0 0 1 3782.4414 83.1143)">19</text><text style="&st24; &st13;" transform="matrix(1 0 0 1 3793.8857 83.1143)">B</text><text style="&st24; &st13;" transform="matrix(1 0 0 1 3782.4414 48.082)">22</text><text style="&st24; &st13;" transform="matrix(1 0 0 1 3793.8857 48.082)">A</text><text style="&st24; &st13;" transform="matrix(1 0 0 1 3782.4414 39.082)">22</text><text style="&st24; &st13;" transform="matrix(1 0 0 1 3793.8857 39.082)">B</text><g ewd:figtype="title">
<text style="&st24; &st13;" transform="matrix(0 -1 1 0 3773.9707 74.3936)">G308(A),G247(B)</text><text ewd:textID="33" style="&st24; &st13;" transform="matrix(0 -1 1 0 3781.0117 74.3936)">Junction Connector</text></g>
</g>
<g ewd:code="G259,G271" ewd:figID="6" ewd:figtype="conn">
<path style="&st25;" d="M 3821.41 , 423.64 L 3838.41 , 423.64 L 3838.41 , 440.64 L 3821.41 , 440.64 L 3821.41 , 423.64"/>
<path style="&st33;" d="M 3829.91 , 423.64 L 3829.91 , 440.64"/>
<path style="&st25;" d="M3834.42,445.14c0-2.48-2.02-4.5-4.5-4.5"/>
<path style="&st25;" d="M3829.89,440.64c-2.48,0-4.5,2.02-4.5,4.5"/>
<path style="&st25;" d="M3825.39,445.14c0,2.48,2.02,4.5,4.5,4.5"/>
<path style="&st25;" d="M3829.92,449.64c2.48,0,4.5-2.02,4.5-4.5"/>
<path style="&st25;" d="M3834.42,454.14c0-2.48-2.02-4.5-4.5-4.5"/>
<path style="&st25;" d="M3829.89,449.64c-2.48,0-4.5,2.02-4.5,4.5"/>
<path style="&st25;" d="M3825.39,454.14c0,2.48,2.02,4.5,4.5,4.5"/>
<path style="&st25;" d="M3829.92,458.64c2.48,0,4.5-2.02,4.5-4.5"/>
<path style="&st25;" d="M3834.42,419.14c0-2.48-2.02-4.5-4.5-4.5"/>
<path style="&st25;" d="M3829.89,414.64c-2.48,0-4.5,2.02-4.5,4.5"/>
<path style="&st25;" d="M3825.39,419.14c0,2.48,2.02,4.5,4.5,4.5"/>
<path style="&st25;" d="M3829.92,423.64c2.48,0,4.5-2.02,4.5-4.5"/>
<path style="&st25;" d="M3834.42,410.14c0-2.48-2.02-4.5-4.5-4.5"/>
<path style="&st25;" d="M3829.89,405.64c-2.48,0-4.5,2.02-4.5,4.5"/>
<path style="&st25;" d="M3825.39,410.14c0,2.48,2.02,4.5,4.5,4.5"/>
<path style="&st25;" d="M3829.92,414.64c2.48,0,4.5-2.02,4.5-4.5"/>
<text style="&st24; &st13;" transform="matrix(1 0 0 1 3836.2842 456.1118)">(RHD)</text><text style="&st24; &st13;" transform="matrix(1 0 0 1 3836.2842 412.0806)">(RHD)</text><text style="&st24; &st13;" transform="matrix(1 0 0 1 3836.2842 447.1118)">(LHD)</text><text style="&st24; &st13;" transform="matrix(1 0 0 1 3836.2842 421.0806)">(LHD)</text><text style="&st24; &st13;" transform="matrix(1 0 0 1 3816.4639 447.1118)">12</text><text style="&st24; &st13;" transform="matrix(1 0 0 1 3827.9082 447.1118)">A</text><text style="&st24; &st13;" transform="matrix(1 0 0 1 3816.4639 456.1118)">19</text><text style="&st24; &st13;" transform="matrix(1 0 0 1 3827.9082 456.1118)">B</text><text style="&st24; &st13;" transform="matrix(1 0 0 1 3816.4639 421.0806)">13</text><text style="&st24; &st13;" transform="matrix(1 0 0 1 3827.9082 421.0806)">A</text><text style="&st24; &st13;" transform="matrix(1 0 0 1 3816.4639 412.0806)">21</text><text style="&st24; &st13;" transform="matrix(1 0 0 1 3827.9082 412.0806)">B</text><g ewd:figtype="title">
<text style="&st24; &st13;" transform="matrix(0 -1 1 0 3807.9932 443.1411)">G259(A),G271(B)</text><text ewd:textID="33" style="&st24; &st13;" transform="matrix(0 -1 1 0 3815.0342 443.1411)">Junction Connector</text></g>
</g>
<g ewd:code="G314" ewd:figID="2" ewd:figtype="conn">
<path style="&st23;" d="M 3596.15 , 76.64 L 3596.15 , 42.64 L 3630.15 , 42.64 L 3630.15 , 76.64 L 3596.15 , 76.64 L 3596.15 , 76.64"/>
<path style="&st25;" d="M3617.67,81.14c0-2.48-2.02-4.5-4.5-4.5"/>
<path style="&st25;" d="M3613.14,76.64c-2.48,0-4.5,2.02-4.5,4.5"/>
<path style="&st25;" d="M3608.64,81.14c0,2.48,2.02,4.5,4.5,4.5"/>
<path style="&st25;" d="M3613.17,85.64c2.48,0,4.5-2.02,4.5-4.5"/>
<text style="&st24; &st13;" transform="matrix(1 0 0 1 3599.707 83.1138)">10</text><text style="&st24; &st13;" transform="matrix(1 0 0 1 3610.9854 83.1138)">C</text><text style="&st24; &st13;" transform="matrix(1 0 0 1 3606.6484 72.9448)">IG12</text><g ewd:figtype="title">
<text style="&st24; &st13;" transform="matrix(0 -1 1 0 3637.752 79.1431)">G314(C)</text><text ewd:textID="21" style="&st24; &st13;" transform="matrix(0 -1 1 0 3645.3525 79.1431)">Engine Stop and <tspan x="0" y="7">Start ECU Assembly</tspan></text></g>
</g>
<g ewd:code="9" ewd:figID="9008" ewd:figtype="comment">
<text style="&st24; &st13;" transform="matrix(1 0 0 1 3949.8545 17.6538)">*9 :LHD</text></g>
<g ewd:code="10" ewd:figID="9007" ewd:figtype="comment">
<text style="&st24; &st13;" transform="matrix(1 0 0 1 3949.8545 26.1538)">*10 :RHD</text></g>
<g ewd:code="11" ewd:figID="9006" ewd:figtype="comment">
<text ewd:textID="9" style="&st24; &st13;" transform="matrix(1 0 0 1 3949.8545 34.6538)">*11 :w/ Automatic High Beam System</text></g>
<g ewd:code="12" ewd:figID="9005" ewd:figtype="comment">
<text style="&st24; &st13;" transform="matrix(1 0 0 1 3949.8545 43.1538)">*12 :1GR-FE</text></g>
<g ewd:code="13" ewd:figID="9004" ewd:figtype="comment">
<text style="&st24; &st13;" transform="matrix(1 0 0 1 3949.8545 51.6538)">*13 :2TR-FE</text></g>
<g ewd:code="14" ewd:figID="9003" ewd:figtype="comment">
<text style="&st24; &st13;" transform="matrix(1 0 0 1 3949.8545 60.1538)">*14 :1GD-FTV</text></g>
<g ewd:code="15" ewd:figID="9002" ewd:figtype="comment">
<text ewd:textID="10" style="&st24; &st13;" transform="matrix(1 0 0 1 3949.8545 68.6538)">*15 :w/ Stop and Start System</text></g>
<g ewd:code="16" ewd:figID="9001" ewd:figtype="comment">
<text ewd:textID="11" style="&st24; &st13;" transform="matrix(1 0 0 1 3949.8545 77.1538)">*16 :w/o Stop and Start System</text></g>
<text style="&st24; &st13;" transform="matrix(0 -1 1 0 3860.1943 599.1772)">BR</text><text style="&st24; &st13;" transform="matrix(0 -1 1 0 3871.6943 601.5128)">(*12)</text><text style="&st24; &st13;" transform="matrix(0 -1 1 0 3792.1934 570.1284)">BR</text><text style="&st24; &st13;" transform="matrix(0 -1 1 0 3803.6934 572.4522)">(*14)</text><text style="&st24; &st13;" transform="matrix(0 -1 1 0 3826.1943 599.1772)">BR</text><text style="&st24; &st13;" transform="matrix(0 -1 1 0 3837.6943 601.5128)">(*13)</text><text style="&st24; &st13;" transform="matrix(0 -1 1 0 3609.4531 119.8096)">R</text><text style="&st24; &st13;" transform="matrix(0 -1 1 0 3620.9531 124.1713)">(*15)</text><text style="&st24; &st13;" transform="matrix(0 -1 1 0 3677.4531 119.8096)">R</text><text style="&st24; &st13;" transform="matrix(0 -1 1 0 3688.9531 124.1713)">(*16)</text><text style="&st24; &st13;" transform="matrix(0 -1 1 0 3719.9521 403.5601)">W</text><text style="&st24; &st13;" transform="matrix(1 0 0 1 3542.3213 589.0962)">W</text><text style="&st24; &st13;" transform="matrix(1 0 0 1 3593.3213 589.0962)">W</text><text style="&st24; &st13;" transform="matrix(0 -1 1 0 3677.4521 402.729)">V</text><text style="&st24; &st13;" transform="matrix(1 0 0 1 3543.1523 610.3462)">V</text><text style="&st24; &st13;" transform="matrix(1 0 0 1 3594.1514 610.3462)">V</text><text style="&st24; &st13;" transform="matrix(0 -1 1 0 3836.8311 158.6865)">L</text><text style="&st24; &st13;" transform="matrix(0 -1 1 0 3741.2031 62.5444)">L</text><text style="&st24; &st13;" transform="matrix(0 -1 1 0 3792.1934 636.1909)">BR</text><text style="&st24; &st13;" transform="matrix(0 -1 1 0 3803.6934 638.5147)">(*14)</text><text style="&st24; &st13;" transform="matrix(0 -1 1 0 3826.1943 391.1226)">BR</text><text style="&st24; &st13;" transform="matrix(0 -1 1 0 3826.1943 480.7124)">BR</text><text style="&st24; &st13;" transform="matrix(0 -1 1 0 3792.2021 105.437)">L</text><text style="&st24; &st13;" transform="matrix(0 -1 1 0 3836.8311 105.437)">L</text><text style="&st24; &st13;" transform="matrix(0 -1 1 0 3741.2031 169.1865)">L</text></svg>
