﻿<?xml version="1.0" encoding="UTF-8"?>
<!DOCTYPE svg PUBLIC "-//W3C//DTD SVG 1.0//EN" "http://www.w3.org/TR/2001/REC-SVG-20010904/DTD/svg10.dtd"[
<!ENTITY ns_flows "http://ns.adobe.com/Flows/1.0/">
<!ENTITY ns_svg "http://www.w3.org/2000/svg">
<!ENTITY ns_xlink "http://www.w3.org/1999/xlink">
	<!ENTITY st0 "fill:none;stroke:#FB0F0C;stroke-width:5.1;stroke-linejoin:round;">
	<!ENTITY st1 "fill:#CEE5E7;stroke:#000000;stroke-width:1.133;stroke-linecap:round;stroke-linejoin:round;">
	<!ENTITY st2 "fill:none;stroke:#FF7F00;stroke-width:1.3072;stroke-linecap:round;stroke-linejoin:round;stroke-dasharray:6;">
	<!ENTITY st3 "fill:none;stroke:#7FC31C;stroke-width:1.42;stroke-linejoin:round;">
	<!ENTITY st4 "fill:none;stroke:#FF7F00;stroke-width:0.9123;stroke-linecap:round;stroke-linejoin:round;">
	<!ENTITY st5 "font-family:'MS-PGothic','MS PGothic','ＭＳ Ｐゴシック';adobe-font-script:japanese;">
	<!ENTITY st6 "fill:none;stroke:#000000;stroke-width:5.1;stroke-linejoin:round;">
	<!ENTITY st7 "fill:none;stroke:#000000;stroke-linecap:round;stroke-linejoin:round;">
	<!ENTITY st8 "stroke:#000000;stroke-width:0.28;stroke-linecap:round;stroke-linejoin:round;">
	<!ENTITY st9 "fill:none;stroke:#EE67AA;stroke-width:5.1;stroke-linejoin:round;">
	<!ENTITY st10 "fill:none;stroke:#199DBF;stroke-width:5.1;stroke-linejoin:round;">
	<!ENTITY st11 "fill:none;stroke:#FFFFFF;stroke-width:4.53;stroke-linejoin:round;">
	<!ENTITY st12 "font-size:6px;">
	<!ENTITY st13 "fill:none;stroke:#000000;stroke-width:1.13;stroke-linejoin:round;">
	<!ENTITY st14 "fill:#CCCCCC;stroke:#CECECF;stroke-width:0.1;stroke-linecap:round;stroke-linejoin:round;">
	<!ENTITY st15 "fill:#FF0000;">
	<!ENTITY st16 "fill:#FFFFFF;stroke:#000000;stroke-width:1.41;stroke-linecap:round;stroke-linejoin:round;">
	<!ENTITY st17 "fill:none;stroke:#7FBE1F;">
	<!ENTITY st18 "fill:none;stroke:#000000;stroke-width:1.42;stroke-linejoin:round;">
	<!ENTITY st19 "font-family:'Arial';">
	<!ENTITY st20 "font-size:10px;alignment-baseline:alphabetic;">
	<!ENTITY st21 "fill:none;stroke:#000000;stroke-width:1.42;stroke-linecap:round;stroke-linejoin:round;">
	<!ENTITY st22 "fill:#CFE6E7;stroke:#000000;stroke-width:1.133;stroke-linecap:round;stroke-linejoin:round;">
	<!ENTITY st23 "font-size:21px;">
	<!ENTITY st24 "fill:none;stroke:#000000;stroke-width:0.85;stroke-linecap:round;stroke-linejoin:round;stroke-dasharray:3 1.5;">
	<!ENTITY st25 "fill:none;stroke:#0A50A1;stroke-width:1.3072;stroke-linecap:round;stroke-linejoin:round;stroke-dasharray:6;">
	<!ENTITY st26 "fill:#CFE6E7;stroke:#000000;stroke-width:1.13;stroke-linejoin:round;">
	<!ENTITY st27 "fill:none;stroke:#000000;stroke-width:0.85;stroke-linecap:round;stroke-linejoin:round;">
	<!ENTITY st28 "fill:none;stroke:#7EC57E;stroke-width:5.1;stroke-linejoin:round;">
	<!ENTITY st29 "font-size:6px;alignment-baseline:alphabetic;">
<!ATTLIST svg
xmlns:ewd CDATA #FIXED "http://shcl.co.jp/ewd"
xmlns:a CDATA #FIXED "http://ns.adobe.com/AdobeSVGViewerExtensions/3.0/"
ewd:ver CDATA #IMPLIED
>
<!ATTLIST a
ewd:lineID CDATA #IMPLIED
ewd:groupID CDATA #IMPLIED
ewd:figtype CDATA #IMPLIED
ewd:code CDATA #IMPLIED
ewd:figID CDATA #IMPLIED
ewd:pinNo CDATA #IMPLIED
ewd:comment CDATA #IMPLIED >
<!ATTLIST g
ewd:lineID CDATA #IMPLIED
ewd:groupID CDATA #IMPLIED
ewd:figtype CDATA #IMPLIED
ewd:code CDATA #IMPLIED
ewd:figID CDATA #IMPLIED
ewd:pinNo CDATA #IMPLIED
ewd:comment CDATA #IMPLIED >
<!ATTLIST text
ewd:textID CDATA #IMPLIED >
<!ATTLIST title
ewd:textID CDATA #IMPLIED >
]>
<svg onload="call_execInitLoadProc_svg('system')"
style="overflow:visible;  enable-background:new 0 0 1021.31 693.31"
viewBox="0 0 1021.31 693.31"
height='693.31'
width='1021.31'
xml:space="preserve"
xmlns="&ns_svg;"
xmlns:ewd="http://shcl.co.jp/ewd"
xmlns:a="http://ns.adobe.com/AdobeSVGViewerExtensions/3.0/"
xmlns:xlink="&ns_xlink;" ewd:ver="L2.3">
<style type="text/css">
</style>
<script type="text/javascript" xlink:href="../../../../../system/js/ewd/fig/svgfig.js"/>
<defs>
<font horiz-adv-x="1229">
<font-face font-family="Svg Symbol" units-per-em="2048" panose-1="5 5 1 2 1 7 6 2 5 7" ascent="2059" descent="450" alphabetic="0"/>
<missing-glyph d="M 103,0 l 0,1280 1024,0 0,-1280 -1024,0 z m 32,32 l 960,0 0,1216 -960,0 0,-1216 z"/>
<glyph unicode="&#xF057;" horiz-adv-x="1573" d="M 1517,0 l -567,0 24,279 q 141,59 207.5,168 66.5,109 66.5,306    0,272 -132.5,417.5 -132.5,145.5 -333.5,145.5 -194,0 -328,-147.5 -134,-147.5 -134,-401.5 0,-200 68.5,-319 68.5,-119     206.5,-169 l 25,-279 -564,0 0,279 35,0 q 3,-61 32,-83 45,-35 137,-35 l 270,0 0,70 q -210,61 -324.5,209 -114.5,148     -114.5,349 0,252 186.5,425 186.5,173 504.5,173 195,0 358.5,-73.5 163.5,-73.5 252,-214.5 88.5,-141 88.5,-310 0,-207     -121.5,-360.5 -121.5,-153.5 -317.5,-197.5 l -8,-70 275,0 q 92,0 128,28 36,28 42,90 l 38,0 0,-279 z"/>
</font>
</defs>
<g id="ewd_top">
  <a ewd:lineID='39' style='cursor:pointer;' ewd:comment='2'>
    <path style='&st10;' d='M 85.65 , 217.39 L 85.65 , 208.89 L 68.65 , 191.89 L 26.15 , 191.89 L 26.15 , 142.13'/>
</a>
  <a ewd:lineID='38' style='cursor:pointer;' ewd:comment='1'>
    <path style='&st10;' d='M 85.65 , 142.14 L 85.65 , 217.4'/>
</a>
  <a ewd:lineID='37' style='cursor:pointer;' ewd:comment='1'>
    <path style='&st10;' d='M 85.65 , 125.14 L 85.65 , 85.64'/>
</a>
  <a ewd:lineID='36' style='cursor:pointer;' ewd:comment='2'>
    <path style='&st10;' d='M 26.15 , 125.14 L 26.15 , 85.64'/>
</a>
  <a ewd:lineID='35' style='cursor:pointer;'>
    <path style='&st9;' d='M 85.65 , 319.39 L 85.65 , 398.39'/>
</a>
  <a ewd:lineID='34' style='cursor:pointer;'>
    <path style='&st9;' d='M 85.65 , 421.7 L 85.65 , 479.2'/>
</a>
  <a ewd:lineID='33' style='cursor:pointer;'>
    <path style='&st9;' d='M 85.65 , 531.2 L 85.65 , 588.7'/>
</a>
  <a ewd:lineID='32' style='cursor:pointer;'>
    <path style='&st6;' d='M 327.91 , 638.82 L 327.91 , 564.32 L 353.41 , 564.32 L 370.41 , 547.32 L 370.41 , 538.82'/>
    <path style='&st11;' d='M 327.91 , 638.82 L 327.91 , 564.32 L 353.41 , 564.32 L 370.41 , 547.32 L 370.41 , 538.82'/>
    <path style='&st13;' d='M 327.91 , 638.82 L 327.91 , 564.32 L 353.41 , 564.32 L 370.41 , 547.32 L 370.41 , 538.82'/>
</a>
  <a ewd:lineID='31' style='cursor:pointer;' ewd:comment='1'>
    <path style='&st6;' d='M 327.9 , 271.95 L 327.9 , 171.95 L 361.9 , 171.95'/>
</a>
  <a ewd:lineID='30' style='cursor:pointer;' ewd:comment='1'>
    <path style='&st6;' d='M 242.9 , 347.19 L 242.9 , 454.57 L 327.9 , 454.57 L 327.9 , 295.26'/>
</a>
  <a ewd:lineID='29' style='cursor:pointer;' ewd:comment='1'>
    <path style='&st28;' d='M 242.9 , 245.2 L 242.9 , 85.64'/>
</a>
  <a ewd:lineID='28' style='cursor:pointer;'>
    <path style='&st6;' d='M 111.15 , 319.39 L 111.15 , 340.64 L 153.65 , 340.64 L 153.65 , 311.07'/>
</a>
  <a ewd:lineID='27' style='cursor:pointer;'>
    <path style='&st6;' d='M 370.41 , 538.82 L 370.41 , 638.82'/>
    <path style='&st11;' d='M 370.41 , 538.82 L 370.41 , 638.82'/>
    <path style='&st13;' d='M 370.41 , 538.82 L 370.41 , 638.82'/>
</a>
  <a ewd:lineID='26' style='cursor:pointer;'>
    <path style='&st0;' d='M 434.15 , 237.95 L 434.15 , 171.95 L 378.9 , 171.95'/>
</a>
  <a ewd:lineID='25' style='cursor:pointer;'>
    <path style='&st6;' d='M 476.65 , 524.01 L 476.65 , 458.01 L 442.65 , 458.01'/>
    <path style='&st11;' d='M 476.65 , 524.01 L 476.65 , 458.01 L 442.65 , 458.01'/>
    <path style='&st13;' d='M 476.65 , 524.01 L 476.65 , 458.01 L 442.65 , 458.01'/>
</a>
  <a ewd:lineID='24' style='cursor:pointer;'>
    <path style='&st6;' d='M 370.4 , 318.76 L 370.4 , 261.26'/>
</a>
  <a ewd:lineID='23' style='cursor:pointer;'>
    <path style='&st6;' d='M 370.4 , 237.95 L 370.4 , 180.45'/>
</a>
  <a ewd:lineID='22' style='cursor:pointer;' ewd:comment='1'>
    <path style='&st10;' d='M 217.4 , 245.2 L 217.4 , 236.7 L 200.4 , 219.7 L 191.9 , 219.7 L 191.9 , 268.57 L 170.65 , 268.57 L 153.65 , 285.57 L 153.65 , 294.07'/>
</a>
  <a ewd:lineID='21' style='cursor:pointer;'>
    <path style='&st6;' d='M 217.4 , 489.7 L 217.4 , 536.58'/>
    <path style='&st11;' d='M 217.4 , 489.7 L 217.4 , 536.58'/>
    <path style='&st13;' d='M 217.4 , 489.7 L 217.4 , 536.58'/>
</a>
  <a ewd:lineID='20' style='cursor:pointer;'>
    <path style='&st6;' d='M 217.4 , 553.57 L 217.4 , 600.45'/>
    <path style='&st11;' d='M 217.4 , 553.57 L 217.4 , 600.45'/>
    <path style='&st13;' d='M 217.4 , 553.57 L 217.4 , 600.45'/>
</a>
  <a ewd:lineID='19' style='cursor:pointer;'>
    <path style='&st6;' d='M 217.4 , 617.45 L 217.4 , 664.33'/>
    <path style='&st11;' d='M 217.4 , 617.45 L 217.4 , 664.33'/>
    <path style='&st13;' d='M 217.4 , 617.45 L 217.4 , 664.33'/>
</a>
  <a ewd:lineID='18' style='cursor:pointer;'>
    <path style='&st10;' d='M 111.15 , 217.39 L 111.15 , 158.01 L 153.65 , 158.01 L 153.65 , 142.13'/>
</a>
  <a ewd:lineID='17' style='cursor:pointer;'>
    <path style='&st10;' d='M 153.65 , 85.64 L 153.65 , 125.13'/>
</a>
  <a ewd:lineID='16' style='cursor:pointer;'>
    <path style='&st6;' d='M 370.4 , 449.51 L 370.4 , 392.01'/>
    <path style='&st11;' d='M 370.4 , 449.51 L 370.4 , 392.01'/>
    <path style='&st13;' d='M 370.4 , 449.51 L 370.4 , 392.01'/>
</a>
  <a ewd:lineID='15' style='cursor:pointer;'>
    <path style='&st6;' d='M 370.4 , 466.51 L 370.4 , 524.01'/>
    <path style='&st11;' d='M 370.4 , 466.51 L 370.4 , 524.01'/>
    <path style='&st13;' d='M 370.4 , 466.51 L 370.4 , 524.01'/>
</a>
  <a ewd:lineID='14' style='cursor:pointer;'>
    <path style='&st6;' d='M 434.15 , 261.26 L 434.15 , 318.76'/>
</a>
  <a ewd:lineID='13' style='cursor:pointer;'>
    <path style='&st6;' d='M 434.15 , 392.01 L 434.15 , 449.51'/>
    <path style='&st11;' d='M 434.15 , 392.01 L 434.15 , 449.51'/>
    <path style='&st13;' d='M 434.15 , 392.01 L 434.15 , 449.51'/>
</a>
  <a ewd:lineID='12' style='cursor:pointer;'>
    <path style='&st6;' d='M 434.15 , 466.51 L 434.15 , 524.01'/>
    <path style='&st11;' d='M 434.15 , 466.51 L 434.15 , 524.01'/>
    <path style='&st13;' d='M 434.15 , 466.51 L 434.15 , 524.01'/>
</a>
  <a ewd:lineID='11' style='cursor:pointer;'>
    <path style='&st6;' d='M 434.16 , 538.82 L 434.16 , 638.82'/>
    <path style='&st11;' d='M 434.16 , 538.82 L 434.16 , 638.82'/>
    <path style='&st13;' d='M 434.16 , 538.82 L 434.16 , 638.82'/>
</a>
  <a ewd:lineID='10' style='cursor:pointer;'>
    <path style='&st6;' d='M 476.66 , 538.82 L 476.66 , 638.82'/>
    <path style='&st11;' d='M 476.66 , 538.82 L 476.66 , 638.82'/>
    <path style='&st13;' d='M 476.66 , 538.82 L 476.66 , 638.82'/>
</a>
  <a ewd:lineID='9' style='cursor:pointer;' ewd:comment='2'>
    <path style='&st28;' d='M 242.9 , 245.2 L 242.9 , 236.7 L 259.9 , 219.7 L 270.53 , 219.7 L 270.53 , 177.07'/>
</a>
  <a ewd:lineID='8' style='cursor:pointer;' ewd:comment='2'>
    <path style='&st28;' d='M 242.9 , 85.64 L 242.9 , 94.14 L 259.9 , 111.14 L 270.53 , 111.14 L 270.53 , 153.77'/>
</a>
  <a ewd:lineID='7' style='cursor:pointer;' ewd:comment='2'>
    <path style='&st6;' d='M 217.4 , 347.19 L 217.4 , 355.69 L 200.4 , 372.69 L 179.15 , 372.69'/>
    <path style='&st11;' d='M 217.4 , 347.19 L 217.4 , 355.69 L 200.4 , 372.69 L 179.15 , 372.69'/>
    <path style='&st13;' d='M 217.4 , 347.19 L 217.4 , 355.69 L 200.4 , 372.69 L 179.15 , 372.69'/>
</a>
  <a ewd:lineID='6' style='cursor:pointer;' ewd:comment='2'>
    <path style='&st6;' d='M 170.65 , 413.2 L 170.65 , 381.19'/>
    <path style='&st11;' d='M 170.65 , 413.2 L 170.65 , 381.19'/>
    <path style='&st13;' d='M 170.65 , 413.2 L 170.65 , 381.19'/>
</a>
  <a ewd:lineID='5' style='cursor:pointer;' ewd:comment='2'>
    <path style='&st6;' d='M 170.66 , 436.51 L 170.66 , 481.19 L 208.91 , 481.19'/>
    <path style='&st11;' d='M 170.66 , 436.51 L 170.66 , 481.19 L 208.91 , 481.19'/>
    <path style='&st13;' d='M 170.66 , 436.51 L 170.66 , 481.19 L 208.91 , 481.19'/>
</a>
  <a ewd:lineID='4' style='cursor:pointer;' ewd:comment='2'>
    <path style='&st6;' d='M 242.9 , 347.19 L 242.9 , 355.69 L 259.9 , 372.69 L 259.9 , 433.32 L 302.4 , 433.32 L 302.4 , 129.45 L 370.4 , 129.45 L 370.4 , 163.45'/>
</a>
  <a ewd:lineID='3' style='cursor:pointer;' ewd:comment='2'>
    <path style='&st6;' d='M 153.65 , 213.26 L 153.65 , 177.08 L 217.4 , 177.08 L 217.4 , 245.21'/>
</a>
  <a ewd:lineID='2' style='cursor:pointer;' ewd:comment='2'>
    <path style='&st6;' d='M 153.65 , 236.57 L 153.65 , 294.07'/>
</a>
  <a ewd:lineID='1' style='cursor:pointer;' ewd:comment='1'>
    <path style='&st6;' d='M 217.4 , 472.7 L 217.4 , 347.2'/>
    <path style='&st11;' d='M 217.4 , 472.7 L 217.4 , 347.2'/>
    <path style='&st13;' d='M 217.4 , 472.7 L 217.4 , 347.2'/>
</a>
  <a ewd:code='G106' ewd:figtype='conn' style='cursor:pointer;' ewd:figID='1'>
    <path style='&st22;' d='M 319.41 , 638.82 L 336.41 , 638.82 L 336.41 , 655.82 L 319.41 , 655.82 L 319.41 , 638.82'/>
    <title ewd:textID='5'>Junction Connector</title>
  </a>
  <a ewd:code='G104' ewd:figtype='conn' style='cursor:pointer;' ewd:figID='2'>
    <path style='&st22;' d='M 468.16 , 638.82 L 485.16 , 638.82 L 485.16 , 655.82 L 468.16 , 655.82 L 468.16 , 638.82'/>
    <title ewd:textID='5'>Junction Connector</title>
  </a>
  <a ewd:code='K1' ewd:figtype='conn' style='cursor:pointer;' ewd:figID='3'>
    <path style='&st26;' d='M 351.28 , 383.01 L 351.28 , 327.76 L 387.41 , 327.76 L 387.41 , 383.01 L 351.28 , 383.01 L 351.28 , 383.01'/>
    <title ewd:textID='8'>Outer Rear View Mirror Assembly LH</title>
  </a>
  <a ewd:code='J2' ewd:figtype='conn' style='cursor:pointer;' ewd:figID='4'>
    <path style='&st26;' d='M 415.03 , 383.01 L 415.03 , 327.76 L 451.16 , 327.76 L 451.16 , 383.01 L 415.03 , 383.01 L 415.03 , 383.01'/>
    <title ewd:textID='9'>Outer Rear View Mirror Assembly RH</title>
  </a>
  <a ewd:code='G106' ewd:figtype='conn' style='cursor:pointer;' ewd:figID='5'>
    <path style='&st22;' d='M 425.66 , 638.82 L 442.66 , 638.82 L 442.66 , 655.82 L 425.66 , 655.82 L 425.66 , 638.82'/>
    <title ewd:textID='5'>Junction Connector</title>
  </a>
  <a ewd:code='G104' ewd:figtype='conn' style='cursor:pointer;' ewd:figID='6'>
    <path style='&st22;' d='M 361.91 , 638.82 L 378.91 , 638.82 L 378.91 , 655.82 L 361.91 , 655.82 L 361.91 , 638.82'/>
    <title ewd:textID='5'>Junction Connector</title>
  </a>
  <a ewd:code='A68' ewd:figtype='conn' style='cursor:pointer;' ewd:figID='7'>
    <path style='&st22;' d='M 208.9 , 536.57 L 225.9 , 536.57 L 225.9 , 553.57 L 208.9 , 553.57 L 208.9 , 536.57'/>
    <title ewd:textID='5'>Junction Connector</title>
  </a>
  <a ewd:code='A126' ewd:figtype='conn' style='cursor:pointer;' ewd:figID='8'>
    <path style='&st22;' d='M 17.65 , 125.14 L 34.65 , 125.14 L 34.65 , 142.14 L 17.65 , 142.14 L 17.65 , 125.14'/>
    <title ewd:textID='5'>Junction Connector</title>
  </a>
  <a ewd:code='A69' ewd:figtype='conn' style='cursor:pointer;' ewd:figID='9'>
    <path style='&st22;' d='M 77.15 , 125.14 L 94.15 , 125.14 L 94.15 , 142.14 L 77.15 , 142.14 L 77.15 , 125.14'/>
    <title ewd:textID='5'>Junction Connector</title>
  </a>
  <a ewd:code='G23' ewd:figtype='conn' style='cursor:pointer;' ewd:figID='10'>
    <path style='&st26;' d='M 47.4 , 622.7 L 47.4 , 588.7 L 123.9 , 588.7 L 123.9 , 622.7 L 47.4 , 622.7 L 47.4 , 622.7'/>
    <title ewd:textID='4'>Integration Control and Panel Assembly</title>
  </a>
  <a ewd:code='G25-B' ewd:figtype='conn' style='cursor:pointer;' ewd:figID='11'>
    <path style='&st26;' d='M 68.65 , 522.21 L 68.65 , 488.21 L 102.65 , 488.21 L 102.65 , 522.21 L 68.65 , 522.21 L 68.65 , 522.21'/>
    <title ewd:textID='2'>A/C Amplifier Assembly</title>
  </a>
  <a ewd:code='G5' ewd:figtype='gp' style='cursor:pointer;' ewd:figID='2001'>
    <path style='&st16;' d='M 317.29 , 664.32 L 338.53 , 664.32 L 327.91 , 679.9 L 317.29 , 664.32'/>
    <text style='&st19; &st12;' transform='matrix(1 0 0 1 323.9033 671.3062)'>G5</text>
  </a>
  <a ewd:code='G3' ewd:figtype='gp' style='cursor:pointer;' ewd:figID='2002'>
    <path style='&st16;' d='M 466.04 , 664.32 L 487.28 , 664.32 L 476.66 , 679.9 L 466.04 , 664.32'/>
    <text style='&st19; &st12;' transform='matrix(1 0 0 1 472.6533 671.3062)'>G3</text>
  </a>
  <a ewd:code='G5' ewd:figtype='gp' style='cursor:pointer;' ewd:figID='2003'>
    <path style='&st16;' d='M 423.54 , 664.32 L 444.78 , 664.32 L 434.16 , 679.9 L 423.54 , 664.32'/>
    <text style='&st19; &st12;' transform='matrix(1 0 0 1 430.1543 671.3062)'>G5</text>
  </a>
  <a ewd:code='G3' ewd:figtype='gp' style='cursor:pointer;' ewd:figID='2004'>
    <path style='&st16;' d='M 359.79 , 664.32 L 381.03 , 664.32 L 370.41 , 679.9 L 359.79 , 664.32'/>
    <text style='&st19; &st12;' transform='matrix(1 0 0 1 366.4033 671.3062)'>G3</text>
  </a>
  <a ewd:code='A2' ewd:figtype='gp' style='cursor:pointer;' ewd:figID='2005'>
    <path style='&st16;' d='M 206.78 , 664.32 L 228.02 , 664.32 L 217.4 , 679.9 L 206.78 , 664.32'/>
    <text style='&st19; &st12;' transform='matrix(1 0 0 1 213.7324 671.3062)'>A2</text>
  </a>
  <a ewd:code='2' ewd:figtype='jb' style='cursor:pointer;' ewd:figID='3001'>
    <path style='&st14;' d='M 9.15 , 17.65 L 9.15 , 85.64 L 64.4 , 85.64 L 64.4 , 17.65 L 9.15 , 17.65 L 9.15 , 17.65'/>
  </a>
  <a ewd:code='2' ewd:figtype='jb' style='cursor:pointer;' ewd:figID='3002'>
    <path style='&st14;' d='M 68.65 , 17.65 L 68.65 , 85.64 L 123.9 , 85.64 L 123.9 , 17.65 L 68.65 , 17.65 L 68.65 , 17.65'/>
  </a>
  <a ewd:code='FUSE44' ewd:figtype='rb' style='cursor:pointer;' ewd:figID='4001'>
    <path style='&st22;' d='M 140.9 , 17.65 L 140.9 , 60.14 L 166.4 , 60.14 L 166.4 , 17.65 L 140.9 , 17.65'/>
  </a>
  <a ewd:code='FUSE26' ewd:figtype='rb' style='cursor:pointer;' ewd:figID='4002'>
    <path style='&st22;' d='M 230.15 , 17.65 L 230.15 , 60.14 L 255.65 , 60.14 L 255.65 , 17.65 L 230.15 , 17.65'/>
  </a>
  <a ewd:code='1' ewd:figtype='rb' style='cursor:pointer;' ewd:figID='4003'>
    <path style='&st22;' d='M 119.65 , 251.39 L 77.15 , 251.39 L 77.15 , 285.39 L 119.65 , 285.39 L 119.65 , 251.39'/>
  </a>
  <a ewd:code='1,8' ewd:figtype='rb' style='cursor:pointer;' ewd:figID='4004'>
    <path style='&st1;' d='M 251.4 , 279.2 L 208.9 , 279.2 L 208.9 , 313.19 L 251.4 , 313.19 L 251.4 , 279.2'/>
  </a>
  <a ewd:code='718001' ewd:figtype='sp' style='cursor:pointer;' ewd:figID='5001'>
    <path style='&st16;' d='M 166.4 , 364.19 L 174.9 , 364.19 L 179.15 , 368.44 L 179.15 , 376.94 L 174.9 , 381.19 L 166.4 , 381.19 L 162.15 , 376.94 L 162.15 , 368.44 L 166.4 , 364.19'/>
  </a>
  <a ewd:code='718002' ewd:figtype='sp' style='cursor:pointer;' ewd:figID='5002'>
    <path style='&st16;' d='M 429.9 , 449.51 L 438.4 , 449.51 L 442.65 , 453.76 L 442.65 , 462.26 L 438.4 , 466.51 L 429.9 , 466.51 L 425.65 , 462.26 L 425.65 , 453.76 L 429.9 , 449.51'/>
  </a>
  <a ewd:code='718003' ewd:figtype='sp' style='cursor:pointer;' ewd:figID='5003'>
    <path style='&st16;' d='M 366.15 , 449.51 L 374.65 , 449.51 L 378.9 , 453.76 L 378.9 , 462.26 L 374.65 , 466.51 L 366.15 , 466.51 L 361.9 , 462.26 L 361.9 , 453.76 L 366.15 , 449.51'/>
  </a>
  <a ewd:code='718004' ewd:figtype='sp' style='cursor:pointer;' ewd:figID='5004'>
    <path style='&st16;' d='M 149.4 , 125.14 L 157.9 , 125.14 L 162.15 , 129.39 L 162.15 , 137.89 L 157.9 , 142.14 L 149.4 , 142.14 L 145.15 , 137.89 L 145.15 , 129.39 L 149.4 , 125.14'/>
  </a>
  <a ewd:code='718005' ewd:figtype='sp' style='cursor:pointer;' ewd:figID='5005'>
    <path style='&st16;' d='M 213.15 , 600.45 L 221.65 , 600.45 L 225.9 , 604.7 L 225.9 , 613.2 L 221.65 , 617.45 L 213.15 , 617.45 L 208.9 , 613.2 L 208.9 , 604.7 L 213.15 , 600.45'/>
  </a>
  <a ewd:code='718006' ewd:figtype='sp' style='cursor:pointer;' ewd:figID='5006'>
    <path style='&st16;' d='M 213.15 , 472.7 L 221.65 , 472.7 L 225.9 , 476.95 L 225.9 , 485.45 L 221.65 , 489.7 L 213.15 , 489.7 L 208.9 , 485.45 L 208.9 , 476.95 L 213.15 , 472.7'/>
  </a>
  <a ewd:code='718007' ewd:figtype='sp' style='cursor:pointer;' ewd:figID='5007'>
    <path style='&st16;' d='M 149.4 , 294.07 L 157.9 , 294.07 L 162.15 , 298.32 L 162.15 , 306.82 L 157.9 , 311.07 L 149.4 , 311.07 L 145.15 , 306.82 L 145.15 , 298.32 L 149.4 , 294.07'/>
  </a>
  <a ewd:code='718008' ewd:figtype='sp' style='cursor:pointer;' ewd:figID='5008'>
    <path style='&st16;' d='M 366.15 , 163.45 L 374.65 , 163.45 L 378.9 , 167.7 L 378.9 , 176.2 L 374.65 , 180.45 L 366.15 , 180.45 L 361.9 , 176.2 L 361.9 , 167.7 L 366.15 , 163.45'/>
  </a>
  <a ewd:code='GA1' ewd:figtype='w2w' style='cursor:pointer;' ewd:figID='6001' ewd:pinNo='52' >
    <path style='&st16;' d='M 179.15 , 413.2 L 162.15 , 413.2 L 162.15 , 421.7 L 179.15 , 421.7 L 179.15 , 413.2'/>
    <text style='&st19; &st12;' transform='matrix(1 0 0 1 164.6479 419.481)'>GA1</text>
  </a>
  <a ewd:code='GA6' ewd:figtype='w2w' style='cursor:pointer;' ewd:figID='6002' ewd:pinNo='58' >
    <path style='&st16;' d='M 179.15 , 421.7 L 162.15 , 421.7 L 162.15 , 430.2 L 179.15 , 430.2 L 179.15 , 421.7'/>
    <text style='&st19; &st12;' transform='matrix(1 0 0 1 164.6479 427.981)'>GA6</text>
  </a>
  <a ewd:code='KG1' ewd:figtype='w2w' style='cursor:pointer;' ewd:figID='6003' ewd:pinNo='14' >
    <path style='&st16;' d='M 378.9 , 244.26 L 361.9 , 244.26 L 361.9 , 252.76 L 378.9 , 252.76 L 378.9 , 244.26'/>
    <text style='&st19; &st12;' transform='matrix(1 0 0 1 364.3984 250.5396)'>KG1</text>
  </a>
  <a ewd:code='KG3' ewd:figtype='w2w' style='cursor:pointer;' ewd:figID='6004' ewd:pinNo='9' >
    <path style='&st16;' d='M 378.9 , 252.76 L 361.9 , 252.76 L 361.9 , 261.26 L 378.9 , 261.26 L 378.9 , 252.76'/>
    <text style='&st19; &st12;' transform='matrix(1 0 0 1 364.3984 259.0396)'>KG3</text>
  </a>
  <a ewd:code='JG3' ewd:figtype='w2w' style='cursor:pointer;' ewd:figID='6005' ewd:pinNo='8' >
    <path style='&st16;' d='M 442.65 , 244.26 L 425.65 , 244.26 L 425.65 , 252.76 L 442.65 , 252.76 L 442.65 , 244.26'/>
    <text style='&st19; &st12;' transform='matrix(1 0 0 1 428.6494 250.5396)'>JG3</text>
  </a>
  <a ewd:code='JG1' ewd:figtype='w2w' style='cursor:pointer;' ewd:figID='6006' ewd:pinNo='12' >
    <path style='&st16;' d='M 442.65 , 252.76 L 425.65 , 252.76 L 425.65 , 261.26 L 442.65 , 261.26 L 442.65 , 252.76'/>
    <text style='&st19; &st12;' transform='matrix(1 0 0 1 428.6494 259.0396)'>JG1</text>
  </a>
  <a ewd:code='JG3' ewd:figtype='w2w' style='cursor:pointer;' ewd:figID='6007' ewd:pinNo='7' >
    <path style='&st16;' d='M 485.15 , 524.01 L 468.15 , 524.01 L 468.15 , 532.51 L 485.15 , 532.51 L 485.15 , 524.01'/>
    <text style='&st19; &st12;' transform='matrix(1 0 0 1 471.1494 530.2905)'>JG3</text>
  </a>
  <a ewd:code='JG3' ewd:figtype='w2w' style='cursor:pointer;' ewd:figID='6008' ewd:pinNo='12' >
    <path style='&st16;' d='M 442.65 , 524.01 L 425.65 , 524.01 L 425.65 , 532.51 L 442.65 , 532.51 L 442.65 , 524.01'/>
    <text style='&st19; &st12;' transform='matrix(1 0 0 1 428.6504 530.2905)'>JG3</text>
  </a>
  <a ewd:code='KG3' ewd:figtype='w2w' style='cursor:pointer;' ewd:figID='6009' ewd:pinNo='7' >
    <path style='&st16;' d='M 378.9 , 524.01 L 361.9 , 524.01 L 361.9 , 532.51 L 378.9 , 532.51 L 378.9 , 524.01'/>
    <text style='&st19; &st12;' transform='matrix(1 0 0 1 364.3984 530.2905)'>KG3</text>
  </a>
  <a ewd:code='GA2' ewd:figtype='w2w' style='cursor:pointer;' ewd:figID='6010' ewd:pinNo='40' >
    <path style='&st16;' d='M 94.15 , 404.7 L 77.15 , 404.7 L 77.15 , 413.2 L 94.15 , 413.2 L 94.15 , 404.7'/>
    <text style='&st19; &st12;' transform='matrix(1 0 0 1 79.6479 410.979)'>GA2</text>
  </a>
  <a ewd:code='GA1' ewd:figtype='w2w' style='cursor:pointer;' ewd:figID='6011' ewd:pinNo='53' >
    <path style='&st16;' d='M 94.15 , 413.2 L 77.15 , 413.2 L 77.15 , 421.7 L 94.15 , 421.7 L 94.15 , 413.2'/>
    <text style='&st19; &st12;' transform='matrix(1 0 0 1 79.6479 419.479)'>GA1</text>
  </a>
  <a ewd:code='GA1' ewd:figtype='w2w' style='cursor:pointer;' ewd:figID='6012' ewd:pinNo='9' >
    <path style='&st16;' d='M 336.4 , 271.95 L 319.4 , 271.95 L 319.4 , 280.45 L 336.4 , 280.45 L 336.4 , 271.95'/>
    <text style='&st19; &st12;' transform='matrix(1 0 0 1 321.8955 278.2285)'>GA1</text>
  </a>
  <a ewd:code='GA1' ewd:figtype='w2w' style='cursor:pointer;' ewd:figID='6013' ewd:pinNo='10' >
    <path style='&st16;' d='M 336.4 , 280.45 L 319.4 , 280.45 L 319.4 , 288.95 L 336.4 , 288.95 L 336.4 , 280.45'/>
    <text style='&st19; &st12;' transform='matrix(1 0 0 1 321.8955 286.7285)'>GA1</text>
  </a>
  <a ewd:code='GA1' ewd:figtype='w2w' style='cursor:pointer;' ewd:figID='6014' ewd:pinNo='9' >
    <path style='&st16;' d='M 279.03 , 160.08 L 262.03 , 160.08 L 262.03 , 168.58 L 279.03 , 168.58 L 279.03 , 160.08'/>
    <text style='&st19; &st12;' transform='matrix(1 0 0 1 264.5234 166.3535)'>GA1</text>
  </a>
  <a ewd:code='GA1' ewd:figtype='w2w' style='cursor:pointer;' ewd:figID='6015' ewd:pinNo='10' >
    <path style='&st16;' d='M 279.03 , 168.58 L 262.03 , 168.58 L 262.03 , 177.08 L 279.03 , 177.08 L 279.03 , 168.58'/>
    <text style='&st19; &st12;' transform='matrix(1 0 0 1 264.5234 174.8535)'>GA1</text>
  </a>
  <a ewd:code='GA1' ewd:figtype='w2w' style='cursor:pointer;' ewd:figID='6016' ewd:pinNo='3' >
    <path style='&st16;' d='M 162.15 , 213.26 L 145.15 , 213.26 L 145.15 , 221.76 L 162.15 , 221.76 L 162.15 , 213.26'/>
    <text style='&st19; &st12;' transform='matrix(1 0 0 1 147.645 219.5347)'>GA1</text>
  </a>
  <a ewd:code='GA1' ewd:figtype='w2w' style='cursor:pointer;' ewd:figID='6017' ewd:pinNo='9' >
    <path style='&st16;' d='M 162.15 , 221.76 L 145.15 , 221.76 L 145.15 , 230.26 L 162.15 , 230.26 L 162.15 , 221.76'/>
    <text style='&st19; &st12;' transform='matrix(1 0 0 1 147.645 228.0347)'>GA1</text>
  </a>
  <a ewd:code='FUSE75' ewd:figtype='fuse' style='cursor:pointer;' ewd:figID='1001'>
    <path style='&st21;' d='M 13.4 , 17.65 L 13.4 , 60.14 L 38.9 , 60.14 L 38.9 , 17.65 L 13.4 , 17.65'/>
  </a>
  <a ewd:code='FUSE75' ewd:figtype='fuse' style='cursor:pointer;' ewd:figID='1002'>
    <path style='&st21;' d='M 72.9 , 17.65 L 72.9 , 60.14 L 98.4 , 60.14 L 98.4 , 17.65 L 72.9 , 17.65'/>
  </a>
  <a ewd:code='FUSE44' ewd:figtype='fuse' style='cursor:pointer;' ewd:figID='1003'>
    <path style='&st21;' d='M 140.9 , 17.65 L 140.9 , 60.14 L 166.4 , 60.14 L 166.4 , 17.65 L 140.9 , 17.65'/>
  </a>
  <a ewd:code='FUSE26' ewd:figtype='fuse' style='cursor:pointer;' ewd:figID='1004'>
    <path style='&st21;' d='M 230.15 , 17.65 L 230.15 , 60.14 L 255.65 , 60.14 L 255.65 , 17.65 L 230.15 , 17.65'/>
  </a>
<g ewd:pinNo='9'  ewd:code='GA1' ewd:figID='6017' ewd:figtype='w2w'>
    <path style='&st16;' d='M 153.65 , 230.26 L 162.15 , 230.26'/>
    <path style='&st21;' d='M 149.41 , 239.32 L 153.65 , 235.07 L 157.9 , 239.32'/>
    <path style='&st21;' d='M 157.9 , 235.92 L 153.65 , 231.67 L 149.41 , 235.92'/>
    <text style='&st19; &st12;' transform='matrix(1 0 0 1 138.4614 228.0347)'>9</text>
    <text style='&st19; &st12;' transform='matrix(1 0 0 1 164.2729 228.0347)'>(RHD)</text>
</g>
<g ewd:pinNo='9'  ewd:code='GA1' ewd:figID='6014' ewd:figtype='w2w'>
    <path style='&st16;' d='M 262.03 , 160.08 L 270.53 , 160.08'/>
    <path style='&st21;' d='M 266.29 , 151.02 L 270.53 , 155.27 L 274.78 , 151.02'/>
    <path style='&st21;' d='M 274.78 , 154.42 L 270.53 , 158.67 L 266.29 , 154.42'/>
    <text style='&st19; &st12;' transform='matrix(1 0 0 1 255.3398 166.3535)'>9</text>
    <text style='&st19; &st12;' transform='matrix(1 0 0 1 281.1514 166.3535)'>(LHD)</text>
</g>
<g ewd:pinNo='10'  ewd:code='GA1' ewd:figID='6013' ewd:figtype='w2w'>
    <path style='&st16;' d='M 327.9 , 288.95 L 336.4 , 288.95'/>
    <path style='&st21;' d='M 323.66 , 298.01 L 327.9 , 293.76 L 332.15 , 298.01'/>
    <path style='&st21;' d='M 332.15 , 294.61 L 327.9 , 290.36 L 323.66 , 294.61'/>
    <text style='&st19; &st12;' transform='matrix(1 0 0 1 309.375 286.7285)'>10</text>
    <text style='&st19; &st12;' transform='matrix(1 0 0 1 338.5234 286.7285)'>(RHD)</text>
</g>
<g ewd:pinNo='40'  ewd:code='GA2' ewd:figID='6010' ewd:figtype='w2w'>
    <path style='&st16;' d='M 77.15 , 404.7 L 85.65 , 404.7'/>
    <path style='&st21;' d='M 81.41 , 395.64 L 85.65 , 399.89 L 89.9 , 395.64'/>
    <path style='&st21;' d='M 89.9 , 399.04 L 85.65 , 403.29 L 81.41 , 399.04'/>
    <text style='&st19; &st12;' transform='matrix(1 0 0 1 67.1274 410.979)'>40</text>
    <text style='&st19; &st12;' transform='matrix(1 0 0 1 96.2759 410.979)'>(LHD)</text>
</g>
<g ewd:pinNo='7'  ewd:code='KG3' ewd:figID='6009' ewd:figtype='w2w'>
    <path style='&st16;' d='M 370.4 , 532.51 L 378.9 , 532.51'/>
    <path style='&st21;' d='M 366.17 , 541.57 L 370.41 , 537.32 L 374.66 , 541.57'/>
    <path style='&st21;' d='M 374.65 , 538.17 L 370.4 , 533.92 L 366.16 , 538.17'/>
    <text style='&st19; &st12;' transform='matrix(1 0 0 1 355.2148 530.2905)'>7</text>
</g>
<g ewd:pinNo='12'  ewd:code='JG3' ewd:figID='6008' ewd:figtype='w2w'>
    <path style='&st16;' d='M 434.15 , 532.51 L 442.65 , 532.51'/>
    <path style='&st21;' d='M 429.92 , 541.57 L 434.16 , 537.32 L 438.41 , 541.57'/>
    <path style='&st21;' d='M 438.4 , 538.17 L 434.15 , 533.92 L 429.91 , 538.17'/>
    <text style='&st19; &st12;' transform='matrix(1 0 0 1 415.6289 530.2905)'>12</text>
</g>
<g ewd:pinNo='7'  ewd:code='JG3' ewd:figID='6007' ewd:figtype='w2w'>
    <path style='&st16;' d='M 476.65 , 532.51 L 485.15 , 532.51'/>
    <path style='&st21;' d='M 472.42 , 541.57 L 476.66 , 537.32 L 480.91 , 541.57'/>
    <path style='&st21;' d='M 480.9 , 538.17 L 476.65 , 533.92 L 472.41 , 538.17'/>
    <text style='&st19; &st12;' transform='matrix(1 0 0 1 461.4648 530.2905)'>7</text>
</g>
<g ewd:pinNo='8'  ewd:code='JG3' ewd:figID='6005' ewd:figtype='w2w'>
    <path style='&st16;' d='M 425.65 , 244.26 L 434.15 , 244.26'/>
    <path style='&st21;' d='M 429.91 , 235.2 L 434.15 , 239.45 L 438.4 , 235.2'/>
    <path style='&st21;' d='M 438.4 , 238.6 L 434.15 , 242.85 L 429.91 , 238.6'/>
    <text style='&st19; &st12;' transform='matrix(1 0 0 1 418.9648 250.5396)'>8</text>
    <text style='&st19; &st12;' transform='matrix(1 0 0 1 444.7764 250.5396)'>(LHD)</text>
</g>
<g ewd:pinNo='14'  ewd:code='KG1' ewd:figID='6003' ewd:figtype='w2w'>
    <path style='&st16;' d='M 361.9 , 244.26 L 370.4 , 244.26'/>
    <path style='&st21;' d='M 366.16 , 235.2 L 370.4 , 239.45 L 374.65 , 235.2'/>
    <path style='&st21;' d='M 374.65 , 238.6 L 370.4 , 242.85 L 366.16 , 238.6'/>
    <text style='&st19; &st12;' transform='matrix(1 0 0 1 351.8779 250.5396)'>14</text>
    <text style='&st19; &st12;' transform='matrix(1 0 0 1 381.0264 250.5396)'>(LHD)</text>
</g>
<g ewd:pinNo='58'  ewd:code='GA6' ewd:figID='6002' ewd:figtype='w2w'>
    <path style='&st16;' d='M 170.65 , 430.2 L 179.15 , 430.2'/>
    <path style='&st21;' d='M 166.42 , 439.26 L 170.66 , 435.01 L 174.91 , 439.26'/>
    <path style='&st21;' d='M 174.9 , 435.86 L 170.65 , 431.61 L 166.41 , 435.86'/>
    <text style='&st19; &st12;' transform='matrix(1 0 0 1 152.1274 427.981)'>58</text>
    <text style='&st19; &st12;' transform='matrix(1 0 0 1 181.2759 427.981)'>(RHD)</text>
</g>
<g ewd:code='1,8' ewd:figID='4004' ewd:figtype='rb' ewd:comment='1,2'>
    <path style='&st27;' d='M217.4,297.61c-0.99,0-1.84,0.36-2.53,1.07'/>
    <path style='&st27;' d='M220.94,301.15c0-1.95-1.59-3.54-3.54-3.54'/>
    <path style='&st27;' d='M217.4,304.7c1.95,0,3.54-1.59,3.54-3.55'/>
    <path style='&st27;' d='M214.92,293.67c-0.02,0.02-0.03,0.03-0.05,0.05'/>
    <path style='&st27;' d='M219.93,293.72c-1.37-1.4-3.61-1.42-5.01-0.05'/>
    <path style='&st27;' d='M219.88,298.73c1.39-1.37,1.42-3.61,0.05-5.01'/>
    <path style='&st27;' d='M214.87,298.68c1.37,1.39,3.61,1.42,5.01,0.05'/>
    <path style='&st27;' d='M219.93,288.76c-0.7-0.71-1.54-1.06-2.53-1.06'/>
    <path style='&st27;' d='M219.88,293.77c1.39-1.37,1.42-3.61,0.05-5.01'/>
    <path style='&st27;' d='M214.87,293.72c1.37,1.4,3.61,1.42,5.01,0.05'/>
    <path style='&st27;' d='M242.9,286.28c-0.78,0-1.42-0.63-1.42-1.41'/>
    <path style='&st27;' d='M244.31,284.87c0,0.78-0.63,1.41-1.41,1.41'/>
    <path style='&st27;' d='M242.9,283.45c0.78,0,1.41,0.63,1.41,1.42'/>
    <path style='&st27;' d='M241.48,284.87c0-0.79,0.64-1.42,1.42-1.42'/>
    <path style='&st27;' d='M242.9,308.95c-0.78,0-1.42-0.64-1.42-1.42'/>
    <path style='&st27;' d='M244.31,307.53c0,0.78-0.63,1.42-1.41,1.42'/>
    <path style='&st27;' d='M242.9,306.11c0.78,0,1.41,0.64,1.41,1.42'/>
    <path style='&st27;' d='M241.48,307.53c0-0.78,0.64-1.42,1.42-1.42'/>
    <path style='&st21;' d='M 251.4 , 279.2 L 208.9 , 279.2 L 208.9 , 313.19 L 251.4 , 313.19 L 251.4 , 279.2'/>
    <path style='&st8;' d='M 217.4 , 267.1 L 220.23 , 269.93 L 220.23 , 265.68 L 217.4 , 262.85 L 214.57 , 265.68 L 214.57 , 269.93 L 217.4 , 267.1'/>
    <path style='&st8;' d='M 242.9 , 267.1 L 245.73 , 269.93 L 245.73 , 265.68 L 242.9 , 262.85 L 240.06 , 265.68 L 240.06 , 269.93 L 242.9 , 267.1'/>
    <path style='&st8;' d='M 217.4 , 325.3 L 214.57 , 322.46 L 214.57 , 326.71 L 217.4 , 329.55 L 220.23 , 326.71 L 220.23 , 322.46 L 217.4 , 325.3'/>
    <path style='&st8;' d='M 242.9 , 325.3 L 240.06 , 322.46 L 240.06 , 326.71 L 242.9 , 329.55 L 245.73 , 326.71 L 245.73 , 322.46 L 242.9 , 325.3'/>
    <path style='&st27;' d='M 217.4 , 262.2 L 217.4 , 279.2'/>
    <path style='&st27;' d='M 242.9 , 262.2 L 242.9 , 279.2'/>
    <path style='&st27;' d='M 217.4 , 313.19 L 217.4 , 330.19'/>
    <path style='&st27;' d='M 242.9 , 313.19 L 242.9 , 330.19'/>
    <path style='&st27;' d='M 217.4 , 304.7 L 217.4 , 313.19'/>
    <path style='&st27;' d='M 217.4 , 279.2 L 217.4 , 287.7'/>
    <path style='&st27;' d='M 242.9 , 283.45 L 242.9 , 279.2'/>
    <path style='&st27;' d='M 242.9 , 313.19 L 242.9 , 308.95'/>
    <path style='&st21;' d='M 242.9 , 306.11 L 248.56 , 283.45'/>
    <path style='&st24;' d='M 225.23 , 334.44 L 235.09 , 334.44'/>
    <path style='&st24;' d='M 225.23 , 342.94 L 235.09 , 342.94'/>
    <path style='&st24;' d='M 225.23 , 257.94 L 235.09 , 257.94'/>
    <path style='&st24;' d='M 225.23 , 249.44 L 235.09 , 249.44'/>
    <path style='&st21;' d='M 219.53 , 253.7 L 215.28 , 253.7'/>
    <path style='&st21;' d='M 219.53 , 262.2 L 215.28 , 262.2'/>
    <path style='&st21;' d='M215.28,253.7c-2.35,0-4.25,1.91-4.25,4.25'/>
    <path style='&st21;' d='M211.03,257.95c0,2.35,1.9,4.25,4.25,4.25'/>
    <path style='&st21;' d='M219.53,262.2c2.34,0,4.25-1.9,4.25-4.25'/>
    <path style='&st21;' d='M223.78,257.95c0-2.34-1.91-4.25-4.25-4.25'/>
    <path style='&st21;' d='M 245.02 , 253.7 L 240.77 , 253.7'/>
    <path style='&st21;' d='M 245.02 , 262.2 L 240.77 , 262.2'/>
    <path style='&st21;' d='M240.77,253.7c-2.34,0-4.25,1.91-4.25,4.25'/>
    <path style='&st21;' d='M236.52,257.95c0,2.35,1.91,4.25,4.25,4.25'/>
    <path style='&st21;' d='M245.02,262.2c2.35,0,4.25-1.9,4.25-4.25'/>
    <path style='&st21;' d='M249.27,257.95c0-2.34-1.9-4.25-4.25-4.25'/>
    <path style='&st21;' d='M 245.02 , 330.19 L 240.77 , 330.19'/>
    <path style='&st21;' d='M 245.02 , 338.69 L 240.77 , 338.69'/>
    <path style='&st21;' d='M240.77,330.19c-2.34,0-4.25,1.9-4.25,4.25'/>
    <path style='&st21;' d='M236.52,334.44c0,2.35,1.91,4.25,4.25,4.25'/>
    <path style='&st21;' d='M245.02,338.69c2.35,0,4.25-1.9,4.25-4.25'/>
    <path style='&st21;' d='M249.27,334.44c0-2.35-1.9-4.25-4.25-4.25'/>
    <path style='&st21;' d='M 219.53 , 330.19 L 215.28 , 330.19'/>
    <path style='&st21;' d='M 219.53 , 338.69 L 215.28 , 338.69'/>
    <path style='&st21;' d='M215.28,330.19c-2.35,0-4.25,1.9-4.25,4.25'/>
    <path style='&st21;' d='M211.03,334.44c0,2.35,1.9,4.25,4.25,4.25'/>
    <path style='&st21;' d='M219.53,338.69c2.34,0,4.25-1.9,4.25-4.25'/>
    <path style='&st21;' d='M223.78,334.44c0-2.35-1.91-4.25-4.25-4.25'/>
    <path style='&st21;' d='M 219.53 , 338.69 L 215.28 , 338.69'/>
    <path style='&st21;' d='M 219.53 , 347.19 L 215.28 , 347.19'/>
    <path style='&st21;' d='M215.28,338.69c-2.35,0-4.25,1.9-4.25,4.25'/>
    <path style='&st21;' d='M211.03,342.94c0,2.35,1.9,4.25,4.25,4.25'/>
    <path style='&st21;' d='M219.53,347.19c2.34,0,4.25-1.9,4.25-4.25'/>
    <path style='&st21;' d='M223.78,342.94c0-2.35-1.91-4.25-4.25-4.25'/>
    <path style='&st21;' d='M 245.02 , 338.69 L 240.77 , 338.69'/>
    <path style='&st21;' d='M 245.02 , 347.19 L 240.77 , 347.19'/>
    <path style='&st21;' d='M240.77,338.69c-2.34,0-4.25,1.9-4.25,4.25'/>
    <path style='&st21;' d='M236.52,342.94c0,2.35,1.91,4.25,4.25,4.25'/>
    <path style='&st21;' d='M245.02,347.19c2.35,0,4.25-1.9,4.25-4.25'/>
    <path style='&st21;' d='M249.27,342.94c0-2.35-1.9-4.25-4.25-4.25'/>
    <path style='&st21;' d='M 245.02 , 245.2 L 240.77 , 245.2'/>
    <path style='&st21;' d='M 245.02 , 253.7 L 240.77 , 253.7'/>
    <path style='&st21;' d='M240.77,245.2c-2.34,0-4.25,1.91-4.25,4.25'/>
    <path style='&st21;' d='M236.52,249.45c0,2.35,1.91,4.25,4.25,4.25'/>
    <path style='&st21;' d='M245.02,253.7c2.35,0,4.25-1.9,4.25-4.25'/>
    <path style='&st21;' d='M249.27,249.45c0-2.34-1.9-4.25-4.25-4.25'/>
    <path style='&st21;' d='M 219.53 , 245.2 L 215.28 , 245.2'/>
    <path style='&st21;' d='M 219.53 , 253.7 L 215.28 , 253.7'/>
    <path style='&st21;' d='M215.28,245.2c-2.35,0-4.25,1.91-4.25,4.25'/>
    <path style='&st21;' d='M211.03,249.45c0,2.35,1.9,4.25,4.25,4.25'/>
    <path style='&st21;' d='M219.53,253.7c2.34,0,4.25-1.9,4.25-4.25'/>
    <path style='&st21;' d='M223.78,249.45c0-2.34-1.91-4.25-4.25-4.25'/>
    <text ewd:textID='6' style='&st19; &st12;' transform='matrix(0 -1 1 0 259.0332 317.2051)'>MIR HTR Relay</text>
    <text style='&st19; &st12;' transform='matrix(1 0 0 1 251.9297 251.4336)'>(*1)</text>
    <text style='&st19; &st12;' transform='matrix(1 0 0 1 251.9297 344.9131)'>(*1)</text>
    <text style='&st19; &st12;' transform='matrix(1 0 0 1 251.9297 259.9336)'>(*2)</text>
    <text style='&st19; &st12;' transform='matrix(1 0 0 1 251.9297 336.4131)'>(*2)</text>
    <text style='&st19; &st12;' transform='matrix(1 0 0 1 211.4341 275.5137)'>2</text>
    <text style='&st19; &st12;' transform='matrix(1 0 0 1 215.8042 259.9336)'>8</text>
    <text style='&st19; &st12;' transform='matrix(1 0 0 1 236.9238 275.5137)'>5</text>
    <text style='&st19; &st12;' transform='matrix(1 0 0 1 241.3047 259.9336)'>8</text>
    <text style='&st19; &st12;' transform='matrix(1 0 0 1 236.9336 321.394)'>3</text>
    <text style='&st19; &st12;' transform='matrix(1 0 0 1 241.3047 336.4131)'>8</text>
    <text style='&st19; &st12;' transform='matrix(1 0 0 1 211.4341 321.394)'>1</text>
    <text style='&st19; &st12;' transform='matrix(1 0 0 1 215.8042 336.4131)'>8</text>
    <text style='&st19; &st12;' transform='matrix(1 0 0 1 215.8042 344.9131)'>1</text>
    <text style='&st19; &st12;' transform='matrix(1 0 0 1 241.3047 344.9131)'>1</text>
    <text style='&st19; &st12;' transform='matrix(1 0 0 1 241.3047 251.4336)'>1</text>
    <text style='&st19; &st12;' transform='matrix(1 0 0 1 215.8042 251.4336)'>1</text>
</g>
<g ewd:code='1' ewd:figID='4003' ewd:figtype='rb'>
    <path style='&st27;' d='M 85.65 , 225.89 L 85.65 , 251.39'/>
    <path style='&st27;' d='M111.15,278.31c-0.78,0-1.42,0.63-1.42,1.41'/>
    <path style='&st27;' d='M 111.15 , 251.39 L 111.15 , 255.64'/>
    <path style='&st27;' d='M 111.15 , 281.14 L 111.15 , 285.39'/>
    <path style='&st27;' d='M 85.65 , 285.39 L 85.65 , 276.89'/>
    <path style='&st27;' d='M 85.65 , 259.89 L 85.65 , 251.39'/>
    <path style='&st21;' d='M 119.65 , 251.39 L 77.15 , 251.39 L 77.15 , 285.39 L 119.65 , 285.39 L 119.65 , 251.39'/>
    <path style='&st27;' d='M 111.15 , 285.39 L 111.15 , 310.89'/>
    <path style='&st8;' d='M 111.15 , 230.78 L 113.98 , 233.61 L 113.98 , 229.37 L 111.15 , 226.53 L 108.31 , 229.37 L 108.31 , 233.61 L 111.15 , 230.78'/>
    <path style='&st8;' d='M 85.65 , 230.78 L 88.48 , 233.61 L 88.48 , 229.37 L 85.65 , 226.53 L 82.81 , 229.37 L 82.81 , 233.61 L 85.65 , 230.78'/>
    <path style='&st27;' d='M 85.65 , 285.39 L 85.65 , 310.89'/>
    <path style='&st27;' d='M 111.15 , 225.89 L 111.15 , 251.39'/>
    <path style='&st8;' d='M 111.15 , 306 L 108.31 , 303.16 L 108.31 , 307.41 L 111.15 , 310.25 L 113.98 , 307.41 L 113.98 , 303.16 L 111.15 , 306'/>
    <path style='&st8;' d='M 85.65 , 306 L 82.81 , 303.16 L 82.81 , 307.41 L 85.65 , 310.25 L 88.48 , 307.41 L 88.48 , 303.16 L 85.65 , 306'/>
    <path style='&st27;' d='M109.73,257.06c0,0.78,0.64,1.42,1.42,1.42'/>
    <path style='&st27;' d='M111.15,258.48c0.78,0,1.41-0.64,1.41-1.42'/>
    <path style='&st27;' d='M112.56,257.06c0-0.78-0.63-1.42-1.41-1.42'/>
    <path style='&st27;' d='M111.15,255.64c-0.78,0-1.42,0.64-1.42,1.42'/>
    <path style='&st27;' d='M109.73,279.72c0,0.78,0.64,1.42,1.42,1.42'/>
    <path style='&st27;' d='M111.15,281.14c0.78,0,1.41-0.64,1.41-1.42'/>
    <path style='&st27;' d='M112.56,279.72c0-0.78-0.63-1.41-1.41-1.41'/>
    <path style='&st27;' d='M83.12,270.87c1.37-1.4,3.61-1.42,5.01-0.05'/>
    <path style='&st27;' d='M88.13,270.82c1.39,1.37,1.42,3.61,0.05,5.01'/>
    <path style='&st27;' d='M88.18,275.83c-0.7,0.7-1.54,1.06-2.53,1.06'/>
    <path style='&st27;' d='M83.12,265.91c1.37-1.4,3.61-1.42,5.01-0.05'/>
    <path style='&st27;' d='M88.13,265.86c1.39,1.37,1.42,3.61,0.05,5.01'/>
    <path style='&st27;' d='M88.18,270.87c-1.37,1.4-3.61,1.42-5.01,0.05'/>
    <path style='&st27;' d='M83.17,270.92c-0.02-0.02-0.03-0.03-0.05-0.05'/>
    <path style='&st27;' d='M85.65,259.89c1.95,0,3.54,1.59,3.54,3.54'/>
    <path style='&st27;' d='M89.19,263.43c0,1.96-1.59,3.54-3.54,3.54'/>
    <path style='&st27;' d='M85.65,266.97c-0.99,0-1.84-0.35-2.53-1.06'/>
    <path style='&st21;' d='M 111.15 , 278.3 L 116.81 , 255.64'/>
    <path style='&st27;' d='M109.73,279.72c0-0.78,0.64-1.42,1.42-1.42'/>
    <path style='&st27;' d='M111.15,278.3c0.78,0,1.41,0.64,1.41,1.42'/>
    <path style='&st27;' d='M112.56,279.72c0,0.78-0.63,1.42-1.41,1.42'/>
    <path style='&st27;' d='M111.15,281.14c-0.78,0-1.42-0.64-1.42-1.42'/>
    <path style='&st21;' d='M 87.77 , 217.39 L 83.52 , 217.39'/>
    <path style='&st21;' d='M 87.77 , 225.89 L 83.52 , 225.89'/>
    <path style='&st21;' d='M83.52,217.39c-2.34,0-4.25,1.9-4.25,4.25'/>
    <path style='&st21;' d='M79.27,221.64c0,2.34,1.91,4.25,4.25,4.25'/>
    <path style='&st21;' d='M87.77,225.89c2.35,0,4.25-1.91,4.25-4.25'/>
    <path style='&st21;' d='M92.02,221.64c0-2.35-1.9-4.25-4.25-4.25'/>
    <path style='&st21;' d='M 113.27 , 217.39 L 109.02 , 217.39'/>
    <path style='&st21;' d='M 113.27 , 225.89 L 109.02 , 225.89'/>
    <path style='&st21;' d='M109.02,217.39c-2.34,0-4.25,1.9-4.25,4.25'/>
    <path style='&st21;' d='M104.77,221.64c0,2.34,1.91,4.25,4.25,4.25'/>
    <path style='&st21;' d='M113.27,225.89c2.35,0,4.25-1.91,4.25-4.25'/>
    <path style='&st21;' d='M117.52,221.64c0-2.35-1.9-4.25-4.25-4.25'/>
    <path style='&st21;' d='M 113.27 , 310.89 L 109.02 , 310.89'/>
    <path style='&st21;' d='M 113.27 , 319.39 L 109.02 , 319.39'/>
    <path style='&st21;' d='M109.02,310.89c-2.34,0-4.25,1.9-4.25,4.25'/>
    <path style='&st21;' d='M104.77,315.14c0,2.35,1.91,4.25,4.25,4.25'/>
    <path style='&st21;' d='M113.27,319.39c2.35,0,4.25-1.9,4.25-4.25'/>
    <path style='&st21;' d='M117.52,315.14c0-2.35-1.9-4.25-4.25-4.25'/>
    <path style='&st21;' d='M 87.77 , 310.89 L 83.52 , 310.89'/>
    <path style='&st21;' d='M 87.77 , 319.39 L 83.52 , 319.39'/>
    <path style='&st21;' d='M83.52,310.89c-2.34,0-4.25,1.9-4.25,4.25'/>
    <path style='&st21;' d='M79.27,315.14c0,2.35,1.91,4.25,4.25,4.25'/>
    <path style='&st21;' d='M87.77,319.39c2.35,0,4.25-1.9,4.25-4.25'/>
    <path style='&st21;' d='M92.02,315.14c0-2.35-1.9-4.25-4.25-4.25'/>
    <text ewd:textID='3' style='&st19; &st12;' transform='matrix(0 -1 1 0 127.2827 282.896)'>DEF Relay</text>
    <text style='&st19; &st12;' transform='matrix(1 0 0 1 78.5259 247.7017)'>2</text>
    <text style='&st19; &st12;' transform='matrix(1 0 0 1 83.9854 223.6118)'>1</text>
    <text style='&st19; &st12;' transform='matrix(1 0 0 1 104.7954 247.7017)'>5</text>
    <text style='&st19; &st12;' transform='matrix(1 0 0 1 109.4854 223.6118)'>1</text>
    <text style='&st19; &st12;' transform='matrix(1 0 0 1 104.7954 293.582)'>3</text>
    <text style='&st19; &st12;' transform='matrix(1 0 0 1 109.4854 317.1113)'>1</text>
    <text style='&st19; &st12;' transform='matrix(1 0 0 1 78.5259 293.582)'>1</text>
    <text style='&st19; &st12;' transform='matrix(1 0 0 1 83.9854 317.1113)'>1</text>
</g>
<g ewd:code='2' ewd:figID='3002' ewd:figtype='jb'>
    <path style='&st27;' d='M 85.65 , 77.14 L 85.65 , 60.14'/>
    <path style='&st8;' d='M 85.65 , 72.25 L 82.82 , 69.41 L 82.82 , 73.66 L 85.65 , 76.5 L 88.48 , 73.66 L 88.48 , 69.41 L 85.65 , 72.25'/>
    <path style='&st21;' d='M 87.78 , 85.64 L 83.53 , 85.64'/>
    <path style='&st21;' d='M 87.78 , 77.14 L 83.53 , 77.14'/>
    <path style='&st21;' d='M92.03,81.39c0-2.35-1.91-4.25-4.25-4.25'/>
    <path style='&st21;' d='M87.78,85.64c2.34,0,4.25-1.9,4.25-4.25'/>
    <path style='&st21;' d='M79.28,81.39c0,2.35,1.9,4.25,4.25,4.25'/>
    <path style='&st21;' d='M83.53,77.14c-2.35,0-4.25,1.9-4.25,4.25'/>
    <path style='&st21;' d='M85.65,48.81c2.74-1.61,3.65-5.14,2.04-7.88'/>
    <path style='&st27;' d='M85.65,51.64c0.78,0,1.42-0.63,1.42-1.41'/>
    <path style='&st7;' d='M 72.9 , 17.65 L 72.9 , 60.14 L 98.4 , 60.14 L 98.4 , 17.65 L 72.9 , 17.65'/>
    <path style='&st27;' d='M 85.65 , 51.64 L 85.65 , 60.14'/>
    <path style='&st21;' d='M85.65,28.98c-2.74,1.61-3.65,5.14-2.03,7.88'/>
    <path style='&st21;' d='M83.62,36.86c0.51,0.88,1.15,1.52,2.03,2.04'/>
    <path style='&st21;' d='M87.69,40.93c-0.52-0.88-1.16-1.51-2.04-2.03'/>
    <path style='&st27;' d='M87.07,27.56c0-0.78-0.64-1.41-1.42-1.41'/>
    <path style='&st27;' d='M85.65,26.15c-0.78,0-1.41,0.63-1.41,1.41'/>
    <path style='&st27;' d='M84.24,27.56c0,0.79,0.63,1.42,1.41,1.42'/>
    <path style='&st27;' d='M85.65,28.98c0.78,0,1.42-0.63,1.42-1.42'/>
    <path style='&st27;' d='M87.07,50.23c0-0.79-0.64-1.42-1.42-1.42'/>
    <path style='&st27;' d='M85.65,48.81c-0.78,0-1.41,0.63-1.41,1.42'/>
    <path style='&st27;' d='M84.24,50.23c0,0.78,0.63,1.41,1.41,1.41'/>
    <text style='&st19; &st12;' transform='matrix(1 0 0 1 69.2671 83.3628)'>27</text>
    <text style='&st19; &st12;' transform='matrix(1 0 0 1 82.1528 83.3628)'>2F</text>
    <text style='&st19; &st12;' transform='matrix(1 0 0 1 102.9644 38.0425)'>10A</text>
    <text style='&st19; &st12;' transform='matrix(1 0 0 1 102.9644 44.0425)'>ECU-IG <tspan x='0' y='7'>NO.2</tspan></text>
    <text style='&st19; &st12;' transform='matrix(1 0 0 1 80.4888 13.9526)'>(IG)</text>
</g>
<g ewd:code='2' ewd:figID='3001' ewd:figtype='jb'>
    <path style='&st27;' d='M 26.15 , 77.14 L 26.15 , 60.14'/>
    <path style='&st8;' d='M 26.15 , 72.25 L 23.32 , 69.41 L 23.32 , 73.66 L 26.15 , 76.5 L 28.98 , 73.66 L 28.98 , 69.41 L 26.15 , 72.25'/>
    <path style='&st21;' d='M 28.28 , 85.64 L 24.03 , 85.64'/>
    <path style='&st21;' d='M 28.28 , 77.14 L 24.03 , 77.14'/>
    <path style='&st21;' d='M32.53,81.39c0-2.35-1.91-4.25-4.25-4.25'/>
    <path style='&st21;' d='M28.28,85.64c2.34,0,4.25-1.9,4.25-4.25'/>
    <path style='&st21;' d='M19.78,81.39c0,2.35,1.9,4.25,4.25,4.25'/>
    <path style='&st21;' d='M24.03,77.14c-2.35,0-4.25,1.9-4.25,4.25'/>
    <path style='&st21;' d='M26.15,48.81c2.74-1.61,3.65-5.14,2.04-7.88'/>
    <path style='&st27;' d='M26.15,51.64c0.78,0,1.42-0.63,1.42-1.41'/>
    <path style='&st7;' d='M 13.4 , 17.65 L 13.4 , 60.14 L 38.9 , 60.14 L 38.9 , 17.65 L 13.4 , 17.65'/>
    <path style='&st27;' d='M 26.15 , 51.64 L 26.15 , 60.14'/>
    <path style='&st21;' d='M26.15,28.98c-2.74,1.61-3.65,5.14-2.03,7.88'/>
    <path style='&st21;' d='M24.12,36.86c0.51,0.88,1.15,1.52,2.03,2.04'/>
    <path style='&st21;' d='M28.19,40.93c-0.52-0.88-1.16-1.51-2.04-2.03'/>
    <path style='&st27;' d='M27.57,27.56c0-0.78-0.64-1.41-1.42-1.41'/>
    <path style='&st27;' d='M26.15,26.15c-0.78,0-1.41,0.63-1.41,1.41'/>
    <path style='&st27;' d='M24.74,27.56c0,0.79,0.63,1.42,1.41,1.42'/>
    <path style='&st27;' d='M26.15,28.98c0.78,0,1.42-0.63,1.42-1.42'/>
    <path style='&st27;' d='M27.57,50.23c0-0.79-0.64-1.42-1.42-1.42'/>
    <path style='&st27;' d='M26.15,48.81c-0.78,0-1.41,0.63-1.41,1.42'/>
    <path style='&st27;' d='M24.74,50.23c0,0.78,0.63,1.41,1.41,1.41'/>
    <text style='&st19; &st12;' transform='matrix(1 0 0 1 9.7671 83.3628)'>25</text>
    <text style='&st19; &st12;' transform='matrix(1 0 0 1 21.9863 83.3628)'>2M</text>
    <text style='&st19; &st12;' transform='matrix(1 0 0 1 43.4644 38.0425)'>10A</text>
    <text style='&st19; &st12;' transform='matrix(1 0 0 1 43.4644 44.0425)'>ECU-IG <tspan x='0' y='7'>NO.2</tspan></text>
    <text style='&st19; &st12;' transform='matrix(1 0 0 1 20.9888 13.9526)'>(IG)</text>
</g>
<g ewd:code='FUSE26' ewd:figID='4002' ewd:figtype='rb'>
    <path style='&st21;' d='M242.9,48.81c2.74-1.61,3.65-5.14,2.04-7.88'/>
    <path style='&st27;' d='M242.9,51.64c0.78,0,1.42-0.63,1.42-1.41'/>
    <path style='&st21;' d='M 230.15 , 17.65 L 230.15 , 60.14 L 255.65 , 60.14 L 255.65 , 17.65 L 230.15 , 17.65'/>
    <path style='&st27;' d='M 242.9 , 51.64 L 242.9 , 77.14'/>
    <path style='&st8;' d='M 242.9 , 72.24 L 240.07 , 69.41 L 240.07 , 73.66 L 242.9 , 76.49 L 245.73 , 73.66 L 245.73 , 69.41 L 242.9 , 72.24'/>
    <path style='&st21;' d='M242.9,28.98c-2.74,1.61-3.65,5.14-2.03,7.88'/>
    <path style='&st21;' d='M240.88,36.86c0.51,0.88,1.15,1.52,2.03,2.04'/>
    <path style='&st21;' d='M244.95,40.93c-0.52-0.88-1.16-1.51-2.04-2.03'/>
    <path style='&st27;' d='M244.32,27.56c0-0.78-0.64-1.41-1.42-1.41'/>
    <path style='&st27;' d='M242.9,26.15c-0.78,0-1.41,0.63-1.41,1.41'/>
    <path style='&st27;' d='M241.49,27.56c0,0.79,0.63,1.42,1.41,1.42'/>
    <path style='&st27;' d='M242.9,28.98c0.78,0,1.42-0.63,1.42-1.42'/>
    <path style='&st27;' d='M244.32,50.23c0-0.79-0.64-1.42-1.42-1.42'/>
    <path style='&st27;' d='M242.9,48.81c-0.78,0-1.41,0.63-1.41,1.42'/>
    <path style='&st27;' d='M241.49,50.23c0,0.78,0.63,1.41,1.41,1.41'/>
    <path style='&st21;' d='M 245.04 , 77.14 L 240.79 , 77.14'/>
    <path style='&st21;' d='M 245.04 , 85.64 L 240.79 , 85.64'/>
    <path style='&st21;' d='M240.79,77.14c-2.35,0-4.25,1.9-4.25,4.25'/>
    <path style='&st21;' d='M236.54,81.39c0,2.35,1.9,4.25,4.25,4.25'/>
    <path style='&st21;' d='M245.04,85.64c2.34,0,4.25-1.9,4.25-4.25'/>
    <path style='&st21;' d='M249.29,81.39c0-2.35-1.91-4.25-4.25-4.25'/>
    <text style='&st19; &st12;' transform='matrix(1 0 0 1 260.2148 38.0425)'>15A</text>
    <text style='&st19; &st12;' transform='matrix(1 0 0 1 260.2148 44.0425)'>MIR HTR</text>
    <text style='&st19; &st12;' transform='matrix(1 0 0 1 235.2944 13.9526)'>(BAT)</text>
    <text style='&st19; &st12;' transform='matrix(1 0 0 1 241.2358 83.3628)'>1</text>
    <text style='&st19; &st12;' transform='matrix(1 0 0 1 236.2783 68.3433)'>2</text>
</g>
<g ewd:code='FUSE44' ewd:figID='4001' ewd:figtype='rb'>
    <path style='&st21;' d='M153.65,48.81c2.74-1.61,3.65-5.14,2.04-7.88'/>
    <path style='&st27;' d='M153.65,51.64c0.78,0,1.42-0.63,1.42-1.41'/>
    <path style='&st21;' d='M 140.9 , 17.65 L 140.9 , 60.14 L 166.4 , 60.14 L 166.4 , 17.65 L 140.9 , 17.65'/>
    <path style='&st27;' d='M 153.65 , 51.64 L 153.65 , 77.14'/>
    <path style='&st8;' d='M 153.65 , 72.24 L 150.82 , 69.41 L 150.82 , 73.66 L 153.65 , 76.49 L 156.48 , 73.66 L 156.48 , 69.41 L 153.65 , 72.24'/>
    <path style='&st21;' d='M153.65,28.98c-2.74,1.61-3.65,5.14-2.03,7.88'/>
    <path style='&st21;' d='M151.62,36.86c0.51,0.88,1.15,1.52,2.03,2.04'/>
    <path style='&st21;' d='M155.69,40.93c-0.52-0.88-1.16-1.51-2.04-2.03'/>
    <path style='&st27;' d='M155.07,27.56c0-0.78-0.64-1.41-1.42-1.41'/>
    <path style='&st27;' d='M153.65,26.15c-0.78,0-1.41,0.63-1.41,1.41'/>
    <path style='&st27;' d='M152.24,27.56c0,0.79,0.63,1.42,1.41,1.42'/>
    <path style='&st27;' d='M153.65,28.98c0.78,0,1.42-0.63,1.42-1.42'/>
    <path style='&st27;' d='M155.07,50.23c0-0.79-0.64-1.42-1.42-1.42'/>
    <path style='&st27;' d='M153.65,48.81c-0.78,0-1.41,0.63-1.41,1.42'/>
    <path style='&st27;' d='M152.24,50.23c0,0.78,0.63,1.41,1.41,1.41'/>
    <path style='&st21;' d='M 155.78 , 77.14 L 151.53 , 77.14'/>
    <path style='&st21;' d='M 155.78 , 85.64 L 151.53 , 85.64'/>
    <path style='&st21;' d='M151.53,77.14c-2.35,0-4.25,1.9-4.25,4.25'/>
    <path style='&st21;' d='M147.28,81.39c0,2.35,1.9,4.25,4.25,4.25'/>
    <path style='&st21;' d='M155.78,85.64c2.34,0,4.25-1.9,4.25-4.25'/>
    <path style='&st21;' d='M160.03,81.39c0-2.35-1.91-4.25-4.25-4.25'/>
    <text style='&st19; &st12;' transform='matrix(1 0 0 1 170.9644 38.0425)'>30A</text>
    <text style='&st19; &st12;' transform='matrix(1 0 0 1 170.9644 44.0425)'>DEF</text>
    <text style='&st19; &st12;' transform='matrix(1 0 0 1 146.0439 13.9526)'>(BAT)</text>
    <text style='&st19; &st12;' transform='matrix(1 0 0 1 151.9854 83.3628)'>1</text>
    <text style='&st19; &st12;' transform='matrix(1 0 0 1 147.0278 68.3433)'>2</text>
</g>
<g ewd:code='A2' ewd:figID='2005' ewd:figtype='gp'>
    <path style='&st27;' d='M 215.98 , 692.65 L 218.81 , 692.65'/>
    <path style='&st27;' d='M 214.56 , 689.82 L 220.23 , 689.82'/>
    <path style='&st27;' d='M 213.15 , 686.98 L 221.65 , 686.98'/>
    <path style='&st27;' d='M 208.9 , 684.15 L 225.9 , 684.15'/>
    <path style='&st27;' d='M 217.4 , 679.9 L 217.4 , 684.15'/>
</g>
<g ewd:code='G3' ewd:figID='2004' ewd:figtype='gp'>
    <path style='&st27;' d='M 368.99 , 692.65 L 371.82 , 692.65'/>
    <path style='&st27;' d='M 367.57 , 689.82 L 373.24 , 689.82'/>
    <path style='&st27;' d='M 366.16 , 686.98 L 374.66 , 686.98'/>
    <path style='&st27;' d='M 361.91 , 684.15 L 378.91 , 684.15'/>
    <path style='&st27;' d='M 370.41 , 679.9 L 370.41 , 684.15'/>
</g>
<g ewd:code='G5' ewd:figID='2003' ewd:figtype='gp'>
    <path style='&st27;' d='M 432.74 , 692.65 L 435.57 , 692.65'/>
    <path style='&st27;' d='M 431.32 , 689.82 L 436.99 , 689.82'/>
    <path style='&st27;' d='M 429.91 , 686.98 L 438.41 , 686.98'/>
    <path style='&st27;' d='M 425.66 , 684.15 L 442.66 , 684.15'/>
    <path style='&st27;' d='M 434.16 , 679.9 L 434.16 , 684.15'/>
</g>
<g ewd:code='G3' ewd:figID='2002' ewd:figtype='gp'>
    <path style='&st27;' d='M 475.24 , 692.65 L 478.07 , 692.65'/>
    <path style='&st27;' d='M 473.82 , 689.82 L 479.49 , 689.82'/>
    <path style='&st27;' d='M 472.41 , 686.98 L 480.91 , 686.98'/>
    <path style='&st27;' d='M 468.16 , 684.15 L 485.16 , 684.15'/>
    <path style='&st27;' d='M 476.66 , 679.9 L 476.66 , 684.15'/>
</g>
<g ewd:code='G5' ewd:figID='2001' ewd:figtype='gp'>
    <path style='&st27;' d='M 326.49 , 692.65 L 329.32 , 692.65'/>
    <path style='&st27;' d='M 325.07 , 689.82 L 330.74 , 689.82'/>
    <path style='&st27;' d='M 323.66 , 686.98 L 332.16 , 686.98'/>
    <path style='&st27;' d='M 319.41 , 684.15 L 336.41 , 684.15'/>
    <path style='&st27;' d='M 327.91 , 679.9 L 327.91 , 684.15'/>
</g>
<g ewd:code='G23' ewd:figID='10' ewd:figtype='conn'>
    <path style='&st18;' d='M 47.4 , 622.7 L 47.4 , 588.7 L 123.9 , 588.7 L 123.9 , 622.7 L 47.4 , 622.7 L 47.4 , 622.7'/>
    <text ewd:textID='10' style='&st19; &st12;' transform='matrix(1 0 0 1 63.7417 607.8286)'>Rear Window <tspan x='0' y='7'>Defogger Switch</tspan></text>
    <text style='&st19; &st12;' transform='matrix(1 0 0 1 77.5669 585.0142)'>3</text>
    <text style='&st19; &st12;' transform='matrix(1 0 0 1 79.3169 596.354)'>LIN1</text>
    <g ewd:figtype='title'>
    <text style='&st19; &st12;' transform='matrix(1 0 0 1 47.4038 631.2036)'>G23</text>
    <text ewd:textID='4' style='&st19; &st12;' transform='matrix(1 0 0 1 47.4038 638.8032)'>Integration Control and <tspan x='0' y='7'>Panel Assembly</tspan></text>
    </g>
</g>
<g ewd:code='A69' ewd:figID='9' ewd:figtype='conn'>
    <path style='&st21;' d='M 77.15 , 125.14 L 94.15 , 125.14 L 94.15 , 142.14 L 77.15 , 142.14 L 77.15 , 125.14'/>
    <path style='&st27;' d='M 85.65 , 125.14 L 85.65 , 142.14'/>
    <text style='&st19; &st12;' transform='matrix(1 0 0 1 74.23 150.3354)'>20</text>
    <text style='&st19; &st12;' transform='matrix(1 0 0 1 74.23 121.437)'>19</text>
    <g ewd:figtype='title'>
    <text style='&st19; &st12;' transform='matrix(0 -1 1 0 101.7632 144.6567)'>A69</text>
    <text ewd:textID='5' style='&st19; &st12;' transform='matrix(0 -1 1 0 108.8042 144.6567)'>Junction Connector</text>
    </g>
</g>
<g ewd:code='A126' ewd:figID='8' ewd:figtype='conn'>
    <path style='&st21;' d='M 17.65 , 125.14 L 34.65 , 125.14 L 34.65 , 142.14 L 17.65 , 142.14 L 17.65 , 125.14'/>
    <path style='&st27;' d='M 26.15 , 125.14 L 26.15 , 142.14'/>
    <text style='&st19; &st12;' transform='matrix(1 0 0 1 18.0669 150.3354)'>9</text>
    <text style='&st19; &st12;' transform='matrix(1 0 0 1 18.0669 121.437)'>8</text>
    <g ewd:figtype='title'>
    <text style='&st19; &st12;' transform='matrix(0 -1 1 0 42.2632 144.6567)'>A126</text>
    <text ewd:textID='5' style='&st19; &st12;' transform='matrix(0 -1 1 0 49.3042 144.6567)'>Junction Connector</text>
    </g>
</g>
<g ewd:code='A68' ewd:figID='7' ewd:figtype='conn'>
    <path style='&st21;' d='M 208.9 , 536.57 L 225.9 , 536.57 L 225.9 , 553.57 L 208.9 , 553.57 L 208.9 , 536.57'/>
    <path style='&st27;' d='M 217.4 , 536.57 L 217.4 , 553.57'/>
    <text style='&st19; &st12;' transform='matrix(1 0 0 1 209.3169 561.7729)'>4</text>
    <text style='&st19; &st12;' transform='matrix(1 0 0 1 209.3169 532.8745)'>3</text>
    <g ewd:figtype='title'>
    <text style='&st19; &st12;' transform='matrix(0 -1 1 0 233.5132 556.0952)'>A68</text>
    <text ewd:textID='5' style='&st19; &st12;' transform='matrix(0 -1 1 0 240.5542 556.0952)'>Junction Connector</text>
    </g>
</g>
<g ewd:code='G104' ewd:figID='6' ewd:figtype='conn'>
    <path style='&st27;' d='M 370.41 , 638.82 L 370.41 , 664.32'/>
    <path style='&st27;' d='M 370.41 , 638.82 L 370.41 , 655.82'/>
    <path style='&st21;' d='M 361.91 , 638.82 L 378.91 , 638.82 L 378.91 , 655.82 L 361.91 , 655.82 L 361.91 , 638.82'/>
    <text style='&st19; &st12;' transform='matrix(1 0 0 1 362.2695 635.1343)'>6</text>
    <g ewd:figtype='title'>
    <text style='&st19; &st12;' transform='matrix(0 -1 1 0 386.5166 658.3452)'>G104</text>
    <text ewd:textID='5' style='&st19; &st12;' transform='matrix(0 -1 1 0 393.5576 658.3452)'>Junction Connector</text>
    </g>
</g>
<g ewd:code='G106' ewd:figID='5' ewd:figtype='conn'>
    <path style='&st27;' d='M 434.16 , 638.82 L 434.16 , 664.32'/>
    <path style='&st27;' d='M 434.16 , 638.82 L 434.16 , 655.82'/>
    <path style='&st21;' d='M 425.66 , 638.82 L 442.66 , 638.82 L 442.66 , 655.82 L 425.66 , 655.82 L 425.66 , 638.82'/>
    <text style='&st19; &st12;' transform='matrix(1 0 0 1 426.0205 635.1343)'>6</text>
    <g ewd:figtype='title'>
    <text style='&st19; &st12;' transform='matrix(0 -1 1 0 450.2676 658.3452)'>G106</text>
    <text ewd:textID='5' style='&st19; &st12;' transform='matrix(0 -1 1 0 457.3086 658.3452)'>Junction Connector</text>
    </g>
</g>
<g ewd:code='J2' ewd:figID='4' ewd:figtype='conn'>
    <path style='&st27;' d='M 434.17 , 383 L 434.17 , 363.87 L 431.34 , 362.45 L 437.01 , 359.62 L 431.34 , 356.79 L 437.01 , 353.96 L 431.34 , 351.12 L 437.01 , 348.29 L 434.17 , 346.87 L 434.17 , 327.75'/>
    <path style='&st18;' d='M 415.03 , 383.01 L 415.03 , 327.76 L 451.16 , 327.76 L 451.16 , 383.01 L 415.03 , 383.01 L 415.03 , 383.01'/>
    <path style='&st21;' d='M438.67,387.51c0-2.48-2.02-4.5-4.5-4.5'/>
    <path style='&st21;' d='M434.14,383.01c-2.48,0-4.5,2.02-4.5,4.5'/>
    <path style='&st21;' d='M429.64,387.51c0,2.48,2.02,4.5,4.5,4.5'/>
    <path style='&st21;' d='M434.17,392.01c2.48,0,4.5-2.02,4.5-4.5'/>
    <path style='&st21;' d='M438.67,323.26c0-2.48-2.02-4.5-4.5-4.5'/>
    <path style='&st21;' d='M434.14,318.76c-2.48,0-4.5,2.02-4.5,4.5'/>
    <path style='&st21;' d='M429.64,323.26c0,2.48,2.02,4.5,4.5,4.5'/>
    <path style='&st21;' d='M434.17,327.76c2.48,0,4.5-2.02,4.5-4.5'/>
    <text ewd:textID='7' style='&st19; &st12;' transform='matrix(0 -1 1 0 427.7998 373.0513)'>Mirror Heater</text>
    <text style='&st19; &st12;' transform='matrix(1 0 0 1 424.0459 389.4839)'>8</text>
    <text style='&st19; &st12;' transform='matrix(1 0 0 1 432.1533 389.4839)'>A</text>
    <text style='&st19; &st12;' transform='matrix(1 0 0 1 438.4043 379.314)'>-</text>
    <text style='&st19; &st12;' transform='matrix(1 0 0 1 424.0459 325.2026)'>2</text>
    <text style='&st19; &st12;' transform='matrix(1 0 0 1 432.1533 325.2026)'>A</text>
    <text style='&st19; &st12;' transform='matrix(1 0 0 1 438.4043 335.4116)'>+</text>
    <g ewd:figtype='title'>
    <text style='&st19; &st12;' transform='matrix(0 -1 1 0 458.7549 385.5132)'>J2(A)</text>
    <text ewd:textID='9' style='&st19; &st12;' transform='matrix(0 -1 1 0 466.3545 385.5132)'>Outer Rear View Mirror Assembly RH</text>
    </g>
</g>
<g ewd:code='K1' ewd:figID='3' ewd:figtype='conn'>
    <path style='&st27;' d='M 370.42 , 383 L 370.42 , 363.87 L 367.59 , 362.45 L 373.25 , 359.62 L 367.59 , 356.79 L 373.25 , 353.96 L 367.59 , 351.12 L 373.25 , 348.29 L 370.42 , 346.87 L 370.42 , 327.75'/>
    <path style='&st18;' d='M 351.28 , 383.01 L 351.28 , 327.76 L 387.41 , 327.76 L 387.41 , 383.01 L 351.28 , 383.01 L 351.28 , 383.01'/>
    <path style='&st21;' d='M374.92,387.51c0-2.48-2.02-4.5-4.5-4.5'/>
    <path style='&st21;' d='M370.39,383.01c-2.48,0-4.5,2.02-4.5,4.5'/>
    <path style='&st21;' d='M365.89,387.51c0,2.48,2.02,4.5,4.5,4.5'/>
    <path style='&st21;' d='M370.42,392.01c2.48,0,4.5-2.02,4.5-4.5'/>
    <path style='&st21;' d='M374.92,323.26c0-2.48-2.02-4.5-4.5-4.5'/>
    <path style='&st21;' d='M370.39,318.76c-2.48,0-4.5,2.02-4.5,4.5'/>
    <path style='&st21;' d='M365.89,323.26c0,2.48,2.02,4.5,4.5,4.5'/>
    <path style='&st21;' d='M370.42,327.76c2.48,0,4.5-2.02,4.5-4.5'/>
    <text ewd:textID='7' style='&st19; &st12;' transform='matrix(0 -1 1 0 364.0493 373.0513)'>Mirror Heater</text>
    <text style='&st19; &st12;' transform='matrix(1 0 0 1 360.2959 389.4839)'>8</text>
    <text style='&st19; &st12;' transform='matrix(1 0 0 1 368.4033 389.4839)'>A</text>
    <text style='&st19; &st12;' transform='matrix(1 0 0 1 374.6543 379.314)'>-</text>
    <text style='&st19; &st12;' transform='matrix(1 0 0 1 360.2959 325.2026)'>2</text>
    <text style='&st19; &st12;' transform='matrix(1 0 0 1 368.4033 325.2026)'>A</text>
    <text style='&st19; &st12;' transform='matrix(1 0 0 1 374.6543 335.4116)'>+</text>
    <g ewd:figtype='title'>
    <text style='&st19; &st12;' transform='matrix(0 -1 1 0 395.0044 385.5132)'>K1(A)</text>
    <text ewd:textID='8' style='&st19; &st12;' transform='matrix(0 -1 1 0 402.6045 385.5132)'>Outer Rear View Mirror Assembly LH</text>
    </g>
</g>
<g ewd:code='G104' ewd:figID='2' ewd:figtype='conn'>
    <path style='&st27;' d='M 476.66 , 638.82 L 476.66 , 664.32'/>
    <path style='&st27;' d='M 476.66 , 638.82 L 476.66 , 655.82'/>
    <path style='&st21;' d='M 468.16 , 638.82 L 485.16 , 638.82 L 485.16 , 655.82 L 468.16 , 655.82 L 468.16 , 638.82'/>
    <text style='&st19; &st12;' transform='matrix(1 0 0 1 468.52 635.1343)'>6</text>
    <g ewd:figtype='title'>
    <text style='&st19; &st12;' transform='matrix(0 -1 1 0 492.7666 658.3452)'>G104</text>
    <text ewd:textID='5' style='&st19; &st12;' transform='matrix(0 -1 1 0 499.8076 658.3452)'>Junction Connector</text>
    </g>
</g>
<g ewd:code='G106' ewd:figID='1' ewd:figtype='conn'>
    <path style='&st27;' d='M 327.91 , 638.82 L 327.91 , 664.32'/>
    <path style='&st27;' d='M 327.91 , 638.82 L 327.91 , 655.82'/>
    <path style='&st21;' d='M 319.41 , 638.82 L 336.41 , 638.82 L 336.41 , 655.82 L 319.41 , 655.82 L 319.41 , 638.82'/>
    <text style='&st19; &st12;' transform='matrix(1 0 0 1 319.7695 635.1343)'>6</text>
    <g ewd:figtype='title'>
    <text style='&st19; &st12;' transform='matrix(0 -1 1 0 344.0166 658.3452)'>G106</text>
    <text ewd:textID='5' style='&st19; &st12;' transform='matrix(0 -1 1 0 351.0576 658.3452)'>Junction Connector</text>
    </g>
</g>
<g ewd:pinNo='3'  ewd:code='GA1' ewd:figID='6016' ewd:figtype='w2w'>
    <text style='&st19; &st12;' transform='matrix(1 0 0 1 138.4614 219.5347)'>3</text>
    <text style='&st19; &st12;' transform='matrix(1 0 0 1 164.2729 219.5347)'>(LHD)</text>
</g>
<g ewd:pinNo='10'  ewd:code='GA1' ewd:figID='6015' ewd:figtype='w2w'>
    <text style='&st19; &st12;' transform='matrix(1 0 0 1 252.0029 174.8535)'>10</text>
    <text style='&st19; &st12;' transform='matrix(1 0 0 1 281.1514 174.8535)'>(RHD)</text>
</g>
<g ewd:pinNo='9'  ewd:code='GA1' ewd:figID='6012' ewd:figtype='w2w'>
    <text style='&st19; &st12;' transform='matrix(1 0 0 1 312.7119 278.2285)'>9</text>
    <text style='&st19; &st12;' transform='matrix(1 0 0 1 338.5234 278.2285)'>(LHD)</text>
</g>
<g ewd:pinNo='53'  ewd:code='GA1' ewd:figID='6011' ewd:figtype='w2w'>
    <text style='&st19; &st12;' transform='matrix(1 0 0 1 67.1274 419.479)'>53</text>
    <text style='&st19; &st12;' transform='matrix(1 0 0 1 96.2759 419.479)'>(RHD)</text>
</g>
<g ewd:pinNo='12'  ewd:code='JG1' ewd:figID='6006' ewd:figtype='w2w'>
    <text style='&st19; &st12;' transform='matrix(1 0 0 1 415.6279 259.0396)'>12</text>
    <text style='&st19; &st12;' transform='matrix(1 0 0 1 444.7764 259.0396)'>(RHD)</text>
</g>
<g ewd:pinNo='9'  ewd:code='KG3' ewd:figID='6004' ewd:figtype='w2w'>
    <text style='&st19; &st12;' transform='matrix(1 0 0 1 355.2148 259.0396)'>9</text>
    <text style='&st19; &st12;' transform='matrix(1 0 0 1 381.0264 259.0396)'>(RHD)</text>
</g>
<g ewd:pinNo='52'  ewd:code='GA1' ewd:figID='6001' ewd:figtype='w2w'>
    <text style='&st19; &st12;' transform='matrix(1 0 0 1 152.1274 419.481)'>52</text>
    <text style='&st19; &st12;' transform='matrix(1 0 0 1 181.2759 419.481)'>(LHD)</text>
</g>
<g ewd:code='1' ewd:figID='9002' ewd:figtype='comment'>
    <text style='&st19; &st12;' transform='matrix(1 0 0 1 430.0356 17.6538)'>*1 :5L-E</text>
</g>
<g ewd:code='2' ewd:figID='9001' ewd:figtype='comment'>
    <text ewd:textID='1' style='&st19; &st12;' transform='matrix(1 0 0 1 430.0356 26.1538)'>*2 :Except 5L-E</text>
</g>
<g ewd:code='G25-B' ewd:figID='11' ewd:figtype='conn'>
    <g ewd:figtype='title'>
    <text style='&st19; &st12;' transform='matrix(0 -1 1 0 110.2539 527.5552)'>G25(B)</text>
    <text ewd:textID='2' style='&st19; &st12;' transform='matrix(0 -1 1 0 117.854 527.5552)'>A/C Amplifier Assembly</text>
    </g>
    <g ewd:lineID='33'>
   　　　　<text style='&st19; &st12;' transform='matrix(1 0 0 1 72.2085 528.6743)'>37</text>
   　　　　<text style='&st19; &st12;' transform='matrix(1 0 0 1 83.6528 528.6743)'>B</text>
   　　　　<text style='&st19; &st12;' transform='matrix(1 0 0 1 79.3169 518.5063)'>LIN1</text>
   　　　　<path style='&st21;' d='M90.17,526.7c0-2.48-2.02-4.5-4.5-4.5'/>
   　　　　<path style='&st21;' d='M85.64,522.2c-2.48,0-4.5,2.02-4.5,4.5'/>
   　　　　<path style='&st21;' d='M81.14,526.7c0,2.48,2.02,4.5,4.5,4.5'/>
   　　　　<path style='&st21;' d='M85.67,531.2c2.48,0,4.5-2.02,4.5-4.5'/>
    </g>
    <g ewd:lineID='34'>
   　　　　<text style='&st19; &st12;' transform='matrix(1 0 0 1 72.2085 485.6431)'>38</text>
   　　　　<text style='&st19; &st12;' transform='matrix(1 0 0 1 83.6528 485.6431)'>B</text>
   　　　　<text style='&st19; &st12;' transform='matrix(1 0 0 1 77.4873 495.854)'>RDEF</text>
   　　　　<path style='&st21;' d='M90.17,483.7c0-2.48-2.02-4.5-4.5-4.5'/>
   　　　　<path style='&st21;' d='M85.64,479.2c-2.48,0-4.5,2.02-4.5,4.5'/>
   　　　　<path style='&st21;' d='M81.14,483.7c0,2.48,2.02,4.5,4.5,4.5'/>
   　　　　<path style='&st21;' d='M85.67,488.2c2.48,0,4.5-2.02,4.5-4.5'/>
    </g>
</g>
<path style='&st18;' d='M 68.65 , 522.21 L 68.65 , 488.21 L 102.65 , 488.21 L 102.65 , 522.21 L 68.65 , 522.21 L 68.65 , 522.21'/>
    <text style='&st19; &st12;' transform='matrix(0 -1 1 0 22.4541 174.5972)'>L</text>
    <text style='&st19; &st12;' transform='matrix(0 -1 1 0 33.9541 177.77)'>(*2)</text>
    <text style='&st19; &st12;' transform='matrix(0 -1 1 0 81.9536 174.5972)'>L</text>
    <text style='&st19; &st12;' transform='matrix(0 -1 1 0 93.4536 177.7516)'>(*1)</text>
    <text style='&st19; &st12;' transform='matrix(0 -1 1 0 81.9541 107.5605)'>L</text>
    <text style='&st19; &st12;' transform='matrix(0 -1 1 0 93.4541 110.7149)'>(*1)</text>
    <text style='&st19; &st12;' transform='matrix(0 -1 1 0 22.4541 107.5605)'>L</text>
    <text style='&st19; &st12;' transform='matrix(0 -1 1 0 33.9541 110.7334)'>(*2)</text>
    <text style='&st19; &st12;' transform='matrix(0 -1 1 0 81.9541 362.8862)'>P</text>
    <text style='&st19; &st12;' transform='matrix(0 -1 1 0 81.9541 452.4546)'>P</text>
    <text style='&st19; &st12;' transform='matrix(0 -1 1 0 81.9536 561.9546)'>P</text>
    <text style='&st19; &st12;' transform='matrix(0 -1 1 0 324.207 593.4546)'>W-B</text>
    <text style='&st19; &st12;' transform='matrix(0 -1 1 0 335.707 596.1743)'>(RHD)</text>
    <text style='&st19; &st12;' transform='matrix(0 -1 1 0 324.2012 202.5781)'>B</text>
    <text style='&st19; &st12;' transform='matrix(0 -1 1 0 335.7012 205.4)'>(*1)</text>
    <text style='&st19; &st12;' transform='matrix(0 -1 1 0 239.2046 396.478)'>B</text>
    <text style='&st19; &st12;' transform='matrix(0 -1 1 0 250.7046 399.2999)'>(*1)</text>
    <text style='&st19; &st12;' transform='matrix(0 -1 1 0 324.2041 334.8447)'>B</text>
    <text style='&st19; &st12;' transform='matrix(0 -1 1 0 335.7041 337.6666)'>(*1)</text>
    <text style='&st19; &st12;' transform='matrix(0 -1 1 0 239.2046 139.644)'>LG</text>
    <text style='&st19; &st12;' transform='matrix(0 -1 1 0 250.7046 140.4649)'>(*1)</text>
    <text style='&st19; &st12;' transform='matrix(0 -1 1 0 149.9536 326.0879)'>B</text>
    <text style='&st19; &st12;' transform='matrix(0 -1 1 0 366.707 593.4546)'>W-B</text>
    <text style='&st19; &st12;' transform='matrix(0 -1 1 0 378.207 595.6763)'>(LHD)</text>
    <text style='&st19; &st12;' transform='matrix(0 -1 1 0 430.4541 211.8438)'>R</text>
    <text style='&st19; &st12;' transform='matrix(0 -1 1 0 472.9546 503.0825)'>W-B</text>
    <text style='&st19; &st12;' transform='matrix(0 -1 1 0 484.4541 505.8032)'>(RHD)</text>
    <text style='&st19; &st12;' transform='matrix(0 -1 1 0 366.7046 292.3452)'>B</text>
    <text style='&st19; &st12;' transform='matrix(0 -1 1 0 366.7046 211.6782)'>B</text>
    <text style='&st19; &st12;' transform='matrix(1 0 0 1 178.6851 264.8687)'>L</text>
    <text style='&st19; &st12;' transform='matrix(1 0 0 1 175.5307 276.3687)'>(*1)</text>
    <text style='&st19; &st12;' transform='matrix(0 -1 1 0 213.7041 517.8511)'>W-B</text>
    <text style='&st19; &st12;' transform='matrix(0 -1 1 0 213.7041 583.8511)'>W-B</text>
    <text style='&st19; &st12;' transform='matrix(0 -1 1 0 213.7041 641.7017)'>W-B</text>
    <text style='&st19; &st12;' transform='matrix(0 -1 1 0 107.4541 174.5972)'>L</text>
    <text style='&st19; &st12;' transform='matrix(0 -1 1 0 149.9541 106.9199)'>L</text>
    <text style='&st19; &st12;' transform='matrix(0 -1 1 0 366.5049 427.4546)'>W-B</text>
    <text style='&st19; &st12;' transform='matrix(0 -1 1 0 366.7051 503.0825)'>W-B</text>
    <text style='&st19; &st12;' transform='matrix(0 -1 1 0 430.4541 292.3452)'>B</text>
    <text style='&st19; &st12;' transform='matrix(0 -1 1 0 430.2549 427.4546)'>W-B</text>
    <text style='&st19; &st12;' transform='matrix(0 -1 1 0 430.4551 503.0825)'>W-B</text>
    <text style='&st19; &st12;' transform='matrix(0 -1 1 0 441.9551 505.3052)'>(LHD)</text>
    <text style='&st19; &st12;' transform='matrix(0 -1 1 0 430.458 593.4546)'>W-B</text>
    <text style='&st19; &st12;' transform='matrix(0 -1 1 0 441.958 595.6763)'>(LHD)</text>
    <text style='&st19; &st12;' transform='matrix(0 -1 1 0 472.9585 593.4546)'>W-B</text>
    <text style='&st19; &st12;' transform='matrix(0 -1 1 0 484.458 596.1743)'>(RHD)</text>
    <text style='&st19; &st12;' transform='matrix(0 -1 1 0 266.8296 199.2051)'>LG</text>
    <text style='&st19; &st12;' transform='matrix(0 -1 1 0 278.3296 200.0444)'>(*2)</text>
    <text style='&st19; &st12;' transform='matrix(0 -1 1 0 266.8296 139.644)'>LG</text>
    <text style='&st19; &st12;' transform='matrix(0 -1 1 0 278.3296 140.4834)'>(*2)</text>
    <text style='&st19; &st12;' transform='matrix(1 0 0 1 186.1265 368.9937)'>W-B</text>
    <text style='&st19; &st12;' transform='matrix(1 0 0 1 187.0625 380.4937)'>(*2)</text>
    <text style='&st19; &st12;' transform='matrix(0 -1 1 0 166.9536 401.2954)'>W-B</text>
    <text style='&st19; &st12;' transform='matrix(0 -1 1 0 178.4536 400.3599)'>(*2)</text>
    <text style='&st19; &st12;' transform='matrix(0 -1 1 0 166.9536 465.0454)'>W-B</text>
    <text style='&st19; &st12;' transform='matrix(0 -1 1 0 178.4536 464.1099)'>(*2)</text>
    <text style='&st19; &st12;' transform='matrix(0 -1 1 0 366.7046 147.9282)'>B</text>
    <text style='&st19; &st12;' transform='matrix(0 -1 1 0 378.2046 150.7686)'>(*2)</text>
    <text style='&st19; &st12;' transform='matrix(0 -1 1 0 256.2041 414.0796)'>B</text>
    <text style='&st19; &st12;' transform='matrix(0 -1 1 0 267.7041 416.9204)'>(*2)</text>
    <text style='&st19; &st12;' transform='matrix(0 -1 1 0 149.9512 197.1343)'>B</text>
    <text style='&st19; &st12;' transform='matrix(0 -1 1 0 161.4512 199.9746)'>(*2)</text>
    <text style='&st19; &st12;' transform='matrix(0 -1 1 0 149.9541 260.9448)'>B</text>
    <text style='&st19; &st12;' transform='matrix(0 -1 1 0 161.4541 263.7852)'>(*2)</text>
    <text style='&st19; &st12;' transform='matrix(0 -1 1 0 213.7041 401.2954)'>W-B</text>
    <text style='&st19; &st12;' transform='matrix(0 -1 1 0 225.2041 400.3409)'>(*1)</text>
</g>
</svg>
